[
    {
        "annotations": [
            {
                "class": "Window",
                "xn": "1902;1930;1930;1902",
                "yn": "1262;1262;1434;1434"
            },
            {
                "class": "Window",
                "xn": "1057;1170;1170;1057",
                "yn": "2082;2082;2102;2102"
            },
            {
                "class": "Window",
                "xn": "1902;1930;1930;1902",
                "yn": "879;879;1051;1051"
            },
            {
                "class": "Wall",
                "xn": "1291;1931;1931;1291",
                "yn": "2188;2188;2216;2216"
            },
            {
                "class": "Wall",
                "xn": "182;214;214;182",
                "yn": "2243;2243;2271;2271"
            },
            {
                "class": "Wall",
                "xn": "917;949;949;917",
                "yn": "2245;2245;2273;2273"
            },
            {
                "class": "Wall",
                "xn": "1902;1930;1930;1902",
                "yn": "209;209;284;284"
            },
            {
                "class": "Wall",
                "xn": "1903;1930;1930;1903",
                "yn": "1434;1434;2216;2216"
            },
            {
                "class": "Wall",
                "xn": "1903;1930;1930;1903",
                "yn": "455;455;880;880"
            },
            {
                "class": "Wall",
                "xn": "762;791;791;762",
                "yn": "369;369;530;530"
            },
            {
                "class": "Wall",
                "xn": "1145;1170;1170;1145",
                "yn": "232;232;530;530"
            },
            {
                "class": "Wall",
                "xn": "762;985;985;762",
                "yn": "504;504;530;530"
            },
            {
                "class": "Wall",
                "xn": "648;1010;1010;648",
                "yn": "206;206;227;227"
            },
            {
                "class": "Wall",
                "xn": "1902;1931;1931;1902",
                "yn": "1051;1051;1072;1072"
            },
            {
                "class": "Wall",
                "xn": "1902;1931;1931;1902",
                "yn": "1242;1242;1263;1263"
            },
            {
                "class": "Wall",
                "xn": "1170;1311;1311;1170",
                "yn": "2083;2083;2102;2102"
            },
            {
                "class": "Wall",
                "xn": "182;791;791;182",
                "yn": "369;369;387;387"
            },
            {
                "class": "Wall",
                "xn": "1507;1525;1525;1507",
                "yn": "1978;1978;2216;2216"
            },
            {
                "class": "Wall",
                "xn": "1507;1525;1525;1507",
                "yn": "1721;1721;1808;1808"
            },
            {
                "class": "Wall",
                "xn": "918;936;936;918",
                "yn": "1456;1456;1808;1808"
            },
            {
                "class": "Wall",
                "xn": "182;388;388;182",
                "yn": "1725;1725;1744;1744"
            },
            {
                "class": "Wall",
                "xn": "917;1058;1058;917",
                "yn": "2083;2083;2102;2102"
            },
            {
                "class": "Wall",
                "xn": "1782;1931;1931;1782",
                "yn": "209;209;228;228"
            },
            {
                "class": "Wall",
                "xn": "918;936;936;918",
                "yn": "2036;2036;2102;2102"
            },
            {
                "class": "Wall",
                "xn": "1292;1310;1310;1292",
                "yn": "2083;2083;2216;2216"
            },
            {
                "class": "Wall",
                "xn": "843;937;937;843",
                "yn": "1726;1726;1744;1744"
            },
            {
                "class": "Wall",
                "xn": "1242;1299;1299;1242",
                "yn": "209;209;227;227"
            },
            {
                "class": "Wall",
                "xn": "1525;1557;1557;1525",
                "yn": "209;209;227;227"
            },
            {
                "class": "Wall",
                "xn": "1507;1526;1526;1507",
                "yn": "1427;1427;1550;1550"
            },
            {
                "class": "Wall",
                "xn": "959;976;976;959",
                "yn": "376;376;530;530"
            },
            {
                "class": "Wall",
                "xn": "649;666;666;649",
                "yn": "206;206;387;387"
            },
            {
                "class": "Wall",
                "xn": "944;1106;1106;944",
                "yn": "1430;1430;1444;1444"
            },
            {
                "class": "Wall",
                "xn": "959;974;974;959",
                "yn": "206;206;243;243"
            },
            {
                "class": "Wall",
                "xn": "1395;1526;1526;1395",
                "yn": "1427;1427;1446;1446"
            },
            {
                "class": "Wall",
                "xn": "978;984;984;978",
                "yn": "495;495;530;530"
            },
            {
                "class": "Text",
                "height": 42,
                "text": "pdr",
                "width": 152,
                "x": 943,
                "y": 291
            },
            {
                "class": "Text",
                "height": 55,
                "text": "greatroom",
                "width": 574,
                "x": 1139,
                "y": 799
            },
            {
                "class": "Text",
                "height": 32,
                "text": "pan",
                "width": 110,
                "x": 209,
                "y": 1172
            },
            {
                "class": "Text",
                "height": 53,
                "text": "dining",
                "width": 319,
                "x": 427,
                "y": 1368
            },
            {
                "class": "Text",
                "height": 32,
                "text": "dn",
                "width": 74,
                "x": 1580,
                "y": 1493
            },
            {
                "class": "Text",
                "height": 32,
                "text": "up",
                "width": 63,
                "x": 1783,
                "y": 1541
            },
            {
                "class": "Text",
                "height": 54,
                "text": "office",
                "width": 306,
                "x": 1068,
                "y": 1758
            },
            {
                "class": "Text",
                "height": 79,
                "text": "optcabinet",
                "width": 167,
                "x": 1337,
                "y": 1988
            },
            {
                "class": "Text",
                "height": 44.743843550319866,
                "text": "micro",
                "width": 181.10603341796116,
                "x": 213.06592166818962,
                "y": 826.6957760725757
            },
            {
                "class": "Text",
                "height": 51.1358212003654,
                "text": "ref.",
                "width": 108.6636200507767,
                "x": 219.4578993182353,
                "y": 982.2338988903541
            },
            {
                "class": "Text",
                "height": 42.61318433363783,
                "text": "rec.",
                "width": 104.40230161741295,
                "x": 522.0115080870645,
                "y": 903.399507873124
            },
            {
                "class": "Text",
                "height": 51.13582120036551,
                "text": "dw",
                "width": 87.35702788395781,
                "x": 743.6000666219817,
                "y": 781.9519325222559
            },
            {
                "class": "Text",
                "height": 90.12688486564434,
                "text": "opt.french doors",
                "width": 366.5159984536199,
                "x": 1081.5226183877307,
                "y": 1336.8821255070561
            },
            {
                "class": "Text",
                "height": 81.11419637907989,
                "text": "opt. cabinets",
                "width": 231.32567115515357,
                "x": 219.30875317306763,
                "y": 1454.0470758323936
            },
            {
                "class": "Text",
                "height": 147.20724528055212,
                "text": "california terrace",
                "width": 516.7274732296936,
                "x": 300.42294955214743,
                "y": 1907.6857296561363
            },
            {
                "class": "window",
                "height": 228.17697994252967,
                "width": 33.24432820354741,
                "x": 906.6634964603827,
                "y": 1807.2825696110297
            },
            {
                "class": "window",
                "height": 168.32207811787043,
                "width": 34.09054746691049,
                "x": 1900.5480212802572,
                "y": 1071.721585990997
            },
            {
                "class": "window",
                "height": 17.045273733455133,
                "width": 462.3530500199732,
                "x": 385.64931821942463,
                "y": 1725.8339655123423
            },
            {
                "class": "window",
                "height": 35.632258914233375,
                "width": 114.53226079575006,
                "x": 1007.8838950026006,
                "y": 194.70484335277513
            },
            {
                "class": "window",
                "height": 39.45000094075837,
                "width": 110.71451876922492,
                "x": 1132.5968012024175,
                "y": 194.70484335277513
            },
            {
                "class": "window",
                "height": 31.81451688770835,
                "width": 229.06452159150012,
                "x": 1296.7597083429926,
                "y": 197.2500047037918
            },
            {
                "class": "window",
                "height": 34.359678238725024,
                "width": 220.1564568629417,
                "x": 1560.1839081732178,
                "y": 194.70484335277513
            },
            {
                "class": "window",
                "height": 173.07097186913347,
                "width": 33.0870975632165,
                "x": 1899.962948533943,
                "y": 282.5129099628502
            },
            {
                "class": "Wall",
                "xn": "182.16127015;182.16127015;199.871393637;197.341375996;184.691287791",
                "yn": "366.852557942;1773.54236633;1760.89227812;364.322540301;366.852557942"
            },
            {
                "class": "Wall",
                "xn": "187.498011068;206.673944018;206.673944018;183.236692635;183.236692635;183.236692635",
                "yn": "1747.14055768;1745.00989846;1776.96978671;1770.57780906;1770.57780906;1747.14055768"
            },
            {
                "class": "Wall",
                "xn": "1511.10582743;1511.10582743;1524.70577988;1523.19467405",
                "yn": "1550.39457895;1719.63843162;1716.61621997;1548.88347312"
            },
            {
                "class": "Wall",
                "xn": "1508.08361578;1524.70577988;1523.19467405;1511.10582743",
                "yn": "1807.28256961;1805.77146378;1981.05973977;1984.08195142"
            },
            {
                "class": "door",
                "height": 133.41340854628274,
                "width": 153.6275613563256,
                "x": 822.7160193687436,
                "y": 240.5484184395098
            },
            {
                "class": "Stairs",
                "xn": "1525.82422993;1702.71294383;1706.53068586;1724.34681531;1721.80165396;1898.69036786;1903.78069056;1527.09681061",
                "yn": "1473.64842224;1476.19358359;1927.9597234;1926.68714272;1524.55164926;1524.55164926;2186.29360052;2187.5661812"
            }
        ],
        "class": "image",
        "filename": "1.png"
    }
]
