[
    {
        "annotations": [
            {
                "class": "Window",
                "xn": "231;267;267;231",
                "yn": "365;365;565;565"
            },
            {
                "class": "Window",
                "xn": "230;269;269;230",
                "yn": "742;742;1249;1249"
            },
            {
                "class": "Window",
                "xn": "1037;1272;1272;1037",
                "yn": "102;102;140;140"
            },
            {
                "class": "Window",
                "xn": "230;268;268;230",
                "yn": "899;899;1249;1249"
            },
            {
                "class": "Window",
                "xn": "949;1242;1242;949",
                "yn": "102;102;140;140"
            },
            {
                "class": "Window",
                "xn": "1037;1242;1242;1037",
                "yn": "102;102;140;140"
            },
            {
                "class": "Wall",
                "xn": "232;1038;1038;232",
                "yn": "103;103;140;140"
            },
            {
                "class": "Wall",
                "xn": "231;269;269;231",
                "yn": "1249;1249;1442;1442"
            },
            {
                "class": "Wall",
                "xn": "1242;1887;1887;1242",
                "yn": "103;103;140;140"
            },
            {
                "class": "Wall",
                "xn": "230;268;268;230",
                "yn": "565;565;900;900"
            },
            {
                "class": "Wall",
                "xn": "1205;1243;1243;1205",
                "yn": "1217;1217;1442;1442"
            },
            {
                "class": "Wall",
                "xn": "1421;1887;1887;1421",
                "yn": "1274;1274;1308;1308"
            },
            {
                "class": "Wall",
                "xn": "232;267;267;232",
                "yn": "103;103;366;366"
            },
            {
                "class": "Wall",
                "xn": "229;777;777;229",
                "yn": "722;722;743;743"
            },
            {
                "class": "Wall",
                "xn": "1303;1887;1887;1303",
                "yn": "698;698;718;718"
            },
            {
                "class": "Wall",
                "xn": "1143;1544;1544;1143",
                "yn": "947;947;965;965"
            },
            {
                "class": "Wall",
                "xn": "1524;1543;1543;1524",
                "yn": "543;543;965;965"
            },
            {
                "class": "Wall",
                "xn": "1272;1290;1290;1272",
                "yn": "103;103;559;559"
            },
            {
                "class": "Wall",
                "xn": "1144;1162;1162;1144",
                "yn": "698;698;965;965"
            },
            {
                "class": "Wall",
                "xn": "932;1323;1323;932",
                "yn": "542;542;560;560"
            },
            {
                "class": "Wall",
                "xn": "932;952;952;932",
                "yn": "529;529;741;741"
            },
            {
                "class": "Wall",
                "xn": "933;950;950;933",
                "yn": "103;103;390;390"
            },
            {
                "class": "Wall",
                "xn": "913;1006;1006;913",
                "yn": "723;723;741;741"
            },
            {
                "class": "Wall",
                "xn": "1430;1447;1447;1430",
                "yn": "947;947;1308;1308"
            },
            {
                "class": "Wall",
                "xn": "1460;1543;1543;1460",
                "yn": "543;543;560;560"
            },
            {
                "class": "Wall",
                "xn": "1205;1251;1251;1205",
                "yn": "1275;1275;1308;1308"
            },
            {
                "class": "Wall",
                "xn": "989;1005;1005;989",
                "yn": "712;712;741;741"
            },
            {
                "class": "Wall",
                "xn": "231;1241;1241;231",
                "yn": "1399;1399;1442;1442"
            },
            {
                "class": "Stair",
                "xn": "1301;1302;1522;1523;1522;1518;1517;1508;1507;1498;1497;1488;1487;1478;1477;1468;1467;1458;1457;1448;1447;1438;1437;1433;1433;1432;1432;1430;1430;1429;1429;1427;1427;1426;1426;1424;1424;1423;1423;1422;1422;1420;1420;1419;1419;1417;1417;1416;1416;1414;1414;1413;1413;1414;1417;1418;1422;1423;1426;1427;1431;1432;1435;1436;1440;1441;1444;1445;1449;1450;1453;1454;1458;1459;1462;1463;1467;1468;1471;1472;1475;1476;1480;1481;1484;1485;1489;1490;1493;1494;1498;1499;1502;1503;1507;1508;1511;1512;1516;1517;1520;1521;1523;1524;1524;1523;1500;1499;1476;1475;1475;1476;1476;1477;1477;1478;1478;1479;1479;1480;1480;1481;1481;1482;1482;1483;1483;1484;1484;1485;1485;1486;1486;1487;1473;1472;1458;1459;1459;1460;1460;1461;1461;1462;1462;1463;1463;1464;1464;1465;1465;1466;1466;1467;1467;1468;1468;1469;1469;1468;1318;1317;1166;1165;1165;1164;1164;1163;1163;1162;1162;1161;1161;1160;1160;1159;1159;1160;1161;1161;1162;1162;1163;1163;1164;1164;1165;1165;1166;1166;1167;1167;1168;1168;1169;1170;1171;1173;1174;1175;1176;1178;1179;1180;1181;1183;1184;1185;1186;1188;1189;1190;1191;1193;1194;1195;1196;1198;1199;1200;1201;1203;1204;1205;1206;1208;1209;1210;1211;1213;1214;1216;1217;1218;1219;1221;1222;1223;1224;1226;1227;1228;1229;1231;1232;1233;1234;1236;1237;1238;1239;1241;1242;1243;1244;1246;1247;1248;1249;1251;1252;1253;1254;1256;1257;1258;1259;1261;1262;1263;1265;1265;1266;1266;1267;1267;1268;1268;1269;1269;1270;1270;1271;1271;1272;1272;1273;1273;1274;1274;1275;1275;1276;1276;1277;1277;1278;1278;1279;1279;1280;1280;1281;1281;1282;1282;1283;1283;1284;1284;1285;1285;1286;1286;1287;1287;1288;1288;1289;1289;1290;1290;1291;1291;1292;1292;1293;1293;1294;1294;1295;1295;1296;1296;1297;1297;1298;1298;1299;1299;1300;1300;1301",
                "yn": "714;713;713;714;715;715;716;716;717;717;718;718;719;719;720;720;721;721;722;722;723;723;724;724;725;726;727;729;730;731;732;734;735;736;737;739;740;741;742;743;744;746;747;748;749;751;752;753;754;756;757;758;759;760;760;761;761;762;762;763;763;764;764;765;765;766;766;767;767;768;768;769;769;770;770;771;771;772;772;773;773;774;774;775;775;776;776;777;777;778;778;779;779;780;780;781;781;782;782;783;783;784;784;785;944;945;945;946;946;945;944;943;942;941;939;938;937;936;934;933;932;931;929;928;927;926;924;923;922;921;919;918;917;916;916;915;915;916;918;919;921;922;924;925;927;928;930;931;932;933;935;936;938;939;941;942;944;945;946;947;947;946;946;945;926;925;888;887;850;849;812;811;774;773;736;735;716;715;716;724;725;742;743;760;761;778;779;796;797;814;815;832;833;840;839;839;838;838;837;837;836;836;835;835;834;834;833;833;832;832;831;831;830;830;829;829;828;828;827;827;826;826;825;825;824;824;823;823;822;822;821;821;820;820;819;819;818;818;817;817;816;816;815;815;814;814;813;813;812;812;811;811;810;810;809;809;808;808;807;807;806;806;805;805;804;804;803;803;802;802;800;799;798;797;796;794;793;792;791;789;788;787;786;785;784;782;781;780;779;778;777;775;774;773;772;770;769;768;767;766;765;763;762;761;760;758;757;756;755;754;753;751;750;749;748;747;746;744;743;742;741;739;738;737;736;735;734;732;731;730;729;728;727;725;724;723;722;720;719;718;717;716;715"
            },
            {
                "class": "Text",
                "height": 33,
                "text": "bedroom",
                "width": 166,
                "x": 1564,
                "y": 418
            },
            {
                "class": "Text",
                "height": 33,
                "text": "masterbedroom",
                "width": 306,
                "x": 461,
                "y": 528
            },
            {
                "class": "Text",
                "height": 40,
                "text": "balcony",
                "width": 146,
                "x": 59,
                "y": 1034
            },
            {
                "class": "Unknown",
                "xn": "1616;1715;1715;1616",
                "yn": "988;988;1037;1037"
            },
            {
                "class": "Unknown",
                "xn": "1427;1526;1526;1427",
                "yn": "722;722;771;771"
            },
            {
                "class": "Unknown",
                "xn": "1169;1268;1268;1169",
                "yn": "741;741;790;790"
            },
            {
                "class": "Unknown",
                "xn": "920;1019;1019;920",
                "yn": "616;616;665;665"
            },
            {
                "class": "Unknown",
                "xn": "1060;1159;1159;1060",
                "yn": "315;315;364;364"
            },
            {
                "class": "wall",
                "height": 156.10747146460855,
                "width": 34.09243629686853,
                "x": 1849.9632537932346,
                "y": 105.86598639553912
            },
            {
                "class": "wall",
                "height": 434.22997809695704,
                "width": 37.681113801801985,
                "x": 1849.9632537932346,
                "y": 470.1167531462924
            },
            {
                "class": "wall",
                "height": 191.99424651394384,
                "width": 35.88677504933548,
                "x": 1853.551931298168,
                "y": 1112.4900265293943
            },
            {
                "class": "window",
                "height": 206.34895653367795,
                "width": 39.47545255426871,
                "x": 1848.1689150407678,
                "y": 263.76779661261446
            },
            {
                "class": "window",
                "height": 208.14329528614485,
                "width": 37.68111380180221,
                "x": 1853.551931298168,
                "y": 902.5523924907827
            },
            {
                "class": "door",
                "height": 141.4652263980754,
                "width": 141.4652263980754,
                "x": 933.4561529751795,
                "y": 386.8859600735244
            },
            {
                "class": "door",
                "height": 138.25010761630097,
                "width": 145.7520514404414,
                "x": 989.1848785259365,
                "y": 574.4345556770335
            },
            {
                "class": "door",
                "height": 147.89546396162433,
                "width": 135.03498883452653,
                "x": 1323.5572318304783,
                "y": 409.3917915459455
            },
            {
                "class": "door",
                "height": 145.75205144044128,
                "width": 136.10669509511808,
                "x": 1163.8729990023478,
                "y": 697.6807756450538
            },
            {
                "class": "wall",
                "height": 28.031148106612818,
                "width": 16.171816215353488,
                "x": 988.0979707581025,
                "y": 543.9120853763914
            },
            {
                "class": "door",
                "height": 144.68034517984984,
                "width": 135.03498883452653,
                "x": 778.0587451894148,
                "y": 593.7252683676802
            },
            {
                "class": "door",
                "height": 200.97707504872028,
                "width": 169.2438526726064,
                "x": 1252.7067309427757,
                "y": 1109.1516773365468
            },
            {
                "class": "Text",
                "height": 35.886775049335256,
                "text": "reception room",
                "width": 306.8319266718171,
                "x": 642.3732733831024,
                "y": 1056.8655252029255
            },
            {
                "class": "Text",
                "height": 62.80185633633664,
                "text": "kitchen",
                "width": 152.51879395967535,
                "x": 1539.5426496164855,
                "y": 1033.5391214208576
            }
        ],
        "class": "image",
        "filename": "108.png"
    }
]
