[
    {
        "annotations": [
            {
                "class": "Text",
                "height": 22,
                "text": "clo",
                "width": 50,
                "x": 1509,
                "y": 485
            },
            {
                "class": "Text",
                "height": 30,
                "text": "deck",
                "width": 78,
                "x": 341,
                "y": 791
            },
            {
                "class": "Text",
                "height": 25,
                "text": "bathroom",
                "width": 122,
                "x": 2533,
                "y": 1021
            },
            {
                "class": "Text",
                "height": 25,
                "text": "up",
                "width": 35,
                "x": 3083,
                "y": 1349
            },
            {
                "class": "wall",
                "height": 1592.7055421155544,
                "width": 15.111058274341122,
                "x": 13.599952446907011,
                "y": 34.75543403098458
            },
            {
                "class": "wall",
                "height": 24.17769323894572,
                "width": 661.8643524161412,
                "x": 16.622164101775233,
                "y": 1601.772177080159
            },
            {
                "class": "wall",
                "height": 15.111058274341126,
                "width": 657.3310349338387,
                "x": 19.64437575664346,
                "y": 30.222116548682244
            },
            {
                "class": "wall",
                "height": 134.57540643501852,
                "width": 35.88677504933821,
                "x": 680.0543871849603,
                "y": 26.915081287003705
            },
            {
                "class": "wall",
                "height": 35.88677504933827,
                "width": 2043.7518390598148,
                "x": 687.2317421948279,
                "y": 25.12074253453679
            },
            {
                "class": "wall",
                "height": 125.60371267268397,
                "width": 44.85846881167299,
                "x": 2687.9194511954365,
                "y": 25.12074253453679
            },
            {
                "class": "wall",
                "height": 830.778842392181,
                "width": 21.532065029603018,
                "x": 2009.6594027629433,
                "y": 21.532065029602965
            },
            {
                "class": "wall",
                "height": 19.737726277136062,
                "width": 213.52631154356277,
                "x": 1824.8425112588511,
                "y": 789.509051085442
            },
            {
                "class": "wall",
                "height": 17.943387524669106,
                "width": 12.560371267268465,
                "x": 1819.4594950014505,
                "y": 789.509051085442
            },
            {
                "class": "wall",
                "height": 900.7580537383908,
                "width": 32.2980975444043,
                "x": 2695.0968062053043,
                "y": 488.0601406710005
            },
            {
                "class": "wall",
                "height": 35.88677504933821,
                "width": 288.8885391471731,
                "x": 2696.8911449577713,
                "y": 1135.8164303115564
            },
            {
                "class": "wall",
                "height": 40.72483790247975,
                "width": 63.230669374902845,
                "x": 3164.748587526906,
                "y": 1131.7218111846978
            },
            {
                "class": "wall",
                "height": 83.5930883261426,
                "width": 39.65313164188774,
                "x": 3189.397831520512,
                "y": 1131.7218111846978
            },
            {
                "class": "wall",
                "height": 80.37796954436772,
                "width": 33.22289407833887,
                "x": 3192.6129503022867,
                "y": 1550.7589590760017
            },
            {
                "class": "wall",
                "height": 39.65313164188797,
                "width": 2547.445781426162,
                "x": 680.5334754756468,
                "y": 1593.6272094996646
            },
            {
                "class": "wall",
                "height": 136.10669509512945,
                "width": 39.65313164188808,
                "x": 679.4617692150554,
                "y": 1493.9585272646484
            },
            {
                "class": "wall",
                "height": 240.075503322871,
                "width": 43.32189533645794,
                "x": 677.8071541183311,
                "y": 706.6884176759697
            },
            {
                "class": "wall",
                "height": 37.00411893322439,
                "width": 954.8867763744265,
                "x": 682.3198515492122,
                "y": 771.6712606806567
            },
            {
                "class": "wall",
                "height": 359.0215972981763,
                "width": 71.80431945963528,
                "x": 1504.6755898705653,
                "y": 811.2816392678191
            },
            {
                "class": "wall",
                "height": 177.947501529777,
                "width": 21.763363496447596,
                "x": 771.3192062711554,
                "y": 629.2172446178803
            },
            {
                "class": "wall",
                "height": 23.683660275545776,
                "width": 28.80445168647475,
                "x": 773.8796019766198,
                "y": 626.656848912416
            },
            {
                "class": "wall",
                "height": 21.763363496447596,
                "width": 25.60395705464407,
                "x": 1003.6751165420512,
                "y": 629.8573435442464
            },
            {
                "class": "wall",
                "height": 181.14799616160747,
                "width": 19.202967790983166,
                "x": 1011.9964025848105,
                "y": 627.296947838782
            },
            {
                "class": "window",
                "height": 542.2833678593358,
                "width": 33.222894078338754,
                "x": 680.5334754756487,
                "y": 163.97105787051063
            },
            {
                "class": "window",
                "height": 541.2116615987443,
                "width": 35.36630659952186,
                "x": 681.6051817362403,
                "y": 950.6034531447251
            },
            {
                "class": "window",
                "height": 332.22894078338766,
                "width": 43.93995668425487,
                "x": 2686.7675953030734,
                "y": 154.3257015251865
            },
            {
                "class": "window",
                "height": 329.42107038063796,
                "width": 36.26653985841904,
                "x": 3194.477719195727,
                "y": 1219.4624027393338
            },
            {
                "class": "door",
                "height": 188.8882284292647,
                "width": 170.75495850005564,
                "x": 2985.9451150098184,
                "y": 1139.3737938853255
            },
            {
                "class": "door",
                "height": 178.31048763722606,
                "width": 170.75495850005518,
                "x": 2519.013414332677,
                "y": 831.1082050887655
            },
            {
                "class": "wall",
                "height": 160.65202853936523,
                "width": 21.6609476682288,
                "x": 2231.9801493137657,
                "y": 690.4427069248001
            },
            {
                "class": "wall",
                "height": 21.660947668229028,
                "width": 312.2786622169683,
                "x": 2205.8065042146554,
                "y": 833.0439457406411
            },
            {
                "class": "wall",
                "height": 22.563487154405266,
                "width": 27.978724071462693,
                "x": 2234.687767772294,
                "y": 687.7350884662715
            },
            {
                "class": "wall",
                "height": 23.46602664058139,
                "width": 27.97872407146224,
                "x": 2465.7378762334038,
                "y": 688.6376279524477
            },
            {
                "class": "wall",
                "height": 162.4571075117177,
                "width": 22.56348715440481,
                "x": 2471.153113150461,
                "y": 691.3452464109763
            },
            {
                "class": "wall",
                "height": 550.5490865674876,
                "width": 41.51681636410558,
                "x": 2345.700124571968,
                "y": 837.5566431715222
            },
            {
                "class": "wall",
                "height": 20.75840818205279,
                "width": 504.51957277250085,
                "x": 2226.564912396708,
                "y": 1370.0549400154857
            },
            {
                "class": "door",
                "height": 112.81743577202622,
                "width": 197.65614747258996,
                "x": 2264.4715708161098,
                "y": 597.4811398486506
            },
            {
                "class": "door",
                "height": 135.03498883453835,
                "width": 57.872138071944846,
                "x": 2173.420296479712,
                "y": 859.5084209944423
            },
            {
                "class": "door",
                "height": 171.47300169465188,
                "width": 169.32958917346878,
                "x": 2035.1701888633988,
                "y": 682.6768879968325
            },
            {
                "class": "door",
                "height": 178.1612945711836,
                "width": 109.44193809372723,
                "x": 2013.2226286543762,
                "y": 1401.1113237348093
            },
            {
                "class": "wall",
                "height": 20.5220347772854,
                "width": 164.93635358040547,
                "x": 1871.3055415435852,
                "y": 1370.4158779053957
            },
            {
                "class": "wall",
                "height": 31.163089846989124,
                "width": 22.802260863650645,
                "x": 2012.6795588982184,
                "y": 1369.655802543274
            },
            {
                "class": "wall",
                "height": 262.2259999319808,
                "width": 25.082486950015664,
                "x": 1866.745089370855,
                "y": 1368.8957271811523
            },
            {
                "class": "wall",
                "height": 211.24839213440373,
                "width": 25.451613510168954,
                "x": 1808.3371398975162,
                "y": 386.8645253545707
            },
            {
                "class": "wall",
                "height": 19.08871013262683,
                "width": 17.81612945711845,
                "x": 1821.0629466526007,
                "y": 598.1129174889744
            },
            {
                "class": "wall",
                "height": 21.43412521183143,
                "width": 549.7853116834781,
                "x": 1484.313170919331,
                "y": 577.6496744588588
            },
            {
                "class": "wall",
                "height": 201.4807769912161,
                "width": 18.219006430056652,
                "x": 1485.3848771799228,
                "y": 392.2444913765164
            },
            {
                "class": "door",
                "height": 169.32958917346878,
                "width": 171.47300169465188,
                "x": 1668.646647741082,
                "y": 617.3028061007471
            },
            {
                "class": "door",
                "height": 91.64029188701159,
                "width": 16.71087675586682,
                "x": 1868.3838334140125,
                "y": 647.950769695223
            },
            {
                "class": "door",
                "height": 64.60640578034321,
                "width": 116.29153040461756,
                "x": 1893.3477270451158,
                "y": 325.3122549880809
            },
            {
                "class": "door",
                "height": 173.61641421583514,
                "width": 175.75982673701833,
                "x": 1480.0263458769648,
                "y": 219.69978342127283
            },
            {
                "class": "wall",
                "height": 192.90712690648348,
                "width": 21.434125211831542,
                "x": 1483.2414646587395,
                "y": 24.64924399360622
            },
            {
                "class": "wall",
                "height": 24.64924399360622,
                "width": 547.6418991622947,
                "x": 1484.313170919331,
                "y": 61.087256853719765
            },
            {
                "class": "wall",
                "height": 155.39740778577834,
                "width": 21.434125211831542,
                "x": 1810.11187413917,
                "y": 64.30237563549449
            },
            {
                "class": "door",
                "height": 167.18617665228567,
                "width": 174.68812047642655,
                "x": 1462.8790457074997,
                "y": 599.0837996706903
            },
            {
                "class": "door",
                "height": 113.60086362270692,
                "width": 196.12224568825832,
                "x": 803.7796954436816,
                "y": 534.7814240351962
            },
            {
                "class": "Text",
                "height": 32.151187817747314,
                "text": "master bedroom",
                "width": 218.6280771606814,
                "x": 1088.8535607610409,
                "y": 516.5624176051394
            },
            {
                "class": "Text",
                "height": 32.151187817747314,
                "text": "f/p",
                "width": 49.29848798721264,
                "x": 1020.2643600831802,
                "y": 1491.8151147434737
            },
            {
                "class": "Text",
                "height": 34.29460033893048,
                "text": "ensuite",
                "width": 91.09503215028417,
                "x": 1699.72612929824,
                "y": 270.0699776690772
            },
            {
                "class": "Text",
                "height": 30.00777529656409,
                "text": "w/d",
                "width": 60.01555059312841,
                "x": 1903.35031881064,
                "y": 684.8203005180175
            },
            {
                "class": "Text",
                "height": 36.43801286011353,
                "text": "great room",
                "width": 160.75593908873657,
                "x": 1567.9062592454766,
                "y": 1252.824618631553
            },
            {
                "class": "Text",
                "height": 34.755434030984816,
                "text": "dw",
                "width": 51.37759813276034,
                "x": 2237.9477304299367,
                "y": 1116.7072064738172
            },
            {
                "class": "Text",
                "height": 52.888703960194334,
                "text": "f",
                "width": 54.39980978762833,
                "x": 2272.7031644609215,
                "y": 906.663496460474
            },
            {
                "class": "Text",
                "height": 28.711010721248385,
                "text": "s",
                "width": 12.08884661947286,
                "x": 2275.72537611579,
                "y": 1266.3066833897954
            },
            {
                "class": "Text",
                "height": 30.686342529991236,
                "text": "bedroom 2",
                "width": 141.69869932966503,
                "x": 2301.475689749341,
                "y": 492.78655945221186
            },
            {
                "class": "Text",
                "height": 34.35967823872829,
                "text": "cl",
                "width": 30.541936212203154,
                "x": 1917.779077991248,
                "y": 1550.0032627693033
            },
            {
                "class": "Stairs",
                "xn": "2346.74735001;3180.87776675;3182.38887258;2343.72513835",
                "yn": "1403.81731369;1402.30620786;1586.66111881;1580.6166955"
            }
        ],
        "class": "image",
        "filename": "111.png"
    }
]
