[
    {
        "annotations": [
            {
                "class": "Door",
                "xn": "1464;1582;1582;1464",
                "yn": "2464;2464;2471;2471"
            },
            {
                "class": "wall",
                "height": 1117.3755950138088,
                "width": 13.994106681290475,
                "x": 152.85870374948058,
                "y": 186.2292658356348
            },
            {
                "class": "wall",
                "height": 13.501824349723393,
                "width": 22.50304058287236,
                "x": 155.59245203014606,
                "y": 623.6556961538912
            },
            {
                "class": "wall",
                "height": 15.430656399683926,
                "width": 247.53344641159597,
                "x": 152.37773194687858,
                "y": 715.5966905353412
            },
            {
                "class": "wall",
                "height": 16.0736004163374,
                "width": 25.07481664948631,
                "x": 374.83636170898825,
                "y": 622.3698081205843
            },
            {
                "class": "wall",
                "height": 133.7323554639272,
                "width": 13.501824349723393,
                "x": 385.12346597544416,
                "y": 623.0127521372377
            },
            {
                "class": "wall",
                "height": 14.787712383030339,
                "width": 34.07603288263533,
                "x": 388.9811300753651,
                "y": 689.8789298692013
            },
            {
                "class": "wall",
                "height": 121.51641914751076,
                "width": 3.21472008326748,
                "x": 396.6964582752071,
                "y": 634.5857444370007
            },
            {
                "class": "wall",
                "height": 119.86223398595769,
                "width": 34.35541738451016,
                "x": 153.4541976508121,
                "y": 953.5536958500712
            },
            {
                "class": "wall",
                "height": 15.269074393115488,
                "width": 243.5417365701943,
                "x": 155.74455880977945,
                "y": 1058.910309162569
            },
            {
                "class": "wall",
                "height": 197.73451339084738,
                "width": 13.74216695380403,
                "x": 384.01722098685815,
                "y": 874.9179627255256
            },
            {
                "class": "wall",
                "height": 22.503040582872245,
                "width": 36.00486493259578,
                "x": 151.09184391357158,
                "y": 1283.9592012570317
            },
            {
                "class": "wall",
                "height": 19.28832049960488,
                "width": 52.72140936558668,
                "x": 307.3272399603711,
                "y": 1285.8880333069922
            },
            {
                "class": "wall",
                "height": 14.787712383030339,
                "width": 36.00486493259575,
                "x": 344.6179929262739,
                "y": 1231.237791891445
            },
            {
                "class": "wall",
                "height": 106.08576274782672,
                "width": 15.430656399683869,
                "x": 344.6179929262739,
                "y": 1231.237791891445
            },
            {
                "class": "wall",
                "height": 33.433088865981745,
                "width": 19.93126451625841,
                "x": 338.83149677639244,
                "y": 1305.176353806597
            },
            {
                "class": "wall",
                "height": 15.43065639968404,
                "width": 1203.5911991753449,
                "x": 340.7603288263529,
                "y": 1323.8217302895484
            },
            {
                "class": "wall",
                "height": 21.860096566218886,
                "width": 59.79379354877514,
                "x": 154.30656399683906,
                "y": 186.45376482951386
            },
            {
                "class": "wall",
                "height": 22.503040582872387,
                "width": 111.22931488105479,
                "x": 451.98964370740777,
                "y": 186.45376482951386
            },
            {
                "class": "wall",
                "height": 514.9981573394504,
                "width": 16.0736004163374,
                "x": 542.0018060388973,
                "y": 187.73965286282086
            },
            {
                "class": "wall",
                "height": 141.44768366376914,
                "width": 9.64416024980244,
                "x": 554.2177423553136,
                "y": 186.45376482951386
            },
            {
                "class": "wall",
                "height": 23.145984599525832,
                "width": 46.93491321570525,
                "x": 543.2876940722042,
                "y": 304.75546389375717
            },
            {
                "class": "wall",
                "height": 14.144768366376866,
                "width": 50.14963329897262,
                "x": 520.1417094726784,
                "y": 690.5218738858548
            },
            {
                "class": "wall",
                "height": 33.59196366485435,
                "width": 13.74216695380403,
                "x": 561.1384839469995,
                "y": 842.0894527803271
            },
            {
                "class": "wall",
                "height": 21.11680501175556,
                "width": 165.68570086146758,
                "x": 562.0318872359584,
                "y": 841.9649177764118
            },
            {
                "class": "wall",
                "height": 264.7722474550902,
                "width": 15.702239624126037,
                "x": 711.4738919345369,
                "y": 842.5063743151746
            },
            {
                "class": "wall",
                "height": 263.1478778388014,
                "width": 14.619326546600064,
                "x": 560.4075176196695,
                "y": 1074.249772905724
            },
            {
                "class": "wall",
                "height": 33.57030540330402,
                "width": 132.65685199692655,
                "x": 560.9489741584325,
                "y": 1303.8273453412214
            },
            {
                "class": "wall",
                "height": 14.077870007837191,
                "width": 35.73613155835574,
                "x": 538.2077995303879,
                "y": 1231.272169146984
            },
            {
                "class": "wall",
                "height": 21.658261550518546,
                "width": 165.68570086146747,
                "x": 560.9489741584325,
                "y": 1085.6203602197463
            },
            {
                "class": "wall",
                "height": 22.19971808928159,
                "width": 159.72967893507496,
                "x": 748.8343931091817,
                "y": 304.8400313235498
            },
            {
                "class": "wall",
                "height": 399.5949256070688,
                "width": 14.077870007837191,
                "x": 775.365763508567,
                "y": 303.7571182460238
            },
            {
                "class": "wall",
                "height": 12.453500391548118,
                "width": 117.49606891156361,
                "x": 670.8646515273147,
                "y": 690.3570869227815
            },
            {
                "class": "wall",
                "height": 15.430656399683926,
                "width": 297.0401356939153,
                "x": 726.5267388184507,
                "y": 894.3351271650132
            },
            {
                "class": "wall",
                "height": 72.65267388184498,
                "width": 14.14476836637698,
                "x": 1009.422106145989,
                "y": 841.6137177994266
            },
            {
                "class": "wall",
                "height": 13.82442226628848,
                "width": 24.192738966004868,
                "x": 1009.950848898298,
                "y": 842.5217347843596
            },
            {
                "class": "wall",
                "height": 16.073600416337513,
                "width": 298.3260237272225,
                "x": 725.8837948017974,
                "y": 1092.3618842942903
            },
            {
                "class": "wall",
                "height": 102.87104266455935,
                "width": 14.787712383030453,
                "x": 1010.0650501626429,
                "y": 1013.9227142625639
            },
            {
                "class": "wall",
                "height": 119.8622339859578,
                "width": 15.269074393115602,
                "x": 1009.2858173849439,
                "y": 1216.9452291313166
            },
            {
                "class": "wall",
                "height": 19.08634299139453,
                "width": 132.07749350045037,
                "x": 1067.3083000787838,
                "y": 306.9083953016245
            },
            {
                "class": "wall",
                "height": 32.82850994519862,
                "width": 19.08634299139453,
                "x": 1179.5359968681837,
                "y": 293.16622834782044
            },
            {
                "class": "wall",
                "height": 86.2702703211034,
                "width": 16.032528112771388,
                "x": 1184.8801729057743,
                "y": 325.23128457336327
            },
            {
                "class": "wall",
                "height": 14.505620673459816,
                "width": 65.65701989039712,
                "x": 1147.470940642641,
                "y": 842.089452780328
            },
            {
                "class": "wall",
                "height": 84.74336288179177,
                "width": 13.742166953804144,
                "x": 1198.6223398595782,
                "y": 842.8529064999838
            },
            {
                "class": "wall",
                "height": 16.795981832427174,
                "width": 519.1485293659318,
                "x": 1202.4396084578573,
                "y": 913.0906487083157
            },
            {
                "class": "wall",
                "height": 7.634537196557858,
                "width": 200.02487454981497,
                "x": 1521.5632632739741,
                "y": 928.3597231014313
            },
            {
                "class": "wall",
                "height": 102.30279843387484,
                "width": 19.849796711050203,
                "x": 1523.8536244329416,
                "y": 911.5637412690041
            },
            {
                "class": "wall",
                "height": 66.42047361005302,
                "width": 19.84979671105043,
                "x": 1700.974887393083,
                "y": 869.5737866879361
            },
            {
                "class": "wall",
                "height": 87.79717776041502,
                "width": 20.613250430706103,
                "x": 1700.2114336734273,
                "y": 544.3425021145728
            },
            {
                "class": "wall",
                "height": 21.504656858671012,
                "width": 19.584598210575223,
                "x": 1701.555973942343,
                "y": 406.6684216666534
            },
            {
                "class": "wall",
                "height": 22.31433889094677,
                "width": 21.667546459324967,
                "x": 1700.4173027333063,
                "y": 266.8018780439288
            },
            {
                "class": "wall",
                "height": 21.12064512905188,
                "width": 19.968609940194483,
                "x": 1701.1719622127246,
                "y": 127.49189423354956
            },
            {
                "class": "wall",
                "height": 21.020754027703475,
                "width": 21.344150243514378,
                "x": 1562.003722366275,
                "y": 128.06490146108592
            },
            {
                "class": "wall",
                "height": 20.736633399432776,
                "width": 21.888668588290102,
                "x": 1422.7634582388596,
                "y": 127.87590596316875
            },
            {
                "class": "wall",
                "height": 54.0072973988938,
                "width": 19.931264516258352,
                "x": 1178.516382525861,
                "y": 127.945859314046
            },
            {
                "class": "wall",
                "height": 21.860096566218914,
                "width": 127.30291529739247,
                "x": 1177.8734385092075,
                "y": 127.945859314046
            },
            {
                "class": "wall",
                "height": 84.3092489037731,
                "width": 19.037572333109892,
                "x": 1523.912337712287,
                "y": 1252.8535697313387
            },
            {
                "class": "window",
                "height": 20.452925149578448,
                "width": 236.82334383722412,
                "x": 214.21747919821632,
                "y": 188.3822053250646
            },
            {
                "class": "window",
                "height": 20.850674460072923,
                "width": 155.02023185532482,
                "x": 591.9778444533749,
                "y": 306.4142594567239
            },
            {
                "class": "window",
                "height": 15.411368079184399,
                "width": 196.72158077547067,
                "x": 174.96435525191634,
                "y": 626.4267848656693
            },
            {
                "class": "window",
                "height": 21.52939489429309,
                "width": 158.24105247305442,
                "x": 907.4639947944545,
                "y": 304.6409377542475
            },
            {
                "class": "window",
                "height": 94.72933753488974,
                "width": 11.841167191861246,
                "x": 679.2524089149475,
                "y": 1206.7225838251286
            },
            {
                "class": "window",
                "height": 22.663776587035812,
                "width": 115.13198506214212,
                "x": 1306.3400824767446,
                "y": 128.73025101436346
            },
            {
                "class": "window",
                "height": 26.911743617866392,
                "width": 117.33520217389741,
                "x": 1444.6223974070685,
                "y": 125.94696013161476
            },
            {
                "class": "window",
                "height": 19.376455404863805,
                "width": 116.25873242918283,
                "x": 1583.486994475259,
                "y": 132.4057785999027
            },
            {
                "class": "window",
                "height": 113.0293231950389,
                "width": 23.68233438372249,
                "x": 1699.7457269044419,
                "y": 151.7822340047665
            },
            {
                "class": "window",
                "height": 117.33520217389753,
                "width": 16.147046170719932,
                "x": 1706.2045453727299,
                "y": 289.5703613282425
            },
            {
                "class": "window",
                "height": 104.41756523732158,
                "width": 22.605864639007905,
                "x": 1699.7457269044419,
                "y": 431.6643676305771
            },
            {
                "class": "window",
                "height": 236.82334383722434,
                "width": 21.52939489429309,
                "x": 1702.9751361385859,
                "y": 631.8877401475031
            },
            {
                "class": "window",
                "height": 235.14374565398157,
                "width": 19.08634299139453,
                "x": 1523.0901707132898,
                "y": 1014.6299934225374
            },
            {
                "class": "door",
                "height": 115.28151166802354,
                "width": 100.01243727490782,
                "x": 423.71681440896066,
                "y": 589.3862715742661
            },
            {
                "class": "door",
                "height": 112.99115050905618,
                "width": 98.48552983559625,
                "x": 570.2999285828714,
                "y": 587.8593641349545
            },
            {
                "class": "door",
                "height": 114.51805794836775,
                "width": 127.49677118251611,
                "x": 270.2626167581479,
                "y": 760.3999047771619
            },
            {
                "class": "door",
                "height": 141.42196590310368,
                "width": 122.38439356999353,
                "x": 186.74951907717528,
                "y": 1162.1984633831976
            },
            {
                "class": "door",
                "height": 95.1878616655506,
                "width": 158.64643610925083,
                "x": 382.5645487891649,
                "y": 1149.5067484944575
            },
            {
                "class": "door",
                "height": 196.72158077547112,
                "width": 113.31888293517915,
                "x": 461.4344913120496,
                "y": 876.6348783865461
            },
            {
                "class": "door",
                "height": 67.99132976110752,
                "width": 139.60886377614088,
                "x": 728.8670550390726,
                "y": 773.2880571496629
            },
            {
                "class": "door",
                "height": 68.89788082458892,
                "width": 137.79576164917796,
                "x": 870.2890209421763,
                "y": 771.4749550227001
            },
            {
                "class": "door",
                "height": 126.01059782391928,
                "width": 107.87957655429068,
                "x": 1035.2813144957972,
                "y": 842.1859379742518
            },
            {
                "class": "door",
                "height": 98.81406591947632,
                "width": 117.85163825258621,
                "x": 907.4576145449151,
                "y": 912.8969209258037
            },
            {
                "class": "door",
                "height": 97.0009637925134,
                "width": 113.3188829351792,
                "x": 909.270716671878,
                "y": 1119.5905633995706
            },
            {
                "class": "door",
                "height": 113.16441660146043,
                "width": 131.57393891940137,
                "x": 1067.210837901811,
                "y": 180.30502740806853
            },
            {
                "class": "Text",
                "height": 40.98120318128707,
                "text": "bedroom",
                "width": 156.33570102490984,
                "x": 261.0654424881989,
                "y": 368.83082863158336
            },
            {
                "class": "Text",
                "height": 28.83862446090575,
                "text": "bath",
                "width": 75.8911170023834,
                "x": 273.2080212085803,
                "y": 807.4814849053595
            },
            {
                "class": "Text",
                "height": 34.909913821096325,
                "text": "entry",
                "width": 81.96240636257411,
                "x": 223.11988398700723,
                "y": 1118.6350646151316
            },
            {
                "class": "Text",
                "height": 27.320802120857934,
                "text": "ensuite",
                "width": 109.28320848343208,
                "x": 771.0537487442155,
                "y": 1148.991511416085
            },
            {
                "class": "Text",
                "height": 33.39209148104874,
                "text": "wic",
                "width": 53.123781901668394,
                "x": 843.9092210665035,
                "y": 956.228074230031
            },
            {
                "class": "Text",
                "height": 21.249512760667358,
                "text": "w",
                "width": 25.802979780810347,
                "x": 617.753692399401,
                "y": 912.2112263686486
            },
            {
                "class": "Text",
                "height": 19.731690420619657,
                "text": "d",
                "width": 15.178223400476668,
                "x": 623.8249817595917,
                "y": 1010.8696784717471
            },
            {
                "class": "Text",
                "height": 24.758804128437134,
                "text": "flex",
                "width": 61.35877544873563,
                "x": 641.5759678499364,
                "y": 447.81141380129793
            },
            {
                "class": "Text",
                "height": 31.217622596725107,
                "text": "balcony",
                "width": 131.3293088551883,
                "x": 786.8993833864154,
                "y": 132.405778599903
            },
            {
                "class": "Text",
                "height": 28.121213989194075,
                "text": "kitchen",
                "width": 120.15427795382936,
                "x": 975.2948306252321,
                "y": 457.6088458241587
            },
            {
                "class": "Text",
                "height": 29.399450988702938,
                "text": "mw",
                "width": 47.294768981826564,
                "x": 1126.1267965672732,
                "y": 337.4545678703293
            },
            {
                "class": "Text",
                "height": 21.730028991649988,
                "text": "dw",
                "width": 47.29476898182634,
                "x": 1122.2920855687469,
                "y": 371.9669668570676
            },
            {
                "class": "Text",
                "height": 30.356446800953393,
                "text": "dining",
                "width": 98.6584521030984,
                "x": 1403.9856645440934,
                "y": 268.6545541884373
            },
            {
                "class": "Text",
                "height": 33.39209148104874,
                "text": "living",
                "width": 97.14062976305058,
                "x": 1293.1846337206136,
                "y": 716.4121445024995
            },
            {
                "class": "Text",
                "height": 65.26636062204966,
                "text": "master bedroom",
                "width": 144.19312230452852,
                "x": 1197.5618262976104,
                "y": 1106.4924858947504
            },
            {
                "class": "Text",
                "height": 22.140157870017788,
                "text": "f",
                "width": 18.322889271738973,
                "x": 821.4762023496264,
                "y": 637.4838559125819
            },
            {
                "class": "Text",
                "height": 18.32288927173886,
                "text": "p",
                "width": 15.269074393115716,
                "x": 790.938053563395,
                "y": 858.88543461276
            },
            {
                "class": "Text",
                "height": 17.559435552083073,
                "text": "p",
                "width": 13.742166953804144,
                "x": 932.9404454193714,
                "y": 858.1219808931043
            }
        ],
        "class": "image",
        "filename": "119.png"
    }
]
