[
    {
        "annotations": [
            {
                "class": "Window",
                "xn": "472;634;634;472",
                "yn": "2433;2433;2450;2450"
            },
            {
                "class": "Window",
                "xn": "1476;1611;1611;1476",
                "yn": "169;169;186;186"
            },
            {
                "class": "Window",
                "xn": "1259;1394;1394;1259",
                "yn": "169;169;186;186"
            },
            {
                "class": "Wall",
                "xn": "1149;1348;1348;1149",
                "yn": "2015;2015;2031;2031"
            },
            {
                "class": "Wall",
                "xn": "1294;1545;1545;1294",
                "yn": "1540;1540;1556;1556"
            },
            {
                "class": "Wall",
                "xn": "823;1167;1167;823",
                "yn": "2434;2434;2450;2450"
            },
            {
                "class": "Wall",
                "xn": "383;473;473;383",
                "yn": "2434;2434;2450;2450"
            },
            {
                "class": "Wall",
                "xn": "1150;1166;1166;1150",
                "yn": "2015;2015;2450;2450"
            },
            {
                "class": "Wall",
                "xn": "1611;1696;1696;1611",
                "yn": "170;170;186;186"
            },
            {
                "class": "Wall",
                "xn": "1394;1477;1477;1394",
                "yn": "170;170;186;186"
            },
            {
                "class": "Wall",
                "xn": "1528;1544;1544;1528",
                "yn": "1344;1344;1556;1556"
            },
            {
                "class": "Wall",
                "xn": "1331;1347;1347;1331",
                "yn": "2176;2176;2368;2368"
            },
            {
                "class": "Wall",
                "xn": "634;663;663;634",
                "yn": "2434;2434;2450;2450"
            },
            {
                "class": "Wall",
                "xn": "1331;1347;1347;1331",
                "yn": "1344;1344;1382;1382"
            },
            {
                "class": "Wall",
                "xn": "1331;1347;1347;1331",
                "yn": "1518;1518;1574;1574"
            },
            {
                "class": "Wall",
                "xn": "1331;1347;1347;1331",
                "yn": "1997;1997;2049;2049"
            },
            {
                "class": "Wall",
                "xn": "1330;1696;1696;1330",
                "yn": "1344;1344;1360;1360"
            },
            {
                "class": "Wall",
                "xn": "384;399;399;384",
                "yn": "2377;2377;2450;2450"
            },
            {
                "class": "Wall",
                "xn": "1149;1197;1197;1149",
                "yn": "2352;2352;2369;2369"
            },
            {
                "class": "Wall",
                "xn": "916;942;942;916",
                "yn": "1120;1120;1586;1586"
            },
            {
                "class": "Wall",
                "xn": "880;1142;1142;880",
                "yn": "1561;1561;1586;1586"
            },
            {
                "class": "Wall",
                "xn": "907;1142;1142;907",
                "yn": "805;805;830;830"
            },
            {
                "class": "Wall",
                "xn": "916;1142;1142;916",
                "yn": "1120;1120;1136;1136"
            },
            {
                "class": "Wall",
                "xn": "1126;1144;1144;1126",
                "yn": "1380;1380;1773;1773"
            },
            {
                "class": "Wall",
                "xn": "720;736;736;720",
                "yn": "805;805;948;948"
            },
            {
                "class": "Wall",
                "xn": "720;736;736;720",
                "yn": "1075;1075;1195;1195"
            },
            {
                "class": "Wall",
                "xn": "1126;1141;1141;1126",
                "yn": "787;787;1235;1235"
            },
            {
                "class": "Wall",
                "xn": "1125;1160;1160;1125",
                "yn": "1539;1539;1557;1557"
            },
            {
                "class": "Wall",
                "xn": "1001;1017;1017;1001",
                "yn": "805;805;839;839"
            },
            {
                "class": "Wall",
                "xn": "1001;1017;1017;1001",
                "yn": "1111;1111;1136;1136"
            },
            {
                "class": "Wall",
                "xn": "1303;1696;1696;1303",
                "yn": "2346;2346;2368;2368"
            },
            {
                "class": "Text",
                "height": 109,
                "text": "masterbedroom",
                "width": 252,
                "x": 648,
                "y": 395
            },
            {
                "class": "Text",
                "height": 44,
                "text": "loft",
                "width": 132,
                "x": 1344,
                "y": 397
            },
            {
                "class": "Text",
                "height": 26,
                "text": "linen",
                "width": 90,
                "x": 1371,
                "y": 972
            },
            {
                "class": "Text",
                "height": 26,
                "text": "closet",
                "width": 122,
                "x": 479,
                "y": 1078
            },
            {
                "class": "Text",
                "height": 36,
                "text": "laundry",
                "width": 207,
                "x": 957,
                "y": 1305
            },
            {
                "class": "Text",
                "height": 26,
                "text": "dn",
                "width": 45,
                "x": 1334,
                "y": 1248
            },
            {
                "class": "Text",
                "height": 27,
                "text": "closet",
                "width": 122,
                "x": 1463,
                "y": 1713
            },
            {
                "class": "Text",
                "height": 44,
                "text": "bath",
                "width": 134,
                "x": 1384,
                "y": 2021
            },
            {
                "class": "Text",
                "height": 43,
                "text": "bedroom 2",
                "width": 322,
                "x": 611,
                "y": 2083
            },
            {
                "class": "Wall",
                "xn": "398.337858664;382.336972164;383.179124085;384.021276006;399.180010586;399.180010586;399.180010586",
                "yn": "481.71089885;480.026595008;807.623692303;1195.01357599;1195.01357599;1756.72890734;1756.72890734"
            },
            {
                "class": "Wall",
                "xn": "399.03;379.29;383.52;397.62;400.44;1125.18;1122.36;736.02;734.61;752.94;755.76;716.28;719.1;442.74;442.74;418.77;415.95;435.69;435.69;442.971910481;442.12975856;506.133304561;506.975456482;508.659760324;719.197740591;718.35558867;399.180010586",
                "yn": "1752.63;1756.86;2024.76;2020.53;1773.78;1772.37;1754.04;1755.45;1589.07;1583.43;1570.74;1570.74;1755.45;1754.04;1572.15;1572.15;1197.09;1194.27;1187.22;1190.80281639;1184.90775294;1186.59205678;1190.80281639;1194.17142407;1194.17142407;1179.01268949;1177.32838565"
            },
            {
                "class": "Wall",
                "xn": "398.337858664;753.725969355;754.568121276;734.35647517;734.35647517;512.028368008;510.344064166;399.180010586",
                "yn": "805.09723654;805.939388461;830.361794172;829.519642251;820.255971119;821.940274961;903.629011304;904.471163226"
            },
            {
                "class": "Wall",
                "xn": "381.0;383.0;397.0;399.0",
                "yn": "238.0;264.0;266.0;236.0"
            },
            {
                "class": "Wall",
                "xn": "382.0;382.0;399.0;400.0;438.0;436.0",
                "yn": "73.0;127.0;131.0;89.0;92.0;73.0"
            },
            {
                "class": "Wall",
                "xn": "598.770015878;599.612167799;627.403181195;627.403181195",
                "yn": "73.2672171328;88.425951712;90.9524074752;73.2672171328"
            },
            {
                "class": "Wall",
                "xn": "788.456314579;789.643748788;1123.31276143;1125.68762985;1139.93684036;1141.12427456;1259.86769543;1256.30539281;1218.30749813;1220.68236655",
                "yn": "74.8083551483;90.2449998615;92.6198682789;644.776775326;638.839604283;186.427170767;187.614604975;168.615657636;168.615657636;74.8083551483"
            },
            {
                "class": "Wall",
                "xn": "1678.40877869;1679.25093061;1543.66447132;1544.50662324;1680.93523445;1681.77738637;1345.75876986;1346.60092179;1329.75788336;1328.91573144;1344.07446602;1348.28522563;1568.92902895;1579.18416972;1579.18416972;1640.70306891;1640.70306891;1658.02392403;1656.68535953;1621.95045811;1621.52686175;1695.23262819;1695.23262819;1695.65622455",
                "yn": "185.273422635;1344.07446602;1343.2323141;1435.86902542;1434.18472158;1827.46966871;1827.46966871;1703.67333632;1703.67333632;1869.57726477;1870.41941669;1843.47055521;1843.47055521;1843.17789249;1836.0106421;1834.2188295;1841.98335076;1842.58062162;2179.40326638;2179.82686274;2348.41821357;2345.87663541;2345.87663541;185.958801543"
            },
            {
                "class": "Wall",
                "xn": "383.640106578;399.262099955;398.661254056;382.738837729",
                "yn": "2241.45562661;2241.45562661;2268.79411502;2269.39496092"
            },
            {
                "class": "window",
                "height": 109.30056847885635,
                "width": 16.12631338212634,
                "x": 382.85062510899985,
                "y": 2269.629290817784
            },
            {
                "class": "window",
                "height": 216.21205349369416,
                "width": 15.529042516121706,
                "x": 382.8506251089999,
                "y": 2024.7482357558654
            },
            {
                "class": "window",
                "height": 16.520257995874545,
                "width": 106.74628243487905,
                "x": 1196.2361174448354,
                "y": 2351.3833880794195
            },
            {
                "class": "window",
                "height": 219.67532861022306,
                "width": 17.81151313055858,
                "x": 382.35381520265855,
                "y": 263.6103943322677
            },
            {
                "class": "window",
                "height": 110.43138140946348,
                "width": 16.624078921854675,
                "x": 381.16638099395465,
                "y": 128.24289454002212
            },
            {
                "class": "window",
                "height": 16.624078921854718,
                "width": 160.30361817502768,
                "x": 435.7883545943344,
                "y": 74.80835514834624
            },
            {
                "class": "window",
                "height": 15.436644713150812,
                "width": 159.11618396632377,
                "x": 626.9652621956636,
                "y": 75.99578935705014
            },
            {
                "class": "door",
                "height": 146.09929078015648,
                "width": 159.57446808512225,
                "x": 979.4326241135728,
                "y": 642.5531914894258
            },
            {
                "class": "door",
                "height": 126.95035460994188,
                "width": 142.553191489376,
                "x": 592.1985815603429,
                "y": 948.2269503547046
            },
            {
                "class": "door",
                "height": 145.1368204391381,
                "width": 118.25963146892741,
                "x": 1125.8555824188281,
                "y": 1233.364338299671
            },
            {
                "class": "door",
                "height": 106.11114205439208,
                "width": 144.85013042345588,
                "x": 572.6633063252909,
                "y": 1482.1873810772236
            },
            {
                "class": "door",
                "height": 140.63937081812287,
                "width": 124.63848431785743,
                "x": 754.5681212756774,
                "y": 1569.7711808681504
            },
            {
                "class": "door",
                "height": 152.48226950356184,
                "width": 131.20567375887867,
                "x": 1161.702127659693,
                "y": 1537.5886524824261
            },
            {
                "class": "door",
                "height": 136.17021276597143,
                "width": 111.34751773050789,
                "x": 1234.042553191615,
                "y": 1383.6879432625524
            },
            {
                "class": "door",
                "height": 125.86802612261476,
                "width": 142.49210504446955,
                "x": 1333.4886163744943,
                "y": 1574.5377607413886
            },
            {
                "class": "door",
                "height": 123.03779839696517,
                "width": 146.92863303715262,
                "x": 1199.9171698034124,
                "y": 2051.028153860089
            },
            {
                "class": "door",
                "height": 126.0241527269884,
                "width": 142.1504661091151,
                "x": 1331.3167603244433,
                "y": 1870.0550814606693
            },
            {
                "class": "window",
                "height": 17.320855114136066,
                "width": 157.0822377592325,
                "x": 663.567932131206,
                "y": 2433.2815081030903
            },
            {
                "class": "Stairs",
                "xn": "1677.63079874;1500.15688191;1501.83116414;1394.67710115;1396.35138338;1679.30508098",
                "yn": "694.827127223;696.501409457;1180.36897516;1180.36897516;1337.75150518;1341.10006965"
            }
        ],
        "class": "image",
        "filename": "18.png"
    }
]
