[
    {
        "annotations": [
            {
                "class": "Window",
                "xn": "1207;1397;1397;1207",
                "yn": "86;86;99;99"
            },
            {
                "class": "Window",
                "xn": "741;931;931;741",
                "yn": "86;86;99;99"
            },
            {
                "class": "Window",
                "xn": "634;647;647;634",
                "yn": "730;730;841;841"
            },
            {
                "class": "Wall",
                "xn": "1267;1505;1505;1267",
                "yn": "2193;2193;2224;2224"
            },
            {
                "class": "Wall",
                "xn": "634;872;872;634",
                "yn": "2193;2193;2224;2224"
            },
            {
                "class": "Wall",
                "xn": "1473;1504;1504;1473",
                "yn": "664;664;945;945"
            },
            {
                "class": "Wall",
                "xn": "635;663;663;635",
                "yn": "87;87;531;531"
            },
            {
                "class": "Wall",
                "xn": "634;789;789;634",
                "yn": "959;959;984;984"
            },
            {
                "class": "Wall",
                "xn": "1486;1504;1504;1486",
                "yn": "87;87;2224;2224"
            },
            {
                "class": "Wall",
                "xn": "1067;1088;1088;1067",
                "yn": "87;87;697;697"
            },
            {
                "class": "Wall",
                "xn": "1332;1505;1505;1332",
                "yn": "925;925;945;945"
            },
            {
                "class": "Wall",
                "xn": "1074;1129;1129;1074",
                "yn": "973;973;994;994"
            },
            {
                "class": "Wall",
                "xn": "1291;1346;1346;1291",
                "yn": "973;973;994;994"
            },
            {
                "class": "Wall",
                "xn": "1067;1129;1129;1067",
                "yn": "663;663;684;684"
            },
            {
                "class": "Wall",
                "xn": "1291;1505;1505;1291",
                "yn": "664;664;684;684"
            },
            {
                "class": "Wall",
                "xn": "1067;1087;1087;1067",
                "yn": "820;820;868;868"
            },
            {
                "class": "Wall",
                "xn": "634;742;742;634",
                "yn": "87;87;100;100"
            },
            {
                "class": "Wall",
                "xn": "824;932;932;824",
                "yn": "632;632;645;645"
            },
            {
                "class": "Wall",
                "xn": "634;1129;1129;634",
                "yn": "970;970;983;983"
            },
            {
                "class": "Wall",
                "xn": "634;678;678;634",
                "yn": "518;518;532;532"
            },
            {
                "class": "Wall",
                "xn": "634;884;884;634",
                "yn": "2195;2195;2205;2205"
            },
            {
                "class": "Wall",
                "xn": "635;647;647;635",
                "yn": "841;841;2224;2224"
            },
            {
                "class": "Wall",
                "xn": "775;787;787;775",
                "yn": "836;836;983;983"
            },
            {
                "class": "Wall",
                "xn": "1248;1505;1505;1248",
                "yn": "2193;2193;2205;2205"
            },
            {
                "class": "Wall",
                "xn": "1397;1505;1505;1397",
                "yn": "87;87;99;99"
            },
            {
                "class": "Wall",
                "xn": "1332;1505;1505;1332",
                "yn": "1133;1133;1145;1145"
            },
            {
                "class": "Wall",
                "xn": "1053;1088;1088;1053",
                "yn": "521;521;532;532"
            },
            {
                "class": "Wall",
                "xn": "931;1208;1208;931",
                "yn": "87;87;99;99"
            },
            {
                "class": "Wall",
                "xn": "1333;1345;1345;1333",
                "yn": "902;902;1010;1010"
            },
            {
                "class": "Wall",
                "xn": "1075;1087;1087;1075",
                "yn": "950;950;1072;1072"
            },
            {
                "class": "Wall",
                "xn": "1333;1345;1345;1333",
                "yn": "664;664;697;697"
            },
            {
                "class": "Wall",
                "xn": "918;1088;1088;918",
                "yn": "836;836;847;847"
            },
            {
                "class": "Wall",
                "xn": "635;647;647;635",
                "yn": "87;87;731;731"
            },
            {
                "class": "Wall",
                "xn": "825;837;837;825",
                "yn": "519;519;645;645"
            },
            {
                "class": "Wall",
                "xn": "919;931;931;919",
                "yn": "623;623;717;717"
            },
            {
                "class": "Wall",
                "xn": "919;931;931;919",
                "yn": "820;820;983;983"
            },
            {
                "class": "Wall",
                "xn": "785;946;946;785",
                "yn": "519;519;531;531"
            },
            {
                "class": "Wall",
                "xn": "1333;1345;1345;1333",
                "yn": "1120;1120;1156;1156"
            },
            {
                "class": "Wall",
                "xn": "634;838;838;634",
                "yn": "616;616;628;628"
            },
            {
                "class": "Text",
                "height": 26,
                "text": "bedroom 2",
                "width": 190,
                "x": 775,
                "y": 298
            },
            {
                "class": "Text",
                "height": 20,
                "text": "linen",
                "width": 68,
                "x": 838,
                "y": 665
            },
            {
                "class": "Text",
                "height": 26,
                "text": "bath",
                "width": 79,
                "x": 687,
                "y": 736
            },
            {
                "class": "Text",
                "height": 21,
                "text": "pantry",
                "width": 98,
                "x": 1366,
                "y": 972
            },
            {
                "class": "Text",
                "height": 27,
                "text": "kitchen",
                "width": 132,
                "x": 922,
                "y": 1271
            },
            {
                "class": "Text",
                "height": 16,
                "text": "dn",
                "width": 27,
                "x": 1398,
                "y": 1288
            },
            {
                "class": "Text",
                "height": 27,
                "text": "dining",
                "width": 113,
                "x": 935,
                "y": 1666
            },
            {
                "class": "Text",
                "height": 16,
                "text": "up",
                "width": 25,
                "x": 1403,
                "y": 1839
            },
            {
                "class": "Text",
                "height": 26,
                "text": "living",
                "width": 104,
                "x": 937,
                "y": 1999
            },
            {
                "class": "Text",
                "height": 27,
                "text": "deck",
                "width": 84,
                "x": 1033,
                "y": 2288
            },
            {
                "class": "Text",
                "height": 60,
                "text": "pantry",
                "width": 13,
                "x": 1036,
                "y": 993
            },
            {
                "class": "Wall",
                "xn": "918.21290586;917.427101063;930.78578262;931.964489816",
                "yn": "531.989847897;539.454993473;540.24079827;531.989847897"
            },
            {
                "class": "Wall",
                "xn": "1086.07651443;1134.75589788;1136.7293864;1121.59930776;1120.94147825;1097.25961604;1095.94395702;1088.05000295;1088.05000295;1088.05000295",
                "yn": "2191.88791405;2191.88791405;2204.38667466;2204.38667466;2216.22760577;2216.88543528;2203.72884516;2205.04450417;2205.04450417;2205.04450417"
            },
            {
                "class": "Text",
                "height": 32.695771022801466,
                "text": "den",
                "width": 86.31683550019602,
                "x": 1243.7471297073694,
                "y": 368.808297137201
            },
            {
                "class": "Text",
                "height": 95.47165138658033,
                "text": "closet",
                "width": 31.387940181889462,
                "x": 886.7093101383768,
                "y": 534.9028139330327
            },
            {
                "class": "Text",
                "height": 30.0801093409774,
                "text": "closet",
                "width": 94.16382054566839,
                "x": 686.6111914788316,
                "y": 575.4455700013065
            },
            {
                "class": "Text",
                "height": 31.387940181889462,
                "text": "f.a.u.",
                "width": 73.23852709107541,
                "x": 959.9478372294523,
                "y": 894.5562951838492
            },
            {
                "class": "Text",
                "height": 31.387940181889462,
                "text": "ref.",
                "width": 53.6210644773945,
                "x": 905.0189419111457,
                "y": 1018.8002250704949
            },
            {
                "class": "Text",
                "height": 60.16021868195469,
                "text": "micro above",
                "width": 83.7011738183719,
                "x": 782.082842865412,
                "y": 995.2592699340779
            },
            {
                "class": "Text",
                "height": 29.68126731147936,
                "text": "d",
                "width": 24.11602969057708,
                "x": 1402.439880467401,
                "y": 729.0461283382125
            },
            {
                "class": "Text",
                "height": 27.82618810451197,
                "text": "w",
                "width": 29.68126731147936,
                "x": 1395.947103243015,
                "y": 840.3508807562602
            },
            {
                "class": "Text",
                "height": 37.27111391272388,
                "text": "dw",
                "width": 54.35370778938898,
                "x": 919.3541431805221,
                "y": 1422.5141810022944
            },
            {
                "class": "Text",
                "height": 110.26037865847479,
                "text": "base cabinet",
                "width": 69.88333858635724,
                "x": 1259.4530576341274,
                "y": 1377.4782516910864
            },
            {
                "class": "Wall",
                "xn": "664.66819811;672.433013509;649.138567313;647.585604234",
                "yn": "983.025629448;1531.22159658;1532.77455966;984.578592528"
            },
            {
                "class": "door",
                "height": 89.97134153792194,
                "width": 106.66705440062913,
                "x": 679.8865293535752,
                "y": 441.5088512582562
            },
            {
                "class": "door",
                "height": 122.4352276598525,
                "width": 106.66705440062913,
                "x": 945.1628559499223,
                "y": 406.2623463258744
            },
            {
                "class": "door",
                "height": 83.4785643135358,
                "width": 65.85531184734498,
                "x": 921.0468262593453,
                "y": 540.7555888310154
            },
            {
                "class": "door",
                "height": 101.32808746958028,
                "width": 85.90859589812237,
                "x": 844.7678596648705,
                "y": 717.0063580727909
            },
            {
                "class": "door",
                "height": 65.37110110270498,
                "width": 129.080225058731,
                "x": 787.7771675258177,
                "y": 775.5893351168388
            },
            {
                "class": "door",
                "height": 48.32699504527409,
                "width": 65.22179819118298,
                "x": 1005.4372383809479,
                "y": 1061.6222814010634
            },
            {
                "class": "door",
                "height": 82.57859756381492,
                "width": 69.98186234221612,
                "x": 1074.9214055764394,
                "y": 867.7750930434797
            },
            {
                "class": "door",
                "height": 121.50768805636903,
                "width": 132.63816329817382,
                "x": 1335.6570290165746,
                "y": 1157.569425147698
            },
            {
                "class": "door",
                "height": 107.22620948074359,
                "width": 77.62388170998611,
                "x": 1266.3217990824007,
                "y": 1011.7417802538869
            },
            {
                "class": "door",
                "height": 203.927146865218,
                "width": 87.49132430023883,
                "x": 1258.4278450102004,
                "y": 695.9836173658088
            },
            {
                "class": "Stairs",
                "xn": "1347.00272799;1344.79994348;1347.00272799;1343.69855123;1483.57536763;1483.57536763",
                "yn": "1311.75817583;1517.71852753;1517.71852753;1823.90557445;1828.31114347;1313.96096034"
            },
            {
                "class": "Text",
                "height": 98.53550740676383,
                "text": "optional u-shaped kitchen",
                "width": 453.26333407111485,
                "x": 847.4053636981711,
                "y": 2452.4392954572395
            },
            {
                "class": "Text",
                "height": 48.17291473219575,
                "text": "second floor",
                "width": 343.779436952488,
                "x": 884.6298887185043,
                "y": 2605.716751423317
            }
        ],
        "class": "image",
        "filename": "24_250.png"
    }
]
