[
    {
        "annotations": [
            {
                "class": "Window",
                "xn": "1644;1661;1661;1644",
                "yn": "202;202;304;304"
            },
            {
                "class": "Window",
                "xn": "1644;1661;1661;1644",
                "yn": "990;990;1092;1092"
            },
            {
                "class": "Window",
                "xn": "1644;1661;1661;1644",
                "yn": "693;693;795;795"
            },
            {
                "class": "Window",
                "xn": "528;883;883;528",
                "yn": "294;294;311;311"
            },
            {
                "class": "Window",
                "xn": "1150;1453;1453;1150",
                "yn": "143;143;159;159"
            },
            {
                "class": "Window",
                "xn": "1475;1491;1491;1475",
                "yn": "1881;1881;1983;1983"
            },
            {
                "class": "Wall",
                "xn": "1387;1411;1411;1387",
                "yn": "1054;1054;1192;1192"
            },
            {
                "class": "Wall",
                "xn": "444;657;657;444",
                "yn": "1352;1352;1376;1376"
            },
            {
                "class": "Wall",
                "xn": "790;951;951;790",
                "yn": "1352;1352;1376;1376"
            },
            {
                "class": "Wall",
                "xn": "1619;1704;1704;1619",
                "yn": "1168;1168;1192;1192"
            },
            {
                "class": "Wall",
                "xn": "1386;1412;1412;1386",
                "yn": "891;891;935;935"
            },
            {
                "class": "Wall",
                "xn": "1619;1662;1662;1619",
                "yn": "890;890;915;915"
            },
            {
                "class": "Wall",
                "xn": "1118;1429;1429;1118",
                "yn": "1173;1173;1190;1190"
            },
            {
                "class": "Wall",
                "xn": "934;950;950;934",
                "yn": "848;848;1376;1376"
            },
            {
                "class": "Wall",
                "xn": "1645;1661;1661;1645",
                "yn": "304;304;694;694"
            },
            {
                "class": "Wall",
                "xn": "1118;1408;1408;1118",
                "yn": "1360;1360;1376;1376"
            },
            {
                "class": "Wall",
                "xn": "1645;1661;1661;1645",
                "yn": "795;795;991;991"
            },
            {
                "class": "Wall",
                "xn": "1092;1135;1135;1092",
                "yn": "848;848;865;865"
            },
            {
                "class": "Wall",
                "xn": "1645;1661;1661;1645",
                "yn": "1092;1092;1192;1192"
            },
            {
                "class": "Wall",
                "xn": "1645;1661;1661;1645",
                "yn": "144;144;203;203"
            },
            {
                "class": "Wall",
                "xn": "933;976;976;933",
                "yn": "848;848;865;865"
            },
            {
                "class": "Wall",
                "xn": "1453;1662;1662;1453",
                "yn": "144;144;159;159"
            },
            {
                "class": "Wall",
                "xn": "1688;1703;1703;1688",
                "yn": "1176;1176;1534;1534"
            },
            {
                "class": "Wall",
                "xn": "1119;1134;1134;1119",
                "yn": "848;848;1376;1376"
            },
            {
                "class": "Wall",
                "xn": "1476;1491;1491;1476",
                "yn": "1444;1444;1882;1882"
            },
            {
                "class": "Wall",
                "xn": "1118;1429;1429;1118",
                "yn": "891;891;906;906"
            },
            {
                "class": "Wall",
                "xn": "943;958;958;943",
                "yn": "144;144;311;311"
            },
            {
                "class": "Wall",
                "xn": "933;1135;1135;933",
                "yn": "1077;1077;1092;1092"
            },
            {
                "class": "Wall",
                "xn": "942;1151;1151;942",
                "yn": "144;144;159;159"
            },
            {
                "class": "Wall",
                "xn": "1476;1491;1491;1476",
                "yn": "1983;1983;2169;2169"
            },
            {
                "class": "Wall",
                "xn": "883;959;959;883",
                "yn": "295;295;311;311"
            },
            {
                "class": "Wall",
                "xn": "1476;1491;1491;1476",
                "yn": "2270;2270;2430;2430"
            },
            {
                "class": "Wall",
                "xn": "1475;1518;1518;1475",
                "yn": "1518;1518;1535;1535"
            },
            {
                "class": "Wall",
                "xn": "1668;1704;1704;1668",
                "yn": "1518;1518;1534;1534"
            },
            {
                "class": "Wall",
                "xn": "1481;1492;1399;1388",
                "yn": "1463;1452;1359;1370"
            },
            {
                "class": "Wall",
                "xn": "848;859;859;848",
                "yn": "1961;1961;1977;1977"
            },
            {
                "class": "Wall",
                "xn": "1386;1429;1429;1386",
                "yn": "907;907;915;915"
            },
            {
                "class": "Text",
                "height": 34,
                "text": "patio",
                "width": 147,
                "x": 618,
                "y": 200
            },
            {
                "class": "Text",
                "height": 105,
                "text": "livingroom",
                "width": 213,
                "x": 1200,
                "y": 426
            },
            {
                "class": "Text",
                "height": 105,
                "text": "diningroom",
                "width": 215,
                "x": 578,
                "y": 491
            },
            {
                "class": "Text",
                "height": 35,
                "text": "kitchen",
                "width": 234,
                "x": 578,
                "y": 1054
            },
            {
                "class": "Text",
                "height": 34,
                "text": "entry",
                "width": 171,
                "x": 1444,
                "y": 1077
            },
            {
                "class": "Stairs",
                "xn": "1137.23846577;1167.50111401;1173.87219786;1164.31557209;1177.05773978;1202.54207514;1380.93242271;1372.96856791",
                "yn": "1200.94930418;1283.77339413;1283.77339413;1296.51556181;1294.92279085;1358.63362927;1357.04085831;1202.54207514"
            },
            {
                "class": "Text",
                "height": 119.7402282328053,
                "text": "ref. space",
                "width": 83.59223480403392,
                "x": 480.09053772587055,
                "y": 1156.7357897206857
            },
            {
                "class": "Text",
                "height": 33.888743839473136,
                "text": "dw",
                "width": 74.55523644684115,
                "x": 841.5704720135848,
                "y": 1049.4214342290206
            },
            {
                "class": "Text",
                "height": 21.46287109833304,
                "text": "storage",
                "width": 118.61060343815632,
                "x": 973.7365729875304,
                "y": 944.3663283266536
            },
            {
                "class": "Text",
                "height": 22.592495892982015,
                "text": "trash",
                "width": 84.72185959868307,
                "x": 985.0328209340214,
                "y": 1154.4765401313875
            },
            {
                "class": "Text",
                "height": 22.592495892982015,
                "text": "trash",
                "width": 100.53660672377066,
                "x": 978.2550721661268,
                "y": 1299.0685138464733
            },
            {
                "class": "Text",
                "height": 38.40724301806972,
                "text": "powder",
                "width": 170.57334399201523,
                "x": 1184.9764095869134,
                "y": 1026.8289383360384
            },
            {
                "class": "Text",
                "height": 40.66649260736767,
                "text": "up",
                "width": 66.64786288429741,
                "x": 1379.2718742665597,
                "y": 1265.1797700070001
            },
            {
                "class": "Text",
                "height": 80.84905395270789,
                "text": "first floor",
                "width": 550.2227282892629,
                "x": 684.9711515437764,
                "y": 2582.6781123781734
            },
            {
                "class": "window",
                "height": 98.75179954822488,
                "width": 11.149396723186783,
                "x": 1479.6842222629198,
                "y": 2169.3540481400396
            },
            {
                "class": "Text",
                "height": 78.00788665364576,
                "text": "tankless water heater",
                "width": 304.42102108739806,
                "x": 470.90126699456886,
                "y": 1406.0445911474199
            },
            {
                "class": "Text",
                "height": 130.6706579954007,
                "text": "2-car garage",
                "width": 290.6755453367076,
                "x": 794.6909404618247,
                "y": 1869.3904337709366
            },
            {
                "class": "Wall",
                "xn": "449.161410848;557.469836159;559.06260712;447.568639888;445.975868927",
                "yn": "2390.74921164;2390.74921164;2433.75402758;2427.38294373;2427.38294373"
            },
            {
                "class": "Wall",
                "xn": "1379.33965175;1490.83361899;1490.83361899;1380.93242271",
                "yn": "2390.74921164;2390.74921164;2430.56848565;2427.38294373"
            },
            {
                "class": "Wall",
                "xn": "1669.58544649;1669.58544649;1703.47419033;1704.60381513;1667.3261969",
                "yn": "1704.60381513;1704.60381513;1705.73343992;1741.88143335;1739.62218376"
            },
            {
                "class": "Wall",
                "xn": "442.812919502;466.53504019;467.664664985;442.812919502",
                "yn": "141.203099331;141.203099331;297.091320993;295.961696198"
            },
            {
                "class": "Wall",
                "xn": "445.286118393;444.88314453;527.895760267;528.298734129",
                "yn": "296.991736883;310.289874355;310.289874355;295.379841432"
            },
            {
                "class": "Wall",
                "xn": "445.440699167;459.861441226;460.236448703;443.758847453;443.758847453;443.758847453",
                "yn": "310.045954276;310.847106613;2429.59389463;2428.45750834;2428.45750834;2428.45750834"
            },
            {
                "class": "door",
                "height": 159.6961489695475,
                "width": 136.36974518747877,
                "x": 654.9336446503911,
                "y": 1214.7673354200406
            },
            {
                "class": "door",
                "height": 136.1661322793974,
                "width": 118.35000282227998,
                "x": 976.069378114933,
                "y": 727.9161463907975
            },
            {
                "class": "door",
                "height": 115.74427614388378,
                "width": 142.53693265867173,
                "x": 1269.9719188009474,
                "y": 936.6712717569858
            },
            {
                "class": "door",
                "height": 168.7259491801949,
                "width": 150.93695134330528,
                "x": 1516.9163610002172,
                "y": 1364.9012885758884
            }
        ],
        "class": "image",
        "filename": "25_250.png"
    }
]
