[
    {
        "annotations": [
            {
                "class": "Door",
                "xn": "2588;2719;2719;2588",
                "yn": "5889;5889;5893;5893"
            },
            {
                "class": "Door",
                "xn": "1830;1906;1906;1830",
                "yn": "5888;5888;5897;5897"
            },
            {
                "class": "Door",
                "xn": "2588;2719;2719;2588",
                "yn": "5889;5889;5893;5893"
            },
            {
                "class": "Window",
                "xn": "5049;5127;5127;5049",
                "yn": "3696;3696;4203;4203"
            },
            {
                "class": "Window",
                "xn": "5049;5127;5127;5049",
                "yn": "3696;3696;4778;4778"
            },
            {
                "class": "Window",
                "xn": "5266;5344;5344;5266",
                "yn": "386;386;746;746"
            },
            {
                "class": "Wall",
                "xn": "5051;5126;5126;5051",
                "yn": "3622;3622;5975;5975"
            },
            {
                "class": "Wall",
                "xn": "5629;5704;5704;5629",
                "yn": "3079;3079;5975;5975"
            },
            {
                "class": "Wall",
                "xn": "5267;6537;6537;5267",
                "yn": "746;746;821;821"
            },
            {
                "class": "Wall",
                "xn": "311;5344;5344;311",
                "yn": "312;312;387;387"
            },
            {
                "class": "Wall",
                "xn": "2103;2178;2178;2103",
                "yn": "312;312;1310;1310"
            },
            {
                "class": "Wall",
                "xn": "312;387;387;312",
                "yn": "2980;2980;5162;5162"
            },
            {
                "class": "Wall",
                "xn": "312;387;387;312",
                "yn": "312;312;2719;2719"
            },
            {
                "class": "Wall",
                "xn": "3295;5127;5127;3295",
                "yn": "3622;3622;3697;3697"
            },
            {
                "class": "Wall",
                "xn": "6461;6536;6536;6461",
                "yn": "746;746;2774;2774"
            },
            {
                "class": "Wall",
                "xn": "5267;6537;6537;5267",
                "yn": "2699;2699;2774;2774"
            },
            {
                "class": "Wall",
                "xn": "311;822;822;311",
                "yn": "3622;3622;3697;3697"
            },
            {
                "class": "Wall",
                "xn": "311;1718;1718;311",
                "yn": "1235;1235;1310;1310"
            },
            {
                "class": "Wall",
                "xn": "311;4078;4078;311",
                "yn": "5087;5087;5162;5162"
            },
            {
                "class": "Wall",
                "xn": "4002;4077;4077;4002",
                "yn": "312;312;1689;1689"
            },
            {
                "class": "Wall",
                "xn": "1206;1281;1281;1206",
                "yn": "312;312;894;894"
            },
            {
                "class": "Wall",
                "xn": "1560;1635;1635;1560",
                "yn": "1235;1235;1762;1762"
            },
            {
                "class": "Wall",
                "xn": "4941;5705;5705;4941",
                "yn": "3079;3079;3154;3154"
            },
            {
                "class": "Wall",
                "xn": "4001;4403;4403;4001",
                "yn": "3079;3079;3154;3154"
            },
            {
                "class": "Wall",
                "xn": "1686;2360;2360;1686",
                "yn": "3622;3622;3697;3697"
            },
            {
                "class": "Wall",
                "xn": "4002;4077;4077;4002",
                "yn": "3595;3595;5162;5162"
            },
            {
                "class": "Wall",
                "xn": "5268;5343;5343;5268",
                "yn": "312;312;1870;1870"
            },
            {
                "class": "Wall",
                "xn": "2187;2504;2504;2187",
                "yn": "692;692;767;767"
            },
            {
                "class": "Wall",
                "xn": "312;387;387;312",
                "yn": "2799;2799;2912;2912"
            },
            {
                "class": "Wall",
                "xn": "2121;2196;2196;2121",
                "yn": "1687;1687;3697;3697"
            },
            {
                "class": "Wall",
                "xn": "5268;5343;5343;5268",
                "yn": "2591;2591;3154;3154"
            },
            {
                "class": "Wall",
                "xn": "4002;4077;4077;4002",
                "yn": "2609;2609;3199;3199"
            },
            {
                "class": "Wall",
                "xn": "5050;5705;5705;5050",
                "yn": "5899;5899;5975;5975"
            },
            {
                "class": "Wall",
                "xn": "1559;1718;1718;1559",
                "yn": "1686;1686;1762;1762"
            },
            {
                "class": "Wall",
                "xn": "3693;4078;4078;3693",
                "yn": "692;692;767;767"
            },
            {
                "class": "Wall",
                "xn": "311;506;506;311",
                "yn": "1571;1571;1648;1648"
            },
            {
                "class": "Wall",
                "xn": "1424;1636;1636;1424",
                "yn": "1571;1571;1648;1648"
            },
            {
                "class": "Wall",
                "xn": "312;348;348;312",
                "yn": "312;312;5162;5162"
            },
            {
                "class": "Wall",
                "xn": "2057;2179;2179;2057",
                "yn": "1234;1234;1310;1310"
            },
            {
                "class": "Wall",
                "xn": "2057;2197;2197;2057",
                "yn": "1687;1687;1758;1758"
            },
            {
                "class": "Wall",
                "xn": "311;578;578;311",
                "yn": "1643;1643;1648;1648"
            },
            {
                "class": "Wall",
                "xn": "4905;6537;6537;4905",
                "yn": "763;763;768;768"
            },
            {
                "class": "Wall",
                "xn": "4001;4374;4374;4001",
                "yn": "839;839;844;844"
            },
            {
                "class": "Wall",
                "xn": "4001;4374;4374;4001",
                "yn": "1360;1360;1365;1365"
            },
            {
                "class": "Wall",
                "xn": "1351;1636;1636;1351",
                "yn": "1643;1643;1648;1648"
            },
            {
                "class": "Wall",
                "xn": "4968;5344;5344;4968",
                "yn": "1532;1532;1537;1537"
            },
            {
                "class": "Wall",
                "xn": "4368;4373;4373;4368",
                "yn": "840;840;1364;1364"
            },
            {
                "class": "Wall",
                "xn": "1903;1916;1916;1903",
                "yn": "5804;5804;5896;5896"
            },
            {
                "class": "Text",
                "height": 132,
                "text": "storage",
                "width": 502,
                "x": 2825,
                "y": 503
            },
            {
                "class": "Text",
                "height": 106,
                "text": "bath",
                "width": 277,
                "x": 1555,
                "y": 844
            },
            {
                "class": "Text",
                "height": 107,
                "text": "bedroom",
                "width": 582,
                "x": 972,
                "y": 2670
            },
            {
                "class": "Text",
                "height": 80,
                "text": "cl",
                "width": 68,
                "x": 2636,
                "y": 5817
            },
            {
                "class": "Text",
                "height": 132.60315295437385,
                "text": "closet",
                "width": 492.23897687608405,
                "x": 755.4361441037047,
                "y": 1376.2599965719087
            },
            {
                "class": "door",
                "height": 75.10573738803669,
                "width": 465.6555718058279,
                "x": 952.3407500803061,
                "y": 1574.2162556532503
            },
            {
                "class": "door",
                "height": 71.34649747558262,
                "width": 1177.2172083471128,
                "x": 2511.3967111405073,
                "y": 695.6283503869303
            },
            {
                "class": "door",
                "height": 60.35913686434242,
                "width": 543.2322317790849,
                "x": 4401.187063025,
                "y": 3088.3758362255426
            },
            {
                "class": "door",
                "height": 82.0484720969198,
                "width": 866.8599443283285,
                "x": 820.4847209691998,
                "y": 3617.2674220120375
            },
            {
                "class": "window",
                "height": 67.77917260180357,
                "width": 941.7737666776902,
                "x": 2358.0017415680045,
                "y": 3624.402071759596
            },
            {
                "class": "window",
                "height": 720.1138100764963,
                "width": 67.77541741896493,
                "x": 5269.538704324479,
                "y": 1872.2959061988906
            },
            {
                "class": "Text",
                "height": 338.89586300901715,
                "text": "living room",
                "width": 442.34828434861174,
                "x": 2907.36977212999,
                "y": 2047.6444775492198
            },
            {
                "class": "Text",
                "height": 317.69726915139563,
                "text": "dining room",
                "width": 499.8437034648623,
                "x": 4379.986350700574,
                "y": 2130.689685108693
            },
            {
                "class": "Text",
                "height": 615.1889919847627,
                "text": "kitchen",
                "width": 161.26313382124863,
                "x": 4593.012959575558,
                "y": 716.7250392055487
            },
            {
                "class": "Text",
                "height": 352.3898109427282,
                "text": "side patio",
                "width": 400.1714802230981,
                "x": 5709.9094790042045,
                "y": 1564.8496689321146
            },
            {
                "class": "Text",
                "height": 252.64557631995558,
                "text": "front patio",
                "width": 875.837997909181,
                "x": 1768.5190342396922,
                "y": 4303.396316649918
            },
            {
                "class": "door",
                "height": 326.169196328766,
                "width": 330.4051599174512,
                "x": 940.3839166881306,
                "y": 898.0242808012779
            },
            {
                "class": "door",
                "height": 69.09727839699394,
                "width": 450.6344243282206,
                "x": 501.7063257520856,
                "y": 1574.2162556532505
            },
            {
                "class": "door",
                "height": 336.4737034984046,
                "width": 333.4694740028831,
                "x": 1721.4235009338026,
                "y": 1691.381205978588
            },
            {
                "class": "door",
                "height": 336.4923462500882,
                "width": 344.0823991730224,
                "x": 1712.821942942178,
                "y": 974.056791776571
            },
            {
                "class": "door",
                "height": 412.4541019063431,
                "width": 377.24460540214295,
                "x": 3686.937276796945,
                "y": 3194.0043257381444
            },
            {
                "class": "Stairs",
                "xn": "4080.25448064;4080.25448064;5131.82166308;5136.16698202;5635.87865963;5622.84270282",
                "yn": "3163.3921852;3628.34131132;3619.65067345;5900.94311471;5900.94311471;3154.70154733"
            }
        ],
        "class": "image",
        "filename": "34.png"
    }
]
