[
    {
        "annotations": [
            {
                "class": "Door",
                "xn": "1094;1135;1135;1094",
                "yn": "502;502;509;509"
            },
            {
                "class": "Window",
                "xn": "3790;3822;3822;3790",
                "yn": "1249;1249;2461;2461"
            },
            {
                "class": "Wall",
                "xn": "3101;3162;3162;3101",
                "yn": "2656;2656;4155;4155"
            },
            {
                "class": "Wall",
                "xn": "2592;3139;3139;2592",
                "yn": "2656;2656;2694;2694"
            },
            {
                "class": "Wall",
                "xn": "3611;3649;3649;3611",
                "yn": "3460;3460;4155;4155"
            },
            {
                "class": "Wall",
                "xn": "2350;2387;2387;2350",
                "yn": "3530;3530;4155;4155"
            },
            {
                "class": "Wall",
                "xn": "4613;5555;5555;4613",
                "yn": "3402;3402;3440;3440"
            },
            {
                "class": "Wall",
                "xn": "2343;2379;2379;2343",
                "yn": "2490;2490;3137;3137"
            },
            {
                "class": "Wall",
                "xn": "2308;2624;2624;2308",
                "yn": "2493;2493;2526;2526"
            },
            {
                "class": "Wall",
                "xn": "3791;3822;3822;3791",
                "yn": "790;790;1250;1250"
            },
            {
                "class": "Wall",
                "xn": "3100;3192;3192;3100",
                "yn": "3464;3464;3492;3492"
            },
            {
                "class": "Wall",
                "xn": "5086;5555;5555;5086",
                "yn": "4169;4169;4236;4236"
            },
            {
                "class": "Wall",
                "xn": "4349;4590;4590;4349",
                "yn": "4169;4169;4237;4237"
            },
            {
                "class": "Wall",
                "xn": "3583;3650;3650;3583",
                "yn": "3460;3460;3498;3498"
            },
            {
                "class": "Wall",
                "xn": "3100;3199;3199;3100",
                "yn": "3498;3498;3504;3504"
            },
            {
                "class": "Wall",
                "xn": "3577;3650;3650;3577",
                "yn": "3498;3498;3504;3504"
            },
            {
                "class": "Wall",
                "xn": "2342;2427;2427;2342",
                "yn": "3523;3523;3528;3528"
            },
            {
                "class": "Wall",
                "xn": "4602;4648;4648;4602",
                "yn": "3394;3394;3400;3400"
            },
            {
                "class": "Wall",
                "xn": "2342;2394;2394;2342",
                "yn": "3139;3139;3144;3144"
            },
            {
                "class": "Wall",
                "xn": "1090;1095;1095;1090",
                "yn": "503;503;551;551"
            },
            {
                "class": "Text",
                "height": 57,
                "text": "balcony",
                "width": 351,
                "x": 2594,
                "y": 312
            },
            {
                "class": "Text",
                "height": 57,
                "text": "balcony",
                "width": 353,
                "x": 260,
                "y": 2332
            },
            {
                "class": "Text",
                "height": 57,
                "text": "bedroom",
                "width": 381,
                "x": 1375,
                "y": 3173
            },
            {
                "class": "Wall",
                "xn": "795.513446853;906.10051794;909.667842814;2347.29976695;2350.86709182;3164.21716304;3164.21716304;4562.60851356;4559.04118869;4591.14711255;4605.41641205;4352.13634601;4337.86704652;795.513446853",
                "yn": "3877.6821378;3877.6821378;3973.99990939;3966.86525964;3856.27818856;3856.27818856;3966.86525964;3963.29793477;4155.93347795;4155.93347795;4180.90475207;4180.90475207;4148.79882821;4152.36615308"
            },
            {
                "class": "Wall",
                "xn": "788.378797105;791.946121979;913.235167687;909.667842814;1455.4685485;1462.60319825;1487.57447237;1494.70912211",
                "yn": "791.946121979;1177.21720835;1187.91918297;1162.94790885;1155.8132591;909.667842814;909.667842814;788.378797105"
            },
            {
                "class": "Wall",
                "xn": "1849.96325379;1853.5519313;1819.459495;1817.66515625",
                "yn": "850.516568669;1740.50858989;1740.50858989;854.105246174"
            },
            {
                "class": "Wall",
                "xn": "787.286136093;793.330559403;909.685708115;914.219025598;1848.08242695;1854.12685026;1916.08218919;1913.05997753;1819.37141623;1813.32699292;915.730131425;911.196813943",
                "yn": "2564.34658916;2136.70363999;2138.21474582;2163.90354489;2168.43686237;2494.83572109;2488.79129778;2522.03562599;2525.05783764;2207.72561388;2207.72561388;2565.85769498"
            },
            {
                "class": "Text",
                "height": 635.0344278855063,
                "text": "privacy screen",
                "width": 78.43054687032145,
                "x": 4303.560007303769,
                "y": 86.02059979325584
            },
            {
                "class": "Text",
                "height": 177.10123486846805,
                "text": "mv d/w",
                "width": 164.45114666357722,
                "x": 3896.2271671062945,
                "y": 1305.4891027447063
            },
            {
                "class": "Text",
                "height": 81.11419637907966,
                "text": "live/dine",
                "width": 390.5498344177922,
                "x": 2712.8192344558965,
                "y": 2178.066384253073
            },
            {
                "class": "Text",
                "height": 90.12688486564457,
                "text": "den",
                "width": 180.25376973128868,
                "x": 1213.7087161906782,
                "y": 1733.440418915894
            },
            {
                "class": "Text",
                "height": 65.78045866543107,
                "text": "w/d",
                "width": 161.92112902259942,
                "x": 3301.673021476439,
                "y": 3764.6662497754337
            },
            {
                "class": "window",
                "height": 76.24734459633487,
                "width": 707.4059193104408,
                "x": 3075.309565385508,
                "y": 787.8892274954608
            },
            {
                "class": "window",
                "height": 715.0066199341104,
                "width": 69.09727839699383,
                "x": 790.1123573221469,
                "y": 2568.6162186708575
            },
            {
                "class": "door",
                "height": 246.34681863276091,
                "width": 384.5413754267481,
                "x": 1916.6984181426985,
                "y": 2481.493563300735
            },
            {
                "class": "door",
                "height": 387.54560492226983,
                "width": 237.334130146196,
                "x": 2349.3074654977904,
                "y": 3142.4240523154585
            },
            {
                "class": "door",
                "height": 132.10087143427745,
                "width": 289.76965346873794,
                "x": 2806.0781883700565,
                "y": 3083.063886538703
            },
            {
                "class": "Wall",
                "xn": "2385.8765617;2587.29653266",
                "yn": "3095.78694992;3095.78694992"
            },
            {
                "class": "Wall",
                "xn": "2381.33131103;2388.83325486",
                "yn": "3094.01597433;3094.01597433"
            },
            {
                "class": "door",
                "height": 232.24185461832712,
                "width": 385.64931821942355,
                "x": 3191.7275065894837,
                "y": 3266.30057917335
            },
            {
                "class": "door",
                "height": 237.82165825194215,
                "width": 371.9125932237821,
                "x": 4227.659478074424,
                "y": 3213.1224040422017
            },
            {
                "class": "door",
                "height": 294.4144905611047,
                "width": 498.7020962565657,
                "x": 4582.041149946155,
                "y": 3944.553327619701
            },
            {
                "class": "Text",
                "height": 92.75044671825754,
                "text": "f",
                "width": 82.0484720969198,
                "x": 3931.192010904612,
                "y": 2557.771934499643
            },
            {
                "class": "Text",
                "height": 74.91382234936191,
                "text": "privacy screen",
                "width": 624.2818529113496,
                "x": 121.28904570849079,
                "y": 4116.692904341128
            },
            {
                "class": "Wall",
                "xn": "3816.60319341;4418.110023;4413.87405941;5383.90972122;5379.67375763;5544.87633759;5540.640374;5540.640374;5121.27997872;5104.33612437;5443.21321146;5426.26935711;4642.6160932;4642.6160932;5282.24659509;5286.48255868;4185.13202562;4176.66009844;4209.44335106;4227.27997543;4148.79882821;4145.23150333;4130.96220384;4123.82755409;3824.17226469;3824.17226469;3824.17226469",
                "yn": "787.889227495;783.653263907;2456.85888144;2469.5667722;3062.60167462;3066.83763821;4159.71624409;4159.71624409;4155.4802805;3964.86191901;3977.56980978;3443.8383976;3435.36647042;3397.24279813;3405.7147253;2685.60091523;2677.12898805;3397.24279813;3410.36257933;3442.4685032;3431.76652858;2757.54212743;2757.54212743;1244.99638095;1248.56370582;1248.56370582;1248.56370582"
            },
            {
                "class": "window",
                "height": 531.5314061930922,
                "width": 74.91382234936191,
                "x": 5101.274569504172,
                "y": 3435.333853449313
            },
            {
                "class": "Wall",
                "xn": "2382.27102455;2589.70167466",
                "yn": "2755.13716248;2757.68232383"
            },
            {
                "class": "Wall",
                "xn": "2382.27102455;2589.70167466;2589.70167466;2380.99844388",
                "yn": "2755.13716248;2758.9549045;3096.18878351;3096.18878351"
            },
            {
                "class": "Wall",
                "xn": "2592.45744437;2591.38573811;2623.53692593;2622.46521967;2591.38573811",
                "yn": "2522.79653743;3095.08768059;3096.15938685;2488.50193709;2488.50193709"
            }
        ],
        "class": "image",
        "filename": "35_250.png"
    }
]
