[
    {
        "annotations": [
            {
                "class": "Door", 
                "xn": "487;619;619;487", 
                "yn": "2274;2274;2293;2293"
            }, 
            {
                "class": "Door", 
                "xn": "1829;1975;1975;1829", 
                "yn": "2907;2907;2927;2927"
            }, 
            {
                "class": "Door", 
                "xn": "1829;1975;1975;1829", 
                "yn": "2907;2907;2927;2927"
            }, 
            {
                "class": "Door", 
                "xn": "440;591;591;440", 
                "yn": "3166;3166;3184;3184"
            }, 
            {
                "class": "Door", 
                "xn": "440;591;591;440", 
                "yn": "3166;3166;3184;3184"
            }, 
            {
                "class": "Door", 
                "xn": "2406;2539;2539;2406", 
                "yn": "2376;2376;2397;2397"
            }, 
            {
                "class": "Door", 
                "xn": "2406;2539;2539;2406", 
                "yn": "2376;2376;2397;2397"
            }, 
            {
                "class": "Door", 
                "xn": "623;755;755;623", 
                "yn": "3405;3405;3417;3417"
            }, 
            {
                "class": "Door", 
                "xn": "2394;2548;2548;2394", 
                "yn": "3277;3277;3299;3299"
            }, 
            {
                "class": "Door", 
                "xn": "2394;2548;2548;2394", 
                "yn": "3277;3277;3299;3299"
            }, 
            {
                "class": "Door", 
                "xn": "1595;1728;1728;1595", 
                "yn": "3741;3741;3759;3759"
            }, 
            {
                "class": "Door", 
                "xn": "1595;1728;1728;1595", 
                "yn": "3741;3741;3759;3759"
            }, 
            {
                "class": "Door", 
                "xn": "2178;2196;2196;2178", 
                "yn": "3387;3387;3569;3569"
            }, 
            {
                "class": "Door", 
                "xn": "2991;3020;3020;2991", 
                "yn": "2268;2268;2414;2414"
            }, 
            {
                "class": "Door", 
                "xn": "908;917;917;908", 
                "yn": "2330;2330;2473;2473"
            }, 
            {
                "class": "Door", 
                "xn": "908;917;917;908", 
                "yn": "2330;2330;2473;2473"
            }, 
            {
                "class": "Door", 
                "xn": "2818;2838;2838;2818", 
                "yn": "3234;3234;3376;3376"
            }, 
            {
                "class": "Door", 
                "xn": "2818;2838;2838;2818", 
                "yn": "3234;3234;3376;3376"
            }, 
            {
                "class": "Door", 
                "xn": "1754;1772;1772;1754", 
                "yn": "3563;3563;3697;3697"
            }, 
            {
                "class": "Door", 
                "xn": "1754;1772;1772;1754", 
                "yn": "3563;3563;3697;3697"
            }, 
            {
                "class": "Door", 
                "xn": "2073;2102;2102;2073", 
                "yn": "3587;3587;3731;3731"
            }, 
            {
                "class": "Door", 
                "xn": "1112;1139;1139;1112", 
                "yn": "2027;2027;2161;2161"
            }, 
            {
                "class": "Door", 
                "xn": "1112;1139;1139;1112", 
                "yn": "2027;2027;2161;2161"
            }, 
            {
                "class": "Door", 
                "xn": "2818;2838;2838;2818", 
                "yn": "2269;2269;2411;2411"
            }, 
            {
                "class": "Door", 
                "xn": "891;910;910;891", 
                "yn": "3237;3237;3357;3357"
            }, 
            {
                "class": "Door", 
                "xn": "891;910;910;891", 
                "yn": "3237;3237;3357;3357"
            }, 
            {
                "class": "Door", 
                "xn": "2991;3022;3022;2991", 
                "yn": "3232;3232;3376;3376"
            }, 
            {
                "class": "Door", 
                "xn": "3088;3133;3133;3088", 
                "yn": "4327;4327;4462;4462"
            }, 
            {
                "class": "Window", 
                "xn": "1065;1254;1254;1065", 
                "yn": "148;148;179;179"
            }, 
            {
                "class": "Window", 
                "xn": "2179;2368;2368;2179", 
                "yn": "148;148;179;179"
            }, 
            {
                "class": "Window", 
                "xn": "1187;1511;1511;1187", 
                "yn": "4035;4035;4097;4097"
            }, 
            {
                "class": "Window", 
                "xn": "2836;2961;2961;2836", 
                "yn": "2646;2646;2665;2665"
            }, 
            {
                "class": "Window", 
                "xn": "728;886;886;728", 
                "yn": "2277;2277;2290;2290"
            }, 
            {
                "class": "Window", 
                "xn": "1253;2181;2181;1253", 
                "yn": "117;117;149;149"
            }, 
            {
                "class": "Window", 
                "xn": "2353;2396;2396;2353", 
                "yn": "2396;2396;2587;2587"
            }, 
            {
                "class": "Window", 
                "xn": "2321;2359;2359;2321", 
                "yn": "1362;1362;1910;1910"
            }, 
            {
                "class": "Window", 
                "xn": "2377;2395;2395;2377", 
                "yn": "3070;3070;3278;3278"
            }, 
            {
                "class": "Window", 
                "xn": "523;788;788;523", 
                "yn": "4084;4084;4127;4127"
            }, 
            {
                "class": "Window", 
                "xn": "2353;2396;2396;2353", 
                "yn": "2396;2396;2610;2610"
            }, 
            {
                "class": "Window", 
                "xn": "1253;2180;2180;1253", 
                "yn": "117;117;149;149"
            }, 
            {
                "class": "Window", 
                "xn": "2321;2364;2364;2321", 
                "yn": "210;210;654;654"
            }, 
            {
                "class": "Window", 
                "xn": "3088;3134;3134;3088", 
                "yn": "3676;3676;3944;3944"
            }, 
            {
                "class": "Window", 
                "xn": "1805;2071;2071;1805", 
                "yn": "4461;4461;4503;4503"
            }, 
            {
                "class": "Window", 
                "xn": "2353;2396;2396;2353", 
                "yn": "2396;2396;2618;2618"
            }, 
            {
                "class": "Window", 
                "xn": "2335;2364;2364;2335", 
                "yn": "210;210;654;654"
            }, 
            {
                "class": "Window", 
                "xn": "1066;1096;1096;1066", 
                "yn": "210;210;655;655"
            }, 
            {
                "class": "Window", 
                "xn": "1628;1639;1639;1628", 
                "yn": "3394;3394;3505;3505"
            }, 
            {
                "class": "Wall", 
                "xn": "1082;1188;1188;1082", 
                "yn": "4036;4036;4119;4119"
            }, 
            {
                "class": "Wall", 
                "xn": "243;325;325;243", 
                "yn": "914;914;4127;4127"
            }, 
            {
                "class": "Wall", 
                "xn": "1531;1613;1613;1531", 
                "yn": "4036;4036;4503;4503"
            }, 
            {
                "class": "Wall", 
                "xn": "2115;2365;2365;2115", 
                "yn": "654;654;729;729"
            }, 
            {
                "class": "Wall", 
                "xn": "767;842;842;767", 
                "yn": "1917;1917;2072;2072"
            }, 
            {
                "class": "Wall", 
                "xn": "1067;1321;1321;1067", 
                "yn": "655;655;728;728"
            }, 
            {
                "class": "Wall", 
                "xn": "2143;2275;2275;2143", 
                "yn": "2679;2679;2753;2753"
            }, 
            {
                "class": "Wall", 
                "xn": "1040;1187;1187;1040", 
                "yn": "3630;3630;3704;3704"
            }, 
            {
                "class": "Wall", 
                "xn": "656;729;729;656", 
                "yn": "2187;2187;2293;2293"
            }, 
            {
                "class": "Wall", 
                "xn": "1512;1582;1582;1512", 
                "yn": "3653;3653;3759;3759"
            }, 
            {
                "class": "Wall", 
                "xn": "1589;1656;1656;1589", 
                "yn": "2640;2640;2753;2753"
            }, 
            {
                "class": "Wall", 
                "xn": "2222;2335;2335;2222", 
                "yn": "2958;2958;3023;3023"
            }, 
            {
                "class": "Wall", 
                "xn": "1238;1302;1302;1238", 
                "yn": "2548;2548;3104;3104"
            }, 
            {
                "class": "Wall", 
                "xn": "2211;2396;2396;2211", 
                "yn": "2618;2618;2679;2679"
            }, 
            {
                "class": "Wall", 
                "xn": "1086;1224;1224;1086", 
                "yn": "1372;1372;1431;1431"
            }, 
            {
                "class": "Wall", 
                "xn": "1086;1224;1224;1086", 
                "yn": "1578;1578;1638;1638"
            }, 
            {
                "class": "Wall", 
                "xn": "2596;2653;2653;2596", 
                "yn": "2703;2703;2944;2944"
            }, 
            {
                "class": "Wall", 
                "xn": "1183;1238;1238;1183", 
                "yn": "2362;2362;2492;2492"
            }, 
            {
                "class": "Wall", 
                "xn": "978;1062;1062;978", 
                "yn": "3407;3407;3460;3460"
            }, 
            {
                "class": "Wall", 
                "xn": "1046;1098;1098;1046", 
                "yn": "3167;3167;3366;3366"
            }, 
            {
                "class": "Wall", 
                "xn": "3088;3134;3134;3088", 
                "yn": "1321;1321;3677;3677"
            }, 
            {
                "class": "Wall", 
                "xn": "1110;1156;1156;1110", 
                "yn": "2161;2161;2322;2322"
            }, 
            {
                "class": "Wall", 
                "xn": "3089;3134;3134;3089", 
                "yn": "3944;3944;4328;4328"
            }, 
            {
                "class": "Wall", 
                "xn": "2380;3135;3135;2380", 
                "yn": "4107;4107;4151;4151"
            }, 
            {
                "class": "Wall", 
                "xn": "1068;1112;1112;1068", 
                "yn": "655;655;2011;2011"
            }, 
            {
                "class": "Wall", 
                "xn": "2071;3133;3133;2071", 
                "yn": "4462;4462;4504;4504"
            }, 
            {
                "class": "Wall", 
                "xn": "1569;1806;1806;1569", 
                "yn": "4461;4461;4503;4503"
            }, 
            {
                "class": "Wall", 
                "xn": "788;1173;1173;788", 
                "yn": "4083;4083;4127;4127"
            }, 
            {
                "class": "Wall", 
                "xn": "2381;2423;2423;2381", 
                "yn": "4107;4107;4504;4504"
            }, 
            {
                "class": "Wall", 
                "xn": "242;524;524;242", 
                "yn": "4085;4085;4127;4127"
            }, 
            {
                "class": "Wall", 
                "xn": "3013;3135;3135;3013", 
                "yn": "1321;1321;1364;1364"
            }, 
            {
                "class": "Wall", 
                "xn": "890;981;981;890", 
                "yn": "2476;2476;2519;2519"
            }, 
            {
                "class": "Wall", 
                "xn": "2322;2364;2364;2322", 
                "yn": "654;654;781;781"
            }, 
            {
                "class": "Wall", 
                "xn": "1645;1773;1773;1645", 
                "yn": "3505;3505;3548;3548"
            }, 
            {
                "class": "Wall", 
                "xn": "2355;2395;2395;2355", 
                "yn": "3366;3366;3759;3759"
            }, 
            {
                "class": "Wall", 
                "xn": "2355;2395;2395;2355", 
                "yn": "1321;1321;2654;2654"
            }, 
            {
                "class": "Wall", 
                "xn": "766;806;806;766", 
                "yn": "1917;1917;2193;2193"
            }, 
            {
                "class": "Wall", 
                "xn": "2251;2378;2378;2251", 
                "yn": "1910;1910;1947;1947"
            }, 
            {
                "class": "Wall", 
                "xn": "1545;1581;1581;1545", 
                "yn": "2908;2908;3198;3198"
            }, 
            {
                "class": "Wall", 
                "xn": "2223;2259;2259;2223", 
                "yn": "2908;2908;3210;3210"
            }, 
            {
                "class": "Wall", 
                "xn": "2550;2653;2653;2550", 
                "yn": "2908;2908;2942;2942"
            }, 
            {
                "class": "Wall", 
                "xn": "242;382;382;242", 
                "yn": "2492;2492;2528;2528"
            }, 
            {
                "class": "Wall", 
                "xn": "2550;2653;2653;2550", 
                "yn": "2702;2702;2737;2737"
            }, 
            {
                "class": "Wall", 
                "xn": "766;886;886;766", 
                "yn": "1924;1924;1958;1958"
            }, 
            {
                "class": "Wall", 
                "xn": "242;386;386;242", 
                "yn": "2811;2811;2846;2846"
            }, 
            {
                "class": "Wall", 
                "xn": "889;1241;1241;889", 
                "yn": "3167;3167;3200;3200"
            }, 
            {
                "class": "Wall", 
                "xn": "1066;1254;1254;1066", 
                "yn": "118;118;149;149"
            }, 
            {
                "class": "Wall", 
                "xn": "2180;2368;2368;2180", 
                "yn": "118;118;149;149"
            }, 
            {
                "class": "Wall", 
                "xn": "1066;1254;1254;1066", 
                "yn": "179;179;211;211"
            }, 
            {
                "class": "Wall", 
                "xn": "2181;2211;2211;2181", 
                "yn": "118;118;211;211"
            }, 
            {
                "class": "Wall", 
                "xn": "2180;2368;2368;2180", 
                "yn": "179;179;211;211"
            }, 
            {
                "class": "Wall", 
                "xn": "1069;1099;1099;1069", 
                "yn": "3594;3594;3704;3704"
            }, 
            {
                "class": "Wall", 
                "xn": "655;775;775;655", 
                "yn": "2187;2187;2218;2218"
            }, 
            {
                "class": "Wall", 
                "xn": "945;1301;1301;945", 
                "yn": "2733;2733;2765;2765"
            }, 
            {
                "class": "Wall", 
                "xn": "2982;3135;3135;2982", 
                "yn": "3376;3376;3406;3406"
            }, 
            {
                "class": "Wall", 
                "xn": "1886;1914;1914;1886", 
                "yn": "3424;3424;3759;3759"
            }, 
            {
                "class": "Wall", 
                "xn": "1223;1251;1251;1223", 
                "yn": "118;118;211;211"
            }, 
            {
                "class": "Wall", 
                "xn": "2258;2396;2396;2258", 
                "yn": "2587;2587;2615;2615"
            }, 
            {
                "class": "Wall", 
                "xn": "2550;2849;2849;2550", 
                "yn": "2241;2241;2270;2270"
            }, 
            {
                "class": "Wall", 
                "xn": "2548;2849;2849;2548", 
                "yn": "3376;3376;3405;3405"
            }, 
            {
                "class": "Wall", 
                "xn": "2336;2364;2364;2336", 
                "yn": "118;118;211;211"
            }, 
            {
                "class": "Wall", 
                "xn": "2058;2396;2396;2058", 
                "yn": "3731;3731;3759;3759"
            }, 
            {
                "class": "Wall", 
                "xn": "1073;1202;1202;1073", 
                "yn": "2183;2183;2212;2212"
            }, 
            {
                "class": "Wall", 
                "xn": "1067;1096;1096;1067", 
                "yn": "118;118;211;211"
            }, 
            {
                "class": "Wall", 
                "xn": "2982;3135;3135;2982", 
                "yn": "2241;2241;2269;2269"
            }, 
            {
                "class": "Wall", 
                "xn": "1239;1263;1263;1239", 
                "yn": "2476;2476;3177;3177"
            }, 
            {
                "class": "Wall", 
                "xn": "926;950;950;926", 
                "yn": "2474;2474;2565;2565"
            }, 
            {
                "class": "Wall", 
                "xn": "1043;1068;1068;1043", 
                "yn": "3602;3602;3704;3704"
            }, 
            {
                "class": "Wall", 
                "xn": "1562;2243;2243;1562", 
                "yn": "3188;3188;3211;3211"
            }, 
            {
                "class": "Wall", 
                "xn": "2595;3135;3135;2595", 
                "yn": "2811;2811;2835;2835"
            }, 
            {
                "class": "Wall", 
                "xn": "1883;1906;1906;1883", 
                "yn": "3188;3188;3307;3307"
            }, 
            {
                "class": "Wall", 
                "xn": "2222;2397;2397;2222", 
                "yn": "2999;2999;3024;3024"
            }, 
            {
                "class": "Wall", 
                "xn": "2548;2569;2569;2548", 
                "yn": "2912;2912;3405;3405"
            }, 
            {
                "class": "Wall", 
                "xn": "931;981;981;931", 
                "yn": "2543;2543;2566;2566"
            }, 
            {
                "class": "Wall", 
                "xn": "1047;1067;1067;1047", 
                "yn": "3167;3167;3455;3455"
            }, 
            {
                "class": "Wall", 
                "xn": "1975;1995;1995;1975", 
                "yn": "2908;2908;3211;3211"
            }, 
            {
                "class": "Wall", 
                "xn": "1033;1224;1224;1033", 
                "yn": "1926;1926;1946;1946"
            }, 
            {
                "class": "Wall", 
                "xn": "2819;2838;2838;2819", 
                "yn": "2411;2411;2528;2528"
            }, 
            {
                "class": "Wall", 
                "xn": "1168;1187;1187;1168", 
                "yn": "3653;3653;4096;4096"
            }, 
            {
                "class": "Wall", 
                "xn": "242;488;488;242", 
                "yn": "2275;2275;2294;2294"
            }, 
            {
                "class": "Wall", 
                "xn": "1629;1893;1893;1629", 
                "yn": "3505;3505;3525;3525"
            }, 
            {
                "class": "Wall", 
                "xn": "2992;3135;3135;2992", 
                "yn": "2414;2414;2434;2434"
            }, 
            {
                "class": "Wall", 
                "xn": "2961;3135;3135;2961", 
                "yn": "2645;2645;2665;2665"
            }, 
            {
                "class": "Wall", 
                "xn": "242;878;878;242", 
                "yn": "1917;1917;1936;1936"
            }, 
            {
                "class": "Wall", 
                "xn": "1511;1530;1530;1511", 
                "yn": "3653;3653;4097;4097"
            }, 
            {
                "class": "Wall", 
                "xn": "2819;2838;2838;2819", 
                "yn": "3118;3118;3235;3235"
            }, 
            {
                "class": "Wall", 
                "xn": "894;1254;1254;894", 
                "yn": "2473;2473;2493;2493"
            }, 
            {
                "class": "Wall", 
                "xn": "2992;3135;3135;2992", 
                "yn": "3213;3213;3233;3233"
            }, 
            {
                "class": "Wall", 
                "xn": "1547;1830;1830;1547", 
                "yn": "2908;2908;2927;2927"
            }, 
            {
                "class": "Wall", 
                "xn": "2141;2257;2257;2141", 
                "yn": "2908;2908;2928;2928"
            }, 
            {
                "class": "Wall", 
                "xn": "2377;2396;2396;2377", 
                "yn": "3006;3006;3071;3071"
            }, 
            {
                "class": "Wall", 
                "xn": "619;707;707;619", 
                "yn": "2274;2274;2293;2293"
            }, 
            {
                "class": "Wall", 
                "xn": "2961;3135;3135;2961", 
                "yn": "2981;2981;3001;3001"
            }, 
            {
                "class": "Wall", 
                "xn": "1183;1203;1203;1183", 
                "yn": "2322;2322;2492;2492"
            }, 
            {
                "class": "Wall", 
                "xn": "2074;2396;2396;2074", 
                "yn": "3569;3569;3588;3588"
            }, 
            {
                "class": "Wall", 
                "xn": "1573;2256;2256;1573", 
                "yn": "2734;2734;2753;2753"
            }, 
            {
                "class": "Wall", 
                "xn": "770;789;789;770", 
                "yn": "3066;3066;3175;3175"
            }, 
            {
                "class": "Wall", 
                "xn": "980;965;904;919", 
                "yn": "2742;2732;2826;2836"
            }, 
            {
                "class": "Wall", 
                "xn": "1189;1208;1181;1162", 
                "yn": "3212;3192;3166;3186"
            }, 
            {
                "class": "Wall", 
                "xn": "844;881;844;806", 
                "yn": "1989;1949;1914;1953"
            }, 
            {
                "class": "Wall", 
                "xn": "301;335;243;209", 
                "yn": "2806;2783;2641;2663"
            }, 
            {
                "class": "Wall", 
                "xn": "818;812;771;778", 
                "yn": "2915;2898;2912;2929"
            }, 
            {
                "class": "Wall", 
                "xn": "970;954;920;937", 
                "yn": "2743;2733;2804;2811"
            }, 
            {
                "class": "Wall", 
                "xn": "857;848;822;831", 
                "yn": "2893;2877;2892;2908"
            }, 
            {
                "class": "Wall", 
                "xn": "1122;1155;1122;1090", 
                "yn": "1639;1604;1573;1609"
            }, 
            {
                "class": "Wall", 
                "xn": "1150;1175;1081;1057", 
                "yn": "2302;2277;2189;2216"
            }, 
            {
                "class": "Wall", 
                "xn": "2276;2315;2261;2222", 
                "yn": "3024;2985;2930;2969"
            }, 
            {
                "class": "Wall", 
                "xn": "1548;1586;1563;1525", 
                "yn": "4128;4086;4066;4107"
            }, 
            {
                "class": "Wall", 
                "xn": "1124;1156;1124;1091", 
                "yn": "1436;1402;1371;1404"
            }, 
            {
                "class": "Wall", 
                "xn": "1201;1219;1201;1182", 
                "yn": "3204;3183;3166;3186"
            }, 
            {
                "class": "Wall", 
                "xn": "1111;1129;1111;1092", 
                "yn": "3204;3183;3166;3186"
            }, 
            {
                "class": "Wall", 
                "xn": "1113;1139;1139;1113", 
                "yn": "1918;1918;2028;2028"
            }, 
            {
                "class": "Wall", 
                "xn": "2354;2407;2407;2354", 
                "yn": "2377;2377;2397;2397"
            }, 
            {
                "class": "Wall", 
                "xn": "1140;1163;1163;1140", 
                "yn": "1918;1918;2023;2023"
            }, 
            {
                "class": "Wall", 
                "xn": "2322;2359;2359;2322", 
                "yn": "1291;1291;1363;1363"
            }, 
            {
                "class": "Wall", 
                "xn": "1001;1024;1024;1001", 
                "yn": "3407;3407;3470;3470"
            }, 
            {
                "class": "Wall", 
                "xn": "2539;2570;2570;2539", 
                "yn": "2377;2377;2397;2397"
            }, 
            {
                "class": "Wall", 
                "xn": "1093;1112;1112;1093", 
                "yn": "655;655;2023;2023"
            }, 
            {
                "class": "Wall", 
                "xn": "2321;2483;2483;2321", 
                "yn": "1304;1304;1363;1363"
            }, 
            {
                "class": "Wall", 
                "xn": "242;390;390;242", 
                "yn": "2829;2829;2846;2846"
            }, 
            {
                "class": "Wall", 
                "xn": "242;332;332;242", 
                "yn": "2776;2776;2781;2781"
            }, 
            {
                "class": "Wall", 
                "xn": "242;334;334;242", 
                "yn": "2557;2557;2564;2564"
            }, 
            {
                "class": "Wall", 
                "xn": "242;390;390;242", 
                "yn": "2495;2495;2509;2509"
            }, 
            {
                "class": "Wall", 
                "xn": "242;338;338;242", 
                "yn": "2784;2784;2792;2792"
            }, 
            {
                "class": "Wall", 
                "xn": "242;340;340;242", 
                "yn": "2546;2546;2556;2556"
            }, 
            {
                "class": "Wall", 
                "xn": "242;350;350;242", 
                "yn": "2794;2794;2810;2810"
            }, 
            {
                "class": "Wall", 
                "xn": "242;351;351;242", 
                "yn": "2529;2529;2545;2545"
            }, 
            {
                "class": "Wall", 
                "xn": "242;624;624;242", 
                "yn": "3406;3406;3423;3423"
            }, 
            {
                "class": "Wall", 
                "xn": "242;441;441;242", 
                "yn": "3166;3166;3184;3184"
            }, 
            {
                "class": "Wall", 
                "xn": "1524;1529;1529;1524", 
                "yn": "3647;3647;4107;4107"
            }, 
            {
                "class": "Wall", 
                "xn": "766;878;878;766", 
                "yn": "1959;1959;1964;1964"
            }, 
            {
                "class": "Wall", 
                "xn": "766;854;854;766", 
                "yn": "1976;1976;1982;1982"
            }, 
            {
                "class": "Wall", 
                "xn": "766;869;869;766", 
                "yn": "1959;1959;1975;1975"
            }, 
            {
                "class": "Wall", 
                "xn": "2188;2329;2329;2188", 
                "yn": "2664;2664;2678;2678"
            }, 
            {
                "class": "Wall", 
                "xn": "1028;1117;1117;1028", 
                "yn": "3615;3615;3627;3627"
            }, 
            {
                "class": "Wall", 
                "xn": "1101;1113;1113;1101", 
                "yn": "3608;3608;3704;3704"
            }, 
            {
                "class": "Wall", 
                "xn": "655;737;737;655", 
                "yn": "2246;2246;2251;2251"
            }, 
            {
                "class": "Wall", 
                "xn": "655;744;744;655", 
                "yn": "2236;2236;2244;2244"
            }, 
            {
                "class": "Wall", 
                "xn": "655;755;755;655", 
                "yn": "2219;2219;2235;2235"
            }, 
            {
                "class": "Wall", 
                "xn": "1511;1596;1596;1511", 
                "yn": "3742;3742;3760;3760"
            }, 
            {
                "class": "Wall", 
                "xn": "1583;1656;1656;1583", 
                "yn": "2704;2704;2709;2709"
            }, 
            {
                "class": "Wall", 
                "xn": "1581;1656;1656;1581", 
                "yn": "2711;2711;2717;2717"
            }, 
            {
                "class": "Wall", 
                "xn": "1579;1656;1656;1579", 
                "yn": "2719;2719;2727;2727"
            }, 
            {
                "class": "Wall", 
                "xn": "2260;2265;2265;2260", 
                "yn": "2928;2928;3023;3023"
            }, 
            {
                "class": "Wall", 
                "xn": "2275;2282;2282;2275", 
                "yn": "2949;2949;3023;3023"
            }, 
            {
                "class": "Wall", 
                "xn": "2260;2274;2274;2260", 
                "yn": "2935;2935;3023;3023"
            }, 
            {
                "class": "Wall", 
                "xn": "2176;2310;2310;2176", 
                "yn": "2681;2681;2686;2686"
            }, 
            {
                "class": "Wall", 
                "xn": "2280;2286;2286;2280", 
                "yn": "2577;2577;2705;2705"
            }, 
            {
                "class": "Wall", 
                "xn": "2245;2396;2396;2245", 
                "yn": "2610;2610;2617;2617"
            }, 
            {
                "class": "Wall", 
                "xn": "2287;2301;2301;2287", 
                "yn": "2566;2566;2695;2695"
            }, 
            {
                "class": "Wall", 
                "xn": "2169;2301;2301;2169", 
                "yn": "2682;2682;2698;2698"
            }, 
            {
                "class": "Wall", 
                "xn": "1126;1133;1133;1126", 
                "yn": "1372;1372;1435;1435"
            }, 
            {
                "class": "Wall", 
                "xn": "2566;2653;2653;2566", 
                "yn": "2892;2892;2907;2907"
            }, 
            {
                "class": "Wall", 
                "xn": "2565;2653;2653;2565", 
                "yn": "2738;2738;2755;2755"
            }, 
            {
                "class": "Wall", 
                "xn": "1239;1248;1248;1239", 
                "yn": "2450;2450;3182;3182"
            }, 
            {
                "class": "Wall", 
                "xn": "990;1000;1000;990", 
                "yn": "3407;3407;3472;3472"
            }, 
            {
                "class": "Wall", 
                "xn": "1046;1108;1108;1046", 
                "yn": "3284;3284;3299;3299"
            }, 
            {
                "class": "Wall", 
                "xn": "1046;1109;1109;1046", 
                "yn": "3202;3202;3209;3209"
            }, 
            {
                "class": "Wall", 
                "xn": "740;1254;1254;740", 
                "yn": "3167;3167;3176;3176"
            }, 
            {
                "class": "Wall", 
                "xn": "1006;1178;1178;1006", 
                "yn": "2240;2240;2245;2245"
            }, 
            {
                "class": "Wall", 
                "xn": "1062;1197;1197;1062", 
                "yn": "2205;2205;2212;2212"
            }, 
            {
                "class": "Wall", 
                "xn": "1158;1164;1164;1158", 
                "yn": "2165;2165;2322;2322"
            }, 
            {
                "class": "Wall", 
                "xn": "1028;1184;1184;1028", 
                "yn": "2228;2228;2238;2238"
            }, 
            {
                "class": "Wall", 
                "xn": "898;1184;1184;898", 
                "yn": "2293;2293;2303;2303"
            }, 
            {
                "class": "Wall", 
                "xn": "886;1178;1178;886", 
                "yn": "2278;2278;2290;2290"
            }, 
            {
                "class": "Wall", 
                "xn": "1049;1192;1192;1049", 
                "yn": "2213;2213;2227;2227"
            }, 
            {
                "class": "Wall", 
                "xn": "1095;1109;1109;1095", 
                "yn": "2165;2165;2322;2322"
            }, 
            {
                "class": "Wall", 
                "xn": "899;1191;1191;899", 
                "yn": "2304;2304;2320;2320"
            }, 
            {
                "class": "Wall", 
                "xn": "2378;2395;2395;2378", 
                "yn": "3278;3278;4504;4504"
            }, 
            {
                "class": "Wall", 
                "xn": "1078;1205;1205;1078", 
                "yn": "1994;1994;1999;1999"
            }, 
            {
                "class": "Wall", 
                "xn": "1060;1066;1066;1060", 
                "yn": "1909;1909;1979;1979"
            }, 
            {
                "class": "Wall", 
                "xn": "1040;1215;1215;1040", 
                "yn": "1917;1917;1925;1925"
            }, 
            {
                "class": "Wall", 
                "xn": "1026;1210;1210;1026", 
                "yn": "1947;1947;1957;1957"
            }, 
            {
                "class": "Wall", 
                "xn": "916;924;924;916", 
                "yn": "2474;2474;2534;2534"
            }, 
            {
                "class": "Wall", 
                "xn": "1755;1772;1772;1755", 
                "yn": "3505;3505;3564;3564"
            }, 
            {
                "class": "Wall", 
                "xn": "1637;1654;1654;1637", 
                "yn": "3378;3378;3526;3526"
            }, 
            {
                "class": "Wall", 
                "xn": "2178;2396;2396;2178", 
                "yn": "3366;3366;3383;3383"
            }, 
            {
                "class": "Wall", 
                "xn": "2199;2354;2354;2199", 
                "yn": "2657;2657;2663;2663"
            }, 
            {
                "class": "Wall", 
                "xn": "2551;2569;2569;2551", 
                "yn": "2241;2241;2735;2735"
            }, 
            {
                "class": "Wall", 
                "xn": "776;784;784;776", 
                "yn": "1917;1917;2200;2200"
            }, 
            {
                "class": "Wall", 
                "xn": "850;856;856;850", 
                "yn": "1909;1909;1979;1979"
            }, 
            {
                "class": "Wall", 
                "xn": "858;868;868;858", 
                "yn": "1904;1904;1971;1971"
            }, 
            {
                "class": "Wall", 
                "xn": "892;910;910;892", 
                "yn": "3167;3167;3238;3238"
            }, 
            {
                "class": "Wall", 
                "xn": "1031;1126;1126;1031", 
                "yn": "3629;3629;3635;3635"
            }, 
            {
                "class": "Wall", 
                "xn": "1025;1110;1110;1025", 
                "yn": "3607;3607;3614;3614"
            }, 
            {
                "class": "Wall", 
                "xn": "1264;1269;1269;1264", 
                "yn": "2531;2531;3121;3121"
            }, 
            {
                "class": "Wall", 
                "xn": "1728;1925;1925;1728", 
                "yn": "3741;3741;3759;3759"
            }, 
            {
                "class": "Wall", 
                "xn": "1170;1176;1176;1170", 
                "yn": "2180;2180;2248;2248"
            }, 
            {
                "class": "Wall", 
                "xn": "1166;1171;1171;1166", 
                "yn": "2178;2178;2255;2255"
            }, 
            {
                "class": "Wall", 
                "xn": "1089;1094;1094;1089", 
                "yn": "2174;2174;2322;2322"
            }, 
            {
                "class": "Wall", 
                "xn": "2179;2196;2196;2179", 
                "yn": "3188;3188;3388;3388"
            }, 
            {
                "class": "Wall", 
                "xn": "1570;1588;1588;1570", 
                "yn": "2908;2908;3272;3272"
            }, 
            {
                "class": "Wall", 
                "xn": "2819;2837;2837;2819", 
                "yn": "2647;2647;2999;2999"
            }, 
            {
                "class": "Wall", 
                "xn": "2548;2839;2839;2548", 
                "yn": "3214;3214;3232;3232"
            }, 
            {
                "class": "Wall", 
                "xn": "755;1063;1063;755", 
                "yn": "3418;3418;3425;3425"
            }, 
            {
                "class": "Wall", 
                "xn": "755;1065;1065;755", 
                "yn": "3399;3399;3417;3417"
            }, 
            {
                "class": "Wall", 
                "xn": "1199;1204;1124;1118", 
                "yn": "1998;1992;1917;1923"
            }, 
            {
                "class": "Wall", 
                "xn": "1049;1059;1059;1049", 
                "yn": "1904;1904;1971;1971"
            }, 
            {
                "class": "Wall", 
                "xn": "2550;2839;2839;2550", 
                "yn": "2414;2414;2432;2432"
            }, 
            {
                "class": "Wall", 
                "xn": "1530;1538;1538;1530", 
                "yn": "3641;3641;3759;3759"
            }, 
            {
                "class": "Wall", 
                "xn": "2130;2265;2265;2130", 
                "yn": "2725;2725;2733;2733"
            }, 
            {
                "class": "Wall", 
                "xn": "887;878;778;787", 
                "yn": "2870;2856;2918;2932"
            }, 
            {
                "class": "Wall", 
                "xn": "591;607;607;591", 
                "yn": "3167;3167;3423;3423"
            }, 
            {
                "class": "Wall", 
                "xn": "2157;2287;2287;2157", 
                "yn": "2699;2699;2706;2706"
            }, 
            {
                "class": "Wall", 
                "xn": "900;908;908;900", 
                "yn": "2269;2269;2331;2331"
            }, 
            {
                "class": "Wall", 
                "xn": "909;917;917;909", 
                "yn": "2259;2259;2331;2331"
            }, 
            {
                "class": "Wall", 
                "xn": "1624;1639;1639;1624", 
                "yn": "3337;3337;3395;3395"
            }, 
            {
                "class": "Wall", 
                "xn": "740;911;911;740", 
                "yn": "3183;3183;3188;3188"
            }, 
            {
                "class": "Wall", 
                "xn": "1755;1772;1772;1755", 
                "yn": "3697;3697;3759;3759"
            }, 
            {
                "class": "Wall", 
                "xn": "892;910;910;892", 
                "yn": "3357;3357;3424;3424"
            }, 
            {
                "class": "Wall", 
                "xn": "1539;1544;1544;1539", 
                "yn": "3647;3647;3759;3759"
            }, 
            {
                "class": "Text", 
                "height": 45, 
                "width": 148, 
                "x": 1633, 
                "y": 390, 
                "text": "patio"
            }, 
            {
                "class": "Text", 
                "height": 44, 
                "width": 239, 
                "x": 564, 
                "y": 820, 
                "text": "balcony"
            }, 
            {
                "class": "Text", 
                "height": 44, 
                "width": 239, 
                "x": 2607, 
                "y": 953, 
                "text": "balcony"
            }, 
            {
                "class": "Text", 
                "height": 45, 
                "width": 180, 
                "x": 1656, 
                "y": 1131, 
                "text": "living"
            }, 
            {
                "class": "Text", 
                "height": 44, 
                "width": 373, 
                "x": 501, 
                "y": 1311, 
                "text": "mastersuite"
            }, 
            {
                "class": "Text", 
                "height": 46, 
                "width": 57, 
                "x": 1850, 
                "y": 1411, 
                "text": "dn"
            }, 
            {
                "class": "Text", 
                "height": 26, 
                "width": 213, 
                "x": 844, 
                "y": 1715, 
                "text": "fireplace"
            }, 
            {
                "class": "Text", 
                "height": 44, 
                "width": 254, 
                "x": 2605, 
                "y": 1721, 
                "text": "bedroom"
            }, 
            {
                "class": "Text", 
                "height": 45, 
                "width": 206, 
                "x": 1644, 
                "y": 1838, 
                "text": "dining"
            }, 
            {
                "class": "Text", 
                "height": 26, 
                "width": 147, 
                "x": 428, 
                "y": 2051, 
                "text": "closet"
            }, 
            {
                "class": "Text", 
                "height": 45, 
                "width": 245, 
                "x": 1946, 
                "y": 2392, 
                "text": "kitchen"
            }, 
            {
                "class": "Text", 
                "height": 26, 
                "width": 146, 
                "x": 2659, 
                "y": 2572, 
                "text": "closet"
            }, 
            {
                "class": "Text", 
                "height": 43, 
                "width": 366, 
                "x": 544, 
                "y": 2691, 
                "text": "masterbath"
            }, 
            {
                "class": "Text", 
                "height": 26, 
                "width": 146, 
                "x": 967, 
                "y": 2972, 
                "text": "closet"
            }, 
            {
                "class": "Text", 
                "height": 27, 
                "width": 191, 
                "x": 1613, 
                "y": 2991, 
                "text": "laundry"
            }, 
            {
                "class": "Text", 
                "height": 64, 
                "width": 150, 
                "x": 2041, 
                "y": 3000, 
                "text": "powderroom"
            }, 
            {
                "class": "Text", 
                "height": 25, 
                "width": 147, 
                "x": 2665, 
                "y": 3049, 
                "text": "closet"
            }, 
            {
                "class": "Text", 
                "height": 27, 
                "width": 146, 
                "x": 2258, 
                "y": 3198, 
                "text": "closet"
            }, 
            {
                "class": "Text", 
                "height": 73, 
                "width": 106, 
                "x": 303, 
                "y": 3315, 
                "text": "ac"
            }, 
            {
                "class": "Text", 
                "height": 27, 
                "width": 98, 
                "x": 1694, 
                "y": 3342, 
                "text": "clos"
            }, 
            {
                "class": "Text", 
                "height": 26, 
                "width": 46, 
                "x": 1794, 
                "y": 3342, 
                "text": "es"
            }, 
            {
                "class": "Text", 
                "height": 25, 
                "width": 123, 
                "x": 1310, 
                "y": 3543, 
                "text": "foyer"
            }, 
            {
                "class": "Text", 
                "height": 44, 
                "width": 142, 
                "x": 1939, 
                "y": 3628, 
                "text": "bath"
            }, 
            {
                "class": "Text", 
                "height": 74, 
                "width": 106, 
                "x": 2242, 
                "y": 3627, 
                "text": "cl"
            }, 
            {
                "class": "Text", 
                "height": 44, 
                "width": 254, 
                "x": 2617, 
                "y": 3647, 
                "text": "bedroom"
            }, 
            {
                "class": "Text", 
                "height": 45, 
                "width": 254, 
                "x": 1815, 
                "y": 3989, 
                "text": "bedroom"
            }, 
            {
                "class": "Text", 
                "height": 147, 
                "width": 25, 
                "x": 1786, 
                "y": 3566, 
                "text": "closet"
            }, 
            {
                "class": "Text", 
                "height": 142, 
                "width": 44, 
                "x": 2856, 
                "y": 3146, 
                "text": "bath"
            }, 
            {
                "class": "Text", 
                "height": 143, 
                "width": 45, 
                "x": 2855, 
                "y": 2417, 
                "text": "bath"
            }
        ], 
        "class": "image", 
        "filename": "38_250.png"
    }
]