[
    {
        "annotations": [
            {
                "class": "Window",
                "xn": "645;1120;1120;645",
                "yn": "2055;2055;2118;2118"
            },
            {
                "class": "Window",
                "xn": "2390;2611;2611;2390",
                "yn": "2056;2056;2118;2118"
            },
            {
                "class": "Window",
                "xn": "2747;2809;2809;2747",
                "yn": "504;504;723;723"
            },
            {
                "class": "Window",
                "xn": "2183;2520;2520;2183",
                "yn": "8;8;72;72"
            },
            {
                "class": "Window",
                "xn": "1383;1713;1713;1383",
                "yn": "2056;2056;2118;2118"
            },
            {
                "class": "Window",
                "xn": "2746;2809;2809;2746",
                "yn": "1215;1215;1323;1323"
            },
            {
                "class": "Window",
                "xn": "2747;2809;2809;2747",
                "yn": "1732;1732;1941;1941"
            },
            {
                "class": "Wall",
                "xn": "1181;1243;1243;1181",
                "yn": "790;790;2118;2118"
            },
            {
                "class": "Wall",
                "xn": "2520;2810;2810;2520",
                "yn": "9;9;72;72"
            },
            {
                "class": "Wall",
                "xn": "979;1309;1309;979",
                "yn": "790;790;852;852"
            },
            {
                "class": "Wall",
                "xn": "1900;2184;2184;1900",
                "yn": "9;9;72;72"
            },
            {
                "class": "Wall",
                "xn": "1649;1963;1963;1649",
                "yn": "790;790;852;852"
            },
            {
                "class": "Wall",
                "xn": "537;788;788;537",
                "yn": "790;790;853;853"
            },
            {
                "class": "Wall",
                "xn": "2747;2809;2809;2747",
                "yn": "723;723;1216;1216"
            },
            {
                "class": "Wall",
                "xn": "1901;1962;1962;1901",
                "yn": "9;9;236;236"
            },
            {
                "class": "Wall",
                "xn": "2747;2809;2809;2747",
                "yn": "1323;1323;1733;1733"
            },
            {
                "class": "Wall",
                "xn": "2611;2810;2810;2611",
                "yn": "2056;2056;2118;2118"
            },
            {
                "class": "Wall",
                "xn": "391;600;600;391",
                "yn": "856;856;919;919"
            },
            {
                "class": "Wall",
                "xn": "2748;2809;2809;2748",
                "yn": "9;9;505;505"
            },
            {
                "class": "Wall",
                "xn": "391;646;646;391",
                "yn": "2056;2056;2118;2118"
            },
            {
                "class": "Wall",
                "xn": "2080;2391;2391;2080",
                "yn": "2057;2057;2118;2118"
            },
            {
                "class": "Wall",
                "xn": "1901;1963;1963;1901",
                "yn": "578;578;852;852"
            },
            {
                "class": "Wall",
                "xn": "1120;1384;1384;1120",
                "yn": "2056;2056;2118;2118"
            },
            {
                "class": "Wall",
                "xn": "1713;1890;1890;1713",
                "yn": "2057;2057;2118;2118"
            },
            {
                "class": "Wall",
                "xn": "2748;2809;2809;2748",
                "yn": "1941;1941;2118;2118"
            },
            {
                "class": "Wall",
                "xn": "538;616;616;538",
                "yn": "790;790;2118;2118"
            },
            {
                "class": "Wall",
                "xn": "1789;1809;1809;1789",
                "yn": "790;790;1120;1120"
            },
            {
                "class": "Wall",
                "xn": "2339;2810;2810;2339",
                "yn": "1054;1054;1074;1074"
            },
            {
                "class": "Wall",
                "xn": "2333;2810;2810;2333",
                "yn": "1427;1427;1447;1447"
            },
            {
                "class": "Wall",
                "xn": "2364;2810;2810;2364",
                "yn": "1651;1651;1671;1671"
            },
            {
                "class": "Wall",
                "xn": "2103;2123;2123;2103",
                "yn": "1840;1840;2118;2118"
            },
            {
                "class": "Wall",
                "xn": "1650;2144;2144;1650",
                "yn": "830;830;852;852"
            },
            {
                "class": "Wall",
                "xn": "2396;2385;2314;2326",
                "yn": "1664;1647;1695;1711"
            },
            {
                "class": "Wall",
                "xn": "2123;2143;2143;2123",
                "yn": "831;831;1227;1227"
            },
            {
                "class": "Wall",
                "xn": "2142;2131;1965;1976",
                "yn": "1221;1204;1324;1341"
            },
            {
                "class": "Wall",
                "xn": "1788;1996;1996;1788",
                "yn": "1316;1316;1337;1337"
            },
            {
                "class": "Text",
                "height": 162,
                "text": "livingroom",
                "width": 237,
                "x": 2245,
                "y": 432
            },
            {
                "class": "Text",
                "height": 52,
                "text": "utility",
                "width": 143,
                "x": 1892,
                "y": 1056
            },
            {
                "class": "Text",
                "height": 84,
                "text": "garage",
                "width": 297,
                "x": 739,
                "y": 1437
            },
            {
                "class": "Text",
                "height": 67,
                "text": "kitchen",
                "width": 303,
                "x": 1399,
                "y": 1718
            },
            {
                "class": "Text",
                "height": 86,
                "text": "study",
                "width": 241,
                "x": 2399,
                "y": 1834
            },
            {
                "class": "Text",
                "height": 197.6270805000138,
                "text": "dining area",
                "width": 280.63045431001956,
                "x": 1375.4844802800965,
                "y": 1055.328609870074
            },
            {
                "class": "Text",
                "height": 68.461400559401,
                "text": "hall",
                "width": 115.67615956588429,
                "x": 1992.4628300736028,
                "y": 1659.5987790778943
            },
            {
                "class": "Text",
                "height": 63.62272490235364,
                "text": "cloaks",
                "width": 179.14819906715366,
                "x": 2345.669410215722,
                "y": 1525.2711154222147
            },
            {
                "class": "door",
                "height": 200.22000000001412,
                "width": 190.35000000001344,
                "x": 788.1900000000554,
                "y": 647.1900000000455
            },
            {
                "class": "door",
                "height": 201.6300000000142,
                "width": 331.35000000002333,
                "x": 1311.3000000000923,
                "y": 647.1900000000455
            },
            {
                "class": "door",
                "height": 339.6061836893084,
                "width": 182.864868140397,
                "x": 1762.152365716551,
                "y": 237.48684174077508
            },
            {
                "class": "door",
                "height": 188.80203918391612,
                "width": 182.86486814039677,
                "x": 1784.7136156819245,
                "y": 1122.125327225162
            },
            {
                "class": "door",
                "height": 182.90520000001288,
                "width": 188.86950000001343,
                "x": 2151.1242000001516,
                "y": 888.6807000000626
            },
            {
                "class": "door",
                "height": 192.0106380031798,
                "width": 182.7469668714475,
                "x": 2213.1752485629677,
                "y": 1451.869911918781
            },
            {
                "class": "door",
                "height": 195.89102140987848,
                "width": 179.14819906715388,
                "x": 1895.2874891964304,
                "y": 1901.9846181335204
            },
            {
                "class": "Door",
                "xn": "2155.90891793;2315.91778293;2395.08006351;2273.81018688;2270.4415792",
                "yn": "1808.10017453;1698.62042479;1855.26068211;1950.42384919;1957.16106456"
            },
            {
                "class": "Wall",
                "xn": "2153.16147195;2103.58799007;2122.70065778;2165.95744681",
                "yn": "1809.73072399;1846.16424682;1858.70693501;1825.53191489"
            },
            {
                "class": "door",
                "height": 191.17690760132405,
                "width": 182.864868140397,
                "x": 1673.094800063762,
                "y": 1367.9242084268658
            },
            {
                "class": "wall",
                "height": 32.61691963287876,
                "width": 21.603414302296414,
                "x": 1838.8317938484083,
                "y": 1337.2937049480363
            },
            {
                "class": "wall",
                "height": 548.7651526583566,
                "width": 16.598762637695472,
                "x": 1839.9476887481842,
                "y": 1559.7806951361724
            },
            {
                "class": "Stairs",
                "xn": "2459.92576144;2479.29525562;2439.71411533;2529.82437088;2494.4539902;2523.92930744;2592.98576496;2592.98576496;2400.13297504;2401.81727888;2708.36057815;2710.04488199;2595.51222073;2595.51222073;2595.51222073;2595.51222073",
                "yn": "1088.06028202;1130.16787807;1152.06382802;1154.59028378;1172.27547412;1237.12117205;1233.75256436;1283.43952771;1284.28167963;1427.44750621;1426.60535429;1072.90154744;1075.4280032;1075.4280032;1090.58673778;1090.58673778"
            }
        ],
        "class": "image",
        "filename": "55.png"
    }
]
