[
    {
        "annotations": [
            {
                "class": "Wall",
                "xn": "461;796;796;461",
                "yn": "8;8;11;11"
            },
            {
                "class": "Wall",
                "xn": "459;457;433;435",
                "yn": "3;1;24;26"
            },
            {
                "class": "Wall",
                "xn": "792;795;795;792",
                "yn": "1;1;11;11"
            },
            {
                "class": "Wall",
                "xn": "447;451;451;447",
                "yn": "21;21;25;25"
            },
            {
                "class": "Wall",
                "xn": "454;458;458;454",
                "yn": "14;14;18;18"
            },
            {
                "class": "Wall",
                "xn": "443;447;447;443",
                "yn": "25;25;28;28"
            },
            {
                "class": "Wall",
                "xn": "431;435;435;431",
                "yn": "25;25;28;28"
            },
            {
                "class": "Wall",
                "xn": "782;785;785;782",
                "yn": "19;19;162;162"
            },
            {
                "class": "Wall",
                "xn": "792;795;795;792",
                "yn": "19;19;162;162"
            },
            {
                "class": "Wall",
                "xn": "781;796;796;781",
                "yn": "19;19;23;23"
            },
            {
                "class": "Wall",
                "xn": "781;796;796;781",
                "yn": "159;159;162;162"
            },
            {
                "class": "Wall",
                "xn": "487;565;565;487",
                "yn": "20;20;23;23"
            },
            {
                "class": "Wall",
                "xn": "591;668;668;591",
                "yn": "20;20;23;23"
            },
            {
                "class": "Wall",
                "xn": "694;771;771;694",
                "yn": "20;20;23;23"
            },
            {
                "class": "Wall",
                "xn": "704;709;709;704",
                "yn": "45;45;83;83"
            },
            {
                "class": "Wall",
                "xn": "748;751;751;748",
                "yn": "45;45;127;127"
            },
            {
                "class": "Wall",
                "xn": "712;745;745;712",
                "yn": "131;131;134;134"
            },
            {
                "class": "Wall",
                "xn": "706;710;710;706",
                "yn": "126;126;131;131"
            },
            {
                "class": "Wall",
                "xn": "744;749;749;744",
                "yn": "129;129;133;133"
            },
            {
                "class": "Wall",
                "xn": "707;711;711;707",
                "yn": "40;40;44;44"
            },
            {
                "class": "Wall",
                "xn": "111;117;117;111",
                "yn": "756;756;887;887"
            },
            {
                "class": "Wall",
                "xn": "17;22;22;17",
                "yn": "878;878;887;887"
            },
            {
                "class": "Wall",
                "xn": "18;24;24;18",
                "yn": "756;756;763;763"
            },
            {
                "class": "Wall",
                "xn": "66;70;67;63",
                "yn": "825;822;818;822"
            },
            {
                "class": "Wall",
                "xn": "307;310;310;307",
                "yn": "1330;1330;1443;1443"
            },
            {
                "class": "Wall",
                "xn": "696;699;699;696",
                "yn": "800;800;937;937"
            },
            {
                "class": "Wall",
                "xn": "549;764;764;549",
                "yn": "185;185;188;188"
            },
            {
                "class": "Wall",
                "xn": "273;278;278;273",
                "yn": "1187;1187;1443;1443"
            },
            {
                "class": "Wall",
                "xn": "382;386;386;382",
                "yn": "185;185;455;455"
            },
            {
                "class": "Wall",
                "xn": "315;319;319;315",
                "yn": "970;970;1048;1048"
            },
            {
                "class": "Wall",
                "xn": "791;796;796;791",
                "yn": "169;169;937;937"
            },
            {
                "class": "Wall",
                "xn": "329;332;332;329",
                "yn": "971;971;1060;1060"
            },
            {
                "class": "Wall",
                "xn": "760;764;764;760",
                "yn": "169;169;857;857"
            },
            {
                "class": "Wall",
                "xn": "97;441;441;97",
                "yn": "169;169;172;172"
            },
            {
                "class": "Wall",
                "xn": "97;441;441;97",
                "yn": "185;185;188;188"
            },
            {
                "class": "Wall",
                "xn": "273;276;276;273",
                "yn": "756;756;861;861"
            },
            {
                "class": "Wall",
                "xn": "697;770;770;697",
                "yn": "961;961;964;964"
            },
            {
                "class": "Wall",
                "xn": "674;806;806;674",
                "yn": "1173;1173;1176;1176"
            },
            {
                "class": "Wall",
                "xn": "548;796;796;548",
                "yn": "169;169;172;172"
            },
            {
                "class": "Wall",
                "xn": "513;700;700;513",
                "yn": "851;851;854;854"
            },
            {
                "class": "Wall",
                "xn": "96;230;230;96",
                "yn": "1045;1045;1048;1048"
            },
            {
                "class": "Wall",
                "xn": "1;4;4;1",
                "yn": "161;161;915;915"
            },
            {
                "class": "Wall",
                "xn": "513;700;700;513",
                "yn": "921;921;924;924"
            },
            {
                "class": "Wall",
                "xn": "705;764;764;705",
                "yn": "810;810;813;813"
            },
            {
                "class": "Wall",
                "xn": "369;372;372;369",
                "yn": "583;583;746;746"
            },
            {
                "class": "Wall",
                "xn": "628;755;755;628",
                "yn": "193;193;196;196"
            },
            {
                "class": "Wall",
                "xn": "214;373;373;214",
                "yn": "583;583;586;586"
            },
            {
                "class": "Wall",
                "xn": "362;365;365;362",
                "yn": "169;169;188;188"
            },
            {
                "class": "Wall",
                "xn": "98;101;101;98",
                "yn": "161;161;229;229"
            },
            {
                "class": "Wall",
                "xn": "705;709;709;705",
                "yn": "810;810;858;858"
            },
            {
                "class": "Wall",
                "xn": "96;101;101;96",
                "yn": "895;895;1048;1048"
            },
            {
                "class": "Wall",
                "xn": "259;264;264;259",
                "yn": "756;756;874;874"
            },
            {
                "class": "Wall",
                "xn": "23;136;136;23",
                "yn": "743;743;746;746"
            },
            {
                "class": "Wall",
                "xn": "23;133;133;23",
                "yn": "583;583;586;586"
            },
            {
                "class": "Wall",
                "xn": "24;27;27;24",
                "yn": "583;583;746;746"
            },
            {
                "class": "Wall",
                "xn": "272;373;373;272",
                "yn": "756;756;759;759"
            },
            {
                "class": "Wall",
                "xn": "193;319;319;193",
                "yn": "986;986;989;989"
            },
            {
                "class": "Wall",
                "xn": "103;280;280;103",
                "yn": "1170;1170;1173;1173"
            },
            {
                "class": "Wall",
                "xn": "369;372;372;369",
                "yn": "185;185;455;455"
            },
            {
                "class": "Wall",
                "xn": "219;373;373;219",
                "yn": "570;570;573;573"
            },
            {
                "class": "Wall",
                "xn": "217;264;264;217",
                "yn": "756;756;760;760"
            },
            {
                "class": "Wall",
                "xn": "452;457;457;452",
                "yn": "1173;1173;1427;1427"
            },
            {
                "class": "Wall",
                "xn": "472;668;668;472",
                "yn": "1173;1173;1176;1176"
            },
            {
                "class": "Wall",
                "xn": "762;770;770;762",
                "yn": "1040;1040;1045;1045"
            },
            {
                "class": "Wall",
                "xn": "17;133;133;17",
                "yn": "570;570;573;573"
            },
            {
                "class": "Wall",
                "xn": "222;372;372;222",
                "yn": "743;743;746;746"
            },
            {
                "class": "Wall",
                "xn": "331;338;338;331",
                "yn": "1332;1332;1336;1336"
            },
            {
                "class": "Wall",
                "xn": "593;685;685;593",
                "yn": "860;860;863;863"
            },
            {
                "class": "Wall",
                "xn": "584;587;587;584",
                "yn": "851;851;924;924"
            },
            {
                "class": "Wall",
                "xn": "674;801;801;674",
                "yn": "1077;1077;1080;1080"
            },
            {
                "class": "Wall",
                "xn": "109;113;113;109",
                "yn": "185;185;240;240"
            },
            {
                "class": "Wall",
                "xn": "290;293;293;290",
                "yn": "1154;1154;1427;1427"
            },
            {
                "class": "Wall",
                "xn": "464;467;467;464",
                "yn": "1185;1185;1443;1443"
            },
            {
                "class": "Wall",
                "xn": "36;34;17;19",
                "yn": "864;862;883;885"
            },
            {
                "class": "Wall",
                "xn": "313;317;317;313",
                "yn": "1329;1329;1427;1427"
            },
            {
                "class": "Wall",
                "xn": "115;117;19;18",
                "yn": "888;886;756;759"
            },
            {
                "class": "Wall",
                "xn": "401;457;457;401",
                "yn": "1424;1424;1427;1427"
            },
            {
                "class": "Wall",
                "xn": "193;197;197;193",
                "yn": "986;986;1048;1048"
            },
            {
                "class": "Wall",
                "xn": "104;107;107;104",
                "yn": "1058;1058;1173;1173"
            },
            {
                "class": "Wall",
                "xn": "664;668;668;664",
                "yn": "1067;1067;1176;1176"
            },
            {
                "class": "Wall",
                "xn": "802;805;805;802",
                "yn": "1174;1174;1187;1187"
            },
            {
                "class": "Wall",
                "xn": "17;100;100;17",
                "yn": "895;895;898;898"
            },
            {
                "class": "Wall",
                "xn": "514;517;517;514",
                "yn": "831;831;924;924"
            },
            {
                "class": "Wall",
                "xn": "262;373;373;262",
                "yn": "553;553;556;556"
            },
            {
                "class": "Wall",
                "xn": "273;311;311;273",
                "yn": "1440;1440;1443;1443"
            },
            {
                "class": "Wall",
                "xn": "17;136;136;17",
                "yn": "756;756;759;759"
            },
            {
                "class": "Wall",
                "xn": "388;391;391;388",
                "yn": "80;80;172;172"
            },
            {
                "class": "Wall",
                "xn": "572;668;668;572",
                "yn": "1104;1104;1107;1107"
            },
            {
                "class": "Wall",
                "xn": "16;117;117;16",
                "yn": "884;884;887;887"
            },
            {
                "class": "Wall",
                "xn": "276;281;281;276",
                "yn": "1154;1154;1172;1172"
            },
            {
                "class": "Wall",
                "xn": "472;477;477;472",
                "yn": "1120;1120;1176;1176"
            },
            {
                "class": "Wall",
                "xn": "55;60;60;55",
                "yn": "728;728;746;746"
            },
            {
                "class": "Wall",
                "xn": "264;268;268;264",
                "yn": "535;535;543;543"
            },
            {
                "class": "Wall",
                "xn": "104;107;107;104",
                "yn": "169;169;188;188"
            },
            {
                "class": "Wall",
                "xn": "17;102;102;17",
                "yn": "226;226;229;229"
            },
            {
                "class": "Wall",
                "xn": "0;84;84;0",
                "yn": "912;912;915;915"
            },
            {
                "class": "Wall",
                "xn": "593;596;596;593",
                "yn": "860;860;924;924"
            },
            {
                "class": "Wall",
                "xn": "368;371;371;368",
                "yn": "169;169;455;455"
            },
            {
                "class": "Wall",
                "xn": "380;384;384;380",
                "yn": "1363;1363;1367;1367"
            },
            {
                "class": "Wall",
                "xn": "343;349;349;343",
                "yn": "1336;1336;1340;1340"
            },
            {
                "class": "Wall",
                "xn": "542;553;553;542",
                "yn": "174;174;179;179"
            },
            {
                "class": "Wall",
                "xn": "387;391;391;387",
                "yn": "1372;1372;1377;1377"
            },
            {
                "class": "Wall",
                "xn": "308;305;284;287",
                "yn": "476;474;494;496"
            },
            {
                "class": "Wall",
                "xn": "290;317;317;290",
                "yn": "1423;1423;1427;1427"
            },
            {
                "class": "Wall",
                "xn": "754;757;757;754",
                "yn": "169;169;188;188"
            },
            {
                "class": "Wall",
                "xn": "391;395;395;391",
                "yn": "1379;1379;1384;1384"
            },
            {
                "class": "Wall",
                "xn": "382;386;386;382",
                "yn": "852;852;874;874"
            },
            {
                "class": "Wall",
                "xn": "345;355;355;345",
                "yn": "454;454;458;458"
            },
            {
                "class": "Wall",
                "xn": "306;325;325;306",
                "yn": "1329;1329;1333;1333"
            },
            {
                "class": "Wall",
                "xn": "459;462;462;459",
                "yn": "1119;1119;1176;1176"
            },
            {
                "class": "Wall",
                "xn": "371;372;354;352",
                "yn": "1355;1352;1339;1341"
            },
            {
                "class": "Wall",
                "xn": "629;632;632;629",
                "yn": "185;185;196;196"
            },
            {
                "class": "Wall",
                "xn": "117;114;37;39",
                "yn": "757;756;857;860"
            },
            {
                "class": "Wall",
                "xn": "339;338;317;319",
                "yn": "460;457;465;468"
            },
            {
                "class": "Wall",
                "xn": "286;319;319;286",
                "yn": "1045;1045;1048;1048"
            },
            {
                "class": "Wall",
                "xn": "399;397;381;383",
                "yn": "63;61;77;79"
            },
            {
                "class": "Wall",
                "xn": "341;349;349;341",
                "yn": "455;455;459;459"
            },
            {
                "class": "Wall",
                "xn": "357;386;386;357",
                "yn": "452;452;456;456"
            },
            {
                "class": "Wall",
                "xn": "402;405;405;402",
                "yn": "1410;1410;1443;1443"
            },
            {
                "class": "Wall",
                "xn": "549;552;552;549",
                "yn": "169;169;187;187"
            },
            {
                "class": "Wall",
                "xn": "393;397;397;393",
                "yn": "74;74;78;78"
            },
            {
                "class": "Wall",
                "xn": "459;477;477;459",
                "yn": "1119;1119;1123;1123"
            },
            {
                "class": "Wall",
                "xn": "328;333;333;328",
                "yn": "872;872;882;882"
            },
            {
                "class": "Wall",
                "xn": "312;316;316;312",
                "yn": "468;468;472;472"
            },
            {
                "class": "Wall",
                "xn": "282;279;268;271",
                "yn": "502;501;524;525"
            },
            {
                "class": "Wall",
                "xn": "384;388;388;384",
                "yn": "1368;1368;1372;1372"
            },
            {
                "class": "Wall",
                "xn": "369;373;373;369",
                "yn": "553;553;573;573"
            },
            {
                "class": "Wall",
                "xn": "326;335;335;326",
                "yn": "1331;1331;1335;1335"
            },
            {
                "class": "Wall",
                "xn": "282;286;286;282",
                "yn": "495;495;500;500"
            },
            {
                "class": "Wall",
                "xn": "307;311;311;307",
                "yn": "471;471;475;475"
            },
            {
                "class": "Wall",
                "xn": "34;38;38;34",
                "yn": "859;859;863;863"
            },
            {
                "class": "Wall",
                "xn": "376;380;380;376",
                "yn": "1358;1358;1362;1362"
            },
            {
                "class": "Wall",
                "xn": "338;344;344;338",
                "yn": "1334;1334;1338;1338"
            },
            {
                "class": "Wall",
                "xn": "372;376;376;372",
                "yn": "1354;1354;1358;1358"
            },
            {
                "class": "Wall",
                "xn": "266;271;271;266",
                "yn": "524;524;533;533"
            },
            {
                "class": "Wall",
                "xn": "459;461;461;459",
                "yn": "9;9;15;15"
            },
            {
                "class": "Wall",
                "xn": "452;454;454;452",
                "yn": "16;16;22;22"
            },
            {
                "class": "Wall",
                "xn": "706;708;708;706",
                "yn": "44;44;128;128"
            },
            {
                "class": "Wall",
                "xn": "746;748;748;746",
                "yn": "39;39;43;43"
            },
            {
                "class": "Wall",
                "xn": "748;750;750;748",
                "yn": "42;42;129;129"
            },
            {
                "class": "Wall",
                "xn": "711;746;746;711",
                "yn": "38;38;40;40"
            },
            {
                "class": "Wall",
                "xn": "18;20;20;18",
                "yn": "756;756;898;898"
            },
            {
                "class": "Wall",
                "xn": "700;702;702;700",
                "yn": "934;934;964;964"
            },
            {
                "class": "Wall",
                "xn": "695;764;764;695",
                "yn": "855;855;857;857"
            },
            {
                "class": "Wall",
                "xn": "695;778;778;695",
                "yn": "935;935;937;937"
            },
            {
                "class": "Wall",
                "xn": "695;755;755;695",
                "yn": "801;801;803;803"
            },
            {
                "class": "Wall",
                "xn": "513;700;700;513",
                "yn": "832;832;834;834"
            },
            {
                "class": "Wall",
                "xn": "556;558;558;556",
                "yn": "169;169;188;188"
            },
            {
                "class": "Wall",
                "xn": "80;278;278;80",
                "yn": "1187;1187;1189;1189"
            },
            {
                "class": "Wall",
                "xn": "798;800;800;798",
                "yn": "935;935;1080;1080"
            },
            {
                "class": "Wall",
                "xn": "289;333;333;289",
                "yn": "1058;1058;1060;1060"
            },
            {
                "class": "Wall",
                "xn": "229;231;231;229",
                "yn": "169;169;188;188"
            },
            {
                "class": "Wall",
                "xn": "235;237;237;235",
                "yn": "169;169;188;188"
            },
            {
                "class": "Wall",
                "xn": "381;383;383;381",
                "yn": "77;77;172;172"
            },
            {
                "class": "Wall",
                "xn": "272;373;373;272",
                "yn": "859;859;861;861"
            },
            {
                "class": "Wall",
                "xn": "767;769;769;767",
                "yn": "935;935;1069;1069"
            },
            {
                "class": "Wall",
                "xn": "675;677;677;675",
                "yn": "1077;1077;1176;1176"
            },
            {
                "class": "Wall",
                "xn": "0;101;101;0",
                "yn": "161;161;163;163"
            },
            {
                "class": "Wall",
                "xn": "682;684;684;682",
                "yn": "860;860;924;924"
            },
            {
                "class": "Wall",
                "xn": "752;754;754;752",
                "yn": "193;193;803;803"
            },
            {
                "class": "Wall",
                "xn": "316;318;318;316",
                "yn": "872;872;888;888"
            },
            {
                "class": "Wall",
                "xn": "259;319;319;259",
                "yn": "872;872;874;874"
            },
            {
                "class": "Wall",
                "xn": "383;385;385;383",
                "yn": "560;560;769;769"
            },
            {
                "class": "Wall",
                "xn": "573;575;575;573",
                "yn": "1104;1104;1176;1176"
            },
            {
                "class": "Wall",
                "xn": "18;20;20;18",
                "yn": "226;226;573;573"
            },
            {
                "class": "Wall",
                "xn": "513;588;588;513",
                "yn": "912;912;914;914"
            },
            {
                "class": "Wall",
                "xn": "16;113;113;16",
                "yn": "238;238;240;240"
            },
            {
                "class": "Wall",
                "xn": "464;806;806;464",
                "yn": "1185;1185;1187;1187"
            },
            {
                "class": "Wall",
                "xn": "401;468;468;401",
                "yn": "1441;1441;1443;1443"
            },
            {
                "class": "Wall",
                "xn": "404;406;394;392",
                "yn": "1426;1425;1379;1380"
            },
            {
                "class": "Wall",
                "xn": "103;281;281;103",
                "yn": "1058;1058;1060;1060"
            },
            {
                "class": "Wall",
                "xn": "663;778;778;663",
                "yn": "1067;1067;1069;1069"
            },
            {
                "class": "Wall",
                "xn": "263;265;265;263",
                "yn": "546;546;562;562"
            },
            {
                "class": "Wall",
                "xn": "264;266;266;264",
                "yn": "540;540;551;551"
            },
            {
                "class": "Wall",
                "xn": "391;393;393;391",
                "yn": "76;76;82;82"
            },
            {
                "class": "Wall",
                "xn": "700;702;702;700",
                "yn": "1043;1043;1069;1069"
            },
            {
                "class": "Wall",
                "xn": "81;83;83;81",
                "yn": "912;912;1189;1189"
            },
            {
                "class": "Wall",
                "xn": "349;351;351;349",
                "yn": "1338;1338;1342;1342"
            },
            {
                "class": "Wall",
                "xn": "328;386;386;328",
                "yn": "872;872;874;874"
            },
            {
                "class": "Wall",
                "xn": "316;318;318;316",
                "yn": "465;465;470;470"
            },
            {
                "class": "Wall",
                "xn": "262;386;386;262",
                "yn": "560;560;562;562"
            },
            {
                "class": "Wall",
                "xn": "775;777;777;775",
                "yn": "935;935;1069;1069"
            },
            {
                "class": "Text",
                "height": 26,
                "text": "balcony",
                "width": 167,
                "x": 519,
                "y": 67
            },
            {
                "class": "Text",
                "height": 25,
                "text": "bedroom",
                "width": 191,
                "x": 95,
                "y": 343
            },
            {
                "class": "Text",
                "height": 25,
                "text": "livingroom",
                "width": 251,
                "x": 453,
                "y": 457
            },
            {
                "class": "Text",
                "height": 26,
                "text": "mech",
                "width": 99,
                "x": 300,
                "y": 797
            },
            {
                "class": "Text",
                "height": 25,
                "text": "bath",
                "width": 87,
                "x": 121,
                "y": 912
            },
            {
                "class": "Text",
                "height": 25,
                "text": "kitchen",
                "width": 162,
                "x": 477,
                "y": 990
            },
            {
                "class": "Text",
                "height": 41.804144916688756,
                "text": "w/d",
                "width": 82.8482144712558,
                "x": 143.65424344098489,
                "y": 1099.8290489899741
            },
            {
                "class": "Text",
                "height": 39.450000940758514,
                "text": "closet",
                "width": 142.52903565693418,
                "x": 92.8983893121089,
                "y": 687.1935647745042
            },
            {
                "class": "door",
                "height": 109.45466390047126,
                "width": 107.66032514800457,
                "x": 439.61299435435177,
                "y": 75.36222760360316
            },
            {
                "class": "door",
                "height": 105.62419606719118,
                "width": 123.44032552430781,
                "x": 259.60645780369885,
                "y": 453.0387204809647
            },
            {
                "class": "door",
                "height": 97.98871201414124,
                "width": 91.6258086365996,
                "x": 128.5306482263411,
                "y": 573.9338846542558
            },
            {
                "class": "door",
                "height": 109.4419380937162,
                "width": 91.6258086365996,
                "x": 134.89355160388274,
                "y": 740.6419531458467
            },
            {
                "class": "door",
                "height": 91.62580863659957,
                "width": 103.07903471617459,
                "x": 374.13871859944834,
                "y": 761.00324395398
            },
            {
                "class": "door",
                "height": 91.62580863659957,
                "width": 100.53387336515789,
                "x": 226.51936024048234,
                "y": 879.3532467762545
            },
            {
                "class": "door",
                "height": 92.96156707614045,
                "width": 103.79204091025366,
                "x": 277.98216174224467,
                "y": 1064.0940542016442
            },
            {
                "class": "door",
                "height": 111.91489628583872,
                "width": 94.76664604849248,
                "x": 307.7659647860566,
                "y": 1328.5381236512471
            },
            {
                "class": "Wall",
                "xn": "264.705977159;319.034278148;319.419585247;265.861898456",
                "yn": "1044.56754596;1044.18223886;1049.19123115;1048.42061696"
            }
        ],
        "class": "image",
        "filename": "65.png"
    }
]
