[
    {
        "annotations": [
            {
                "class": "Wall",
                "xn": "1584;1943;1943;1584",
                "yn": "452;452;464;464"
            },
            {
                "class": "Wall",
                "xn": "1765;1778;1778;1765",
                "yn": "166;166;857;857"
            },
            {
                "class": "Wall",
                "xn": "1584;1597;1597;1584",
                "yn": "166;166;464;464"
            },
            {
                "class": "Wall",
                "xn": "1411;1424;1424;1411",
                "yn": "559;559;857;857"
            },
            {
                "class": "Wall",
                "xn": "381;1005;1005;381",
                "yn": "402;402;412;412"
            },
            {
                "class": "Wall",
                "xn": "115;392;392;115",
                "yn": "528;528;538;538"
            },
            {
                "class": "Wall",
                "xn": "993;1779;1779;993",
                "yn": "559;559;569;569"
            },
            {
                "class": "Wall",
                "xn": "709;719;719;709",
                "yn": "402;402;687;687"
            },
            {
                "class": "Wall",
                "xn": "116;126;126;116",
                "yn": "361;361;786;786"
            },
            {
                "class": "Wall",
                "xn": "846;857;857;846",
                "yn": "166;166;412;412"
            },
            {
                "class": "Wall",
                "xn": "115;392;392;115",
                "yn": "361;361;371;371"
            },
            {
                "class": "Wall",
                "xn": "1411;1943;1943;1411",
                "yn": "847;847;857;857"
            },
            {
                "class": "Wall",
                "xn": "994;1004;1004;994",
                "yn": "340;340;687;687"
            },
            {
                "class": "Wall",
                "xn": "993;1005;1005;993",
                "yn": "166;166;237;237"
            },
            {
                "class": "Wall",
                "xn": "115;779;779;115",
                "yn": "776;776;786;786"
            },
            {
                "class": "Wall",
                "xn": "708;1005;1005;708",
                "yn": "678;678;687;687"
            },
            {
                "class": "Wall",
                "xn": "846;1943;1943;846",
                "yn": "166;166;175;175"
            },
            {
                "class": "Wall",
                "xn": "510;519;519;510",
                "yn": "402;402;786;786"
            },
            {
                "class": "Wall",
                "xn": "382;391;391;382",
                "yn": "361;361;538;538"
            },
            {
                "class": "Wall",
                "xn": "769;778;778;769",
                "yn": "678;678;786;786"
            },
            {
                "class": "Wall",
                "xn": "1540;1550;1550;1540",
                "yn": "1175;1175;1569;1569"
            },
            {
                "class": "Wall",
                "xn": "753;765;765;753",
                "yn": "1175;1175;1569;1569"
            },
            {
                "class": "Wall",
                "xn": "1075;1126;1126;1075",
                "yn": "1500;1500;1511;1511"
            },
            {
                "class": "Wall",
                "xn": "912;909;862;865",
                "yn": "1544;1534;1540;1550"
            },
            {
                "class": "Wall",
                "xn": "1153;1156;755;752",
                "yn": "1253;1244;1174;1183"
            },
            {
                "class": "Wall",
                "xn": "1449;1500;1500;1449",
                "yn": "1185;1185;1196;1196"
            },
            {
                "class": "Wall",
                "xn": "1542;1539;1148;1151",
                "yn": "1184;1175;1243;1252"
            },
            {
                "class": "Wall",
                "xn": "752;803;803;752",
                "yn": "1556;1556;1567;1567"
            },
            {
                "class": "Wall",
                "xn": "1545;1548;1151;1148",
                "yn": "1569;1560;1490;1500"
            },
            {
                "class": "Wall",
                "xn": "1166;1163;1035;1038",
                "yn": "1503;1493;1510;1520"
            },
            {
                "class": "Wall",
                "xn": "1004;1001;937;940",
                "yn": "1528;1519;1527;1536"
            },
            {
                "class": "Wall",
                "xn": "1056;1053;989;991",
                "yn": "1519;1510;1518;1528"
            },
            {
                "class": "Wall",
                "xn": "842;839;753;755",
                "yn": "1556;1546;1558;1568"
            },
            {
                "class": "Wall",
                "xn": "946;944;885;888",
                "yn": "1538;1528;1536;1546"
            },
            {
                "class": "Wall",
                "xn": "827;878;878;827",
                "yn": "1543;1543;1554;1554"
            },
            {
                "class": "Wall",
                "xn": "1156;1154;1133;1135",
                "yn": "1502;1492;1493;1504"
            },
            {
                "class": "Wall",
                "xn": "1927;1939;1939;1927",
                "yn": "1117;1117;1121;1121"
            },
            {
                "class": "Wall",
                "xn": "1138;1166;1166;1138",
                "yn": "1492;1492;1496;1496"
            },
            {
                "class": "Wall",
                "xn": "1144;1150;1150;1144",
                "yn": "1492;1492;1502;1502"
            },
            {
                "class": "Text",
                "height": 20,
                "text": "dn",
                "width": 30,
                "x": 1843,
                "y": 216
            },
            {
                "class": "Text",
                "height": 84,
                "text": "diningarea",
                "width": 104,
                "x": 1077,
                "y": 280
            },
            {
                "class": "Text",
                "height": 39,
                "text": "lounge",
                "width": 138,
                "x": 1369,
                "y": 322
            },
            {
                "class": "Text",
                "height": 32,
                "text": "ensuite",
                "width": 141,
                "x": 171,
                "y": 427
            },
            {
                "class": "Text",
                "height": 40,
                "text": "utility",
                "width": 116,
                "x": 561,
                "y": 590
            },
            {
                "class": "Text",
                "height": 33,
                "text": "bedroom",
                "width": 172,
                "x": 223,
                "y": 641
            },
            {
                "class": "Text",
                "height": 32,
                "text": "bedroom",
                "width": 172,
                "x": 1507,
                "y": 702
            },
            {
                "class": "Text",
                "height": 32,
                "text": "pool",
                "width": 73,
                "x": 1111,
                "y": 1299
            },
            {
                "class": "Text",
                "height": 42.564220278810296,
                "text": "kitchen",
                "width": 164.1762782182683,
                "x": 770.7164171913153,
                "y": 505.45011581087243
            },
            {
                "class": "Text",
                "height": 47.12467245154005,
                "text": "covered terrace",
                "width": 307.83052165925324,
                "x": 1024.5815881399337,
                "y": 617.941269404871
            },
            {
                "class": "Text",
                "height": 39.288751513283444,
                "text": "bthrm",
                "width": 129.9551011593221,
                "x": 1613.8610236994891,
                "y": 279.55457807528603
            },
            {
                "class": "Text",
                "height": 154.13279439826582,
                "text": "ensuite",
                "width": 39.28875151328339,
                "x": 1839.015791987152,
                "y": 205.5103925310211
            },
            {
                "class": "Text",
                "height": 181.33269929207745,
                "text": "bedroom",
                "width": 36.2665398584154,
                "x": 1837.504686159718,
                "y": 578.7535319072138
            },
            {
                "class": "wall",
                "height": 689.064257309896,
                "width": 9.066634964603963,
                "x": 1931.1932474606294,
                "y": 164.71053519030409
            }
        ],
        "class": "image",
        "filename": "76.png"
    }
]
