[
    {
        "annotations": [
            {
                "class": "Window",
                "xn": "271;322;322;271",
                "yn": "1114;1114;1122;1122"
            },
            {
                "class": "Window",
                "xn": "739;797;797;739",
                "yn": "1099;1099;1124;1124"
            },
            {
                "class": "Window",
                "xn": "862;887;887;862",
                "yn": "1235;1235;1292;1292"
            },
            {
                "class": "Window",
                "xn": "177;235;235;177",
                "yn": "12;12;35;35"
            },
            {
                "class": "Window",
                "xn": "271;325;325;271",
                "yn": "1099;1099;1122;1122"
            },
            {
                "class": "Window",
                "xn": "1308;1331;1331;1308",
                "yn": "154;154;214;214"
            },
            {
                "class": "Window",
                "xn": "1307;1332;1332;1307",
                "yn": "501;501;560;560"
            },
            {
                "class": "Window",
                "xn": "9;32;32;9",
                "yn": "895;895;955;955"
            },
            {
                "class": "Window",
                "xn": "1308;1331;1331;1308",
                "yn": "237;237;294;294"
            },
            {
                "class": "Window",
                "xn": "676;731;731;676",
                "yn": "11;11;35;35"
            },
            {
                "class": "Window",
                "xn": "341;400;400;341",
                "yn": "11;11;35;35"
            },
            {
                "class": "Window",
                "xn": "8;32;32;8",
                "yn": "99;99;158;158"
            },
            {
                "class": "Window",
                "xn": "1042;1096;1096;1042",
                "yn": "15;15;32;32"
            },
            {
                "class": "Window",
                "xn": "264;322;322;264",
                "yn": "12;12;35;35"
            },
            {
                "class": "Window",
                "xn": "1307;1333;1333;1307",
                "yn": "582;582;643;643"
            },
            {
                "class": "Window",
                "xn": "8;33;33;8",
                "yn": "550;550;607;607"
            },
            {
                "class": "Window",
                "xn": "1123;1181;1181;1123",
                "yn": "11;11;32;32"
            },
            {
                "class": "Window",
                "xn": "1115;1181;1181;1115",
                "yn": "11;11;35;35"
            },
            {
                "class": "Window",
                "xn": "1307;1333;1333;1307",
                "yn": "431;431;560;560"
            },
            {
                "class": "Window",
                "xn": "8;33;33;8",
                "yn": "178;178;237;237"
            },
            {
                "class": "Window",
                "xn": "106;164;164;106",
                "yn": "1099;1099;1124;1124"
            },
            {
                "class": "Window",
                "xn": "1308;1332;1332;1308",
                "yn": "663;663;722;722"
            },
            {
                "class": "Window",
                "xn": "182;242;242;182",
                "yn": "1099;1099;1122;1122"
            },
            {
                "class": "Window",
                "xn": "9;32;32;9",
                "yn": "980;980;1040;1040"
            },
            {
                "class": "Window",
                "xn": "958;1012;1012;958",
                "yn": "15;15;35;35"
            },
            {
                "class": "Window",
                "xn": "463;518;518;463",
                "yn": "1099;1099;1124;1124"
            },
            {
                "class": "Text",
                "height": 59,
                "text": "masterbedroom",
                "width": 117,
                "x": 213,
                "y": 137
            },
            {
                "class": "Text",
                "height": 23,
                "text": "bedroom 1",
                "width": 135,
                "x": 1016,
                "y": 149
            },
            {
                "class": "Text",
                "height": 23,
                "text": "bedroom",
                "width": 139,
                "x": 134,
                "y": 951
            },
            {
                "class": "wall",
                "height": 25.12074253453499,
                "width": 166.87350397941103,
                "x": 7.177355009867141,
                "y": 8.971693762333926
            },
            {
                "class": "wall",
                "height": 86.12826011840569,
                "width": 26.915081287001776,
                "x": 7.177355009867141,
                "y": 12.560371267267497
            },
            {
                "class": "wall",
                "height": 25.12074253453499,
                "width": 19.737726277134612,
                "x": 240.44139283054923,
                "y": 10.766032514800711
            },
            {
                "class": "wall",
                "height": 23.326403782068205,
                "width": 17.943387524667855,
                "x": 324.7753141964881,
                "y": 12.560371267267497
            },
            {
                "class": "wall",
                "height": 25.12074253453499,
                "width": 270.94515162248456,
                "x": 400.1375418000931,
                "y": 10.766032514800711
            },
            {
                "class": "wall",
                "height": 19.737726277134634,
                "width": 220.70366655341456,
                "x": 735.678888511382,
                "y": 12.560371267267497
            },
            {
                "class": "wall",
                "height": 25.12074253453499,
                "width": 23.326403782068155,
                "x": 1015.5957338962005,
                "y": 8.971693762333926
            },
            {
                "class": "wall",
                "height": 21.53206502960142,
                "width": 21.532065029601426,
                "x": 1096.3409777572058,
                "y": 10.766032514800711
            },
            {
                "class": "wall",
                "height": 23.326403782068205,
                "width": 154.31313271214367,
                "x": 1177.086221618211,
                "y": 10.766032514800711
            },
            {
                "class": "wall",
                "height": 240.44139283054923,
                "width": 19.737726277134584,
                "x": 565.2167070270374,
                "y": 12.560371267267497
            },
            {
                "class": "wall",
                "height": 16.14904877220107,
                "width": 346.30737922608967,
                "x": 567.0110457795041,
                "y": 204.55461778121352
            },
            {
                "class": "wall",
                "height": 200.96594027627995,
                "width": 19.737726277134698,
                "x": 821.8071486297877,
                "y": 14.354710019734283
            },
            {
                "class": "wall",
                "height": 68.18487259373784,
                "width": 21.532065029601426,
                "x": 891.7863599759924,
                "y": 16.149048772201066
            },
            {
                "class": "wall",
                "height": 80.74524386100535,
                "width": 16.149048772201127,
                "x": 897.1693762333927,
                "y": 154.31313271214353
            },
            {
                "class": "wall",
                "height": 136.36974518747567,
                "width": 28.70942003946857,
                "x": 1302.6899342908862,
                "y": 16.149048772201066
            },
            {
                "class": "wall",
                "height": 14.354710019734284,
                "width": 21.532065029601426,
                "x": 1309.8672893007533,
                "y": 218.9093278009478
            },
            {
                "class": "wall",
                "height": 134.57540643500892,
                "width": 23.326403782068155,
                "x": 1309.8672893007533,
                "y": 299.6545716619531
            },
            {
                "class": "wall",
                "height": 30.686342529988792,
                "width": 17.1482502373467,
                "x": 895.3191702867317,
                "y": 307.76596478606405
            },
            {
                "class": "wall",
                "height": 323.10913605105844,
                "width": 18.953329209699064,
                "x": 822.2134719064643,
                "y": 322.2065965648823
            },
            {
                "class": "wall",
                "height": 18.050789723522826,
                "width": 88.44886964526188,
                "x": 822.2134719064643,
                "y": 320.40151759253
            },
            {
                "class": "wall",
                "height": 18.050789723522826,
                "width": 87.54633015908564,
                "x": 824.9210903649928,
                "y": 412.4605451824964
            },
            {
                "class": "wall",
                "height": 17.1482502373467,
                "width": 418.7783215857295,
                "x": 914.2724994964307,
                "y": 414.26562415484864
            },
            {
                "class": "wall",
                "height": 9.927934347937594,
                "width": 17.1482502373467,
                "x": 895.3191702867317,
                "y": 429.60879541984303
            },
            {
                "class": "wall",
                "height": 17.1482502373467,
                "width": 90.25394861761413,
                "x": 822.2134719064643,
                "y": 586.6506660144915
            },
            {
                "class": "wall",
                "height": 325.8167545095869,
                "width": 16.245710751170577,
                "x": 896.2217097729078,
                "y": 560.4770209153835
            },
            {
                "class": "wall",
                "height": 18.95332920969895,
                "width": 205.7790028481602,
                "x": 704.883338703566,
                "y": 628.1674823785941
            },
            {
                "class": "wall",
                "height": 565.8609055923082,
                "width": 19.290712690646842,
                "x": 701.9676006874279,
                "y": 319.3684656562649
            },
            {
                "class": "wall",
                "height": 17.147300169463847,
                "width": 204.69589577297518,
                "x": 705.1827194692023,
                "y": 868.0820710791093
            },
            {
                "class": "wall",
                "height": 12.86047512709797,
                "width": 27.864362775378822,
                "x": 913.0937340239519,
                "y": 799.4928704012536
            },
            {
                "class": "wall",
                "height": 16.075593908872406,
                "width": 314.0099343533075,
                "x": 1018.1209475619182,
                "y": 798.4211641406622
            },
            {
                "class": "wall",
                "height": 84.66479458672802,
                "width": 17.147300169463847,
                "x": 1019.1926538225097,
                "y": 799.4928704012536
            },
            {
                "class": "wall",
                "height": 82.52138206554491,
                "width": 17.14730016946396,
                "x": 1152.0842301358548,
                "y": 802.7079891830282
            },
            {
                "class": "wall",
                "height": 13.932181387689411,
                "width": 8.57365008473198,
                "x": 1164.9447052629528,
                "y": 870.2254836002923
            },
            {
                "class": "wall",
                "height": 13.932181387689411,
                "width": 33.22289407833614,
                "x": 1299.979694097481,
                "y": 870.2254836002923
            },
            {
                "class": "wall",
                "height": 17.147300169463847,
                "width": 38.58142538129391,
                "x": 1293.5494565339318,
                "y": 868.0820710791093
            },
            {
                "class": "wall",
                "height": 236.84708359072,
                "width": 21.43412521182995,
                "x": 1309.6250504428042,
                "y": 726.6168446810321
            },
            {
                "class": "wall",
                "height": 17.81612945711703,
                "width": 22.90645215915047,
                "x": 8.908064728558514,
                "y": 160.34516511405326
            },
            {
                "class": "wall",
                "height": 307.964523473023,
                "width": 22.90645215915047,
                "x": 8.908064728558514,
                "y": 239.24516699557154
            },
            {
                "class": "wall",
                "height": 26.724194185675515,
                "width": 15.270968106100312,
                "x": 110.71451876922725,
                "y": 366.5032345464075
            },
            {
                "class": "wall",
                "height": 15.270968106100327,
                "width": 287.6032326648892,
                "x": 109.4419380937189,
                "y": 369.0483958974242
            },
            {
                "class": "wall",
                "height": 109.44193809371887,
                "width": 12.725806755083596,
                "x": 164.16290714057834,
                "y": 369.0483958974242
            },
            {
                "class": "wall",
                "height": 17.81612945711703,
                "width": 69.99193715295975,
                "x": 108.16935741821054,
                "y": 459.4016238585177
            },
            {
                "class": "wall",
                "height": 25.451613510167192,
                "width": 15.270968106100312,
                "x": 110.71451876922725,
                "y": 450.4935591299592
            },
            {
                "class": "wall",
                "height": 428.85968764631707,
                "width": 16.54354878160865,
                "x": 361.41291184437404,
                "y": 366.5032345464075
            },
            {
                "class": "wall",
                "height": 15.270968106100327,
                "width": 49.63064634482606,
                "x": 360.14033116886566,
                "y": 694.8290488275642
            },
            {
                "class": "wall",
                "height": 103.07903471617715,
                "width": 15.270968106100327,
                "x": 393.227428732083,
                "y": 693.5564681520558
            },
            {
                "class": "wall",
                "height": 285.59900138502724,
                "width": 25.688799066378103,
                "x": 6.0444233097360245,
                "y": 608.9756484559044
            },
            {
                "class": "wall",
                "height": 28.71101072124611,
                "width": 21.155481584076085,
                "x": 9.066634964604036,
                "y": 953.5077771108579
            },
            {
                "class": "wall",
                "height": 83.11082050887035,
                "width": 24.1776932389441,
                "x": 9.066634964604036,
                "y": 1041.1519151020302
            },
            {
                "class": "wall",
                "height": 24.17769323894413,
                "width": 93.68856130090838,
                "x": 9.066634964604036,
                "y": 1100.0850423719564
            },
            {
                "class": "wall",
                "height": 16.62216410177416,
                "width": 572.7091085974882,
                "x": 10.577740792038043,
                "y": 778.2195011285131
            },
            {
                "class": "wall",
                "height": 19.644375756642035,
                "width": 193.4215459115528,
                "x": 86.13303216373835,
                "y": 661.8643524160947
            },
            {
                "class": "wall",
                "height": 128.4439953318905,
                "width": 18.13326992920807,
                "x": 161.68832353543866,
                "y": 664.8865640709627
            },
            {
                "class": "wall",
                "height": 15.111058274340053,
                "width": 225.15476828766697,
                "x": 359.64318692929345,
                "y": 442.7540074381638
            },
            {
                "class": "wall",
                "height": 75.55529137170032,
                "width": 15.111058274340053,
                "x": 572.7091085974884,
                "y": 439.7317957832958
            },
            {
                "class": "wall",
                "height": 418.5763141992197,
                "width": 13.599952446906059,
                "x": 571.1980027700544,
                "y": 593.8645901815644
            },
            {
                "class": "wall",
                "height": 46.84428065045415,
                "width": 16.622164101774047,
                "x": 483.553864778882,
                "y": 782.7528186108152
            },
            {
                "class": "wall",
                "height": 36.26653985841608,
                "width": 18.13326992920804,
                "x": 482.042758951448,
                "y": 951.9966712834239
            },
            {
                "class": "wall",
                "height": 19.644375756642148,
                "width": 96.71077295577635,
                "x": 485.06497060631597,
                "y": 973.1521528674999
            },
            {
                "class": "wall",
                "height": 58.66506660144921,
                "width": 15.343171264994453,
                "x": 570.4049552633219,
                "y": 324.0116755372351
            },
            {
                "class": "wall",
                "height": 16.245710751170577,
                "width": 107.40219885496094,
                "x": 474.7357697286508,
                "y": 366.4310313875137
            },
            {
                "class": "wall",
                "height": 76.7158563249721,
                "width": 15.343171264994396,
                "x": 500.00687534158277,
                "y": 368.236110359866
            },
            {
                "class": "wall",
                "height": 23.57753773301306,
                "width": 18.2190064300554,
                "x": 163.9710578704986,
                "y": 1099.570623366873
            },
            {
                "class": "wall",
                "height": 21.43412521182995,
                "width": 25.720950254195856,
                "x": 245.42073367545217,
                "y": 1100.6423296274645
            },
            {
                "class": "wall",
                "height": 21.43412521182995,
                "width": 131.8198700527538,
                "x": 329.0138220015887,
                "y": 1100.6423296274645
            },
            {
                "class": "wall",
                "height": 21.43412521182995,
                "width": 214.34125211829883,
                "x": 522.9926551686492,
                "y": 1100.6423296274645
            },
            {
                "class": "wall",
                "height": 40.72483790247679,
                "width": 17.147300169463847,
                "x": 571.2194368952664,
                "y": 1084.566735718592
            },
            {
                "class": "wall",
                "height": 23.577537733012832,
                "width": 87.87991336850257,
                "x": 799.4928704012547,
                "y": 1098.4989171062816
            },
            {
                "class": "wall",
                "height": 129.6764575315708,
                "width": 24.649243993604387,
                "x": 861.6518335155613,
                "y": 1103.857448409239
            },
            {
                "class": "wall",
                "height": 114.53226079575256,
                "width": 22.90645215915049,
                "x": 861.5371173191602,
                "y": 1295.487127667511
            },
            {
                "class": "Wall",
                "xn": "1109.15167734;1177.15143957;1187.72918036;1122.75162978",
                "yn": "1426.4839011;1363.01745635;1375.10630296;1443.1060652"
            },
            {
                "class": "Wall",
                "xn": "861.330321637;882.485803221;927.818978044;905.152390633",
                "yn": "1405.32841951;1399.2839962;1441.59495937;1456.70601765"
            },
            {
                "class": "Wall",
                "xn": "1230.04014353;1233.06235519;1243.64009598;1230.04014353;1222.48461439;1228.5290377",
                "yn": "1316.1731757;1307.10654073;1320.70649318;1328.26202231;1319.19538735;1311.63985821"
            },
            {
                "class": "Wall",
                "xn": "1282.92884749;1325.23981066;1334.30644562;1295.01769411",
                "yn": "1260.26226008;1216.44019108;1227.01793188;1270.84000087"
            },
            {
                "class": "wall",
                "height": 12.088846619472065,
                "width": 21.155481584076142,
                "x": 1308.6176465578505,
                "y": 947.4633538011228
            },
            {
                "class": "Wall",
                "xn": "1316.1731757;1329.77312814;1512.61693326;1515.63914492;1322.217599;1053.24076172;956.529988766;973.152152868;1010.92979855;1056.26297338;1066.84071417;1023.01864517;1062.30739669;1313.15096404;1494.48366333;1491.46145168;1314.66206987",
                "yn": "959.552200421;950.485565456;1133.32937058;1406.83952534;1597.2388596;1604.79438873;1502.03919247;1486.9281342;1523.19467405;1485.41702837;1492.9725575;1539.81683816;1574.57227219;1577.59448384;1397.77289038;1145.41821719;964.085517903"
            },
            {
                "class": "door",
                "height": 77.06639719913443,
                "width": 84.62192633630445,
                "x": 893.0635440134989,
                "y": 80.08860885400244
            },
            {
                "class": "door",
                "height": 77.0663971991344,
                "width": 83.11082050887046,
                "x": 897.5968614958009,
                "y": 234.2214032522713
            },
            {
                "class": "door",
                "height": 78.57750302656845,
                "width": 87.64413799117244,
                "x": 498.66492305322276,
                "y": 247.82135569917736
            },
            {
                "class": "door",
                "height": 81.59971468143641,
                "width": 78.57750302656842,
                "x": 398.9319384425782,
                "y": 300.7100596593677
            },
            {
                "class": "door",
                "height": 52.8887039601903,
                "width": 61.95533892479432,
                "x": 571.1980027700552,
                "y": 382.3097743408041
            },
            {
                "class": "door",
                "height": 61.955338924794376,
                "width": 55.9109156150583,
                "x": 66.48865640709637,
                "y": 388.35419765054013
            },
            {
                "class": "door",
                "height": 86.13303216373845,
                "width": 75.5552913717004,
                "x": 34.755434030982194,
                "y": 462.39838319480657
            },
            {
                "class": "door",
                "height": 78.57750302656848,
                "width": 84.62192633630445,
                "x": 501.68713470809075,
                "y": 516.7981929824308
            },
            {
                "class": "door",
                "height": 120.88846619472065,
                "width": 78.57750302656848,
                "x": 894.5746498409329,
                "y": 438.22068995586244
            },
            {
                "class": "door",
                "height": 89.15524381860644,
                "width": 74.04418554426638,
                "x": 942.9300363188212,
                "y": 725.330797168324
            },
            {
                "class": "door",
                "height": 74.04418554426638,
                "width": 117.86625453985266,
                "x": 1175.6403337436584,
                "y": 871.9080624294228
            },
            {
                "class": "door",
                "height": 120.89516417329435,
                "width": 64.90161445092644,
                "x": 430.13226832182625,
                "y": 830.9951811069602
            },
            {
                "class": "door",
                "height": 76.35484053050163,
                "width": 89.08064728558531,
                "x": 497.57904412376945,
                "y": 1009.1564756781308
            },
            {
                "class": "Door",
                "xn": "1062.30739669;1118.2183123;1056.26297338;1001.86316359",
                "yn": "1491.46145168;1443.1060652;1388.70625541;1435.55053606"
            },
            {
                "class": "Window",
                "xn": "909.685708115;924.79676639;968.618835385;956.529988766",
                "yn": "1455.19491182;1441.59495937;1491.46145168;1506.57250995"
            },
            {
                "class": "Window",
                "xn": "1180.17365123;1216.44019108;1227.01793188;1190.75139202",
                "yn": "1361.50635052;1314.66206987;1334.30644562;1369.06187966"
            },
            {
                "class": "Window",
                "xn": "1234.57346101;1275.37331835;1290.48437663;1246.66230763",
                "yn": "1299.55101159;1260.26226008;1272.3511067;1313.15096404"
            },
            {
                "class": "Window",
                "xn": "1335.81755145;1326.75091649;1370.57298548;1385.68404376;1334.30644562",
                "yn": "1222.48461439;1210.39576777;1171.10701626;1183.19586288;1222.48461439"
            },
            {
                "class": "Wall",
                "xn": "1373.45617935;1444.90326339;1457.06446919;1385.61738515",
                "yn": "1169.75598231;1099.06897363;1110.47010406;1181.15711274"
            },
            {
                "class": "Text",
                "height": 72.44241336718639,
                "text": "walk-in closet",
                "width": 100.14098318405172,
                "x": 615.7605136210846,
                "y": 57.52779885041274
            },
            {
                "class": "Text",
                "height": 36.22120668359321,
                "text": "mast. bath",
                "width": 147.01548595105479,
                "x": 110.79427926746158,
                "y": 515.6195304370327
            },
            {
                "class": "Text",
                "height": 38.35186590027513,
                "text": "shower",
                "width": 112.92493848414352,
                "x": 36.22120668359321,
                "y": 705.2482007217266
            },
            {
                "class": "Text",
                "height": 36.22120668359321,
                "text": "laundry",
                "width": 108.66362005077963,
                "x": 728.685452105228,
                "y": 739.3387481886379
            },
            {
                "class": "Text",
                "height": 34.090547466911175,
                "text": "bedroom 2",
                "width": 153.40746360110052,
                "x": 1007.801809490564,
                "y": 600.8458991043109
            },
            {
                "class": "Text",
                "height": 104.40230161741556,
                "text": "bonus room",
                "width": 178.975374201284,
                "x": 1035.5003793074293,
                "y": 1122.8574071913895
            },
            {
                "class": "Text",
                "height": 121.44084676695229,
                "text": "covered porch",
                "width": 232.76162296999223,
                "x": 1161.2780972089824,
                "y": 1338.3793320774548
            },
            {
                "class": "Stairs",
                "xn": "721.324178492;818.218471125;821.80714863;724.912855997",
                "yn": "319.392297939;321.186636692;629.812902116;629.812902116"
            }
        ],
        "class": "image",
        "filename": "81.png"
    }
]
