[
    {
        "annotations": [
            {
                "class": "Window",
                "xn": "345;488;488;345",
                "yn": "1043;1043;1055;1055"
            },
            {
                "class": "Window",
                "xn": "221;315;315;221",
                "yn": "348;348;360;360"
            },
            {
                "class": "Window",
                "xn": "94;104;104;94",
                "yn": "691;691;749;749"
            },
            {
                "class": "Window",
                "xn": "124;242;242;124",
                "yn": "775;775;787;787"
            },
            {
                "class": "Window",
                "xn": "891;960;960;891",
                "yn": "251;251;263;263"
            },
            {
                "class": "Window",
                "xn": "569;711;711;569",
                "yn": "251;251;263;263"
            },
            {
                "class": "Wall",
                "xn": "478;494;494;478",
                "yn": "762;762;807;807"
            },
            {
                "class": "Wall",
                "xn": "480;493;493;480",
                "yn": "252;252;271;271"
            },
            {
                "class": "Wall",
                "xn": "93;104;104;93",
                "yn": "349;349;692;692"
            },
            {
                "class": "Wall",
                "xn": "788;1068;1068;788",
                "yn": "776;776;788;788"
            },
            {
                "class": "Wall",
                "xn": "711;892;892;711",
                "yn": "252;252;263;263"
            },
            {
                "class": "Wall",
                "xn": "92;222;222;92",
                "yn": "349;349;360;360"
            },
            {
                "class": "Wall",
                "xn": "264;275;275;264",
                "yn": "776;776;892;892"
            },
            {
                "class": "Wall",
                "xn": "788;801;801;788",
                "yn": "1018;1018;1084;1084"
            },
            {
                "class": "Wall",
                "xn": "1056;1067;1067;1056",
                "yn": "252;252;862;862"
            },
            {
                "class": "Wall",
                "xn": "95;106;106;95",
                "yn": "749;749;787;787"
            },
            {
                "class": "Wall",
                "xn": "558;801;801;558",
                "yn": "1073;1073;1084;1084"
            },
            {
                "class": "Wall",
                "xn": "263;275;275;263",
                "yn": "989;989;1055;1055"
            },
            {
                "class": "Wall",
                "xn": "960;1068;1068;960",
                "yn": "252;252;263;263"
            },
            {
                "class": "Wall",
                "xn": "480;570;570;480",
                "yn": "252;252;263;263"
            },
            {
                "class": "Wall",
                "xn": "263;346;346;263",
                "yn": "1043;1043;1055;1055"
            },
            {
                "class": "Wall",
                "xn": "92;125;125;92",
                "yn": "775;775;787;787"
            },
            {
                "class": "Wall",
                "xn": "559;570;570;559",
                "yn": "1020;1020;1199;1199"
            },
            {
                "class": "Wall",
                "xn": "488;571;571;488",
                "yn": "1044;1044;1055;1055"
            },
            {
                "class": "Wall",
                "xn": "553;561;561;553",
                "yn": "800;800;863;863"
            },
            {
                "class": "Wall",
                "xn": "872;1068;1068;872",
                "yn": "647;647;655;655"
            },
            {
                "class": "Wall",
                "xn": "477;801;801;477",
                "yn": "855;855;863;863"
            },
            {
                "class": "Wall",
                "xn": "263;331;331;263",
                "yn": "854;854;863;863"
            },
            {
                "class": "Wall",
                "xn": "862;881;881;862",
                "yn": "724;724;734;734"
            },
            {
                "class": "Wall",
                "xn": "315;324;324;315",
                "yn": "349;349;360;360"
            },
            {
                "class": "Wall",
                "xn": "478;486;486;478",
                "yn": "762;762;863;863"
            },
            {
                "class": "Wall",
                "xn": "864;881;881;864",
                "yn": "490;490;498;498"
            },
            {
                "class": "Wall",
                "xn": "780;801;801;780",
                "yn": "937;937;946;946"
            },
            {
                "class": "Wall",
                "xn": "788;805;805;788",
                "yn": "489;489;498;498"
            },
            {
                "class": "Wall",
                "xn": "498;501;480;477",
                "yn": "808;801;792;799"
            },
            {
                "class": "Wall",
                "xn": "788;808;808;788",
                "yn": "724;724;734;734"
            },
            {
                "class": "Wall",
                "xn": "465;494;494;465",
                "yn": "775;775;792;792"
            },
            {
                "class": "Wall",
                "xn": "477;500;500;477",
                "yn": "799;799;804;804"
            },
            {
                "class": "Wall",
                "xn": "323;330;330;323",
                "yn": "776;776;799;799"
            },
            {
                "class": "Wall",
                "xn": "873;880;880;873",
                "yn": "719;719;787;787"
            },
            {
                "class": "Wall",
                "xn": "789;796;796;789",
                "yn": "252;252;503;503"
            },
            {
                "class": "Wall",
                "xn": "546;562;562;546",
                "yn": "800;800;805;805"
            },
            {
                "class": "Wall",
                "xn": "873;880;880;873",
                "yn": "627;627;663;663"
            },
            {
                "class": "Wall",
                "xn": "323;330;330;323",
                "yn": "847;847;863;863"
            },
            {
                "class": "Wall",
                "xn": "873;880;880;873",
                "yn": "490;490;605;605"
            },
            {
                "class": "Wall",
                "xn": "559;566;566;559",
                "yn": "1589;1589;1640;1640"
            },
            {
                "class": "Wall",
                "xn": "558;742;742;558",
                "yn": "1633;1633;1640;1640"
            },
            {
                "class": "Text",
                "height": 52,
                "text": "greatroom",
                "width": 93,
                "x": 243,
                "y": 531
            },
            {
                "class": "Text",
                "height": 22,
                "text": "kitchen",
                "width": 128,
                "x": 577,
                "y": 732
            },
            {
                "class": "Text",
                "height": 19,
                "text": "porch",
                "width": 88,
                "x": 132,
                "y": 834
            },
            {
                "class": "Text",
                "height": 19,
                "text": "up",
                "width": 22,
                "x": 452,
                "y": 891
            },
            {
                "class": "Text",
                "height": 19,
                "text": "foyer",
                "width": 85,
                "x": 344,
                "y": 910
            },
            {
                "class": "window",
                "height": 12.7659574468085,
                "width": 96.45390070921991,
                "x": 324.1134751773051,
                "y": 348.22695035461004
            },
            {
                "class": "door",
                "height": 68.7943262411348,
                "width": 77.30496453900713,
                "x": 480.14184397163143,
                "y": 269.50354609929093
            },
            {
                "class": "wall",
                "height": 11.860698048318795,
                "width": 71.1641882899126,
                "x": 421.47837707418483,
                "y": 348.1962069899296
            },
            {
                "class": "wall",
                "height": 36.852883221561854,
                "width": 12.284294407187303,
                "x": 480.35827095691013,
                "y": 336.33550894161084
            },
            {
                "class": "wall",
                "height": 13.978679842661393,
                "width": 15.249468919266974,
                "x": 477.39309644483046,
                "y": 360.0569050382484
            },
            {
                "class": "door",
                "height": 50.17063257520857,
                "width": 57.68120631401234,
                "x": 805.7343506988594,
                "y": 446.72892598404326
            },
            {
                "class": "Text",
                "height": 34.00000000000006,
                "text": "nook",
                "width": 97.00000000000023,
                "x": 591.0000000000011,
                "y": 386.0000000000008
            },
            {
                "class": "Text",
                "height": 53.43453939167074,
                "text": "study/opt. bedroom 4",
                "width": 178.1151313055691,
                "x": 838.3285513448789,
                "y": 350.29309156761934
            },
            {
                "class": "Text",
                "height": 45.1224999307442,
                "text": "walk-in closet",
                "width": 77.18322356574663,
                "x": 929.760985415071,
                "y": 548.594604421153
            },
            {
                "class": "wall",
                "height": 22.099022042171214,
                "width": 7.7645212580600855,
                "x": 871.4181935007475,
                "y": 605.0353872626848
            },
            {
                "class": "Text",
                "height": 49.57348187838386,
                "text": "ath 2",
                "width": 71.07523305455038,
                "x": 914.4216958530807,
                "y": 659.3870360691059
            },
            {
                "class": "door",
                "height": 55.65026803095452,
                "width": 47.08868833388465,
                "x": 872.9243966137548,
                "y": 662.8089615481637
            },
            {
                "class": "door",
                "height": 48.15888579601835,
                "width": 53.866605594064936,
                "x": 807.9990839109745,
                "y": 683.8561783034605
            },
            {
                "class": "wall",
                "height": 289.6667797508659,
                "width": 7.134649747558228,
                "x": 788.3787971051893,
                "y": 563.2805975697257
            },
            {
                "class": "wall",
                "height": 65.63877767753615,
                "width": 4.637522335912877,
                "x": 795.8701793401254,
                "y": 789.448994567323
            },
            {
                "class": "wall",
                "height": 1.7836624368895855,
                "width": 4.994254823290817,
                "x": 788.3787971051893,
                "y": 853.3041098079696
            },
            {
                "class": "wall",
                "height": 51.72621066979741,
                "width": 57.79066295522205,
                "x": 800.1509691886604,
                "y": 788.3787971051893
            },
            {
                "class": "wall",
                "height": 92.75044671825765,
                "width": 13.55583452036069,
                "x": 786.951867155678,
                "y": 856.5147021943711
            },
            {
                "class": "Text",
                "height": 54.62197360037453,
                "text": "storage/ opt. bedroom 5",
                "width": 217.3004601927945,
                "x": 818.142169796915,
                "y": 854.9526302667327
            },
            {
                "class": "Text",
                "height": 22.561249965372213,
                "text": "linen",
                "width": 51.05967097426321,
                "x": 807.455261918581,
                "y": 746.8961172746873
            },
            {
                "class": "Text",
                "height": 20.186381547964515,
                "text": "pantry",
                "width": 58.18427622648596,
                "x": 490.4103281946675,
                "y": 826.4542092578416
            },
            {
                "class": "wall",
                "height": 7.848114722314108,
                "width": 12.485637058226985,
                "x": 788.0220646178118,
                "y": 945.6978240388497
            },
            {
                "class": "door",
                "height": 38.822606290300655,
                "width": 47.78166928037007,
                "x": 499.9157148458715,
                "y": 766.2985210839344
            },
            {
                "class": "door",
                "height": 49.57348187838397,
                "width": 39.41987715630529,
                "x": 323.720809374507,
                "y": 797.9538769821795
            },
            {
                "class": "door",
                "height": 96.75788029274929,
                "width": 86.00700470466609,
                "x": 262.20191017603054,
                "y": 892.3226738109104
            },
            {
                "class": "wall",
                "height": 8.959062990069356,
                "width": 97.35515115875396,
                "x": 244.88105506189643,
                "y": 775.2575840740038
            },
            {
                "class": "wall",
                "height": 11.945417320092588,
                "width": 10.750875588083261,
                "x": 330.8880597665625,
                "y": 777.6466675380223
            },
            {
                "class": "wall",
                "height": 24.97127411645397,
                "width": 68.13590508918156,
                "x": 500.8524122785912,
                "y": 1018.8279839513223
            },
            {
                "class": "wall",
                "height": 8.561579697069874,
                "width": 104.52261880172875,
                "x": 614.6500757521459,
                "y": 936.7795118544022
            },
            {
                "class": "window",
                "height": 70.212765957447,
                "width": 12.056737588652368,
                "x": 1058.8652482269545,
                "y": 860.2836879432657
            },
            {
                "class": "wall",
                "height": 708.0000000000026,
                "width": 8.0,
                "x": 1059.000000000004,
                "y": 933.0000000000035
            },
            {
                "class": "wall",
                "height": 6.0,
                "width": 177.0000000000008,
                "x": 886.0000000000033,
                "y": 1633.0000000000061
            },
            {
                "class": "window",
                "height": 10.947974973864802,
                "width": 142.32367466024232,
                "x": 741.935842459606,
                "y": 1631.2482711058533
            },
            {
                "class": "door",
                "height": 65.68784984318859,
                "width": 67.37215368532168,
                "x": 991.2128110952966,
                "y": 1106.5876242814102
            },
            {
                "class": "Text",
                "height": 37.89683644799334,
                "text": "opt.door",
                "width": 42.94974797439261,
                "x": 1010.5823052798265,
                "y": 1180.696993335264
            },
            {
                "class": "Text",
                "height": 22.738101868796093,
                "text": "2- car garage",
                "width": 224.85456292476147,
                "x": 698.9860944852134,
                "y": 1335.652946811504
            },
            {
                "class": "Text",
                "height": 20.30720944415725,
                "text": "drop & store",
                "width": 112.88419367487427,
                "x": 592.4926990765888,
                "y": 975.3433241855539
            },
            {
                "class": "Text",
                "height": 17.91812598013871,
                "text": "dn",
                "width": 24.48810550618964,
                "x": 736.4349777837035,
                "y": 938.3125304932671
            },
            {
                "class": "door",
                "height": 52.55983620840698,
                "width": 61.51889919847645,
                "x": 719.1141226695694,
                "y": 934.1316344312347
            },
            {
                "class": "Text",
                "height": 18.43971631205693,
                "text": "dw",
                "width": 31.205673758865373,
                "x": 611.3475177304996,
                "y": 684.3971631205708
            },
            {
                "class": "Stairs",
                "xn": "476.873700143;479.434095848;787.32167943;787.32167943",
                "yn": "862.213253815;935.824630347;936.464729274;864.133550594"
            }
        ],
        "class": "image",
        "filename": "85.png"
    }
]
