[
    {
        "annotations": [
            {
                "class": "wall",
                "height": 16.245710751170137,
                "width": 118.23267268907148,
                "x": 1129.9794366925007,
                "y": 65.88538249085667
            },
            {
                "class": "wall",
                "height": 56.859987629095485,
                "width": 19.855868695874733,
                "x": 1229.2587801718737,
                "y": 66.7879219770328
            },
            {
                "class": "wall",
                "height": 60.470145573799954,
                "width": 18.050789723522257,
                "x": 1130.881976178677,
                "y": 64.08030351850444
            },
            {
                "class": "wall",
                "height": 18.953329209698495,
                "width": 117.33013320289524,
                "x": 1130.881976178677,
                "y": 102.88950142407754
            },
            {
                "class": "wall",
                "height": 21.155481584075552,
                "width": 116.35514871241571,
                "x": 1876.7934376729884,
                "y": 61.95533892479269
            },
            {
                "class": "wall",
                "height": 51.377598132754926,
                "width": 16.622164101773706,
                "x": 1973.5042106287624,
                "y": 67.99976223452856
            },
            {
                "class": "wall",
                "height": 58.93312726992475,
                "width": 16.622164101773706,
                "x": 1878.3045435004224,
                "y": 63.466444752226664
            },
            {
                "class": "wall",
                "height": 18.133269929207614,
                "width": 108.79961957524574,
                "x": 1879.8156493278564,
                "y": 104.2663020929438
            },
            {
                "class": "wall",
                "height": 55.91091561505684,
                "width": 116.35514871241548,
                "x": 1030.5741743099663,
                "y": 179.8215934646422
            },
            {
                "class": "wall",
                "height": 497.1538172257755,
                "width": 18.133269929207472,
                "x": 1110.6627831639667,
                "y": 182.84380511951014
            },
            {
                "class": "wall",
                "height": 207.0214983584536,
                "width": 16.622164101773706,
                "x": 1131.818264748042,
                "y": 178.31048763720824
            },
            {
                "class": "wall",
                "height": 49.866492305320946,
                "width": 178.31048763720833,
                "x": 1116.7072064737024,
                "y": 333.95438786290697
            },
            {
                "class": "wall",
                "height": 43.822068995585084,
                "width": 160.17721770800063,
                "x": 1831.4602628499695,
                "y": 338.48770534520884
            },
            {
                "class": "wall",
                "height": 61.00751758386923,
                "width": 96.89429263320415,
                "x": 522.152576967822,
                "y": 174.05085898927402
            },
            {
                "class": "wall",
                "height": 1889.4387063474799,
                "width": 26.915081287001158,
                "x": 522.152576967822,
                "y": 174.05085898927402
            },
            {
                "class": "wall",
                "height": 25.1207425345342,
                "width": 118.426357662805,
                "x": 529.3299319776891,
                "y": 2036.5744840497528
            },
            {
                "class": "wall",
                "height": 25.1207425345342,
                "width": 242.2357315830102,
                "x": 825.3958261347016,
                "y": 2040.1631615546862
            },
            {
                "class": "wall",
                "height": 46.65280756413517,
                "width": 61.00751758386923,
                "x": 949.2052000549068,
                "y": 2038.3688228022195
            },
            {
                "class": "wall",
                "height": 27.199904893811436,
                "width": 66.4886564070946,
                "x": 1130.3071589206083,
                "y": 503.19824053551145
            },
            {
                "class": "wall",
                "height": 15.111058274339712,
                "width": 116.35514871241548,
                "x": 1078.9295607878535,
                "y": 660.3532465886442
            },
            {
                "class": "wall",
                "height": 175.28827598234022,
                "width": 13.599952446905718,
                "x": 1149.95153467725,
                "y": 642.2199766594366
            },
            {
                "class": "Wall",
                "xn": "1130.30715892;1195.2847095;1127.28494727",
                "yn": "547.020309531;530.398145429;528.887039602"
            },
            {
                "class": "Wall",
                "xn": "1115.19610065;1195.2847095;1193.77360367;1115.19610065",
                "yn": "628.620024213;651.286611624;679.997622345;676.97541069"
            },
            {
                "class": "Wall",
                "xn": "1062.74580612;1162.16542659;1163.07336833;1149.45424224;1159.89557224;1120.40010658;1119.03819397;1104.965097;1105.41906787;1092.25391265;1092.70788352;1078.18081569;1073.18713612;1066.83154394;1061.83786438;1054.57433046;1048.67270915;1047.76476741;1041.86314611;1033.69167045;1032.78372871;1045.04094219",
                "yn": "807.160206439;807.160206439;813.969769485;821.687274271;843.47787602;860.728769071;868.446273857;867.538332117;870.716128206;871.170099075;867.084361248;869.354215596;857.097002113;849.833468197;843.47787602;837.122283843;833.944487755;832.582575146;828.496837318;823.049186881;822.595216011;796.264905565"
            },
            {
                "class": "Wall",
                "xn": "911.012313465;930.418492923;942.277824815;922.332584816;914.785737248;908.856071303;903.465465898;896.457678871;891.067073466;886.754589142;884.59834698;882.442104818;882.442104818;882.442104818;884.59834698;889.449891844;893.762376169;890.528012925;888.910831304;888.910831304;885.676468061;884.59834698;883.520225899;883.520225899;882.981165358;884.59834698;887.832710223;888.910831304;893.223315628;897.535799952;888.371770763;890.528012925;884.59834698;880.824923196;859.262501576;858.184380495;849.020351306;837.700079955;827.457929686;811.825174011;810.207992389;801.583023741;797.809599957;809.668931849;809.129871308;869.504651845;868.965591305",
                "yn": "806.973629146;796.192418336;822.606384821;834.465716712;831.231353469;828.536050767;829.614171848;832.30947455;836.082898334;840.395382658;845.785988063;852.254714549;858.184380495;864.653106981;867.887470224;871.660894008;874.895257251;879.207741575;885.13740752;885.676468061;892.684255088;901.309223736;909.395131843;915.86385833;923.410705897;935.270037788;944.973127517;950.902793463;957.910580489;967.613670219;982.168304812;985.402668056;994.027636704;991.871394542;1026.91032967;1025.29314805;1024.21502697;1022.05878481;1019.36348211;1019.36348211;1004.26978697;1005.88696859;993.488576163;991.871394542;971.387094002;969.769912381;808.051750227"
            },
            {
                "class": "Wall",
                "xn": "551.997993484;581.646323212;584.880686455;592.427534022;601.052502671;612.911834562;628.005529696;639.864861587;658.192919965;673.82567564;711.559913476;721.802063745;719.645821583;727.731729691;724.497366448;716.41145834;703.474005368;678.138159964;654.958556722;625.310226994;611.833713481;549.841751322",
                "yn": "1148.19895129;1151.97237507;1128.79277183;1106.15222913;1085.12886805;1065.18362805;1044.16026697;1030.68375346;1012.35569508;999.957302649;1051.70711454;1043.62120643;1027.98845076;1023.13690589;1012.35569508;1015.05099778;967.613670219;980.551123191;997.261999947;1027.44939022;1044.16026697;1005.34790805"
            },
            {
                "class": "Wall",
                "xn": "963.64171149;969.759049451;941.748080892;936.918603554;960.422059932;959.134199308;964.929572114;966.539397893;975.876387413;994.872331609;1006.78504238;1017.40989252;1031.89832453;1046.38675655;1052.50409451;1064.73877043;1079.22720244;1093.71563446;1093.07170415;1104.98441491;1106.27227554;1118.82891661;1120.11677724;1159.39652625;1151.34739736;1141.68844268;1130.09769707;1117.21909084;1114.32140443;981.993725374",
                "yn": "1058.62143247;1072.14396902;1084.05667978;1076.00755089;1042.52317468;1041.55727921;1031.25439422;1032.22028969;1019.66364861;1019.66364861;1018.37578799;1015.80006674;1009.68272878;1001.63359988;995.838227076;984.891411777;962.997781178;963.319746334;961.065990243;959.77812962;963.319746334;962.675816023;970.724944919;986.823202712;1005.49718175;1020.95150923;1036.08387156;1037.69369734;1031.25439422;1030.61046391"
            },
            {
                "class": "Wall",
                "xn": "1117.86302115;1125.91215004;1132.67341832;1139.11272143;1144.90809424;1151.99132767;1159.71849141;1171.63120218;1166.80172484;1160.36242172;1151.99132767;1143.29826846;1129.45376676",
                "yn": "1038.98155796;1057.97750216;1076.00755089;1095.96939055;1110.45782256;1138.14682597;1163.58207328;1165.19189906;1141.68844268;1119.79481208;1094.68152993;1070.21217808;1036.40583671"
            },
            {
                "class": "Wall",
                "xn": "990.564437823;992.380321302;979.669136949;991.926350432;980.123107819;979.669136949;977.85325347;976.491340861;1001.91370957;1008.26930174;1159.44160138;1172.15278573;1174.42264008;1174.42264008",
                "yn": "1175.78455269;1186.22588269;1179.87029051;1185.77191182;1186.67985356;1175.78455269;1175.78455269;1162.16542659;1149.90821311;1164.88925181;1164.43528094;1164.43528094;1175.78455269;1175.78455269"
            },
            {
                "class": "Wall",
                "xn": "1159.44160138;1159.89557224;991.018408693;991.018408693;980.123107819;981.031049558;956.062651721;946.529263456;928.824399535;964.688098247;975.583399121;958.78647694;999.643855218;1190.76559139;1186.22588269;1175.33058182",
                "yn": "1177.1464653;1270.2104936;1271.11843534;1261.58504707;1261.1310762;1270.2104936;1269.75652273;1283.82961969;1303.80433796;1365.09040538;1358.7348132;1330.58861928;1282.92167795;1281.55976534;1238.88650358;1177.1464653"
            },
            {
                "class": "Wall",
                "xn": "1190.31162052;1193.48941661;1193.48941661;1192.58147487;1188.04176617;1187.5877953;1168.0670479;1170.79087312;1170.79087312;1170.79087312",
                "yn": "1280.6518236;1312.88375536;1355.55701711;1399.13822061;1442.26545324;1448.16707454;1449.98295802;1280.6518236;1280.6518236;1280.19785273"
            },
            {
                "class": "Wall",
                "xn": "1007.01096717;1016.56877817;1029.56740113;1187.08012645;1185.55087669;1122.08701163;1119.79313699;1033.00821309;1017.71571549;1008.92252937;1017.71571549",
                "yn": "1430.99546322;1426.40771394;1444.37639862;1443.2294613;1458.5219589;1459.28658378;1455.46345938;1455.46345938;1466.55052014;1453.55189718;1447.43489814"
            },
            {
                "class": "Wall",
                "xn": "1120.70686372;1120.70686372;1147.12083021;1157.90204102;1164.90982805;1172.45667561;1160.05828318;1175.15197832;1179.46446264;1185.39412859",
                "yn": "1456.00251992;1618.25974262;1615.56443991;1582.68174694;1554.65059884;1529.85381397;1578.36926262;1517.45542154;1496.43206046;1456.54158046"
            },
            {
                "class": "Wall",
                "xn": "1015.98680653;1044.58697133;1051.39653437;1062.29183525;1072.27919438;1084.08243699;1095.88567961;1116.76833962;1099.97141744;1097.70156309;1113.13657266;1119.03819397;1148.5463005;1137.19702876;1119.94613571;1107.23495135;1093.61582526;1081.81258265;1068.64742742;1071.37125264;1081.81258265;1063.19977699;1057.29815568;1052.30447611;1014.62489392",
                "yn": "1707.38444118;1707.38444118;1688.31766465;1671.0667716;1657.44764551;1645.19043202;1634.29513115;1621.12997592;1630.20939332;1634.29513115;1621.12997592;1617.0442381;1616.13629636;1621.12997592;1630.66336419;1640.65072332;1652.90793681;1665.61912116;1676.96839291;1680.14618899;1664.71117942;1691.94943161;1704.66061596;1720.09562553;1719.64165466"
            },
            {
                "class": "Wall",
                "xn": "549.534486814;556.375165073;566.256144781;576.89719985;589.818481006;606.540138973;622.501721578;658.225263597;675.706996926;703.069709962;740.313402706;783.637698347;851.284405576;840.643350507;853.564631663;871.806440353;842.923576593;799.599280952;750.954457776;712.190614308;678.747298375;665.065941856;548.774411452",
                "yn": "1210.80005186;1250.32397069;1279.20683445;1301.24901995;1327.85165763;1349.13376777;1368.89572718;1398.5386663;1375.73640544;1391.69798804;1407.65957065;1417.54055036;1414.50024891;1352.17406921;1349.13376777;1420.58085181;1428.18160543;1428.94168079;1422.10100253;1408.41964601;1391.69798804;1411.45994746;1412.22002282"
            },
            {
                "class": "Wall",
                "xn": "520.849242647;795.206045359;795.206045359;762.713317958;737.098384473;736.333759593;768.448004559;802.473811726;847.204367216;892.317235145;926.343042312;935.136228434;917.16754375;914.49135667;903.021983467;902.639671027;860.585302618;833.441119373;806.679248567;806.679248567;903.021983467;903.404295907;914.87366911;915.63829399;925.960729872;925.578417432;916.02060643;916.40291887;903.404295907;903.021983467;521.474168268",
                "yn": "1705.0846606;1708.29977938;1530.39654012;1527.72051056;1529.63207276;1510.51645075;1516.25113735;1518.92732443;1517.78038711;1508.98720099;1498.66476511;1512.04570051;1517.78038711;1539.95450864;1540.33682108;1517.78038711;1526.95588568;1530.0143852;1530.39669764;1708.17198227;1707.78966983;1687.90942295;1687.52711051;1707.40735739;1707.40735739;1719.25904304;1720.02366792;1734.93385308;1734.55154064;1718.8767306;1720.40598036"
            },
            {
                "class": "Wall",
                "xn": "1000.47462191;1050.40233817;1063.20431669;1076.64639415;1090.72857053;1115.05232973;1114.4122308;1070.88550381;1069.60530596;903.819684029;903.819684029;916.621662556;917.261761483;924.942948599;925.583047525;917.901860409;915.98156363;1056.1632285;1056.80332743;1095.84936194;1095.20926301;1055.52312958;1056.1632285;1039.52065642;1000.47462191",
                "yn": "1837.7240176;1837.08391867;1867.80866714;1859.48738109;1879.33044781;1906.21460272;1997.10865026;1997.10865026;2066.87943324;2064.95913646;1822.36164336;1823.64184122;1838.36411652;1838.36411652;1849.24579827;1849.24579827;2036.7947837;2038.07498155;1983.02647388;1984.30667173;1930.53836192;1929.89826299;1879.97054674;1849.24579827;1850.52599612"
            },
            {
                "class": "Wall",
                "xn": "1382.5770837;1362.81512428;1346.85354168;1333.17218516;1328.61173299;1329.37180835;1347.61361704;1359.77482284;1372.69610399;1384.85730979;1428.18160543;1428.18160543;1392.45806341;1381.05693297;1365.85542573;1365.85542573;1369.65580254;1549.79366337;1551.31381409;1562.71494452;1562.71494452;1726.13114738;1560.43471844;1560.43471844;1724.61099665;1726.13114738;1736.77220245;1737.53227781;1812.0196633;1814.29988938;1825.70101982;1825.70101982;1824.94094445;1964.79481108;1965.55488645;1818.10026619;1818.86034156;1935.91194732;1935.91194732;1995.95790093;1993.67767484;1966.31496181;1966.31496181;1966.31496181;1892.58765168;1891.82757632;1964.79481108;1966.31496181;1699.5285097;1412.98009818;1412.98009818",
                "yn": "1359.01474747;1419.06070108;1485.94733295;1555.1141909;1622.00082277;1641.76278218;1655.4441387;1673.68594739;1694.20798217;1720.81061984;1719.29046912;1709.40948941;1709.40948941;1681.28670101;1660.76466624;1452.50401701;1438.8226605;1435.78235905;1520.91079961;1520.91079961;1434.26220832;1435.78235905;1437.30250977;1435.02228369;1435.02228369;1541.43283438;1540.67275902;1436.54243441;1438.06258513;1482.9070315;1485.18725759;1325.57143154;1324.05128082;1324.05128082;2038.52212121;2038.52212121;2064.36468352;2065.12475888;2082.60649221;2086.40686902;339.753686868;337.473460782;415.001147718;817.841089643;818.601165005;847.484028766;845.963878041;1159.11492724;1425.14130398;1426.6614547;1358.25467211"
            },
            {
                "class": "wall",
                "height": 30.187390268659783,
                "width": 16.1718162153536,
                "x": 1710.9781555843956,
                "y": 1623.1112874809753
            },
            {
                "class": "wall",
                "height": 32.343632430706975,
                "width": 11.320271350747362,
                "x": 1725.5327901782139,
                "y": 1620.9550453189281
            },
            {
                "class": "wall",
                "height": 12.9374529722827,
                "width": 281.3896021471503,
                "x": 1712.595337205931,
                "y": 1639.8221642368405
            },
            {
                "class": "wall",
                "height": 14.073096962657928,
                "width": 35.86369871128909,
                "x": 1329.6806775362759,
                "y": 1607.0568789615625
            },
            {
                "class": "wall",
                "height": 11.349271744078806,
                "width": 197.47732834697172,
                "x": 1364.6364345080387,
                "y": 1609.3267333103784
            },
            {
                "class": "wall",
                "height": 49.93679567394679,
                "width": 11.80324261384203,
                "x": 1550.7644911109314,
                "y": 1602.063199394168
            },
            {
                "class": "wall",
                "height": 112.13080483149884,
                "width": 12.257213483605256,
                "x": 1525.342122404195,
                "y": 1621.5839467939834
            },
            {
                "class": "wall",
                "height": 10.441330004552356,
                "width": 19.974718269578716,
                "x": 1516.716675878695,
                "y": 1708.746353788509
            },
            {
                "class": "wall",
                "height": 29.05413566484185,
                "width": 36.317669581052314,
                "x": 1539.8691902366159,
                "y": 1624.3077720125623
            },
            {
                "class": "wall",
                "height": 239.39699846090116,
                "width": 12.161879600954762,
                "x": 1525.355741530288,
                "y": 1824.2819401432316
            },
            {
                "class": "wall",
                "height": 11.521780674588854,
                "width": 20.48316564371339,
                "x": 1515.7542576347973,
                "y": 1837.7240175969184
            },
            {
                "class": "wall",
                "height": 29.05413566484208,
                "width": 275.10634707647114,
                "x": 1365.5443762475657,
                "y": 2036.5133217575064
            },
            {
                "class": "wall",
                "height": 80.35284394807832,
                "width": 70.36548481328873,
                "x": 1365.5443762475657,
                "y": 1983.8527008649808
            },
            {
                "class": "wall",
                "height": 11.469373202378392,
                "width": 48.55367989006845,
                "x": 1391.999594328652,
                "y": 1837.7758994610904
            },
            {
                "class": "wall",
                "height": 69.58086409442876,
                "width": 9.175498561902486,
                "x": 1322.0364177941442,
                "y": 1928.0016353198
            },
            {
                "class": "wall",
                "height": 16.821747363488385,
                "width": 114.31141958370404,
                "x": 1320.8894804739064,
                "y": 1981.9076893709782
            },
            {
                "class": "wall",
                "height": 24.467996165073828,
                "width": 9.940123442061122,
                "x": 1321.2717929139856,
                "y": 1903.5336391547262
            },
            {
                "class": "Wall",
                "xn": "1321.65410535;1335.79966564;1348.41597616;1358.73841204;1371.737035;1379.00097137;1384.73565797;1393.91115653;1392.76421921;1332.74116612;1332.74116612",
                "yn": "1903.15132671;1888.62345399;1875.24251859;1860.33233343;1867.21395735;1852.30377218;1838.92283678;1838.54052434;1850.39220998;1928.7662602;1928.7662602"
            },
            {
                "class": "wall",
                "height": 122.1745137074272,
                "width": 16.075593908872065,
                "x": 1009.5472974771614,
                "y": 2345.96500443472
            },
            {
                "class": "wall",
                "height": 35.36630659951834,
                "width": 679.4617692149897,
                "x": 1010.6190037377529,
                "y": 2423.1278551973055
            },
            {
                "class": "wall",
                "height": 52.513606768981845,
                "width": 28.936069035969695,
                "x": 1662.2164101773644,
                "y": 2414.554205112574
            },
            {
                "class": "wall",
                "height": 51.44190050839006,
                "width": 20.36241895123794,
                "x": 1668.6466477409133,
                "y": 2623.53692592791
            },
            {
                "class": "wall",
                "height": 49.29848798720741,
                "width": 21.43412521182927,
                "x": 1562.547727942358,
                "y": 2625.6803384490927
            },
            {
                "class": "wall",
                "height": 47.1550754660243,
                "width": 24.649243993603704,
                "x": 1563.6194342029496,
                "y": 2837.878178046203
            },
            {
                "class": "wall",
                "height": 51.44190050839006,
                "width": 18.21900643005506,
                "x": 1559.3326091605836,
                "y": 2836.806471785612
            },
            {
                "class": "wall",
                "height": 17.147300169463506,
                "width": 126.46133874979319,
                "x": 1564.691140463541,
                "y": 2868.9576596033558
            },
            {
                "class": "wall",
                "height": 51.44190050839006,
                "width": 21.43412521182927,
                "x": 1666.5032352197304,
                "y": 2833.5913530038374
            },
            {
                "class": "wall",
                "height": 248.99848235639047,
                "width": 22.40346242281157,
                "x": 1008.7959079528819,
                "y": 2519.4293741767406
            },
            {
                "class": "wall",
                "height": 13.442077453687034,
                "width": 184.34849079342018,
                "x": 1012.6365015110781,
                "y": 2692.256084295572
            },
            {
                "class": "wall",
                "height": 9.601483895490219,
                "width": 15.362374232784987,
                "x": 1028.6389746702291,
                "y": 2759.4664715640065
            },
            {
                "class": "wall",
                "height": 101.7757292922006,
                "width": 16.64257208551703,
                "x": 1181.6226180717133,
                "y": 2425.9749309272984
            },
            {
                "class": "wall",
                "height": 174.74700689792917,
                "width": 12.801978527320898,
                "x": 1184.1830137771774,
                "y": 2594.9610474879337
            },
            {
                "class": "wall",
                "height": 9.601483895490674,
                "width": 38.40593558196247,
                "x": 1156.0186610170715,
                "y": 2758.8263726376404
            },
            {
                "class": "wall",
                "height": 71.05098082663062,
                "width": 35.84553987649838,
                "x": 833.4088021285864,
                "y": 2518.7892752503744
            },
            {
                "class": "wall",
                "height": 76.81187116392493,
                "width": 14.082176380052942,
                "x": 836.6092967604167,
                "y": 2580.8788711078805
            },
            {
                "class": "wall",
                "height": 138.26136809506488,
                "width": 18.56286886461521,
                "x": 834.0489010549525,
                "y": 2519.4293741767406
            },
            {
                "class": "wall",
                "height": 12.801978527320898,
                "width": 61.44949693113995,
                "x": 850.6914731404696,
                "y": 2612.2437184998166
            },
            {
                "class": "wall",
                "height": 37.76583665559656,
                "width": 8.321286042758516,
                "x": 851.9716709932017,
                "y": 2621.205103468941
            },
            {
                "class": "wall",
                "height": 126.67922702026817,
                "width": 26.953027025588995,
                "x": 833.9266561717216,
                "y": 2762.6852701228654
            },
            {
                "class": "wall",
                "height": 14.55463459381781,
                "width": 123.98392431770912,
                "x": 832.848535090698,
                "y": 2873.19268092778
            },
            {
                "class": "wall",
                "height": 15.632755674841519,
                "width": 17.78899783688871,
                "x": 834.4657167122333,
                "y": 2888.8254366026217
            },
            {
                "class": "wall",
                "height": 68.46068864499603,
                "width": 52.28887242964254,
                "x": 833.9266561717219,
                "y": 2990.707878759349
            },
            {
                "class": "wall",
                "height": 17.78899783688894,
                "width": 104.03868431877333,
                "x": 835.5438377932572,
                "y": 3042.45769064848
            },
            {
                "class": "wall",
                "height": 12.398392431770844,
                "width": 154.1713145863689,
                "x": 1043.6212064308038,
                "y": 2871.575499306246
            },
            {
                "class": "wall",
                "height": 7.0077870266532045,
                "width": 77.6247178336962,
                "x": 1044.6993275118275,
                "y": 2883.434831197505
            },
            {
                "class": "wall",
                "height": 37.19517729531299,
                "width": 25.335845404053543,
                "x": 1096.4491394009583,
                "y": 2883.434831197505
            },
            {
                "class": "wall",
                "height": 105.65586594030856,
                "width": 27.492087566100736,
                "x": 1094.831957779423,
                "y": 2973.4579414629725
            },
            {
                "class": "wall",
                "height": 26.95302702558911,
                "width": 88.40592864393193,
                "x": 1093.7538366983993,
                "y": 3051.082659296668
            },
            {
                "class": "wall",
                "height": 87.05345398578174,
                "width": 26.884154907373613,
                "x": 1609.8487998105975,
                "y": 2990.5421839821515
            },
            {
                "class": "wall",
                "height": 28.164352760105885,
                "width": 89.61384969124606,
                "x": 1549.6795007321894,
                "y": 3050.7114830605597
            },
            {
                "class": "wall",
                "height": 27.52425383373975,
                "width": 54.40840874111359,
                "x": 1339.7270528841275,
                "y": 3051.351581986926
            },
            {
                "class": "window",
                "height": 49.639671739686946,
                "width": 24.36856612675524,
                "x": 1009.9416850310786,
                "y": 2467.5429552055125
            },
            {
                "class": "window",
                "height": 102.88950142407748,
                "width": 25.271105612931365,
                "x": 834.8490247129112,
                "y": 2658.8813262748504
            },
            {
                "class": "window",
                "height": 166.9698049425824,
                "width": 26.17364509910749,
                "x": 1555.9780741676313,
                "y": 2458.5175603437515
            },
            {
                "class": "window",
                "height": 153.43171264994044,
                "width": 22.563487154402992,
                "x": 1662.4777335364136,
                "y": 2468.445494691689
            },
            {
                "class": "window",
                "height": 151.62663367758842,
                "width": 20.758408182050744,
                "x": 1666.990430967294,
                "y": 2680.542273943077
            },
            {
                "class": "window",
                "height": 101.98696193790147,
                "width": 26.17364509910749,
                "x": 1611.9355223105508,
                "y": 2887.223816277409
            },
            {
                "class": "window",
                "height": 52.513606768981845,
                "width": 22.505831472420823,
                "x": 1097.4272108456635,
                "y": 2918.256147590568
            },
            {
                "class": "window",
                "height": 17.14730016946328,
                "width": 176.8315329975925,
                "x": 648.3822876578392,
                "y": 2045.8872514691159
            },
            {
                "class": "window",
                "height": 23.57753773301215,
                "width": 175.75982673700105,
                "x": 1640.7822849655406,
                "y": 2042.672132687342
            },
            {
                "class": "window",
                "height": 22.770158768803043,
                "width": 402.2728049155203,
                "x": 622.3843396806164,
                "y": 217.58151712411794
            },
            {
                "class": "window",
                "height": 148.0,
                "width": 12.0,
                "x": 903.0000000000005,
                "y": 1540.0000000000007
            },
            {
                "class": "window",
                "height": 29.610000000000014,
                "width": 534.3900000000001,
                "x": 1294.3800000000006,
                "y": 346.8600000000001
            },
            {
                "class": "window",
                "height": 87.87013144408047,
                "width": 15.436644713149349,
                "x": 834.7662487187658,
                "y": 2903.276640280772
            },
            {
                "class": "Text",
                "height": 43.73820000000005,
                "text": "balcony",
                "width": 159.04800000000012,
                "x": 759.4542000000007,
                "y": 121.2741000000001
            },
            {
                "class": "Text",
                "height": 49.70250000000004,
                "text": "master suite",
                "width": 250.5006000000003,
                "x": 701.7993000000006,
                "y": 415.51290000000034
            },
            {
                "class": "Text",
                "height": 61.63110000000006,
                "text": "optional fire place",
                "width": 139.16700000000014,
                "x": 918.5022000000008,
                "y": 252.48870000000022
            },
            {
                "class": "Text",
                "height": 31.809600000000046,
                "text": "closet",
                "width": 103.38120000000015,
                "x": 618.2991000000005,
                "y": 880.7283000000008
            },
            {
                "class": "Text",
                "height": 47.71440000000007,
                "text": "master bath",
                "width": 244.5363000000002,
                "x": 697.8231000000006,
                "y": 1151.109900000001
            },
            {
                "class": "Text",
                "height": 31.80959999999982,
                "text": "closet",
                "width": 115.30980000000011,
                "x": 612.3348000000005,
                "y": 1568.6109000000015
            },
            {
                "class": "Text",
                "height": 33.79770000000008,
                "text": "laundry",
                "width": 129.2265000000001,
                "x": 972.1809000000009,
                "y": 1602.4086000000013
            },
            {
                "class": "Text",
                "height": 41.750099999999975,
                "text": "den",
                "width": 83.50020000000006,
                "x": 699.8112000000007,
                "y": 1809.1710000000016
            },
            {
                "class": "Text",
                "height": 23.970000000000027,
                "text": "closet",
                "width": 98.70000000000005,
                "x": 953.160000000001,
                "y": 1947.210000000002
            },
            {
                "class": "Text",
                "height": 28.200000000000045,
                "text": "foyer",
                "width": 84.60000000000014,
                "x": 1184.4000000000012,
                "y": 1768.140000000002
            },
            {
                "class": "Text",
                "height": 43.710000000000065,
                "text": "patio",
                "width": 104.34000000000015,
                "x": 1524.2100000000019,
                "y": 204.45000000000024
            },
            {
                "class": "Text",
                "height": 40.8900000000001,
                "text": "living",
                "width": 121.25999999999999,
                "x": 1508.7000000000019,
                "y": 549.9000000000007
            },
            {
                "class": "Text",
                "height": 39.48000000000002,
                "text": "kitchen",
                "width": 163.56000000000017,
                "x": 1580.610000000002,
                "y": 1198.5000000000014
            },
            {
                "class": "Text",
                "height": 24.0,
                "text": "closet",
                "width": 104.00000000000023,
                "x": 1417.0000000000018,
                "y": 1496.000000000002
            },
            {
                "class": "Text",
                "height": 38.0,
                "text": "bath 1",
                "width": 121.00000000000023,
                "x": 1579.000000000002,
                "y": 1546.000000000002
            },
            {
                "class": "Text",
                "height": 24.0,
                "text": "mech",
                "width": 82.00000000000023,
                "x": 1430.0000000000018,
                "y": 1702.0000000000023
            },
            {
                "class": "Text",
                "height": 110.00000000000023,
                "text": "powder room",
                "width": 45.00000000000023,
                "x": 1406.0000000000018,
                "y": 1867.0000000000025
            },
            {
                "class": "Text",
                "height": 36.8104604698176,
                "text": "bed room 1",
                "width": 197.11407864482953,
                "x": 1663.5953263940144,
                "y": 1757.402628881614
            },
            {
                "class": "Text",
                "height": 44.0,
                "text": "guest suite",
                "width": 220.00000000000045,
                "x": 1232.0000000000016,
                "y": 2677.0000000000036
            },
            {
                "class": "Door",
                "xn": "728.368794326;802.836879433;779.432624113;701.418439716",
                "yn": "1021.9858156;1004.25531915;917.730496454;955.319148936"
            },
            {
                "class": "Door",
                "xn": "962.411347518;889.361702128;835.460992908;914.893617021",
                "yn": "1031.20567376;985.106382979;1082.26950355;1117.73049645"
            },
            {
                "class": "Door",
                "xn": "968.085106383;1000.70921986;941.134751773;896.453900709",
                "yn": "1073.04964539;1148.93617021;1180.85106383;1104.96453901"
            },
            {
                "class": "Door",
                "xn": "965.24822695;1008.5106383;1079.43262411;1042.55319149",
                "yn": "1363.82978723;1431.91489362;1378.72340426;1312.76595745"
            },
            {
                "class": "Door",
                "xn": "929.078014184;1009.21985816;1054.60992908;978.723404255",
                "yn": "1497.16312057;1454.60992908;1546.80851064;1590.78014184"
            },
            {
                "class": "door",
                "height": 95.00000000000023,
                "width": 103.00000000000034,
                "x": 1002.0000000000028,
                "y": 868.0000000000025
            },
            {
                "class": "door",
                "height": 76.00000000000023,
                "width": 85.00000000000034,
                "x": 981.0000000000028,
                "y": 1186.0000000000034
            },
            {
                "class": "door",
                "height": 100.00000000000023,
                "width": 87.00000000000023,
                "x": 927.0000000000027,
                "y": 1619.0000000000048
            },
            {
                "class": "door",
                "height": 88.00000000000023,
                "width": 99.00000000000023,
                "x": 815.0000000000024,
                "y": 1734.000000000005
            },
            {
                "class": "door",
                "height": 85.81560283687963,
                "width": 76.59574468085134,
                "x": 924.8226950354638,
                "y": 1838.297872340431
            },
            {
                "class": "door",
                "height": 128.36879432624164,
                "width": 207.09219858156098,
                "x": 1115.602836879436,
                "y": 1848.9361702127715
            },
            {
                "class": "door",
                "height": 85.81560283687986,
                "width": 75.88652482269526,
                "x": 1439.7163120567425,
                "y": 1836.8794326241195
            },
            {
                "class": "door",
                "height": 98.5815602836883,
                "width": 88.65248226950371,
                "x": 1427.6595744680899,
                "y": 1708.510638297878
            },
            {
                "class": "door",
                "height": 83.68794326241164,
                "width": 104.96453900709253,
                "x": 1525.5319148936221,
                "y": 1736.1702127659632
            },
            {
                "class": "door",
                "height": 78.01418439716326,
                "width": 89.36170212766001,
                "x": 1473.0496453900757,
                "y": 1521.985815602842
            },
            {
                "class": "door",
                "height": 62.00000000000023,
                "width": 117.00000000000045,
                "x": 1416.000000000005,
                "y": 1306.0000000000045
            },
            {
                "class": "door",
                "height": 77.30496453900741,
                "width": 90.07092198581608,
                "x": 1725.5319148936235,
                "y": 1542.5531914893675
            },
            {
                "class": "door",
                "height": 96.18217090500775,
                "width": 86.68269723537719,
                "x": 955.8845380065561,
                "y": 2873.590785063187
            },
            {
                "class": "door",
                "height": 21.27659574468089,
                "width": 110.6382978723409,
                "x": 1044.6808510638339,
                "y": 2757.446808510649
            },
            {
                "class": "door",
                "height": 91.48936170212801,
                "width": 85.10638297872367,
                "x": 914.1843971631242,
                "y": 2612.0567375886626
            },
            {
                "class": "door",
                "height": 24.822695035461038,
                "width": 57.44680851063845,
                "x": 1060.2836879432666,
                "y": 2585.81560283689
            },
            {
                "class": "door",
                "height": 68.08510638297912,
                "width": 81.56028368794341,
                "x": 1116.3120567375931,
                "y": 2527.659574468095
            },
            {
                "class": "door",
                "height": 80.85106382978756,
                "width": 156.02836879432698,
                "x": 1183.6879432624162,
                "y": 2982.9787234042674
            },
            {
                "class": "door",
                "height": 81.22883777662946,
                "width": 153.498612563189,
                "x": 1395.2247429868062,
                "y": 2983.965246559111
            },
            {
                "class": "door",
                "height": 161.70212765957513,
                "width": 100.70921985815653,
                "x": 1481.56028368795,
                "y": 2675.1773049645512
            },
            {
                "class": "door",
                "height": 85.50877722448604,
                "width": 85.0057844172834,
                "x": 1854.0314873497402,
                "y": 1476.2838891403928
            }
        ],
        "class": "image",
        "filename": "89.png"
    }
]
