<svg id="svg-graphic" xmlns="http://www.w3.org/2000/svg" xmlns:xlink="http://www.w3.org/1999/xlink" width="2438" height="1302" viewBox="0 0 2738 1402" preserveAspectRatio="xMinYMin meet">
  <title>fp_3</title>
  <g xmlns="http://www.w3.org/2000/svg" id="svg-graphic-components">
    <polygon points="52,766 94,766 94,1250 52,1250 " id="fp201" class="" transform="matrix(1,0,0,1,0,0)" style="stroke-width: 2; stroke: rgb(0,0,0); fill: rgb(0,0,0); cursor: default;"><title>Wall</title>
</polygon>
    <polygon points="1563,447 2114,447 2114,490 1563,490 " id="fp202" class="" transform="matrix(1,0,0,1,0,0)" style="stroke-width: 2; stroke: rgb(0,0,0); fill: rgb(0,0,0); cursor: default;"><title>Wall</title>
</polygon>
    <polygon points="51,51 644,51 644,93 51,93 " id="fp203" class="" transform="matrix(1,0,0,1,0,0)" style="stroke-width: 2; stroke: rgb(0,0,0); fill: rgb(0,0,0); cursor: default;"><title>Wall</title>
</polygon>
    <polygon points="1020,801 1062,801 1062,1250 1020,1250 " id="fp204" class="" transform="matrix(1,0,0,1,0,0)" style="stroke-width: 2; stroke: rgb(0,0,0); fill: rgb(0,0,0); cursor: default;"><title>Wall</title>
</polygon>
    <polygon points="341,1208 785,1208 785,1250 341,1250 " id="fp205" class="" transform="matrix(1,0,0,1,0,0)" style="stroke-width: 2; stroke: rgb(0,0,0); fill: rgb(0,0,0); cursor: default;"><title>Wall</title>
</polygon>
    <polygon points="712,51 1163,51 1163,93 712,93 " id="fp206" class="" transform="matrix(1,0,0,1,0,0)" style="stroke-width: 2; stroke: rgb(0,0,0); fill: rgb(0,0,0); cursor: default;"><title>Wall</title>
</polygon>
    <polygon points="52,370 94,370 94,624 52,624 " id="fp207" class="" transform="matrix(1,0,0,1,0,0)" style="stroke-width: 2; stroke: rgb(0,0,0); fill: rgb(0,0,0); cursor: default;"><title>Wall</title>
</polygon>
    <polygon points="1429,801 1541,801 1541,843 1429,843 " id="fp208" class="" transform="matrix(1,0,0,1,0,0)" style="stroke-width: 2; stroke: rgb(0,0,0); fill: rgb(0,0,0); cursor: default;"><title>Wall</title>
</polygon>
    <polygon points="52,51 94,51 94,228 52,228 " id="fp209" class="" transform="matrix(1,0,0,1,0,0)" style="stroke-width: 2; stroke: rgb(0,0,0); fill: rgb(0,0,0); cursor: default;"><title>Wall</title>
</polygon>
    <polygon points="1191,801 1363,801 1363,843 1191,843 " id="fp210" class="" transform="matrix(1,0,0,1,0,0)" style="stroke-width: 2; stroke: rgb(0,0,0); fill: rgb(0,0,0); cursor: default;"><title>Wall</title>
</polygon>
    <polygon points="1681,801 1943,801 1943,843 1681,843 " id="fp211" class="" transform="matrix(1,0,0,1,0,0)" style="stroke-width: 2; stroke: rgb(0,0,0); fill: rgb(0,0,0); cursor: default;"><title>Wall</title>
</polygon>
    <polygon points="1899,447 1943,447 1943,565 1899,565 " id="fp212" class="" transform="matrix(1,0,0,1,0,0)" style="stroke-width: 2; stroke: rgb(0,0,0); fill: rgb(0,0,0); cursor: default;"><title>Wall</title>
</polygon>
    <polygon points="925,1207 1063,1207 1063,1250 925,1250 " id="fp213" class="" transform="matrix(1,0,0,1,0,0)" style="stroke-width: 2; stroke: rgb(0,0,0); fill: rgb(0,0,0); cursor: default;"><title>Wall</title>
</polygon>
    <polygon points="1303,51 1465,51 1465,93 1303,93 " id="fp214" class="" transform="matrix(1,0,0,1,0,0)" style="stroke-width: 2; stroke: rgb(0,0,0); fill: rgb(0,0,0); cursor: default;"><title>Wall</title>
</polygon>
    <polygon points="1900,706 1942,706 1942,843 1900,843 " id="fp215" class="" transform="matrix(1,0,0,1,0,0)" style="stroke-width: 2; stroke: rgb(0,0,0); fill: rgb(0,0,0); cursor: default;"><title>Wall</title>
</polygon>
    <polygon points="51,1207 201,1207 201,1250 51,1250 " id="fp216" class="" transform="matrix(1,0,0,1,0,0)" style="stroke-width: 2; stroke: rgb(0,0,0); fill: rgb(0,0,0); cursor: default;"><title>Wall</title>
</polygon>
    <polygon points="1351,51 1375,51 1375,470 1351,470 " id="fp217" class="" transform="matrix(1,0,0,1,0,0)" style="stroke-width: 2; stroke: rgb(0,0,0); fill: rgb(0,0,0); cursor: default;"><title>Wall</title>
</polygon>
    <polygon points="1533,51 1913,51 1913,75 1533,75 " id="fp218" class="" transform="matrix(1,0,0,1,0,0)" style="stroke-width: 2; stroke: rgb(0,0,0); fill: rgb(0,0,0); cursor: default;"><title>Wall</title>
</polygon>
    <polygon points="1982,51 2386,51 2386,75 1982,75 " id="fp219" class="" transform="matrix(1,0,0,1,0,0)" style="stroke-width: 2; stroke: rgb(0,0,0); fill: rgb(0,0,0); cursor: default;"><title>Wall</title>
</polygon>
    <polygon points="2361,51 2385,51 2385,122 2361,122 " id="fp220" class="" transform="matrix(1,0,0,1,0,0)" style="stroke-width: 2; stroke: rgb(0,0,0); fill: rgb(0,0,0); cursor: default;"><title>Wall</title>
</polygon>
    <polygon points="2361,405 2385,405 2385,470 2361,470 " id="fp221" class="" transform="matrix(1,0,0,1,0,0)" style="stroke-width: 2; stroke: rgb(0,0,0); fill: rgb(0,0,0); cursor: default;"><title>Wall</title>
</polygon>
    <polygon points="2183,447 2386,447 2386,470 2183,470 " id="fp222" class="" transform="matrix(1,0,0,1,0,0)" style="stroke-width: 2; stroke: rgb(0,0,0); fill: rgb(0,0,0); cursor: default;"><title>Wall</title>
</polygon>
    <polygon points="1350,446 1465,446 1465,470 1350,470 " id="fp223" class="" transform="matrix(1,0,0,1,0,0)" style="stroke-width: 2; stroke: rgb(0,0,0); fill: rgb(0,0,0); cursor: default;"><title>Wall</title>
</polygon>
    <polygon points="1019,801 1087,801 1087,844 1019,844 " id="fp224" class="" transform="matrix(1,0,0,1,0,0)" style="stroke-width: 2; stroke: rgb(0,0,0); fill: rgb(0,0,0); cursor: default;"><title>Wall</title>
</polygon>
    <polygon points="536,51 542,51 542,364 536,364 " id="fp225" class="" transform="matrix(1,0,0,1,0,0)" style="stroke-width: 2; stroke: rgb(0,0,0); fill: rgb(0,0,0); cursor: default;"><title>Wall</title>
</polygon>
    <polygon points="684,683 690,683 690,1250 684,1250 " id="fp226" class="" transform="matrix(1,0,0,1,0,0)" style="stroke-width: 2; stroke: rgb(0,0,0); fill: rgb(0,0,0); cursor: default;"><title>Wall</title>
</polygon>
    <polygon points="﻿637,1155 637,1250 631,1250 631,1155" id="fp227" class="" transform="matrix(1,0,0,1,0,0)" style="stroke-width: 2; stroke: rgb(0,0,0); fill: rgb(0,0,0); cursor: default;"><title>Wall</title>
</polygon>
    <polygon points="908,51 914,51 914,470 908,470 " id="fp228" class="" transform="matrix(1,0,0,1,0,0)" style="stroke-width: 2; stroke: rgb(0,0,0); fill: rgb(0,0,0); cursor: default;"><title>Wall</title>
</polygon>
    <polygon points="51,464 691,464 691,470 51,470 " id="fp229" class="" transform="matrix(1,0,0,1,0,0)" style="stroke-width: 2; stroke: rgb(0,0,0); fill: rgb(0,0,0); cursor: default;"><title>Wall</title>
</polygon>
    <polygon points="1274,571 1281,571 1281,843 1274,843 " id="fp230" class="" transform="matrix(1,0,0,1,0,0)" style="stroke-width: 2; stroke: rgb(0,0,0); fill: rgb(0,0,0); cursor: default;"><title>Wall</title>
</polygon>
    <polygon points="1020,683 1027,683 1027,1250 1020,1250 " id="fp231" class="" transform="matrix(1,0,0,1,0,0)" style="stroke-width: 2; stroke: rgb(0,0,0); fill: rgb(0,0,0); cursor: default;"><title>Wall</title>
</polygon>
    <polygon points="1014,463 1465,463 1465,470 1014,470 " id="fp232" class="" transform="matrix(1,0,0,1,0,0)" style="stroke-width: 2; stroke: rgb(0,0,0); fill: rgb(0,0,0); cursor: default;"><title>Wall</title>
</polygon>
    <polygon points="1576,51 1582,51 1582,354 1576,354 " id="fp233" class="" transform="matrix(1,0,0,1,0,0)" style="stroke-width: 2; stroke: rgb(0,0,0); fill: rgb(0,0,0); cursor: default;"><title>Wall</title>
</polygon>
    <polygon points="535,358 691,358 691,364 535,364 " id="fp234" class="" transform="matrix(1,0,0,1,0,0)" style="stroke-width: 2; stroke: rgb(0,0,0); fill: rgb(0,0,0); cursor: default;"><title>Wall</title>
</polygon>
    <polygon points="683,683 921,683 921,689 683,689 " id="fp235" class="" transform="matrix(1,0,0,1,0,0)" style="stroke-width: 2; stroke: rgb(0,0,0); fill: rgb(0,0,0); cursor: default;"><title>Wall</title>
</polygon>
    <polygon points="795,464 915,464 915,470 795,470 " id="fp237" class="" transform="matrix(1,0,0,1,0,0)" style="stroke-width: 2; stroke: rgb(0,0,0); fill: rgb(0,0,0); cursor: default;"><title>Wall</title>
</polygon>
    <polygon points="796,358 802,358 802,470 796,470 " id="fp239" class="" transform="matrix(1,0,0,1,0,0)" style="stroke-width: 2; stroke: rgb(0,0,0); fill: rgb(0,0,0); cursor: default;"><title>Wall</title>
</polygon>
    <polygon points="1363,843 1429,843 1429,801 1363,801 " id="fp240" class="" transform="matrix(1,0,0,1,0,0)" style="stroke-width: 2; stroke: rgb(0,0,0); fill: rgb(0,0,0); cursor: default;"><title>Wall</title>
</polygon>
    <polygon points="922,689 921,690 691,690 691,1154 692,1155 692,1162 691,1163 691,1207 783,1207 784,1206 1019,1206 1019,845 1018,844 1018,801 1019,800 1019,689 " id="fp101" class="" transform="matrix(1,0,0,1,0,0)" style="stroke-width: 2; stroke: rgb(0,0,0); fill: rgb(255,255,0); cursor: default;"><title>bedroom 1</title>
</polygon>
    <polygon points="95,471 95,624 94,625 94,765 95,766 95,1206 340,1206 341,1207 630,1207 683,1207 683,1154 683,690 682,689 682,487 683,486 683,471 " id="fp102" class="" transform="matrix(1,0,0,1,0,0)" style="stroke-width: 2; stroke: rgb(0,0,0); fill: rgb(255,0,170); cursor: default;"><title>living</title>
</polygon>
    <polygon points="1466,470 1465,471 1282,471 1282,570 1283,571 1283,577 1282,578 1282,800 1539,800 1540,799 1680,799 1681,800 1899,800 1899,706 1898,705 1898,491 1563,491 1562,490 1562,470 " id="fp103" class="" transform="matrix(1,0,0,1,0,0)" style="stroke-width: 2; stroke: rgb(0,0,0); fill: rgb(127,156,245); cursor: default;"><title>kitchen</title>
</polygon>
    <polygon points="692,364 691,365 541,365 541,463 689,463 690,462 692,470 692,488 691,489 691,580 692,581 692,590 691,591 690,591 690,682 919,682 920,681 1019,681 1020,682 1027,682 1028,683 1028,800 1085,800 1086,799 1190,799 1191,800 1273,800 1273,578 1273,570 1273,471 1014,471 1013,470 916,470 915,471 795,471 794,470 794,462 795,463 795,364" id="fp104" class="" transform="matrix(1,0,0,1,0,0)" style="stroke-width: 2; stroke: rgb(0,0,0); fill: rgb(42,158,1); cursor: default;"><title>entry</title>
</polygon>
    
    <polygon points="95,94 95,228 94,229 94,369 95,370 95,463 533,463 533,363 534,362 534,358 535,357 535,94 " id="fp106" class="" transform="matrix(1,0,0,1,0,0)" style="stroke-width: 2; stroke: rgb(0,0,0); fill: rgb(255,255,0); cursor: default;"><title>bedroom 2</title>
</polygon>
    <polygon points="1164,93 1163,94 915,94 915,462 1349,462 1349,446 1350,445 1350,94 1303,94 1302,93 " id="fp107" class="" transform="matrix(1,0,0,1,0,0)" style="stroke-width: 2; stroke: rgb(0,0,0); fill: rgb(255,255,0); cursor: default;"><title>bedroom 3</title>
</polygon>
    <polygon points="645,93 644,94 543,94 543,357 689,357 690,356 795,356 796,357 802,357 803,358 803,463 907,463 907,94 712,94 711,93 " id="fp108" class="" transform="matrix(1,0,0,1,0,0)" style="stroke-width: 2; stroke: rgb(0,0,0); fill: rgb(255,69,0); cursor: default;"><title>bath room</title>
</polygon>
    <polygon points="1914,75 1913,76 1583,76 1583,354 1582,355 1582,446 2112,446 2113,445 2182,445 2183,446 2360,446 2360,405 2359,404 2359,121 2360,120 2360,76 1982,76 1981,75 " id="fp109" class="" transform="matrix(1,0,0,1,0,0)" style="stroke-width: 2; stroke: rgb(0,0,0); fill: rgb(160,189,136); cursor: default;"><title>garage</title>
</polygon>
    <polygon points="1466,75 1466,93 1465,94 1376,94 1376,445 1562,445 1563,446 1574,446 1574,353 1575,352 1575,76 1533,76 1532,75 " id="fp110" class="" transform="matrix(1,0,0,1,0,0)" style="stroke-width: 2; stroke: rgb(0,0,0); fill: rgb(0,255,139); cursor: default;"><title>cellar</title>
</polygon>
    
    <polygon points="920,664 1020,664 1020,705 920,705 " id="fp502" class="" transform="matrix(1,0,0,1,0,0)" style="stroke-width: 1px; stroke: rgb(0,255,0); fill: rgb(0,255,0); cursor: default;"><title>Door</title>
</polygon>
    <polygon points="1086,800 1191,800 1191,841 1086,841 " id="fp503" class="" transform="matrix(1,0,0,1,0,0)" style="stroke-width: 1px; stroke: rgb(0,255,0); fill: rgb(0,255,0); cursor: default;"><title>Door</title>
</polygon>
    <polygon points="690,339 796,339 796,380 690,380 " id="fp504" class="" transform="matrix(1,0,0,1,0,0)" style="stroke-width: 1px; stroke: rgb(0,255,0); fill: rgb(0,255,0); cursor: default;"><title>Door</title>
</polygon>
    <polygon points="1464,437 1563,437 1563,478 1464,478 " id="fp505" class="" transform="matrix(1,0,0,1,0,0)" style="stroke-width: 1px; stroke: rgb(0,255,0); fill: rgb(0,255,0); cursor: default;"><title>Door</title>
</polygon>
    <polygon points="914,445 1014,445 1014,486 914,486 " id="fp506" class="" transform="matrix(1,0,0,1,0,0)" style="stroke-width: 1px; stroke: rgb(0,255,0); fill: rgb(0,255,0); cursor: default;"><title>Door</title>
</polygon>
    <polygon points="1257,469 1257,571 1298,571 1298,469 " id="fp507" class="" transform="matrix(1,0,0,1,0,0)" style="stroke-width: 1px; stroke: rgb(0,255,0); fill: rgb(0,255,0); cursor: default;"><title>Door</title>
</polygon>
    <polygon points="666,487 666,581 707,581 707,487 " id="fp508" class="" transform="matrix(1,0,0,1,0,0)" style="stroke-width: 1px; stroke: rgb(0,255,0); fill: rgb(0,255,0); cursor: default;"><title>Door</title>
</polygon>
    <polygon points="1557,353 1557,447 1598,447 1598,353 " id="fp509" class="" transform="matrix(1,0,0,1,0,0)" style="stroke-width: 1px; stroke: rgb(0,255,0); fill: rgb(0,255,0); cursor: default;"><title>Door</title>
</polygon>
    <polygon points="516,363 516,464 557,464 557,363 " id="fp510" class="" transform="matrix(1,0,0,1,0,0)" style="stroke-width: 1px; stroke: rgb(0,255,0); fill: rgb(0,255,0); cursor: default;"><title>Door</title>
</polygon>
    <polygon points="665,589 665,683 706,683 706,589 " id="fp511" class="" transform="matrix(1,0,0,1,0,0)" style="stroke-width: 1px; stroke: rgb(0,255,0); fill: rgb(0,255,0); cursor: default;"><title>Door</title>
</polygon>
	<polygon points="2360,121 2385,121 2385,405 2360,405 " id="fp512" class="" transform="matrix(1,0,0,1,0,0)" style="stroke-width: 1px; stroke: rgb(0,255,0); fill: rgb(0,255,0); cursor: default;"><title>Door</title>
</polygon>
    <polygon points="1540,800 1681,800 1681,843 1540,843 " id="fp601" class="" transform="matrix(1,0,0,1,0,0)" style="stroke-width: 1px; stroke: rgb(255,255,0); fill: rgb(255,255,0); cursor: default;"><title>Window</title>
</polygon>
    <polygon points="2113,446 2183,446 2183,470 2113,470 " id="fp602" class="" transform="matrix(1,0,0,1,0,0)" style="stroke-width: 1px; stroke: rgb(255,255,0); fill: rgb(255,255,0); cursor: default;"><title>Window</title>
</polygon>
    <polygon points="1162,50 1303,50 1303,93 1162,93 " id="fp603" class="" transform="matrix(1,0,0,1,0,0)" style="stroke-width: 1px; stroke: rgb(255,255,0); fill: rgb(255,255,0); cursor: default;"><title>Window</title>
</polygon>
    <polygon points="1899,564 1942,564 1942,706 1899,706 " id="fp604" class="" transform="matrix(1,0,0,1,0,0)" style="stroke-width: 1px; stroke: rgb(255,255,0); fill: rgb(255,255,0); cursor: default;"><title>Window</title>
</polygon>
    <polygon points="784,1207 925,1207 925,1250 784,1250 " id="fp605" class="" transform="matrix(1,0,0,1,0,0)" style="stroke-width: 1px; stroke: rgb(255,255,0); fill: rgb(255,255,0); cursor: default;"><title>Window</title>
</polygon>
    
    <polygon points="643,50 712,50 712,93 643,93 " id="fp607" class="" transform="matrix(1,0,0,1,0,0)" style="stroke-width: 1px; stroke: rgb(255,255,0); fill: rgb(255,255,0); cursor: default;"><title>Window</title>
</polygon>
    <polygon points="1912,50 1982,50 1982,75 1912,75 " id="fp608" class="" transform="matrix(1,0,0,1,0,0)" style="stroke-width: 1px; stroke: rgb(255,255,0); fill: rgb(255,255,0); cursor: default;"><title>Window</title>
</polygon>
    <polygon points="51,227 94,227 94,370 51,370 " id="fp609" class="" transform="matrix(1,0,0,1,0,0)" style="stroke-width: 1px; stroke: rgb(255,255,0); fill: rgb(255,255,0); cursor: default;"><title>Window</title>
</polygon>
    <polygon points="51,623 94,623 94,766 51,766 " id="fp610" class="" transform="matrix(1,0,0,1,0,0)" style="stroke-width: 1px; stroke: rgb(255,255,0); fill: rgb(255,255,0); cursor: default;"><title>Window</title>
</polygon>
    <polygon points="1464,50 1533,50 1533,75 1464,75 " id="fp611" class="" transform="matrix(1,0,0,1,0,0)" style="stroke-width: 1px; stroke: rgb(255,255,0); fill: rgb(255,255,0); cursor: default;"><title>Window</title>
</polygon>
    <polygon points="200,1207 341,1207 341,1250 200,1250 " id="fp612" class="" transform="matrix(1,0,0,1,0,0)" style="stroke-width: 1px; stroke: rgb(255,255,0); fill: rgb(255,255,0); cursor: default;"><title>Window</title>
</polygon>
    
  </g>  <metadata id="rp-928bd05a-4b51-432c-8ff4-2f4c82a3c5b2" rpid="rp-928bd05a-4b51-432c-8ff4-2f4c82a3c5b2" title="Floor plan 2" description="Floor plan of a house. This floor plan is best viewed in landscape mode." category="map" group="" subgroup="" keywords="" collections="" orientation="Landscape" targetdevicename="iPad all">
    <summary>This is floorplan fp_3. The building has an irregular shape and is approximately 140 square meters in size. There are 10 single-use rooms and  The main entrance is located at the centre middle of the floorplan. Starting from the main entrance, the rooms in clockwise order are entry, kitchen, bedroom 1, living, bedroom 2, unknown room, bedroom 3, cellar and garage.1 unknownroom is situated internally. The entry has an external door and entrances to bath room, bedroom 1, bedroom 3, bedroom 2, kitchen, and living. The kitchen has entrances to cellar, entry. The bedroom 1 has an entrance to entry. The living has an entrance to entry. The bedroom 2 has an entrance to entry. The bath room has an entrance to entry. The bedroom 3 has an entrance to entry. The cellar has entrances to kitchen, garage. The garage has an entrance to cellar. The unknown room has entrances to entry, bedroom 2.  </summary>
    <gravvitas><id>fp201</id><interiorcolor>000000</interiorcolor><bordercolor/><cornercolor/><audio>26</audio><text>Wall</text><vibration/><annotation/></gravvitas>
    <gravvitas><id>fp202</id><interiorcolor>000000</interiorcolor><bordercolor/><cornercolor/><audio>26</audio><text>Wall</text><vibration/><annotation/></gravvitas>
    <gravvitas><id>fp203</id><interiorcolor>000000</interiorcolor><bordercolor/><cornercolor/><audio>26</audio><text>Wall</text><vibration/><annotation/></gravvitas>
    <gravvitas><id>fp204</id><interiorcolor>000000</interiorcolor><bordercolor/><cornercolor/><audio>26</audio><text>Wall</text><vibration/><annotation/></gravvitas>
    <gravvitas><id>fp205</id><interiorcolor>000000</interiorcolor><bordercolor/><cornercolor/><audio>26</audio><text>Wall</text><vibration/><annotation/></gravvitas>
    <gravvitas><id>fp206</id><interiorcolor>000000</interiorcolor><bordercolor/><cornercolor/><audio>26</audio><text>Wall</text><vibration/><annotation/></gravvitas>
    <gravvitas><id>fp207</id><interiorcolor>000000</interiorcolor><bordercolor/><cornercolor/><audio>26</audio><text>Wall</text><vibration/><annotation/></gravvitas>
    <gravvitas><id>fp208</id><interiorcolor>000000</interiorcolor><bordercolor/><cornercolor/><audio>26</audio><text>Wall</text><vibration/><annotation/></gravvitas>
    <gravvitas><id>fp209</id><interiorcolor>000000</interiorcolor><bordercolor/><cornercolor/><audio>26</audio><text>Wall</text><vibration/><annotation/></gravvitas>
    <gravvitas><id>fp210</id><interiorcolor>000000</interiorcolor><bordercolor/><cornercolor/><audio>26</audio><text>Wall</text><vibration/><annotation/></gravvitas>
    <gravvitas><id>fp211</id><interiorcolor>000000</interiorcolor><bordercolor/><cornercolor/><audio>26</audio><text>Wall</text><vibration/><annotation/></gravvitas>
    <gravvitas><id>fp212</id><interiorcolor>000000</interiorcolor><bordercolor/><cornercolor/><audio>26</audio><text>Wall</text><vibration/><annotation/></gravvitas>
    <gravvitas><id>fp213</id><interiorcolor>000000</interiorcolor><bordercolor/><cornercolor/><audio>26</audio><text>Wall</text><vibration/><annotation/></gravvitas>
    <gravvitas><id>fp214</id><interiorcolor>000000</interiorcolor><bordercolor/><cornercolor/><audio>26</audio><text>Wall</text><vibration/><annotation/></gravvitas>
    <gravvitas><id>fp215</id><interiorcolor>000000</interiorcolor><bordercolor/><cornercolor/><audio>26</audio><text>Wall</text><vibration/><annotation/></gravvitas>
    <gravvitas><id>fp216</id><interiorcolor>000000</interiorcolor><bordercolor/><cornercolor/><audio>26</audio><text>Wall</text><vibration/><annotation/></gravvitas>
    <gravvitas><id>fp217</id><interiorcolor>000000</interiorcolor><bordercolor/><cornercolor/><audio>26</audio><text>Wall</text><vibration/><annotation/></gravvitas>
    <gravvitas><id>fp218</id><interiorcolor>000000</interiorcolor><bordercolor/><cornercolor/><audio>26</audio><text>Wall</text><vibration/><annotation/></gravvitas>
    <gravvitas><id>fp219</id><interiorcolor>000000</interiorcolor><bordercolor/><cornercolor/><audio>26</audio><text>Wall</text><vibration/><annotation/></gravvitas>
    <gravvitas><id>fp220</id><interiorcolor>000000</interiorcolor><bordercolor/><cornercolor/><audio>26</audio><text>Wall</text><vibration/><annotation/></gravvitas>
    <gravvitas><id>fp221</id><interiorcolor>000000</interiorcolor><bordercolor/><cornercolor/><audio>26</audio><text>Wall</text><vibration/><annotation/></gravvitas>
    <gravvitas><id>fp222</id><interiorcolor>000000</interiorcolor><bordercolor/><cornercolor/><audio>26</audio><text>Wall</text><vibration/><annotation/></gravvitas>
    <gravvitas><id>fp223</id><interiorcolor>000000</interiorcolor><bordercolor/><cornercolor/><audio>26</audio><text>Wall</text><vibration/><annotation/></gravvitas>
    <gravvitas><id>fp224</id><interiorcolor>000000</interiorcolor><bordercolor/><cornercolor/><audio>26</audio><text>Wall</text><vibration/><annotation/></gravvitas>
    <gravvitas><id>fp225</id><interiorcolor>000000</interiorcolor><bordercolor/><cornercolor/><audio>26</audio><text>Wall</text><vibration/><annotation/></gravvitas>
    <gravvitas><id>fp226</id><interiorcolor>000000</interiorcolor><bordercolor/><cornercolor/><audio>26</audio><text>Wall</text><vibration/><annotation/></gravvitas>
    <gravvitas><id>fp227</id><interiorcolor>000000</interiorcolor><bordercolor/><cornercolor/><audio>26</audio><text>Wall</text><vibration/><annotation/></gravvitas>
    <gravvitas><id>fp228</id><interiorcolor>000000</interiorcolor><bordercolor/><cornercolor/><audio>26</audio><text>Wall</text><vibration/><annotation/></gravvitas>
    <gravvitas><id>fp229</id><interiorcolor>000000</interiorcolor><bordercolor/><cornercolor/><audio>26</audio><text>Wall</text><vibration/><annotation/></gravvitas>
    <gravvitas><id>fp230</id><interiorcolor>000000</interiorcolor><bordercolor/><cornercolor/><audio>26</audio><text>Wall</text><vibration/><annotation/></gravvitas>
    <gravvitas><id>fp231</id><interiorcolor>000000</interiorcolor><bordercolor/><cornercolor/><audio>26</audio><text>Wall</text><vibration/><annotation/></gravvitas>
    <gravvitas><id>fp232</id><interiorcolor>000000</interiorcolor><bordercolor/><cornercolor/><audio>26</audio><text>Wall</text><vibration/><annotation/></gravvitas>
    <gravvitas><id>fp233</id><interiorcolor>000000</interiorcolor><bordercolor/><cornercolor/><audio>26</audio><text>Wall</text><vibration/><annotation/></gravvitas>
    <gravvitas><id>fp234</id><interiorcolor>000000</interiorcolor><bordercolor/><cornercolor/><audio>26</audio><text>Wall</text><vibration/><annotation/></gravvitas>
    <gravvitas><id>fp235</id><interiorcolor>000000</interiorcolor><bordercolor/><cornercolor/><audio>26</audio><text>Wall</text><vibration/><annotation/></gravvitas>
    <gravvitas><id>fp236</id><interiorcolor>000000</interiorcolor><bordercolor/><cornercolor/><audio>26</audio><text>Wall</text><vibration/><annotation/></gravvitas>
    <gravvitas><id>fp237</id><interiorcolor>000000</interiorcolor><bordercolor/><cornercolor/><audio>26</audio><text>Wall</text><vibration/><annotation/></gravvitas>
    
    <gravvitas><id>fp239</id><interiorcolor>000000</interiorcolor><bordercolor/><cornercolor/><audio>26</audio><text>Wall</text><vibration/><annotation/></gravvitas>
    <gravvitas><id>fp240</id><interiorcolor>000000</interiorcolor><bordercolor/><cornercolor/><audio>26</audio><text>Wall</text><vibration/><annotation/></gravvitas>
    <gravvitas><id>fp101</id><interiorcolor>FFFF00</interiorcolor><bordercolor/><cornercolor/><audio>26</audio><text>bedroom 1</text><vibration/><annotation/></gravvitas>
    <gravvitas><id>fp102</id><interiorcolor>FF00AA</interiorcolor><bordercolor/><cornercolor/><audio>26</audio><text>living</text><vibration/><annotation/></gravvitas>
    <gravvitas><id>fp103</id><interiorcolor>F59C7F</interiorcolor><bordercolor/><cornercolor/><audio>26</audio><text>kitchen</text><vibration/><annotation/></gravvitas>
    <gravvitas><id>fp104</id><interiorcolor>2A9E01</interiorcolor><bordercolor/><cornercolor/><audio>26</audio><text>entry</text><vibration/><annotation/></gravvitas>
    <gravvitas><id>fp106</id><interiorcolor>FFFF00</interiorcolor><bordercolor/><cornercolor/><audio>26</audio><text>bedroom 2</text><vibration/><annotation/></gravvitas>
    <gravvitas><id>fp107</id><interiorcolor>FFFF00</interiorcolor><bordercolor/><cornercolor/><audio>26</audio><text>bedroom 3</text><vibration/><annotation/></gravvitas>
    <gravvitas><id>fp108</id><interiorcolor>FF4500</interiorcolor><bordercolor/><cornercolor/><audio>26</audio><text>bath room</text><vibration/><annotation/></gravvitas>
    <gravvitas><id>fp109</id><interiorcolor>A0BD88</interiorcolor><bordercolor/><cornercolor/><audio>26</audio><text>garage</text><vibration/><annotation/></gravvitas>
    <gravvitas><id>fp110</id><interiorcolor>00FF8B</interiorcolor><bordercolor/><cornercolor/><audio>26</audio><text>cellar</text><vibration/><annotation/></gravvitas>
    <gravvitas><id>fp502</id><interiorcolor>00FF00</interiorcolor><bordercolor/><cornercolor/><audio>26</audio><text>Door</text><vibration/><annotation/></gravvitas>
    <gravvitas><id>fp503</id><interiorcolor>00FF00</interiorcolor><bordercolor/><cornercolor/><audio>26</audio><text>Door</text><vibration/><annotation/></gravvitas>
    <gravvitas><id>fp504</id><interiorcolor>00FF00</interiorcolor><bordercolor/><cornercolor/><audio>26</audio><text>Door</text><vibration/><annotation/></gravvitas>
    <gravvitas><id>fp505</id><interiorcolor>00FF00</interiorcolor><bordercolor/><cornercolor/><audio>26</audio><text>Door</text><vibration/><annotation/></gravvitas>
    <gravvitas><id>fp506</id><interiorcolor>00FF00</interiorcolor><bordercolor/><cornercolor/><audio>26</audio><text>Door</text><vibration/><annotation/></gravvitas>
    <gravvitas><id>fp507</id><interiorcolor>00FF00</interiorcolor><bordercolor/><cornercolor/><audio>26</audio><text>Door</text><vibration/><annotation/></gravvitas>
    <gravvitas><id>fp508</id><interiorcolor>00FF00</interiorcolor><bordercolor/><cornercolor/><audio>26</audio><text>Door</text><vibration/><annotation/></gravvitas>
    <gravvitas><id>fp509</id><interiorcolor>00FF00</interiorcolor><bordercolor/><cornercolor/><audio>26</audio><text>Door</text><vibration/><annotation/></gravvitas>
    <gravvitas><id>fp510</id><interiorcolor>00FF00</interiorcolor><bordercolor/><cornercolor/><audio>26</audio><text>Door</text><vibration/><annotation/></gravvitas>
    <gravvitas><id>fp511</id><interiorcolor>00FF00</interiorcolor><bordercolor/><cornercolor/><audio>26</audio><text>Door</text><vibration/><annotation/></gravvitas>
	<gravvitas><id>fp512</id><interiorcolor>00FF00</interiorcolor><bordercolor/><cornercolor/><audio>26</audio><text>Window</text><vibration/><annotation/></gravvitas>
    <gravvitas><id>fp601</id><interiorcolor>FFFF00</interiorcolor><bordercolor/><cornercolor/><audio>26</audio><text>Window</text><vibration/><annotation/></gravvitas>
    <gravvitas><id>fp602</id><interiorcolor>FFFF00</interiorcolor><bordercolor/><cornercolor/><audio>26</audio><text>Window</text><vibration/><annotation/></gravvitas>
    <gravvitas><id>fp603</id><interiorcolor>FFFF00</interiorcolor><bordercolor/><cornercolor/><audio>26</audio><text>Window</text><vibration/><annotation/></gravvitas>
    <gravvitas><id>fp604</id><interiorcolor>FFFF00</interiorcolor><bordercolor/><cornercolor/><audio>26</audio><text>Window</text><vibration/><annotation/></gravvitas>
    <gravvitas><id>fp605</id><interiorcolor>FFFF00</interiorcolor><bordercolor/><cornercolor/><audio>26</audio><text>Window</text><vibration/><annotation/></gravvitas>
    
    <gravvitas><id>fp607</id><interiorcolor>FFFF00</interiorcolor><bordercolor/><cornercolor/><audio>26</audio><text>Window</text><vibration/><annotation/></gravvitas>
    <gravvitas><id>fp608</id><interiorcolor>FFFF00</interiorcolor><bordercolor/><cornercolor/><audio>26</audio><text>Window</text><vibration/><annotation/></gravvitas>
    <gravvitas><id>fp609</id><interiorcolor>FFFF00</interiorcolor><bordercolor/><cornercolor/><audio>26</audio><text>Window</text><vibration/><annotation/></gravvitas>
    <gravvitas><id>fp610</id><interiorcolor>FFFF00</interiorcolor><bordercolor/><cornercolor/><audio>26</audio><text>Window</text><vibration/><annotation/></gravvitas>
    <gravvitas><id>fp611</id><interiorcolor>FFFF00</interiorcolor><bordercolor/><cornercolor/><audio>26</audio><text>Window</text><vibration/><annotation/></gravvitas>
    <gravvitas><id>fp612</id><interiorcolor>FFFF00</interiorcolor><bordercolor/><cornercolor/><audio>26</audio><text>Window</text><vibration/><annotation/></gravvitas>
    
  </metadata>
</svg>