<svg xmlns="http://www.w3.org/2000/svg" id="Layer_3" style="enable-background:new 0 0 845 1444.2;" version="1.1" viewBox="0 0 845 1444.2" x="0px" y="0px" xml:space="preserve">
<style id="n_id_0" type="text/css">
	.st0{fill:#FFFFFF;}
	.st1{fill:#231F20;}
	.st2{fill:none;stroke:#231F20;stroke-width:1.199;stroke-linecap:round;stroke-linejoin:round;stroke-miterlimit:10;}
	
		.st3{fill:none;stroke:#000000;stroke-width:1.199;stroke-linecap:round;stroke-linejoin:round;stroke-miterlimit:10;stroke-dasharray:8.3265,6.6612;}
	.st4{fill:none;stroke:#000000;stroke-width:1.199;stroke-linecap:round;stroke-linejoin:round;stroke-miterlimit:10;}
	.st5{fill-rule:evenodd;clip-rule:evenodd;fill:#231F20;}
	.st6{fill:none;stroke:#231F20;stroke-width:0.8993;stroke-linecap:round;stroke-linejoin:round;stroke-miterlimit:10;}
	.st7{fill:none;stroke:#221F1F;stroke-width:1.249;stroke-linecap:round;stroke-linejoin:round;stroke-miterlimit:10;}
	.st8{fill:#FFFFFF;stroke:#231F20;stroke-width:1.199;stroke-linecap:round;stroke-linejoin:round;stroke-miterlimit:10;}
	.st9{fill:#FFFAF0;}
</style>
<g id="n_id_1">
	<path class="st0" d="M773.3,1157.3L773.3,1157.3l0-1151.4c0-0.9-0.7-1.5-1.5-1.5h-33.8c-0.9,0-1.5,0.7-1.5,1.5v3.4h-1.5V7.2   c0-0.3-0.3-0.6-0.6-0.6h-52.5c-0.3,0-0.6,0.3-0.6,0.6v2.1h-1.6V5.9c0-0.9-0.7-1.5-1.5-1.5c0,0,0,0,0,0H244.7c0,0,0,0,0,0   c-0.9,0-1.5,0.7-1.5,1.5v3.4h-1.6V7.2c0-0.3-0.3-0.6-0.6-0.6h-97.4c-0.3,0-0.6,0.3-0.6,0.6v2.1h-8.1c-0.9,0-1.5,0.7-1.5,1.5v8.2   h-2.2c-0.3,0-0.6,0.3-0.6,0.6v97.4c0,0.3,0.3,0.6,0.6,0.6h2.2v6.3h-2.2c-0.3,0-0.6,0.3-0.6,0.6V222c0,0.3,0.3,0.6,0.6,0.6h2.2v1.5   h-3.4c-0.9,0-1.5,0.7-1.5,1.5v258.6c0,0.9,0.7,1.5,1.5,1.5h3.4v4h-2.2c-0.3,0-0.6,0.3-0.6,0.6v136.8c0,0.3,0.3,0.6,0.6,0.6h2.2v4.8   h-3.4c-0.9,0-1.5,0.7-1.5,1.5v59.6H98.5c0,0,0,0,0,0H84.8c-0.9,0-1.5,0.7-1.5,1.5l0,189.2h-0.9c-0.3,0-0.6,0.3-0.6,0.6v94.9   c0,0.3,0.3,0.6,0.6,0.6h0.9v8.8h-0.9c0,0,0,0,0,0c-0.3,0-0.6,0.3-0.6,0.6v94.9c0,0.3,0.3,0.6,0.6,0.6h0.9v28.8h-9.7   c-0.3,0-0.6,0.3-0.6,0.6v247.3c0,0.3,0.3,0.6,0.6,0.6h92.4c0.3,0,0.6-0.3,0.6-0.6v-6.9h80v4.4c0,0.3,0.3,0.6,0.6,0.6h2.5   c0.3,0,0.6-0.3,0.6-0.6v-4.4h176.2v4.4c0,0.3,0.3,0.6,0.6,0.6h2.5c0.3,0,0.6-0.3,0.6-0.6v-4.4h176.2v4.4c0,0.3,0.3,0.6,0.6,0.6h2.5   c0.3,0,0.6-0.3,0.6-0.6v-4.4h79.9v6.9c0,0.3,0.3,0.6,0.6,0.6h82.8c0.3,0,0.6-0.3,0.6-0.6v-204.4   C773.9,1157.6,773.6,1157.3,773.3,1157.3z" id="n_id_2" />
	<path class="st1" d="M129.7,1099.8H100v-17.2c0-0.9-0.7-1.5-1.5-1.5H84.8c-0.9,0-1.5,0.7-1.5,1.5v32.5c0,0.9,0.7,1.5,1.5,1.5h45   c0.9,0,1.5-0.7,1.5-1.5v-13.7C131.3,1100.5,130.6,1099.8,129.7,1099.8z" id="n_id_3" />
	<path class="st1" d="M234.7,1099.8h-15c-0.9,0-1.5,0.7-1.5,1.5v13.7c0,0.9,0.7,1.5,1.5,1.5h15c0.9,0,1.5-0.7,1.5-1.5v-13.7   C236.2,1100.5,235.5,1099.8,234.7,1099.8z" id="n_id_4" />
	<path class="st1" d="M84.8,994.2h13.7c0.9,0,1.5-0.7,1.5-1.5v-15c0-0.9-0.7-1.5-1.5-1.5H84.8c-0.9,0-1.5,0.7-1.5,1.5v15   C83.2,993.5,83.9,994.2,84.8,994.2z" id="n_id_5" />
	<path class="st1" d="M773.3,5.9c0-0.9-0.7-1.5-1.5-1.5h-33.8c-0.9,0-1.5,0.7-1.5,1.5v3.4h-5.9c-0.9,0-1.5,0.7-1.5,1.5v15.5   c0,0.9,0.7,1.5,1.5,1.5h25.9v195.9h-8.4c-0.9,0-1.5,0.7-1.5,1.5v8.7c0,0.9,0.7,1.5,1.5,1.5h8.4v99.8H594.6v-99.8H678   c0.9,0,1.5-0.7,1.5-1.5v-8.7c0-0.9-0.7-1.5-1.5-1.5h-83.4v-8.4c0-0.9-0.7-1.5-1.5-1.5h-8.7c0,0,0,0,0,0c-0.9,0-1.5,0.7-1.5,1.5   v168.7h-65.1c-0.9,0-1.5,0.7-1.5,1.5v25c0,0.9,0.7,1.5,1.5,1.5h65.1v8.4c0,0.9,0.7,1.5,1.5,1.5h8.7c0.9,0,1.5-0.7,1.5-1.5v-68.4   h153.1v90.9v72.2H594.6v-24.7c0-0.9-0.7-1.5-1.5-1.5h-8.7c-0.9,0-1.5,0.7-1.5,1.5v8.4h-65.1c-0.9,0-1.5,0.7-1.5,1.5v25   c0,0.9,0.7,1.5,1.5,1.5h238.6v617.7H668c-0.9,0-1.5,0.7-1.5,1.5v8.7c0,0.9,0.7,1.5,1.5,1.5h5.9v3.4c0,0.4,0.2,0.8,0.5,1.1   c0.3,0.3,0.7,0.5,1.1,0.5h96.2c0.9,0,1.5-0.7,1.5-1.5c0,0,0,0,0,0V5.9z" id="n_id_6" />
	<path class="st1" d="M143.4,625.2h-8.7c-0.9,0-1.5,0.7-1.5,1.5v5.9h-3.4c-0.9,0-1.5,0.7-1.5,1.5v59.6H98.5c0,0,0,0,0,0H84.8   c-0.9,0-1.5,0.7-1.5,1.5l0,192.3c0,0.9,0.7,1.5,1.5,1.5h13.7c0.9,0,1.5-0.7,1.5-1.5l0-177h43.4c0,0,0,0,0,0c0.9,0,1.5-0.7,1.5-1.5   v-82.4c0-0.4-0.2-0.8-0.5-1.1C144.2,625.3,143.9,625.2,143.4,625.2z" id="n_id_7" />
	<path class="st1" d="M582.8,135.4C582.8,135.4,582.8,135.4,582.8,135.4L582.8,135.4c0,0.9,0.7,1.6,1.5,1.6h8.7   c0.9,0,1.5-0.7,1.5-1.5V27.9h90.9c0.9,0,1.5-0.7,1.5-1.5V10.9c0-0.9-0.7-1.5-1.5-1.5h-5.9V5.9c0-0.9-0.7-1.5-1.5-1.5c0,0,0,0,0,0   H244.7c0,0,0,0,0,0c-0.9,0-1.5,0.7-1.5,1.5v3.4h-5.9c-0.9,0-1.5,0.7-1.5,1.5v8.8c0,0.9,0.7,1.5,1.5,1.5h345.7V135.4z" id="n_id_8" />
	<path class="st1" d="M133.2,224.2h-3.4c-0.9,0-1.5,0.7-1.5,1.5v258.6c0,0.9,0.7,1.5,1.5,1.5h3.4v5.9c0,0.9,0.7,1.5,1.5,1.5h8.7   c0.9,0,1.5-0.7,1.5-1.5V218.2c0-0.9-0.7-1.5-1.5-1.5h-8.7c-0.9,0-1.5,0.7-1.5,1.5V224.2z" id="n_id_9" />
	<path class="st1" d="M134.7,129.9h8.7c0.9,0,1.5-0.7,1.5-1.5v-15c0-0.9-0.7-1.5-1.5-1.5h-8.7c-0.9,0-1.5,0.7-1.5,1.5v15   C133.2,129.2,133.9,129.9,134.7,129.9z" id="n_id_10" />
	<path class="st1" d="M578.1,1144.7h-88.4v-43.4c0-0.9-0.7-1.5-1.5-1.5c0,0,0,0,0,0h-13.7h-45h0h0c-0.9,0-1.5,0.7-1.5,1.5v13.7   c0,0.9,0.7,1.5,1.5,1.5h0h0h43.4v43.4c0,0.9,0.7,1.5,1.5,1.5h96.1c0.9,0,1.5-0.7,1.5-1.5v-3.4h5.9c0.9,0,1.5-0.7,1.5-1.5v-8.7   C579.6,1145.4,578.9,1144.7,578.1,1144.7z" id="n_id_11" />
	<path class="st1" d="M147.2,9.4h-12.5c-0.9,0-1.5,0.7-1.5,1.5v12.5c0,0.9,0.7,1.5,1.5,1.5h8.7c0.9,0,1.5-0.7,1.5-1.5v-2.1h2.2   c0.9,0,1.5-0.7,1.5-1.5v-8.8C148.8,10.1,148.1,9.4,147.2,9.4z" id="n_id_12" />
	<path class="st1" d="M651.8,630.2h-65.4c-0.9,0-1.5,0.7-1.5,1.5v47.5c0,0.9,0.7,1.5,1.5,1.5h55.1v192.6c0,0.9,0.7,1.5,1.5,1.5h8.8   c0.9,0,1.5-0.7,1.5-1.5V631.7C653.4,630.9,652.7,630.2,651.8,630.2z" id="n_id_13" />
	<path class="st1" d="M143.4,550.2h-8.7c-0.9,0-1.5,0.7-1.5,1.5v15c0,0.9,0.7,1.5,1.5,1.5h8.7c0.9,0,1.5-0.7,1.5-1.5v-15   C145,550.9,144.3,550.2,143.4,550.2z" id="n_id_14" />
	<path class="st1" d="M339.6,1099.8h-15c-0.9,0-1.5,0.7-1.5,1.5v13.7c0,0.9,0.7,1.5,1.5,1.5h15c0.9,0,1.5-0.7,1.5-1.5v-13.7   C341.1,1100.5,340.4,1099.8,339.6,1099.8z" id="n_id_15" />
	<line class="st2" id="n_id_16" x1="98.5" x2="98.5" y1="977.6" y2="887.7" />
	<polyline class="st2" id="n_id_17" points="82.3,980.1 82.3,885.2 85,885.2  " />
	<line class="st2" id="n_id_18" x1="91.6" x2="91.6" y1="977.6" y2="887.7" />
	<line class="st2" id="n_id_19" x1="84.8" x2="82.3" y1="980.1" y2="980.1" />
	<line class="st2" id="n_id_20" x1="98.5" x2="98.5" y1="1082.5" y2="992.6" />
	<polyline class="st2" id="n_id_21" points="82.3,990.1 82.3,1085 85,1085  " />
	<line class="st2" id="n_id_22" x1="91.6" x2="91.6" y1="1082.5" y2="992.6" />
	<line class="st2" id="n_id_23" x1="84.8" x2="82.3" y1="990.1" y2="990.1" />
	<line class="st2" id="n_id_24" x1="324.6" x2="234.7" y1="1101.3" y2="1101.3" />
	<line class="st2" id="n_id_25" x1="327.1" x2="232.2" y1="1117.5" y2="1117.5" />
	<line class="st2" id="n_id_26" x1="324.6" x2="234.7" y1="1108.2" y2="1108.2" />
	<line class="st2" id="n_id_27" x1="327.1" x2="327.1" y1="1115" y2="1117.5" />
	<line class="st2" id="n_id_28" x1="232.2" x2="232.2" y1="1115" y2="1117.5" />
	<line class="st2" id="n_id_29" x1="429.5" x2="339.6" y1="1101.3" y2="1101.3" />
	<polyline class="st2" id="n_id_30" points="337.1,1117.5 432,1117.5 432,1114.6  " />
	<line class="st2" id="n_id_31" x1="429.5" x2="339.6" y1="1108.2" y2="1108.2" />
	<line class="st2" id="n_id_32" x1="337.1" x2="337.1" y1="1115" y2="1117.5" />
	<line class="st2" id="n_id_33" x1="219.7" x2="129.7" y1="1101.3" y2="1101.3" />
	<polyline class="st2" id="n_id_34" points="222.2,1117.5 127.2,1117.5 127.2,1114.4  " />
	<line class="st2" id="n_id_35" x1="219.7" x2="129.7" y1="1108.2" y2="1108.2" />
	<line class="st2" id="n_id_36" x1="222.2" x2="222.2" y1="1115" y2="1117.5" />
	<polyline class="st2" id="n_id_37" points="641.8,796 695.8,814 700.7,802.1 702.3,830.4 706.3,817.6 768.4,839.3  " />
	<polyline class="st2" id="n_id_38" points="641.8,758.7 695.8,776.6 700.7,764.8 702.3,793.1 706.3,780.2 768.4,802  " />
	<line class="st2" id="n_id_39" x1="757.9" x2="734" y1="789.1" y2="789.1" />
	<polyline class="st2" id="n_id_40" points="757.9,920.2 651.8,920.2 651.8,872.9  " />
	<line class="st2" id="n_id_41" x1="757.9" x2="651.8" y1="894" y2="894" />
	<line class="st2" id="n_id_42" x1="757.9" x2="651.8" y1="867.7" y2="867.7" />
	<line class="st2" id="n_id_43" x1="757.9" x2="651.8" y1="841.5" y2="841.5" />
	<line class="st2" id="n_id_44" x1="695.8" x2="651.8" y1="815.3" y2="815.3" />
	<polyline class="st2" id="n_id_45" points="668,1146.3 604.5,1082.7 601.4,1085.8 664.9,1149.4 668,1146.3  " />
	<path class="st2" d="M604.3,1082.6c-16.9,16.9-26.4,39.8-26.4,63.6" id="n_id_46" />
	<polyline class="st2" id="n_id_47" points="671.8,1154.1 671.8,1168.8 574.4,1168.8 574.4,1155.2  " />
	<line class="st2" id="n_id_48" x1="139" x2="139" y1="626.7" y2="566.8" />
	<line class="st2" id="n_id_49" x1="143.4" x2="143.4" y1="626.7" y2="566.8" />
	<line class="st2" id="n_id_50" x1="139" x2="139" y1="551.8" y2="491.8" />
	<line class="st2" id="n_id_51" x1="143.4" x2="143.4" y1="551.8" y2="491.8" />
	<line class="st2" id="n_id_52" x1="651.8" x2="667.4" y1="867.7" y2="867.7" />
	<line class="st2" id="n_id_53" x1="655.5" x2="655.5" y1="627.9" y2="935.2" />
	<line class="st2" id="n_id_54" x1="659.3" x2="659.3" y1="624.2" y2="935.2" />
	<line class="st2" id="n_id_55" x1="757.9" x2="651.8" y1="631.7" y2="631.7" />
	<polyline class="st2" id="n_id_56" points="704.9,745.4 704.9,579.9 599.6,579.9  " />
	<line class="st2" id="n_id_57" x1="757.9" x2="651.8" y1="684.2" y2="684.2" />
	<line class="st2" id="n_id_58" x1="757.9" x2="651.8" y1="657.9" y2="657.9" />
	<line class="st2" id="n_id_59" x1="651.8" x2="651.8" y1="525.5" y2="631.7" />
	<line class="st2" id="n_id_60" x1="625.5" x2="625.5" y1="525.5" y2="631.7" />
	<line class="st2" id="n_id_61" x1="757.9" x2="651.8" y1="710.3" y2="710.3" />
	<line class="st2" id="n_id_62" x1="599.4" x2="599.4" y1="525.5" y2="631.7" />
	<line class="st2" id="n_id_63" x1="655.5" x2="584.7" y1="627.9" y2="627.9" />
	<polyline class="st2" id="n_id_64" points="659.3,624.2 584.7,624.2 584.7,627.9  " />
	<line class="st2" id="n_id_65" x1="655.5" x2="659.3" y1="935.2" y2="935.2" />
	<line class="st2" id="n_id_66" x1="757.9" x2="651.8" y1="762.8" y2="762.8" />
	<line class="st2" id="n_id_67" x1="757.9" x2="651.8" y1="736.6" y2="736.6" />
	<line class="st2" id="n_id_68" x1="203.4" x2="584.4" y1="79.7" y2="79.7" />
	<polyline class="st2" id="n_id_69" points="203.4,79.7 203.4,409.4 143.9,409.4  " />
	<rect class="st2" height="209.8" id="n_id_70" width="101.6" x="308.3" y="199.6" />
	<line class="st2" id="n_id_71" x1="147.2" x2="237.2" y1="15.3" y2="15.3" />
	<polyline class="st2" id="n_id_72" points="143.4,7.2 240.8,7.2 240.8,13.3  " />
	<line class="st2" id="n_id_73" x1="147.2" x2="237.2" y1="19.7" y2="19.7" />
	<line class="st2" id="n_id_74" x1="143.4" x2="143.4" y1="7.2" y2="10.9" />
	<line class="st2" id="n_id_75" x1="139" x2="139" y1="23.4" y2="113.3" />
	<polyline class="st2" id="n_id_76" points="130.9,19.7 130.9,117.1 134.5,117.1  " />
	<line class="st2" id="n_id_77" x1="143.4" x2="143.4" y1="23.4" y2="113.3" />
	<line class="st2" id="n_id_78" x1="130.9" x2="134.7" y1="19.7" y2="19.7" />
	<line class="st2" id="n_id_79" x1="139" x2="139" y1="128.3" y2="218.2" />
	<line class="st2" id="n_id_80" x1="143.4" x2="143.4" y1="128.3" y2="218.2" />
	<rect class="st2" height="4.4" id="n_id_81" width="79.9" x="593.1" y="211" />
	<path class="st2" d="M673,215.3c0-44.2-35.8-80-80-80" id="n_id_82" />
	<polyline class="st2" id="n_id_83" points="757.9,277 653,277 653,233.3  " />
	<polyline class="st2" id="n_id_84" points="747.9,225.4 698.5,175.9 695.4,179 744.8,228.5 747.9,225.4  " />
	<path class="st2" d="M698.4,175.8c-13.1,13.1-20.5,30.9-20.5,49.5" id="n_id_85" />
	<rect class="st2" height="4.3" id="n_id_86" width="69.9" x="593.1" y="486.2" />
	<path class="st2" d="M663,490.5c0-38.7-31.3-70-70-70" id="n_id_87" />
	<polyline class="st2" id="n_id_88" points="524.4,217 524.4,273.2 584.6,273.2  " />
	<line class="st2" id="n_id_89" x1="584.4" x2="524.4" y1="217" y2="217" />
	<path class="st2" d="M717.3,504.3l3-0.2l3-0.6c29.1-8.6,28.4-56.6-1.5-63.7l-3-0.4h-3c-32.3,3.6-35.1,55.1-4.5,64.1l3,0.6   L717.3,504.3" id="n_id_90" />
	<path class="st2" d="M714.5,497.8l2.7-0.2l2.7-0.5c22.5-7.5,22-44.8-1.3-50.9l-2.7-0.4h-2.7c-25.5,3.1-27.8,43.3-4,51.3l2.6,0.5   L714.5,497.8" id="n_id_91" />
	<line class="st2" id="n_id_92" x1="730.5" x2="685.5" y1="15.3" y2="15.3" />
	<polyline class="st2" id="n_id_93" points="734.2,13.9 734.2,7.2 681.8,7.2 681.8,12.2  " />
	<line class="st2" id="n_id_94" x1="730.5" x2="685.5" y1="19.7" y2="19.7" />
	<polyline class="st2" id="n_id_95" points="136.7,124.6 130.9,124.6 130.9,222 135,222  " />
	<polyline class="st2" id="n_id_96" points="136.7,490.4 130.9,490.4 130.9,627.3 135,627.3  " />
	<line class="st2" id="n_id_97" x1="705.1" x2="705.1" y1="851.3" y2="920.2" />
	<g id="n_id_98">
		<polyline class="st4" id="n_id_99" points="207.1,275.1 207.1,215.1 204.6,215.1   " />
		<line class="st4" id="n_id_100" x1="204.6" x2="207.1" y1="275.1" y2="275.1" />
		<polyline class="st3" id="n_id_101" points="204.6,215.1 147.2,215.1 147.2,275.1 204.6,275.1   " />
	</g>
	<g id="n_id_102">
		<rect class="st4" height="62.1" id="n_id_103" width="88.2" x="365.6" y="19.8" />
		<circle class="st4" cx="432.5" cy="62.8" id="n_id_104" r="10.1" />
		<circle class="st4" cx="432.1" cy="34.8" id="n_id_105" r="7.7" />
		<circle class="st4" cx="389" cy="62.8" id="n_id_106" r="10.1" />
		<circle class="st4" cx="388.5" cy="34.8" id="n_id_107" r="7.7" />
		<line class="st4" id="n_id_108" x1="453.8" x2="365.6" y1="78" y2="78" />
	</g>
	<g id="n_id_109">
		<path class="st4" d="M726.9,416.8c-3.2-1.6-6.1-2.9-9.6-3.2c-3.5-0.3-6.4,0-9.8,0.8" id="n_id_110" />
		<path class="st4" d="M685.1,380.4c-2.8,1.7-4.9,3.4-6.7,6.2c-1.9,3-2.8,5.5-3.3,9" id="n_id_111" />
		<path class="st4" d="M675.1,395.8c0.5,3.3,1.3,6,3.2,8.9c1.9,2.8,4.1,4.6,6.8,6.5" id="n_id_112" />
		<line class="st4" id="n_id_113" x1="726.9" x2="724.9" y1="375.6" y2="395.8" />
		<path class="st4" d="M730.7,376.8c-1.6,6.5-2.8,12.8-3.8,19.4" id="n_id_114" />
		<path class="st4" d="M707.5,377.2c3.3,0.7,6.4,1.2,9.8,0.7c3.5-0.5,6.5-1.7,9.6-3.3" id="n_id_115" />
		<path class="st4" d="M744.3,380c-1.1-6-6.1-9.1-12-8" id="n_id_116" />
		<path class="st4" d="M730.7,376.8c1.5-1.6,4.8-1.5,6.9-0.9c2.7,0.8,4.6,2.2,6.7,4.1v31.4c-1.8,1.8-3.5,3.3-6,4    c-2.6,0.7-4.8,0.5-7.4,0" id="n_id_117" />
		<line class="st4" id="n_id_118" x1="732.3" x2="726.9" y1="372" y2="374.6" />
		<line class="st4" id="n_id_119" x1="727.7" x2="730.9" y1="375" y2="376" />
		<path class="st4" d="M727.7,375c-0.5-0.1-0.8,0.1-0.8,0.6" id="n_id_120" />
		<path class="st4" d="M716.5,380.6c-5.1-2.4-9.9-4.2-15.6-4.2c-5.7,0-10.6,1.7-15.8,4" id="n_id_121" />
		<path class="st4" d="M716.5,411c3.2-2.6,4.8-5.1,5.4-9.2v-12.2c-0.6-4-2.1-6.6-5.4-9" id="n_id_122" />
		<path class="st4" d="M726.9,416.8c3.3,1.7,6.5,4.1,10.3,2.7c4-1.5,6.3-3.8,7.1-8.1" id="n_id_123" />
		<line class="st4" id="n_id_124" x1="724.9" x2="726.9" y1="395.8" y2="416" />
		<path class="st4" d="M726.9,396.2c1.1,6.5,2.4,12.8,4,19.2" id="n_id_125" />
		<line class="st4" id="n_id_126" x1="727.7" x2="730.9" y1="416.6" y2="415.4" />
		<path class="st4" d="M726.9,416c0.1,0.4,0.4,0.6,0.8,0.6" id="n_id_127" />
		<path class="st4" d="M685.1,411.2c2.6,1.1,4.9,2.2,7.6,2.8c2.7,0.6,5.4,0.9,8.1,1.2c2.4,0.3,5.3-0.6,7.6-1.2c2.8-0.8,5.3-1.8,8-3" id="n_id_128" />
		<path class="st4" d="M687.9,406c4.1,1.8,8.2,3.2,12.8,3.2c4.6,0,8.7-1.5,12.8-3.4" id="n_id_129" />
		<path class="st4" d="M713.5,385.8c-4.2-1.9-8.1-3.3-12.8-3.4c-4.7-0.1-8.6,1.4-12.8,3.2" id="n_id_130" />
		<polyline class="st4" id="n_id_131" points="715.9,395.8 715.9,401.8 715.9,399   " />
		<path class="st4" d="M719.3,400.4c-0.2-0.8-0.6-1.2-1.4-1.4" id="n_id_132" />
		<path class="st4" d="M719.3,390.8c-0.2-0.7-0.7-1.1-1.4-1.2" id="n_id_133" />
		<line class="st4" id="n_id_134" x1="715.9" x2="715.9" y1="389.6" y2="395.8" />
		<path class="st4" d="M715.9,392.4c0-2.8-0.1-4.7-2.4-6.6" id="n_id_135" />
		<line class="st4" id="n_id_136" x1="715.9" x2="717.9" y1="389.6" y2="389.6" />
		<path class="st4" d="M715.9,392.4c1.3,0,3.4,0.3,3.4-1.6" id="n_id_137" />
		<line class="st4" id="n_id_138" x1="717.9" x2="715.9" y1="399" y2="399" />
		<path class="st4" d="M713.5,405.8c1.4-1.2,1.9-2.1,2.4-3.9c0.2-0.7,3.3,0.6,3.4-1.5" id="n_id_139" />
		<path class="st4" d="M681.7,395.8c0.3,2.2,0.6,3.9,1.8,5.8c1.2,1.8,2.8,3.1,4.4,4.4" id="n_id_140" />
		<path class="st4" d="M687.9,385.6c-3.5,2.7-6,5.6-6.2,10.2" id="n_id_141" />
		<line class="st4" id="n_id_142" x1="675.1" x2="675.1" y1="395.8" y2="395.6" />
	</g>
	<g id="n_id_143">
		<line class="st3" id="n_id_144" x1="523.3" x2="586.5" y1="280.7" y2="280.7" />
		<line class="st3" id="n_id_145" x1="523.3" x2="523.3" y1="280.7" y2="299.4" />
		<line class="st3" id="n_id_146" x1="523.3" x2="523.3" y1="306.9" y2="321.9" />
		<line class="st3" id="n_id_147" x1="523.3" x2="523.3" y1="329.4" y2="344.3" />
		<polyline class="st3" id="n_id_148" points="518.3,326.9 518.3,373.1 523.3,373.1 523.3,278.2 518.3,278.2 518.3,324.4   " />
		<line class="st3" id="n_id_149" x1="523.3" x2="518.3" y1="329.4" y2="329.4" />
		<line class="st3" id="n_id_150" x1="518.3" x2="523.3" y1="321.9" y2="321.9" />
		<line class="st3" id="n_id_151" x1="523.3" x2="586.5" y1="370.7" y2="370.7" />
	</g>
	<g id="n_id_152">
		<path class="st4" d="M198.1,131.2h-47.5c-2.4,0-2.5,2.5-2.5,2.5v74.9c0,0-0.4,2.5,2.5,2.5h47.5c1.9,0,2.5-2.5,2.5-2.5v-74.9    C200.6,133.7,200.4,131.2,198.1,131.2z" id="n_id_153" />
		<path class="st4" d="M158.2,178.7v25c0,0-0.6,5,5,5h30c0,0,5,0.3,5-5v-25c0,0,0.4-5-5-5h-30C163.2,173.7,158.2,173.1,158.2,178.7z    " id="n_id_154" />
		<ellipse class="st4" cx="178.2" cy="191.1" id="n_id_155" rx="2.4" ry="2.4" />
		<path class="st4" d="M158.2,138.7v25c0,0-0.6,5,5,5h30c0,0,5,0.3,5-5v-25c0,0,0.4-5-5-5h-30C163.2,133.7,158.2,133.1,158.2,138.7z    " id="n_id_156" />
		<ellipse class="st4" cx="178.2" cy="151.2" id="n_id_157" rx="2.4" ry="2.4" />
	</g>
	<polygon class="st5" id="n_id_158" points="724.2,738 723,735.8 705,745 687,735.8 686,738 705,747.8  " />
	<polygon class="st5" id="n_id_159" points="686,858.1 687.2,860.3 705.2,851.1 723.2,860.3 724.2,858.1 705.2,848.3  " />
	<circle class="st1" cx="599.4" cy="579.9" id="n_id_160" r="4.2" />
	<circle class="st1" cx="703.9" cy="919.1" id="n_id_161" r="4.2" />
	<line class="st3" id="n_id_162" x1="591.5" x2="675.5" y1="49.7" y2="49.7" />
	<line class="st3" id="n_id_163" x1="675.5" x2="675.5" y1="19.7" y2="49.7" />
	<line class="st3" id="n_id_164" x1="554.4" x2="554.4" y1="217.1" y2="272.8" />
	<line class="st3" id="n_id_165" x1="517.8" x2="517.8" y1="412.6" y2="507.2" />
	<polyline class="st3" id="n_id_166" points="584.6,49.7 247.1,49.7 247.1,19.7  " />
	<line class="st3" id="n_id_167" x1="173.4" x2="173.4" y1="408.4" y2="228.3" />
	<line class="st3" id="n_id_168" x1="173.4" x2="136.6" y1="228.3" y2="228.3" />
	<polyline class="st2" id="n_id_169" points="112.3,1114.4 112.3,1327.3 165.9,1327.3 165.9,1362.3 73.5,1362.3 73.5,1115 88.2,1115  " />
	<line class="st6" id="n_id_170" x1="247.1" x2="247.1" y1="1354.8" y2="1344.8" />
	<line class="st6" id="n_id_171" x1="249.6" x2="249.6" y1="1354.8" y2="1344.8" />
	<polyline class="st2" id="n_id_172" points="247.1,1354.8 247.1,1359.8 249.6,1359.8 249.6,1354.8  " />
	<line class="st6" id="n_id_173" x1="427" x2="427" y1="1354.8" y2="1344.8" />
	<line class="st6" id="n_id_174" x1="429.5" x2="429.5" y1="1354.8" y2="1344.8" />
	<line class="st2" id="n_id_175" x1="427" x2="429.5" y1="1359.8" y2="1359.8" />
	<line class="st2" id="n_id_176" x1="427" x2="427" y1="1354.8" y2="1359.8" />
	<line class="st2" id="n_id_177" x1="429.5" x2="429.5" y1="1354.8" y2="1359.8" />
	<line class="st6" id="n_id_178" x1="606.9" x2="606.9" y1="1354.8" y2="1344.8" />
	<line class="st6" id="n_id_179" x1="609.3" x2="609.3" y1="1354.8" y2="1344.8" />
	<polyline class="st2" id="n_id_180" points="606.9,1354.8 606.9,1359.8 609.3,1359.8 609.3,1354.8  " />
	<polyline class="st2" id="n_id_181" points="750.4,1157.9 750.4,1327.3 690.5,1327.3 690.5,1362.3 773.3,1362.3 773.3,1157.9  " />
	<line class="st2" id="n_id_182" x1="165.9" x2="690.5" y1="1344.8" y2="1344.8" />
	<line class="st2" id="n_id_183" x1="165.9" x2="690.5" y1="1354.8" y2="1354.8" />
	<rect class="st3" height="83.8" id="n_id_184" width="72.7" x="601.9" y="34" />
	<rect class="st3" height="83.8" id="n_id_185" width="72.7" x="678.5" y="34" />
	<g id="n_id_186">
		<path class="st1" d="M194.4,259.4h-12v-2.5c0-1.8,0.1-3.1,0.4-3.9c0.4-1.2,1.1-2.1,2.1-2.7s2.2-1,3.6-1c1.2,0,2.3,0.3,3.2,0.8    c0.9,0.5,1.6,1.2,2,2s0.7,2,0.7,3.5V259.4z M193.3,258.3v-1.4c0-1.7-0.1-2.8-0.3-3.4c-0.3-0.9-0.8-1.6-1.6-2.1    c-0.8-0.5-1.7-0.8-2.8-0.8c-1.2,0-2.1,0.3-3,0.8c-0.8,0.6-1.4,1.3-1.7,2.3c-0.2,0.7-0.3,2-0.3,3.7v0.8H193.3z" id="n_id_187" />
		<path class="st1" d="M182.5,247.7v-1.2l8.6-2.4l-8.6-3.4v-0.2l8.6-3.4l-8.6-2.5v-1.2l12,3.4v0.2l-9,3.5l9,3.6v0.2L182.5,247.7z" id="n_id_188" />
	</g>
	<g id="n_id_189">
		<path class="st1" d="M547,341v-2.4c0-1.3,0.1-2.2,0.2-2.7c0.2-0.7,0.5-1.3,1-1.7c0.5-0.4,1.2-0.7,2-0.7c0.7,0,1.2,0.2,1.7,0.5    c0.5,0.3,0.9,0.7,1.1,1.3c0.3,0.6,0.4,1.4,0.4,2.4l5.6-4.3v1.5l-5.6,4.3v0.7h5.6v1.2H547z M548.2,339.8h4.1l0-2.1    c0-0.8-0.1-1.4-0.2-1.8c-0.2-0.4-0.4-0.7-0.7-0.9c-0.3-0.2-0.7-0.3-1.1-0.3c-0.4,0-0.8,0.1-1.1,0.3c-0.3,0.2-0.6,0.5-0.7,0.9    c-0.1,0.4-0.2,0.9-0.2,1.8V339.8z" id="n_id_190" />
		<path class="st1" d="M547,330.9v-6.9h1.2v5.7h3.7v-5.6h1.2v5.6h4.7v-5.6h1.2v6.8H547z" id="n_id_191" />
		<path class="st1" d="M547,322v-6h1.2v4.8h3.7V316h1.2v4.8h5.9v1.2H547z" id="n_id_192" />
		<path class="st1" d="M557.2,314.2c0-0.3,0.1-0.5,0.3-0.7c0.2-0.2,0.4-0.3,0.7-0.3c0.3,0,0.5,0.1,0.7,0.3c0.2,0.2,0.3,0.4,0.3,0.7    c0,0.3-0.1,0.5-0.3,0.7c-0.2,0.2-0.4,0.3-0.7,0.3c-0.3,0-0.5-0.1-0.7-0.3C557.3,314.7,557.2,314.5,557.2,314.2z" id="n_id_193" />
	</g>
	<g id="n_id_194">
		<path class="st1" d="M633.4,72.3h1.2l2.4,8.6l3.4-8.6h0.2l3.4,8.6l2.5-8.6h1.2l-3.4,12h-0.2l-3.5-9.1l-3.6,9.1h-0.2L633.4,72.3z" id="n_id_195" />
	</g>
	<g id="n_id_196">
		<path class="st1" d="M710.3,84.2v-12h2.5c1.8,0,3.1,0.1,3.9,0.4c1.2,0.4,2.1,1.1,2.7,2.1s1,2.2,1,3.6c0,1.2-0.3,2.3-0.8,3.2    s-1.2,1.6-2,2c-0.8,0.4-2,0.7-3.5,0.7H710.3z M711.4,83.1h1.4c1.7,0,2.8-0.1,3.4-0.3c0.9-0.3,1.6-0.8,2.1-1.6    c0.5-0.8,0.8-1.7,0.8-2.8c0-1.2-0.3-2.1-0.8-3c-0.6-0.8-1.3-1.4-2.3-1.7c-0.7-0.2-2-0.3-3.7-0.3h-0.8V83.1z" id="n_id_197" />
	</g>
	<g id="n_id_198">
		<path class="st1" d="M698.7,932.3h1.2v7.2c0,0.9,0,1.4,0,1.6c0.1,0.5,0.2,0.9,0.4,1.2c0.2,0.3,0.5,0.6,1,0.8s0.9,0.3,1.4,0.3    c0.4,0,0.8-0.1,1.1-0.3c0.4-0.2,0.7-0.4,0.9-0.7c0.2-0.3,0.4-0.7,0.5-1.1c0.1-0.3,0.1-0.9,0.1-1.9v-7.2h1.2v7.2    c0,1.1-0.1,1.9-0.3,2.6c-0.2,0.7-0.6,1.2-1.3,1.7c-0.6,0.5-1.4,0.7-2.3,0.7c-1,0-1.8-0.2-2.5-0.7c-0.7-0.5-1.1-1.1-1.4-1.8    c-0.1-0.5-0.2-1.3-0.2-2.5V932.3z" id="n_id_199" />
		<path class="st1" d="M709.6,932.3h2.4c1.4,0,2.3,0.1,2.8,0.2c0.7,0.2,1.2,0.5,1.7,1c0.4,0.5,0.7,1.2,0.7,2c0,0.8-0.2,1.5-0.6,2    s-1,0.9-1.7,1c-0.5,0.1-1.6,0.2-3,0.2h-0.9v5.6h-1.2V932.3z M710.8,933.4v4.1l2,0c0.8,0,1.4-0.1,1.8-0.2c0.4-0.1,0.7-0.4,0.9-0.7    c0.2-0.3,0.3-0.7,0.3-1.1c0-0.4-0.1-0.8-0.3-1.1c-0.2-0.3-0.5-0.6-0.9-0.7s-0.9-0.2-1.7-0.2H710.8z" id="n_id_200" />
	</g>
	<g id="n_id_201">
		<path class="st1" d="M259.2,579.1v-21.5h4.5c3.2,0,5.6,0.3,7,0.8c2.1,0.7,3.7,2,4.9,3.8c1.2,1.8,1.8,4,1.8,6.5    c0,2.2-0.5,4.1-1.4,5.7s-2.1,2.8-3.6,3.6s-3.6,1.2-6.3,1.2H259.2z M261.3,577.1h2.5c3,0,5-0.2,6.2-0.6c1.6-0.5,2.9-1.5,3.8-2.8    c0.9-1.4,1.4-3,1.4-5c0-2.1-0.5-3.9-1.5-5.3c-1-1.5-2.4-2.5-4.2-3c-1.3-0.4-3.6-0.6-6.7-0.6h-1.5V577.1z" id="n_id_202" />
		<path class="st1" d="M281.2,557.6h2.2v21.5h-2.2V557.6z" id="n_id_203" />
		<path class="st1" d="M288.3,579.1v-21.5h0.5l14.3,16.5v-16.5h2.1v21.5h-0.5l-14.2-16.3v16.3H288.3z" id="n_id_204" />
		<path class="st1" d="M310.1,557.6h2.2v21.5h-2.2V557.6z" id="n_id_205" />
		<path class="st1" d="M317.2,579.1v-21.5h0.5l14.3,16.5v-16.5h2.1v21.5h-0.5l-14.2-16.3v16.3H317.2z" id="n_id_206" />
		<path class="st1" d="M360.2,561.2l-1.7,1.6c-1.2-1.2-2.5-2.1-3.9-2.7c-1.4-0.6-2.8-0.9-4.2-0.9c-1.7,0-3.3,0.4-4.8,1.2    c-1.5,0.8-2.7,2-3.5,3.4c-0.8,1.4-1.3,2.9-1.3,4.5c0,1.6,0.4,3.2,1.3,4.6c0.9,1.5,2.1,2.6,3.6,3.4c1.5,0.8,3.2,1.3,5,1.3    c2.2,0,4.1-0.6,5.6-1.9c1.5-1.2,2.4-2.9,2.7-4.9h-6.9v-2.1h9.3c0,3.3-1,6-3,7.9c-2,2-4.6,2.9-7.9,2.9c-4,0-7.1-1.4-9.5-4.1    c-1.8-2.1-2.7-4.5-2.7-7.2c0-2,0.5-3.9,1.5-5.7s2.4-3.1,4.2-4.1c1.8-1,3.8-1.5,6.1-1.5c1.8,0,3.5,0.3,5.2,1    C357.1,558.7,358.6,559.8,360.2,561.2z" id="n_id_207" />
	</g>
	<g id="n_id_208">
		<path class="st1" d="M293.4,887.7h2.2v19.5h8.3v2.1h-10.4V887.7z" id="n_id_209" />
		<path class="st1" d="M306.9,887.7h2.2v21.5h-2.2V887.7z" id="n_id_210" />
		<path class="st1" d="M312.4,887.7h2.3l7.1,16.6l7.3-16.6h2.3l-9.4,21.5h-0.5L312.4,887.7z" id="n_id_211" />
		<path class="st1" d="M334.7,887.7h2.2v21.5h-2.2V887.7z" id="n_id_212" />
		<path class="st1" d="M341.8,909.3v-21.5h0.5l14.3,16.5v-16.5h2.1v21.5h-0.5L344.1,893v16.3H341.8z" id="n_id_213" />
		<path class="st1" d="M384.8,891.4l-1.7,1.6c-1.2-1.2-2.5-2.1-3.9-2.7c-1.4-0.6-2.8-0.9-4.2-0.9c-1.7,0-3.3,0.4-4.8,1.2    c-1.5,0.8-2.7,2-3.5,3.4c-0.8,1.4-1.3,2.9-1.3,4.5c0,1.6,0.4,3.2,1.3,4.6c0.9,1.5,2.1,2.6,3.6,3.4c1.5,0.8,3.2,1.3,5,1.3    c2.2,0,4.1-0.6,5.6-1.9c1.5-1.2,2.4-2.9,2.7-4.9h-6.9V899h9.3c0,3.3-1,6-3,7.9c-2,2-4.6,2.9-7.9,2.9c-4,0-7.1-1.4-9.5-4.1    c-1.8-2.1-2.7-4.5-2.7-7.2c0-2,0.5-3.9,1.5-5.7s2.4-3.1,4.2-4.1c1.8-1,3.8-1.5,6.1-1.5c1.8,0,3.5,0.3,5.2,1    C381.7,888.9,383.2,889.9,384.8,891.4z" id="n_id_214" />
	</g>
	<g id="n_id_215">
		<path class="st1" d="M362.1,1255.9v-21.5h4.5c3.2,0,5.6,0.3,7,0.8c2.1,0.7,3.7,2,4.9,3.8c1.2,1.8,1.8,4,1.8,6.5    c0,2.2-0.5,4.1-1.4,5.7s-2.1,2.8-3.6,3.6s-3.6,1.2-6.3,1.2H362.1z M364.2,1253.8h2.5c3,0,5-0.2,6.2-0.6c1.6-0.5,2.9-1.5,3.8-2.8    c0.9-1.4,1.4-3,1.4-5c0-2.1-0.5-3.9-1.5-5.3c-1-1.5-2.4-2.5-4.2-3c-1.3-0.4-3.6-0.6-6.7-0.6h-1.5V1253.8z" id="n_id_216" />
		<path class="st1" d="M384.5,1234.3h12.3v2.1h-10.2v6.7h10.1v2.1h-10.1v8.5h10.1v2.1h-12.3V1234.3z" id="n_id_217" />
		<path class="st1" d="M420.6,1238.3l-1.7,1.3c-0.9-1.2-2.1-2.1-3.4-2.8c-1.3-0.6-2.8-0.9-4.3-0.9c-1.7,0-3.3,0.4-4.8,1.2    c-1.5,0.8-2.6,1.9-3.4,3.3c-0.8,1.4-1.2,3-1.2,4.7c0,2.6,0.9,4.8,2.7,6.6c1.8,1.8,4.1,2.6,6.8,2.6c3,0,5.5-1.2,7.6-3.5l1.7,1.3    c-1.1,1.4-2.4,2.4-4,3.2c-1.6,0.7-3.4,1.1-5.4,1.1c-3.8,0-6.7-1.3-8.9-3.8c-1.8-2.1-2.7-4.7-2.7-7.7c0-3.2,1.1-5.8,3.3-8    c2.2-2.2,5-3.2,8.3-3.2c2,0,3.8,0.4,5.4,1.2C418.2,1235.8,419.5,1236.9,420.6,1238.3z" id="n_id_218" />
		<path class="st1" d="M424.9,1234.3h2.2v8.1l8.6-8.1h2.9l-10.3,9.7l11.1,11.9h-2.9l-9.4-10v10h-2.2V1234.3z" id="n_id_219" />
	</g>
	<g id="n_id_220">
		<path class="st1" d="M611.8,366.8h4.3c2.5,0,4.1,0.1,5,0.3c1.2,0.3,2.2,0.9,3,1.9c0.8,0.9,1.2,2.1,1.2,3.5c0,1.4-0.4,2.6-1.1,3.5    c-0.8,0.9-1.8,1.6-3.1,1.9c-1,0.2-2.8,0.4-5.5,0.4H614v10h-2.2V366.8z M614,368.9v7.3l3.6,0c1.5,0,2.6-0.1,3.2-0.4    c0.7-0.3,1.2-0.7,1.6-1.3c0.4-0.6,0.6-1.3,0.6-2c0-0.7-0.2-1.4-0.6-2c-0.4-0.6-0.9-1-1.5-1.3c-0.6-0.3-1.7-0.4-3.1-0.4H614z" id="n_id_221" />
		<path class="st1" d="M629.6,388.3v-21.5h4.5c3.2,0,5.6,0.3,7,0.8c2.1,0.7,3.7,2,4.9,3.8c1.2,1.8,1.8,4,1.8,6.5    c0,2.2-0.5,4.1-1.4,5.7s-2.1,2.8-3.6,3.6s-3.6,1.2-6.3,1.2H629.6z M631.6,386.3h2.5c3,0,5-0.2,6.2-0.6c1.6-0.5,2.9-1.5,3.8-2.8    c0.9-1.4,1.4-3,1.4-5c0-2.1-0.5-3.9-1.5-5.3c-1-1.5-2.4-2.5-4.2-3c-1.3-0.4-3.6-0.6-6.7-0.6h-1.5V386.3z" id="n_id_222" />
		<path class="st1" d="M652,366.8h4.3c2.4,0,4,0.1,4.9,0.3c1.3,0.3,2.3,0.9,3.1,1.9c0.8,1,1.2,2.1,1.2,3.6c0,1.2-0.3,2.2-0.8,3.1    c-0.6,0.9-1.3,1.6-2.4,2c-1,0.5-2.4,0.7-4.2,0.7l7.7,10h-2.7l-7.7-10h-1.2v10H652V366.8z M654.1,368.9v7.3l3.7,0    c1.4,0,2.5-0.1,3.2-0.4c0.7-0.3,1.2-0.7,1.6-1.3c0.4-0.6,0.6-1.3,0.6-2c0-0.7-0.2-1.4-0.6-2c-0.4-0.6-0.9-1-1.5-1.3    c-0.6-0.3-1.7-0.4-3.2-0.4H654.1z" id="n_id_223" />
		<path class="st1" d="M672,385.1c0.5,0,0.9,0.2,1.3,0.5c0.4,0.4,0.5,0.8,0.5,1.3c0,0.5-0.2,0.9-0.5,1.3s-0.8,0.5-1.3,0.5    c-0.5,0-0.9-0.2-1.3-0.5c-0.4-0.4-0.5-0.8-0.5-1.3c0-0.5,0.2-0.9,0.5-1.3C671.1,385.3,671.5,385.1,672,385.1z" id="n_id_224" />
	</g>
	<g id="n_id_225">
		<path class="st1" d="M678.1,138.7h2.2v19.5h8.3v2.1h-10.4V138.7z" id="n_id_226" />
		<path class="st1" d="M700.7,138.7l10,21.5h-2.3l-3.4-7.1h-9.3l-3.4,7.1H690l10.2-21.5H700.7z M700.4,143.2l-3.7,7.8h7.4    L700.4,143.2z" id="n_id_227" />
		<path class="st1" d="M714.2,138.7h2.2v13c0,1.5,0,2.5,0.1,2.9c0.1,0.8,0.4,1.6,0.7,2.1s1,1,1.8,1.4c0.8,0.4,1.6,0.6,2.4,0.6    c0.7,0,1.4-0.2,2-0.5c0.7-0.3,1.2-0.7,1.6-1.3c0.4-0.5,0.8-1.2,1-1.9c0.1-0.5,0.2-1.7,0.2-3.4v-13h2.2v13c0,1.9-0.2,3.5-0.6,4.7    c-0.4,1.2-1.1,2.2-2.3,3.1c-1.1,0.9-2.5,1.3-4.1,1.3c-1.7,0-3.2-0.4-4.5-1.2s-2.1-1.9-2.5-3.3c-0.3-0.8-0.4-2.4-0.4-4.5V138.7z" id="n_id_228" />
		<path class="st1" d="M735.6,157c0.5,0,0.9,0.2,1.3,0.5c0.4,0.4,0.5,0.8,0.5,1.3c0,0.5-0.2,0.9-0.5,1.3s-0.8,0.5-1.3,0.5    c-0.5,0-0.9-0.2-1.3-0.5c-0.4-0.4-0.5-0.8-0.5-1.3c0-0.5,0.2-0.9,0.5-1.3C734.7,157.1,735.1,157,735.6,157z" id="n_id_229" />
	</g>
	<g id="n_id_230">
		<path class="st1" d="M277.5,138.3h2.2v8.1l8.6-8.1h2.9l-10.3,9.7l11.1,11.9h-2.9l-9.4-10v10h-2.2V138.3z" id="n_id_231" />
		<path class="st1" d="M294.9,138.3h2.2v21.5h-2.2V138.3z" id="n_id_232" />
		<path class="st1" d="M299.8,140.4v-2.1h11.8v2.1h-4.8v19.4h-2.2v-19.4H299.8z" id="n_id_233" />
		<path class="st1" d="M334.8,142.3l-1.7,1.3c-0.9-1.2-2.1-2.1-3.4-2.8c-1.3-0.6-2.8-0.9-4.3-0.9c-1.7,0-3.3,0.4-4.8,1.2    c-1.5,0.8-2.6,1.9-3.4,3.3c-0.8,1.4-1.2,3-1.2,4.7c0,2.6,0.9,4.8,2.7,6.6c1.8,1.8,4.1,2.6,6.8,2.6c3,0,5.5-1.2,7.6-3.5l1.7,1.3    c-1.1,1.4-2.4,2.4-4,3.2c-1.6,0.7-3.4,1.1-5.4,1.1c-3.8,0-6.7-1.3-8.9-3.8c-1.8-2.1-2.7-4.7-2.7-7.7c0-3.2,1.1-5.8,3.3-8    c2.2-2.2,5-3.2,8.3-3.2c2,0,3.8,0.4,5.4,1.2C332.4,139.7,333.7,140.8,334.8,142.3z" id="n_id_234" />
		<path class="st1" d="M339,138.3h2.2v9h11v-9h2.2v21.5h-2.2v-10.4h-11v10.4H339V138.3z" id="n_id_235" />
		<path class="st1" d="M359.6,138.3h12.3v2.1h-10.2v6.7h10.1v2.1h-10.1v8.5h10.1v2.1h-12.3V138.3z" id="n_id_236" />
		<path class="st1" d="M375.6,159.8v-21.5h0.5l14.3,16.5v-16.5h2.1v21.5h-0.5l-14.2-16.3v16.3H375.6z" id="n_id_237" />
	</g>
	<g id="n_id_238">
		<path class="st1" d="M568.3,584.2v-12h2.5c1.8,0,3.1,0.1,3.9,0.4c1.2,0.4,2.1,1.1,2.7,2.1s1,2.2,1,3.6c0,1.2-0.3,2.3-0.8,3.2    s-1.2,1.6-2,2c-0.8,0.4-2,0.7-3.5,0.7H568.3z M569.4,583.1h1.4c1.7,0,2.8-0.1,3.4-0.3c0.9-0.3,1.6-0.8,2.1-1.6    c0.5-0.8,0.8-1.7,0.8-2.8c0-1.2-0.3-2.1-0.8-3c-0.6-0.8-1.3-1.4-2.3-1.7c-0.7-0.2-2-0.3-3.7-0.3h-0.8V583.1z" id="n_id_239" />
		<path class="st1" d="M580.7,584.2v-12h0.3l8,9.2v-9.2h1.2v12h-0.3l-7.9-9.1v9.1H580.7z" id="n_id_240" />
	</g>
	<g id="n_id_241">
		<path class="st1" d="M640.7,289.1h1.2l2.4,8.6l3.4-8.6h0.2l3.4,8.6l2.5-8.6h1.2l-3.4,12h-0.2L648,292l-3.6,9.1h-0.2L640.7,289.1z" id="n_id_242" />
		<path class="st1" d="M661,289.1l5.6,12h-1.3l-1.9-3.9h-5.2l-1.9,3.9h-1.3l5.7-12H661z M660.9,291.6l-2,4.3h4.1L660.9,291.6z" id="n_id_243" />
		<path class="st1" d="M668.5,289.1h1.2v10.8h4.6v1.2h-5.8V289.1z" id="n_id_244" />
		<path class="st1" d="M676.2,289.1h1.2v4.5l4.8-4.5h1.6l-5.7,5.4l6.2,6.6h-1.6l-5.2-5.6v5.6h-1.2V289.1z" id="n_id_245" />
		<path class="st1" d="M685.1,296h4.5v1h-4.5V296z" id="n_id_246" />
		<path class="st1" d="M691.4,289.1h1.2v12h-1.2V289.1z" id="n_id_247" />
		<path class="st1" d="M695.3,301v-12h0.3l8,9.2v-9.2h1.2v12h-0.3l-7.9-9.1v9.1H695.3z" id="n_id_248" />
		<path class="st1" d="M644.5,309h2.4c1.4,0,2.3,0.1,2.8,0.2c0.7,0.2,1.2,0.5,1.7,1c0.4,0.5,0.7,1.2,0.7,2c0,0.8-0.2,1.5-0.6,2    s-1,0.9-1.7,1c-0.5,0.1-1.6,0.2-3,0.2h-0.9v5.6h-1.2V309z M645.7,310.2v4.1l2,0c0.8,0,1.4-0.1,1.8-0.2c0.4-0.1,0.7-0.4,0.9-0.7    c0.2-0.3,0.3-0.7,0.3-1.1c0-0.4-0.1-0.8-0.3-1.1c-0.2-0.3-0.5-0.6-0.9-0.7s-0.9-0.2-1.7-0.2H645.7z" id="n_id_249" />
		<path class="st1" d="M658,309l5.6,12h-1.3l-1.9-3.9h-5.2l-1.9,3.9h-1.3l5.7-12H658z M657.9,311.6l-2,4.3h4.1L657.9,311.6z" id="n_id_250" />
		<path class="st1" d="M665.5,321v-12h0.3l8,9.2V309h1.2v12h-0.3l-7.9-9.1v9.1H665.5z" id="n_id_251" />
		<path class="st1" d="M676.6,310.2V309h6.6v1.2h-2.7V321h-1.2v-10.8H676.6z" id="n_id_252" />
		<path class="st1" d="M684.9,309h2.4c1.3,0,2.2,0.1,2.7,0.2c0.7,0.2,1.3,0.5,1.7,1c0.4,0.5,0.7,1.2,0.7,2c0,0.7-0.2,1.2-0.5,1.7    c-0.3,0.5-0.7,0.9-1.3,1.1s-1.4,0.4-2.4,0.4l4.3,5.6h-1.5l-4.3-5.6h-0.7v5.6h-1.2V309z M686.1,310.2v4.1l2.1,0    c0.8,0,1.4-0.1,1.8-0.2c0.4-0.2,0.7-0.4,0.9-0.7c0.2-0.3,0.3-0.7,0.3-1.1c0-0.4-0.1-0.8-0.3-1.1c-0.2-0.3-0.5-0.6-0.9-0.7    c-0.4-0.1-0.9-0.2-1.8-0.2H686.1z" id="n_id_253" />
		<path class="st1" d="M693.7,309h1.4l3.1,4.9l3-4.9h1.4l-3.8,6.2v5.7h-1.2v-5.7L693.7,309z" id="n_id_254" />
	</g>
</g>
<g id="n_id_255">
	<path d="M69.9,1419.6l2.9-1.7c2,3.7,4.4,5.6,7,5.6c1.1,0,2.2-0.3,3.2-0.8s1.8-1.2,2.3-2.1c0.5-0.9,0.8-1.8,0.8-2.8   c0-1.1-0.4-2.2-1.2-3.3c-1.1-1.5-3-3.3-5.8-5.4c-2.8-2.1-4.6-3.7-5.3-4.6c-1.2-1.6-1.8-3.3-1.8-5.2c0-1.5,0.4-2.8,1.1-4   c0.7-1.2,1.7-2.2,3-2.9c1.3-0.7,2.7-1,4.2-1c1.6,0,3.1,0.4,4.5,1.2c1.4,0.8,2.9,2.2,4.4,4.4l-2.8,2.1c-1.3-1.7-2.4-2.8-3.3-3.3   c-0.9-0.5-1.9-0.8-2.9-0.8c-1.4,0-2.5,0.4-3.3,1.2s-1.3,1.8-1.3,3.1c0,0.7,0.2,1.5,0.5,2.1c0.3,0.7,0.9,1.4,1.7,2.3   c0.4,0.4,1.9,1.6,4.4,3.4c2.9,2.2,4.9,4.1,6,5.8s1.6,3.4,1.6,5.1c0,2.5-0.9,4.6-2.8,6.4c-1.9,1.8-4.1,2.7-6.8,2.7   c-2.1,0-3.9-0.5-5.6-1.6C72.8,1424,71.3,1422.2,69.9,1419.6z" id="n_id_256" />
	<path d="M95.7,1392h19.4v3.3H99v10.6h15.9v3.3H99v13.3h15.9v3.3H95.7V1392z" id="n_id_257" />
	<path d="M151.2,1398.3l-2.7,2c-1.5-1.9-3.2-3.4-5.3-4.4c-2.1-1-4.3-1.5-6.8-1.5c-2.7,0-5.2,0.6-7.5,1.9c-2.3,1.3-4.1,3-5.3,5.2   c-1.3,2.2-1.9,4.6-1.9,7.4c0,4.1,1.4,7.6,4.2,10.3c2.8,2.8,6.4,4.1,10.7,4.1c4.7,0,8.7-1.9,11.9-5.6l2.7,2c-1.7,2.1-3.8,3.8-6.3,5   c-2.5,1.2-5.3,1.8-8.5,1.8c-5.9,0-10.6-2-14-5.9c-2.9-3.3-4.3-7.3-4.3-12.1c0-5,1.7-9.1,5.2-12.5c3.5-3.4,7.8-5.1,13.1-5.1   c3.2,0,6,0.6,8.6,1.9S149.6,1396.1,151.2,1398.3z" id="n_id_258" />
	<path d="M173,1391.2c5.1,0,9.4,1.7,12.9,5.1c3.5,3.4,5.2,7.6,5.2,12.6c0,5-1.7,9.2-5.2,12.6s-7.6,5.2-12.6,5.2   c-5,0-9.3-1.7-12.7-5.2s-5.2-7.6-5.2-12.5c0-3.3,0.8-6.3,2.4-9s3.7-5,6.4-6.5S169.8,1391.2,173,1391.2z M173.1,1394.5   c-2.5,0-4.9,0.7-7.1,2s-4,3.1-5.3,5.3c-1.3,2.2-1.9,4.7-1.9,7.4c0,4,1.4,7.4,4.2,10.2c2.8,2.8,6.1,4.2,10.1,4.2   c2.6,0,5.1-0.6,7.3-1.9s4-3,5.2-5.2c1.3-2.2,1.9-4.7,1.9-7.4c0-2.7-0.6-5.1-1.9-7.3c-1.3-2.2-3-3.9-5.3-5.2   S175.7,1394.5,173.1,1394.5z" id="n_id_259" />
	<path d="M196.6,1425.9V1392h0.7l22.5,25.9V1392h3.3v33.8h-0.8l-22.3-25.6v25.6H196.6z" id="n_id_260" />
	<path d="M230.3,1425.9V1392h7c5.1,0,8.7,0.4,11,1.2c3.3,1.2,5.8,3.1,7.7,6c1.8,2.8,2.8,6.2,2.8,10.1c0,3.4-0.7,6.4-2.2,9   c-1.5,2.6-3.4,4.5-5.7,5.7c-2.3,1.2-5.6,1.8-9.8,1.8H230.3z M233.5,1422.7h3.9c4.7,0,7.9-0.3,9.7-0.9c2.5-0.8,4.5-2.3,6-4.5   c1.5-2.2,2.2-4.8,2.2-7.9c0-3.3-0.8-6.1-2.4-8.4c-1.6-2.3-3.8-3.9-6.6-4.8c-2.1-0.6-5.6-1-10.5-1h-2.4V1422.7z" id="n_id_261" />
	<path d="M276.1,1392h17v3.3h-13.6v10.6H293v3.3h-13.6v16.6h-3.4V1392z" id="n_id_262" />
	<path d="M297.7,1392h3.4v30.6h13v3.3h-16.4V1392z" id="n_id_263" />
	<path d="M334.4,1391.2c5.1,0,9.4,1.7,12.9,5.1c3.5,3.4,5.2,7.6,5.2,12.6c0,5-1.7,9.2-5.2,12.6s-7.6,5.2-12.6,5.2   c-5,0-9.3-1.7-12.7-5.2s-5.2-7.6-5.2-12.5c0-3.3,0.8-6.3,2.4-9s3.7-5,6.4-6.5S331.3,1391.2,334.4,1391.2z M334.6,1394.5   c-2.5,0-4.9,0.7-7.1,2s-4,3.1-5.3,5.3c-1.3,2.2-1.9,4.7-1.9,7.4c0,4,1.4,7.4,4.2,10.2c2.8,2.8,6.1,4.2,10.1,4.2   c2.6,0,5.1-0.6,7.3-1.9s4-3,5.2-5.2c1.3-2.2,1.9-4.7,1.9-7.4c0-2.7-0.6-5.1-1.9-7.3c-1.3-2.2-3-3.9-5.3-5.2   S337.1,1394.5,334.6,1394.5z" id="n_id_264" />
	<path d="M374.2,1391.2c5.1,0,9.4,1.7,12.9,5.1c3.5,3.4,5.2,7.6,5.2,12.6c0,5-1.7,9.2-5.2,12.6s-7.6,5.2-12.6,5.2   c-5,0-9.3-1.7-12.7-5.2s-5.2-7.6-5.2-12.5c0-3.3,0.8-6.3,2.4-9s3.7-5,6.4-6.5S371,1391.2,374.2,1391.2z M374.4,1394.5   c-2.5,0-4.9,0.7-7.1,2s-4,3.1-5.3,5.3c-1.3,2.2-1.9,4.7-1.9,7.4c0,4,1.4,7.4,4.2,10.2c2.8,2.8,6.1,4.2,10.1,4.2   c2.6,0,5.1-0.6,7.3-1.9s4-3,5.2-5.2c1.3-2.2,1.9-4.7,1.9-7.4c0-2.7-0.6-5.1-1.9-7.3c-1.3-2.2-3-3.9-5.3-5.2   S376.9,1394.5,374.4,1394.5z" id="n_id_265" />
	<path d="M398,1392h6.7c3.8,0,6.3,0.2,7.6,0.5c2,0.5,3.6,1.4,4.9,3c1.3,1.5,1.9,3.4,1.9,5.6c0,1.8-0.4,3.5-1.3,4.9s-2.1,2.5-3.7,3.2   s-3.8,1.1-6.7,1.1l12.2,15.7h-4.2l-12.2-15.7h-1.9v15.7H398V1392z M401.4,1395.4v11.5l5.8,0c2.3,0,3.9-0.2,5-0.6   c1.1-0.4,1.9-1.1,2.5-2.1s0.9-2,0.9-3.2c0-1.1-0.3-2.2-0.9-3.1c-0.6-0.9-1.4-1.6-2.4-2c-1-0.4-2.7-0.6-5-0.6H401.4z" id="n_id_266" />
</g>
</svg>