<svg xmlns="http://www.w3.org/2000/svg" enable-background="new 0 0 792 612" height="612px" id="Layer_1" version="1.1" viewBox="0 0 792 612" width="792px" x="0px" y="0px" xml:space="preserve">
<polygon fill="#3A4B00" id="n_id_0" points="318.914,5.596 318.914,4.16 305.671,4.16 305.671,5.596 309.339,6.394 309.339,28.573   305.671,29.37 305.671,30.806 326.413,30.806 327.211,22.03 325.935,22.03 323.86,28.413 314.925,28.413 314.925,6.394 " />
<path d="M334.71,19.159c0-3.191,0.957-6.223,3.191-6.223c2.553,0,2.712,3.032,2.712,6.223H334.71z M345.081,20.754  c0.957-4.467-1.437-8.935-6.542-8.935c-5.584,0-9.095,3.83-9.095,10.052c0,5.265,2.872,9.573,8.457,9.573  c3.35,0,5.903-1.755,8.456-3.829l-0.479-1.117c-1.117,0.799-2.872,2.075-5.106,2.075c-4.147,0-5.903-2.713-6.063-7.66h10.371V20.754  z" fill="#3A4B00" id="n_id_1" />
<path d="M354.815,30.806V29.37c-0.798,0-1.597,0-2.235-0.318l3.829-5.107l3.193,4.946  c-0.799,0.32-1.597,0.479-2.394,0.479v1.436h10.53V29.37c-0.798,0-1.755,0-2.233-0.318l-5.585-8.776l5.105-5.745  c0.639-0.478,1.596-0.478,2.394-0.478v-1.438h-6.861v1.438c0.639,0,1.437,0.159,1.915,0.318l-3.509,4.627l-2.872-4.627  c0.796-0.159,1.435-0.159,2.234-0.159v-1.436h-10.531v1.436c0.637,0,1.435,0.159,2.074,0.479l5.264,8.297l-5.425,6.542  c-0.638,0.32-1.437,0.32-2.073,0.32v1.436h7.18V30.806z" fill="#3A4B00" id="n_id_2" />
<path d="M377.951,5.277c0-1.596-1.436-3.032-3.033-3.032c-1.596,0-3.031,1.436-3.031,3.032  c0,1.595,1.435,3.031,3.031,3.031C376.515,8.308,377.951,6.873,377.951,5.277z M380.184,30.806V29.37l-2.872-0.797V11.979  l-0.479-0.319c-2.074,0.957-5.105,1.755-7.658,1.915v1.436l2.871,0.798v12.766l-2.871,0.797v1.436H380.184z" fill="#3A4B00" id="n_id_3" />
<path d="M384.491,28.573l-2.552,0.797v1.436h10.053V29.37l-2.394-0.797V16.287c1.276-0.638,2.394-1.436,3.67-1.436  c1.915,0,2.553,0.957,2.553,2.872v10.69l-2.394,0.799v1.435h10.051v-1.435l-2.553-0.799V16.287c0-3.351-2.072-4.627-4.625-4.627  c-2.714,0-3.832,1.595-6.703,3.191V11.5l-0.479-0.319c-2.074,0.957-4.628,1.755-7.022,1.915v1.436l2.394,0.799V28.573z" fill="#3A4B00" id="n_id_4" />
<path d="M418.319,12.776c-1.437-0.639-2.872-0.958-4.467-0.958c-3.83,0-7.66,1.915-7.66,6.063  c0,2.393,0.956,3.989,3.191,5.106c-0.638,1.755-2.235,5.265-0.479,7.02c-2.074,0.798-3.669,1.916-3.669,4.308  c0,4.148,5.105,5.266,8.296,5.266c4.468,0,9.255-2.074,9.255-7.18c0-4.309-2.873-5.266-6.702-5.266c-2.394,0-6.542-0.16-5.743-3.83  c0.957,0.16,2.073,0.479,3.19,0.479c3.67,0,7.34-2.233,7.34-6.223c0-1.117-0.159-1.755-0.638-2.712h2.712v-2.394h-4.627V12.776z   M413.532,13.095c2.553,0,2.553,3.351,2.553,4.787c0,2.553,0,4.947-2.232,4.947c-1.916,0-2.714-1.756-2.714-4.947  C411.139,15.968,411.139,13.095,413.532,13.095z M414.968,32.243c1.756,0,4.468-0.479,4.468,1.915c0,3.031-3.03,4.147-5.744,4.147  c-2.872,0-5.425-1.755-5.425-4.786c0-1.117,0.479-2.075,1.117-3.032C410.979,32.083,412.735,32.243,414.968,32.243z" fill="#3A4B00" id="n_id_5" />
<path d="M424.701,15.489h2.553v9.573c0,2.712,0.799,6.064,4.628,6.064c2.553,0,3.988-1.276,5.904-2.873l-0.48-1.117  c-0.159,0.161-1.276,0.958-2.232,0.958c-1.277,0-2.554-0.797-2.554-3.511v-9.094h4.468v-2.075h-4.468V7.83h-1.276  c-0.957,1.915-3.19,5.106-6.542,6.224V15.489L424.701,15.489z" fill="#3A4B00" id="n_id_6" />
<path d="M448.955,13.095c2.232,0,3.668,3.032,3.668,9.095c0,3.83-0.797,7.978-3.509,7.978  c-2.873,0-3.511-4.627-3.511-9.573C445.763,16.606,446.082,13.095,448.955,13.095z M449.114,11.819  c-5.745,0-8.936,3.351-8.936,9.734c0,6.222,2.872,9.892,9.095,9.892c5.904,0,8.936-4.468,8.936-10.052  C458.209,15.33,455.337,11.819,449.114,11.819z" fill="#3A4B00" id="n_id_7" />
<path d="M463.314,28.573l-2.553,0.797v1.436h10.052V29.37l-2.394-0.797V16.287c1.276-0.638,2.394-1.436,3.67-1.436  c1.914,0,2.553,0.957,2.553,2.872v10.69l-2.393,0.799v1.435h10.052v-1.435l-2.553-0.799V16.287c0-3.351-2.075-4.627-4.628-4.627  c-2.712,0-3.829,1.595-6.701,3.191V11.5l-0.477-0.319c-2.076,0.957-4.629,1.755-7.022,1.915v1.436l2.394,0.799V28.573  L463.314,28.573z" fill="#3A4B00" id="n_id_8" />
<path d="M337.263,69.739c-0.958,0.479-2.234,0.798-3.67,0.958v0.638c0.798,0,1.596,0,2.394,0.479v12.764l-2.553,0.32  v0.639h6.862v-0.639l-2.554-0.32V69.899L337.263,69.739z" fill="#3A4B00" id="n_id_9" />
<path d="M345.242,83.781c0.159,2.073-0.799,4.308-1.756,6.382h0.957c0.958-1.597,3.191-5.106,2.713-6.862h-0.319  L345.242,83.781z" fill="#3A4B00" id="n_id_10" />
<path d="M355.293,85.216c-2.553,0-3.511-2.553-3.352-7.659c0.16-4.467,0.958-6.861,3.352-6.861  c2.552,0,3.35,2.553,3.35,7.021C358.803,82.344,358.005,85.216,355.293,85.216z M355.452,69.739c-3.988,0-5.425,3.191-5.425,8.775  c0,4.787,1.276,7.5,5.266,7.5c3.988,0,5.744-2.871,5.585-8.615C360.558,72.132,359.442,69.739,355.452,69.739z" fill="#3A4B00" id="n_id_11" />
<path d="M365.025,70.217c-0.479,2.553-1.117,5.585-1.594,7.819l0.477,0.16c0.799-0.479,1.756-0.639,2.713-0.639  c2.394,0,3.99,1.916,3.99,4.309c0,2.233-1.756,3.829-3.99,3.67c-1.914-0.161-2.872-2.076-2.392-3.192  c-0.321-0.318-0.639-0.16-1.278,0.958c-0.796,1.756,1.916,2.873,3.511,2.873c3.67,0,5.903-2.235,5.903-5.425  c0-2.873-2.074-4.627-4.788-4.627c-0.957,0-2.233,0.159-3.03,0.478c0.318-1.436,0.796-3.669,1.276-4.946h5.744v-1.436H365.025  L365.025,70.217z" fill="#3A4B00" id="n_id_12" />
<path d="M380.184,85.216c-2.553,0-3.51-2.553-3.351-7.659c0.159-4.467,0.958-6.861,3.351-6.861  c2.554,0,3.352,2.553,3.352,7.021C383.536,82.344,382.737,85.216,380.184,85.216z M380.344,69.739c-3.989,0-5.426,3.191-5.426,8.775  c0,4.787,1.276,7.5,5.266,7.5c3.989,0,5.744-2.871,5.585-8.615C385.45,72.132,384.173,69.739,380.344,69.739z" fill="#3A4B00" id="n_id_13" />
<path d="M402.683,70.377c-1.117-0.16-2.233-0.478-3.191-0.478c-3.19,0-4.947,1.914-4.947,4.307  c0,5.745,7.5,4.469,7.5,8.298c0,1.915-1.436,2.871-3.19,2.871c-0.958,0-2.715-0.479-3.192-1.436  c-0.319-0.638-0.637-1.596-0.799-2.712l-0.797,0.16l0.319,3.67c1.118,0.797,3.03,1.117,4.627,1.117c3.349,0,5.106-1.915,5.106-4.788  c0-4.468-7.5-3.511-7.5-7.659c0-1.755,1.117-2.713,2.872-2.713c1.915,0,2.711,1.437,3.032,3.032l0.797-0.16L402.683,70.377z" fill="#3A4B00" id="n_id_14" />
<path d="M414.171,75.643c-0.8-0.479-1.756-0.798-2.712-0.798c-3.352,0-5.428,2.554-5.428,5.745  c0,2.554,1.438,5.425,4.311,5.425c1.117,0,2.073-0.638,2.871-1.276l-0.159-0.638c-0.318,0.16-0.958,0.319-1.436,0.319  c-2.872,0-3.829-2.394-3.829-4.946c0-2.074,1.116-4.149,3.35-4.149c1.597,0,2.394,1.437,2.394,2.873v11.169l-2.233,0.318v0.639  h6.063v-0.639l-1.914-0.318V78.036c0-1.117,0-2.075,0.159-3.192l-0.318-0.318L414.171,75.643z" fill="#3A4B00" id="n_id_15" />
<path d="M420.553,86.014c0.638,0,1.276-0.638,1.276-1.276c0-0.638-0.639-1.277-1.276-1.277  c-0.639,0-1.276,0.639-1.276,1.277C419.276,85.375,419.914,86.014,420.553,86.014z" fill="#3A4B00" id="n_id_16" />
<path d="M440.179,79.951h0.638c-0.159-1.276-0.159-3.352,0-4.467h-0.638l-0.479,1.595h-4.467v-5.744h5.106  l0.478,2.394h0.799l-0.32-3.511h-10.689v0.798l2.394,0.319v13.243l-2.394,0.319v0.799h7.021v-0.799l-2.394-0.319v-6.381h4.467  L440.179,79.951z" fill="#3A4B00" id="n_id_17" />
<path d="M443.21,76.76h1.596v6.383c0,2.073,1.276,2.871,2.553,2.871c0.639,0,1.276,0,1.756-0.478l1.276-1.437  l-0.32-0.479c-0.478,0.479-1.115,0.958-1.754,0.958c-1.277,0-1.755-0.797-1.755-2.394V76.76h3.35v-1.117h-3.35v-3.19h-0.479  c-0.479,1.595-1.596,3.032-3.031,3.509v0.798H443.21z" fill="#3A4B00" id="n_id_18" />
<path d="M454.061,86.014c0.638,0,1.276-0.638,1.276-1.276c0-0.638-0.639-1.277-1.276-1.277  c-0.639,0-1.276,0.639-1.276,1.277C452.784,85.375,453.422,86.014,454.061,86.014z" fill="#3A4B00" id="n_id_19" />
<path d="M273.28,62.718v0.797h7.18v-0.797l-2.553-0.319V49.156h2.873c0.798,0,1.595,0,2.394,0.159l0.478,2.553h0.798  l-0.16-3.83H269.61l-0.479,3.83h0.798l0.797-2.553c0.638,0,1.436-0.159,2.233-0.159h2.713v13.243L273.28,62.718z" fill="#3A4B00" id="n_id_20" />
<polygon fill="#3A4B00" id="n_id_21" points="288.758,53.464 288.758,52.666 283.172,52.666 283.172,53.464 284.768,53.783 288.437,63.676   289.076,63.676 292.107,56.017 294.98,63.676 295.778,63.676 299.607,53.783 301.042,53.464 301.042,52.666 296.416,52.666   296.416,53.464 298.331,53.783 295.778,60.644 292.905,52.666 292.267,52.666 289.235,60.644 286.841,53.783 " />
<path d="M304.393,57.612c0-2.074,0.639-4.308,3.031-4.308c2.874,0,3.511,3.191,3.511,5.425  c0,2.074-0.637,4.308-3.191,4.308C305.191,63.038,304.393,59.527,304.393,57.612z M307.585,63.676c3.67,0,5.425-2.234,5.425-5.744  c0-3.352-1.755-5.425-5.266-5.425c-3.509,0-5.266,2.233-5.266,5.584C302.319,61.282,304.234,63.676,307.585,63.676z" fill="#3A4B00" id="n_id_22" />
<path d="M327.849,63.356c3.032,0,4.946-1.755,4.946-4.308c0-2.712-2.394-3.989-4.148-3.829l0,0l0,0  c1.755-0.639,3.191-1.915,3.191-3.989c0-3.032-2.554-3.351-4.946-3.351h-6.224v0.797l2.235,0.319v13.243l-2.235,0.32v0.797H327.849z   M324.977,48.677c0.319,0,0.798-0.161,1.276-0.161c1.915,0,3.352,0.799,3.352,3.192c0,2.074-0.958,3.031-3.191,3.191  c-0.479,0-0.958,0-1.437,0V48.677z M324.977,55.857c0.319,0,0.637-0.159,1.117-0.159c2.394,0,4.627,1.117,4.627,3.829  c0,2.074-0.957,3.191-3.191,3.191c-0.798,0-1.755-0.319-2.553-0.479V55.857z" fill="#3A4B00" id="n_id_23" />
<path d="M336.625,56.177c0.159-1.437,1.116-3.032,2.712-3.032c1.755,0,2.553,1.276,2.394,3.032H336.625z   M342.848,56.815c0.638,0,0.957,0,0.957-0.958c0-1.915-1.755-3.51-3.989-3.51c-2.712,0-4.946,1.915-4.946,5.585  c0,3.669,2.234,5.583,4.946,5.583c1.117,0,1.915-0.159,2.074-0.318l2.553-2.712l-0.477-0.479c-0.799,0.957-1.916,1.915-3.352,1.915  c-2.872,0-3.988-2.394-3.988-5.266h6.223V56.815z" fill="#3A4B00" id="n_id_24" />
<path d="M353.539,53.145c-0.48-0.319-1.437-0.638-2.394-0.638c-2.873,0-5.106,2.074-5.106,5.744  c0,2.074,1.596,5.425,3.989,5.425c1.117,0,2.235-0.798,3.511-1.755v1.595l0.159,0.16c1.118-0.319,2.235-0.638,3.511-0.958V62.08  c-1.597-0.16-1.756-0.16-1.756-0.479V46.125l-0.479-0.161c-0.957,0.479-2.233,0.799-3.351,0.958v0.638  c0.639,0,1.276,0.159,1.916,0.479V53.145L353.539,53.145z M353.539,61.123c-0.639,0.478-1.437,0.957-2.235,0.957  c-1.915,0-3.351-2.233-3.351-4.946c0-1.755,0.798-4.148,2.872-4.148c1.437,0,2.713,0.957,2.713,2.393V61.123z" fill="#3A4B00" id="n_id_25" />
<path d="M361.196,52.507c-0.957,0.479-2.233,0.797-3.351,0.957v0.638c0.639,0,1.276,0.16,1.916,0.479v7.819  l-2.074,0.319v0.638h6.221v-0.638l-2.392-0.319v-5.425c0-0.479,1.116-2.712,2.392-2.712c0.321,0,0.799,0.318,1.117,0.478h0.319  l0.32-1.754c-0.32-0.32-0.639-0.479-1.118-0.479c-1.116,0-2.074,1.436-2.553,2.394l-0.478,0.638v-2.873L361.196,52.507z" fill="#3A4B00" id="n_id_26" />
<path d="M368.854,57.612c0-2.074,0.639-4.308,3.033-4.308c2.872,0,3.511,3.191,3.511,5.425  c0,2.074-0.639,4.308-3.191,4.308S368.854,59.527,368.854,57.612z M372.046,63.676c3.67,0,5.426-2.234,5.426-5.744  c0-3.352-1.756-5.425-5.266-5.425c-3.511,0-5.266,2.233-5.266,5.584C366.941,61.282,368.695,63.676,372.046,63.676z" fill="#3A4B00" id="n_id_27" />
<path d="M381.301,57.612c0-2.074,0.638-4.308,3.031-4.308c2.874,0,3.511,3.191,3.511,5.425  c0,2.074-0.637,4.308-3.191,4.308S381.301,59.527,381.301,57.612z M384.491,63.676c3.67,0,5.426-2.234,5.426-5.744  c0-3.352-1.756-5.425-5.266-5.425s-5.266,2.233-5.266,5.584C379.386,61.282,381.142,63.676,384.491,63.676z" fill="#3A4B00" id="n_id_28" />
<path d="M395.342,55.06c0.796-0.638,1.755-0.958,2.873-0.958c2.394,0,2.234,1.915,2.234,3.83v4.627l-1.917,0.318  v0.638h5.746v-0.638l-1.917-0.318v-7.34c0.8-0.639,1.758-0.957,2.875-0.957c2.393,0,2.232,1.915,2.232,3.829v4.627l-1.914,0.319  v0.638h5.742v-0.638l-1.913-0.319v-6.382c0-2.234-0.798-3.51-3.829-3.51c-0.318,0-0.8,0.16-1.436,0.638l-1.758,1.276  c-0.636-1.117-1.753-1.754-3.188-1.754c-0.958,0-1.277,0.159-1.917,0.638l-1.753,1.277v-1.755l-0.481-0.159  c-0.956,0.478-2.232,0.797-3.349,0.957v0.638c0.638,0,1.276,0.16,1.914,0.479v7.818l-1.914,0.32v0.638h5.743v-0.638l-1.912-0.32  V55.06H395.342z" fill="#3A4B00" id="n_id_29" />
<polygon fill="#3A4B00" id="n_id_30" points="420.075,45.964 418.796,45.964 412.576,68.144 413.691,68.144 " />
<path d="M425.02,62.718v0.797h7.181v-0.797l-2.553-0.319V49.156h2.872c0.798,0,1.597,0,2.393,0.159l0.48,2.553h0.797  l-0.16-3.83h-14.681l-0.477,3.83h0.798l0.797-2.553c0.639,0,1.438-0.159,2.234-0.159h2.712v13.243L425.02,62.718z" fill="#3A4B00" id="n_id_31" />
<polygon fill="#3A4B00" id="n_id_32" points="440.657,53.464 440.657,52.666 434.912,52.666 434.912,53.464 436.669,53.783 440.339,63.676   440.976,63.676 443.85,56.017 446.721,63.676 447.518,63.676 451.347,53.783 452.784,53.464 452.784,52.666 448.156,52.666   448.156,53.464 450.07,53.783 447.679,60.644 444.806,52.666 444.168,52.666 441.136,60.644 438.742,53.783 " />
<path d="M456.134,57.612c0-2.074,0.639-4.308,3.032-4.308c2.872,0,3.51,3.191,3.51,5.425  c0,2.074-0.638,4.308-3.19,4.308S456.134,59.527,456.134,57.612z M459.326,63.676c3.671,0,5.424-2.234,5.424-5.744  c0-3.352-1.753-5.425-5.265-5.425c-3.511,0-5.266,2.233-5.266,5.584C454.22,61.282,455.975,63.676,459.326,63.676z" fill="#3A4B00" id="n_id_33" />
<path d="M479.749,63.356c3.033,0,4.946-1.755,4.946-4.308c0-2.712-2.394-3.989-4.148-3.829l0,0l0,0  c1.755-0.639,3.19-1.915,3.19-3.989c0-3.032-2.553-3.351-4.946-3.351h-6.223v0.797l2.234,0.319v13.243l-2.234,0.32v0.797H479.749z   M476.877,48.677c0.32,0,0.797-0.161,1.276-0.161c1.914,0,3.353,0.799,3.353,3.192c0,2.074-0.959,3.031-3.193,3.191  c-0.477,0-0.957,0-1.436,0V48.677z M476.877,55.857c0.32,0,0.638-0.159,1.118-0.159c2.394,0,4.625,1.117,4.625,3.829  c0,2.074-0.955,3.191-3.19,3.191c-0.798,0-1.756-0.319-2.553-0.479V55.857z" fill="#3A4B00" id="n_id_34" />
<path d="M492.513,57.612c-1.116,0.32-2.394,0.798-3.67,1.277c-0.955,0.319-2.394,0.797-2.394,2.712  c0,0.798,0.641,2.234,2.394,2.234c1.438,0,2.715-0.798,3.83-1.596v1.437l0.161,0.16c1.276-0.479,2.553-0.798,3.67-0.958v-0.478  l-1.757-0.319v-6.542c0-1.915-1.117-2.713-2.552-2.713c-0.318,0-0.479,0-0.799,0.16l-2.713,1.436  c-0.317,0.159-1.276,0.638-1.276,1.117l-0.159,1.436l0.159,0.16l1.276-0.319c0.159,0,0.48,0,0.319-0.319  c0-1.117,0.48-2.394,1.916-2.394c0.958,0,1.594,0.479,1.594,2.234V57.612z M492.513,61.442c-0.636,0.479-1.753,0.958-2.553,0.958  c-0.957,0-1.594-0.479-1.594-1.276c0-1.596,2.074-1.915,4.146-2.873V61.442z" fill="#3A4B00" id="n_id_35" />
<path d="M497.459,54.421h1.599v6.382c0,2.074,1.276,2.872,2.553,2.872c0.636,0,1.276,0,1.754-0.479l1.276-1.436  l-0.318-0.479c-0.48,0.479-1.117,0.957-1.756,0.957c-1.276,0-1.755-0.797-1.755-2.393v-5.425h3.352v-1.117h-3.352v-3.191h-0.478  c-0.481,1.596-1.597,3.032-3.034,3.51v0.798H497.459z" fill="#3A4B00" id="n_id_36" />
<path d="M509.109,45.964c-0.958,0.479-2.234,0.799-3.352,0.958v0.638c0.637,0,1.276,0.159,1.913,0.479v14.52  l-1.913,0.318v0.638h5.742v-0.638l-1.913-0.318v-7.34c0.799-0.639,1.755-0.957,2.872-0.957c2.394,0,2.234,1.915,2.234,3.829v4.627  l-1.917,0.319v0.638h5.746v-0.638l-1.915-0.319v-6.382c0-2.234-0.797-3.51-3.831-3.51c-0.159,0-0.636,0.16-0.796,0.16  c-0.318,0.159-1.276,0.797-2.394,1.595v-8.297L509.109,45.964z" fill="#3A4B00" id="n_id_37" />
<ellipse cx="681.91" cy="293.601" fill="none" id="n_id_38" rx="8.936" ry="11.169" stroke="#3A4B00" stroke-miterlimit="3.8636" />
<polygon fill="#3A4B00" id="n_id_39" points="703.453,158.295 83.563,158.295 83.563,460.818 164.3,460.818 164.3,452.682 91.86,452.682   91.86,285.624 202.276,285.624 202.276,278.762 173.396,278.762 173.396,272.539 164.779,272.539 164.779,278.762 91.382,278.762   91.382,164.518 166.215,164.518 166.215,235.681 174.353,235.681 174.353,221.64 179.14,221.64 179.14,213.502 174.353,213.502   174.353,164.039 260.354,164.039 260.354,213.502 253.654,213.502 253.654,220.682 268.493,220.682 268.493,163.56 544.53,163.56   544.53,205.365 552.189,205.365 552.189,164.518 604.525,164.518 604.525,245.254 552.189,245.254 552.189,239.51 544.53,239.51   544.53,245.254 498.896,245.254 498.896,293.282 507.992,293.282 507.992,285.624 504.163,285.624 504.163,251.477 533.999,251.477   533.999,285.144 529.214,285.144 529.214,291.846 534.479,291.846 534.479,334.928 527.298,342.268 533.043,348.011   538.308,342.745 616.492,342.745 616.492,331.098 608.355,331.098 608.355,336.522 542.615,336.522 542.615,292.803   549.317,292.803 549.317,253.391 609.311,253.391 609.311,299.025 617.449,299.025 617.449,252.914 631.012,252.914   631.012,245.254 610.748,245.254 610.748,163.56 696.272,163.56 696.272,244.297 661.646,244.297 661.646,251.956 695.313,251.956   695.313,338.436 660.688,338.436 660.688,345.139 695.313,345.139 695.313,512.676 623.832,512.676 623.832,520.813   702.974,520.813 " />
<polygon fill="none" id="n_id_40" points="703.453,158.295 83.563,158.295   83.563,460.818 164.3,460.818 164.3,452.682 91.86,452.682 91.86,285.624 202.276,285.624 202.276,278.762 173.396,278.762   173.396,272.539 164.779,272.539 164.779,278.762 91.382,278.762 91.382,164.518 166.215,164.518 166.215,235.681 174.353,235.681   174.353,221.64 179.14,221.64 179.14,213.502 174.353,213.502 174.353,164.039 260.354,164.039 260.354,213.502 253.654,213.502   253.654,220.682 268.493,220.682 268.493,163.56 544.53,163.56 544.53,205.365 552.189,205.365 552.189,164.518 604.525,164.518   604.525,245.254 552.189,245.254 552.189,239.51 544.53,239.51 544.53,245.254 498.896,245.254 498.896,293.282 507.992,293.282   507.992,285.624 504.163,285.624 504.163,251.477 533.999,251.477 533.999,285.144 529.214,285.144 529.214,291.846   534.479,291.846 534.479,334.928 527.298,342.268 533.043,348.011 538.308,342.745 616.492,342.745 616.492,331.098   608.355,331.098 608.355,336.522 542.615,336.522 542.615,292.803 549.317,292.803 549.317,253.391 609.311,253.391   609.311,299.025 617.449,299.025 617.449,252.914 631.012,252.914 631.012,245.254 610.748,245.254 610.748,163.56 696.272,163.56   696.272,244.297 661.646,244.297 661.646,251.956 695.313,251.956 695.313,338.436 660.688,338.436 660.688,345.139   695.313,345.139 695.313,512.676 623.832,512.676 623.832,520.813 702.974,520.813 " stroke="#3A4B00" stroke-miterlimit="3.8636" stroke-width="1.6173" />
<polygon fill="#3A4B00" id="n_id_41" points="579.154,521.771 505.599,521.771 505.599,527.036 497.94,527.036 497.94,381.519 505.119,374.338   509.428,378.646 504.163,383.912 504.163,513.155 579.154,513.155 " />
<polygon fill="none" id="n_id_42" points="579.154,521.771 505.599,521.771   505.599,527.036 497.94,527.036 497.94,381.519 505.119,374.338 509.428,378.646 504.163,383.912 504.163,513.155 579.154,513.155   " stroke="#3A4B00" stroke-miterlimit="3.8636" stroke-width="1.6173" />
<polygon fill="#3A4B00" id="n_id_43" points="496.982,569.161 496.982,575.063 483.1,575.063 483.1,580.809 505.119,580.809 505.119,569.32 " />
<polygon fill="none" id="n_id_44" points="496.982,569.161 496.982,575.063   483.1,575.063 483.1,580.809 505.119,580.809 505.119,569.32 " stroke="#3A4B00" stroke-miterlimit="3.8636" stroke-width="1.6173" />
<polygon fill="#3A4B00" id="n_id_45" points="447.039,574.586 422.628,574.586 422.628,604.424 358.803,604.424 358.803,574.105 333.752,574.105   333.752,581.287 350.984,581.287 350.984,612.082 430.765,612.082 430.765,580.809 447.039,580.809 " />
<polygon fill="none" id="n_id_46" points="447.039,574.586 422.628,574.586   422.628,604.424 358.803,604.424 358.803,574.105 333.752,574.105 333.752,581.287 350.984,581.287 350.984,612.082   430.765,612.082 430.765,580.809 447.039,580.809 " stroke="#3A4B00" stroke-miterlimit="3.8636" stroke-width="1.6173" />
<polygon fill="#3A4B00" id="n_id_47" points="277.588,514.591 277.588,581.287 297.213,581.287 297.213,574.586 283.811,574.586 283.811,514.591   " />
<polygon fill="none" id="n_id_48" points="277.588,514.591 277.588,581.287   297.213,581.287 297.213,574.586 283.811,574.586 283.811,514.591 " stroke="#3A4B00" stroke-miterlimit="3.8636" stroke-width="1.6173" />
<polygon fill="#3A4B00" id="n_id_49" points="277.588,460.818 200.361,460.818 200.361,453.16 243.441,453.16 243.441,389.654 252.696,389.654   252.696,395.56 278.545,395.56 278.545,322.481 252.696,322.481 252.696,326.311 243.92,326.311 243.92,284.665 239.612,284.665   239.612,277.327 252.217,277.327 252.217,314.343 285.247,314.343 285.247,415.664 278.066,415.664 278.066,401.782   251.738,401.782 251.738,452.682 278.066,452.682 278.066,445.501 284.768,445.501 284.768,467.52 277.588,467.52 " />
<polygon fill="none" id="n_id_50" points="277.588,460.818 200.361,460.818   200.361,453.16 243.441,453.16 243.441,389.654 252.696,389.654 252.696,395.56 278.545,395.56 278.545,322.481 252.696,322.481   252.696,326.311 243.92,326.311 243.92,284.665 239.612,284.665 239.612,277.327 252.217,277.327 252.217,314.343 285.247,314.343   285.247,415.664 278.066,415.664 278.066,401.782 251.738,401.782 251.738,452.682 278.066,452.682 278.066,445.501   284.768,445.501 284.768,467.52 277.588,467.52 " stroke="#3A4B00" stroke-miterlimit="3.8636" stroke-width="1.6173" />
<polygon fill="none" id="n_id_51" points="357.048,574.903 364.708,574.903 377.153,598.041   403.161,598.041 414.649,574.744 421.352,574.744 408.425,603.784 373.322,603.784 " stroke="#3A4B00" stroke-miterlimit="3.8636" />
<rect fill="none" height="27.285" id="n_id_52" stroke="#3A4B00" stroke-miterlimit="3.8636" width="34.626" x="560.326" y="175.686" />
<polyline fill="none" id="n_id_53" points="397.098,163.56 397.098,195.791 495.547,195.791 " stroke="#3A4B00" stroke-miterlimit="3.8636" />
<polyline fill="none" id="n_id_54" points="495.547,162.124 495.547,204.407 545.488,204.407 " stroke="#3A4B00" stroke-miterlimit="3.8636" />
<polyline fill="none" id="n_id_55" points="498.896,246.212 393.268,246.212 393.268,273.975   498.418,273.975 " stroke="#3A4B00" stroke-miterlimit="3.8636" />
<path d="M498.896,292.803h-97.97c0,0-8.136,0.479-8.136-6.223v-12.446" fill="none" id="n_id_56" stroke="#3A4B00" stroke-miterlimit="3.8636" />
<line fill="none" id="n_id_57" stroke="#3A4B00" stroke-miterlimit="3.8636" x1="425.978" x2="425.978" y1="245.254" y2="274.454" />
<line fill="none" id="n_id_58" stroke="#3A4B00" stroke-miterlimit="3.8636" x1="467.784" x2="467.784" y1="245.732" y2="274.933" />
<line fill="none" id="n_id_59" stroke="#3A4B00" stroke-miterlimit="3.8636" x1="549.317" x2="610.268" y1="253.871" y2="292.803" />
<line fill="none" id="n_id_60" stroke="#3A4B00" stroke-miterlimit="3.8636" x1="608.833" x2="548.838" y1="252.914" y2="292.324" />
<line fill="none" id="n_id_61" stroke="#3A4B00" stroke-miterlimit="3.8636" x1="666.912" x2="666.912" y1="250.52" y2="338.916" />
<circle cx="585.377" cy="231.851" fill="none" id="n_id_62" r="11.01" stroke="#3A4B00" stroke-miterlimit="3.8636" />
<line fill="none" id="n_id_63" stroke="#3A4B00" stroke-miterlimit="3.8636" x1="626.703" x2="626.703" y1="162.602" y2="245.254" />
<line fill="none" id="n_id_64" stroke="#3A4B00" stroke-miterlimit="3.8636" x1="679.517" x2="679.517" y1="162.602" y2="243.818" />
<line fill="none" id="n_id_65" stroke="#3A4B00" stroke-miterlimit="3.8636" x1="549.317" x2="609.311" y1="292.324" y2="292.324" />
<line fill="none" id="n_id_66" stroke="#3A4B00" stroke-miterlimit="3.8636" x1="264.345" x2="264.345" y1="321.524" y2="395.081" />
<line fill="none" id="n_id_67" stroke="#3A4B00" stroke-miterlimit="3.8636" x1="264.345" x2="264.345" y1="401.305" y2="452.682" />
<line fill="none" id="n_id_68" stroke="#3A4B00" stroke-dasharray="2,2" stroke-miterlimit="3.8636" x1="395.024" x2="424.701" y1="246.691" y2="273.496" />
<line fill="none" id="n_id_69" stroke="#3A4B00" stroke-dasharray="2,2" stroke-miterlimit="3.8636" x1="394.704" x2="425.02" y1="272.539" y2="246.691" />
<rect fill="none" height="32.71" id="n_id_70" stroke="#3A4B00" stroke-miterlimit="3.8636" width="37.495" x="428.851" y="163.081" />
<rect fill="none" height="38.933" id="n_id_71" stroke="#3A4B00" stroke-dasharray="4,4" stroke-miterlimit="3.8636" width="36.539" x="178.501" y="167.23" />
<path d="M236.262,181.111v0.638l1.595,0.32c-0.16,0.638-0.319,1.276-0.638,2.074l-2.233,6.541l-2.394-8.615  l1.595-0.32v-0.638h-4.627v0.638l1.276,0.32l3.191,11.488h0.798l3.031-8.935l2.872,8.935h0.957l3.67-11.488l1.117-0.32v-0.638  h-3.989v0.638l1.755,0.32l-2.713,8.615l-2.074-6.7c-0.159-0.639-0.319-1.277-0.479-1.755l1.755-0.32v-0.638h-4.467V181.111z" fill="#3A4B00" id="n_id_72" />
<path d="M188.553,193.875h6.224c3.989,0,7.179-1.915,7.179-6.381c0-4.309-3.19-5.745-6.861-5.745h-6.542v0.638  l1.755,0.319v10.372l-1.755,0.319V193.875z M191.904,182.547c0.798,0,1.436-0.159,2.235-0.159c3.668,0,5.903,1.597,5.903,5.744  c0,3.352-2.074,5.105-4.946,5.105c-1.117,0-2.074-0.159-3.032-0.318v-10.372H191.904z" fill="#3A4B00" id="n_id_73" />
<rect fill="none" height="39.091" id="n_id_74" stroke="#3A4B00" stroke-dasharray="4,4" stroke-miterlimit="3.8636" width="36.539" x="220.146" y="167.389" />
<ellipse cx="120.581" cy="225.15" fill="none" id="n_id_75" rx="10.85" ry="7.02" stroke="#3A4B00" stroke-miterlimit="3.8636" />
<rect fill="none" height="25.369" id="n_id_76" stroke="#3A4B00" stroke-miterlimit="3.8636" width="10.052" x="95.69" y="212.385" />
<ellipse cx="103.828" cy="261.689" fill="none" id="n_id_77" rx="8.935" ry="11.169" stroke="#3A4B00" stroke-miterlimit="3.8636" />
<polyline fill="none" id="n_id_78" points="90.903,246.212 115.794,246.212 115.794,278.283 " stroke="#3A4B00" stroke-miterlimit="3.8636" />
<path d="M161.428,179.037c0,0-35.422-12.605-64.302-3.351v20.105  c0,0,24.094,11.01,64.463-0.957L161.428,179.037z" fill="none" id="n_id_79" stroke="#3A4B00" stroke-miterlimit="3.8636" />
<circle cx="439.699" cy="172.655" fill="none" id="n_id_80" r="5.744" stroke="#3A4B00" stroke-miterlimit="3.8636" />
<circle cx="439.699" cy="186.696" fill="none" id="n_id_81" r="4.627" stroke="#3A4B00" stroke-miterlimit="3.8636" />
<circle cx="456.293" cy="186.696" fill="none" id="n_id_82" r="5.744" stroke="#3A4B00" stroke-miterlimit="3.8636" />
<circle cx="456.293" cy="172.655" fill="none" id="n_id_83" r="4.787" stroke="#3A4B00" stroke-miterlimit="3.8636" />
<path d="M428.689,254.509c0-2.712,2.234-4.946,4.946-4.946h6.703  c2.712,0,4.946,2.234,4.946,4.946v10.69c0,2.712-2.234,4.946-4.946,4.946h-6.703c-2.712,0-4.946-2.234-4.946-4.946V254.509z" fill="none" id="n_id_84" stroke="#3A4B00" stroke-miterlimit="3.8636" />
<path d="M448.316,254.509c0-2.712,2.233-4.946,4.946-4.946h7.18  c2.713,0,4.948,2.234,4.948,4.946v10.211c0,2.713-2.235,4.946-4.948,4.946h-7.18c-2.713,0-4.946-2.233-4.946-4.946V254.509z" fill="none" id="n_id_85" stroke="#3A4B00" stroke-miterlimit="3.8636" />
<ellipse cx="571.018" cy="316.418" fill="none" id="n_id_86" rx="10.85" ry="7.021" stroke="#3A4B00" stroke-miterlimit="3.8636" />
<rect fill="none" height="25.37" id="n_id_87" stroke="#3A4B00" stroke-miterlimit="3.8636" width="10.052" x="546.126" y="303.654" />
<polyline fill="none" id="n_id_88" points="702.974,520.813 702.974,596.603 504.96,596.603   505.119,581.287 " stroke="#3A4B00" stroke-miterlimit="3.8636" />
<line fill="none" id="n_id_89" stroke="#3A4B00" stroke-miterlimit="3.8636" stroke-width="2" x1="297.213" x2="333.752" y1="577.937" y2="577.937" />
<line fill="none" id="n_id_90" stroke="#3A4B00" stroke-miterlimit="3.8636" stroke-width="2" x1="446.241" x2="482.782" y1="578.415" y2="578.415" />
<line fill="none" id="n_id_91" stroke="#3A4B00" stroke-miterlimit="3.8636" stroke-width="2" x1="580.271" x2="623.513" y1="516.825" y2="516.825" />
<line fill="none" id="n_id_92" stroke="#3A4B00" stroke-miterlimit="3.8636" stroke-width="2" x1="164.141" x2="200.68" y1="456.511" y2="456.511" />
<line fill="none" id="n_id_93" stroke="#3A4B00" stroke-miterlimit="3.8636" x1="91.382" x2="166.215" y1="207.279" y2="207.279" />
<line fill="none" id="n_id_94" stroke="#3A4B00" stroke-dasharray="4,4" stroke-miterlimit="3.8636" x1="285.247" x2="532.563" y1="337.48" y2="337.48" />
<line fill="none" id="n_id_95" stroke="#3A4B00" stroke-dasharray="4,4" stroke-miterlimit="3.8636" x1="285.247" x2="530.649" y1="344.659" y2="344.659" />
<line fill="none" id="n_id_96" stroke="#3A4B00" stroke-miterlimit="3.8636" x1="496.504" x2="544.53" y1="196.11" y2="196.11" />
<polyline fill="none" id="n_id_97" points="179.14,219.884 189.67,236.159 198.766,219.406 " stroke="#3A4B00" stroke-miterlimit="3.8636" />
<polyline fill="none" id="n_id_98" points="233.868,219.884 244.4,236.159 253.494,219.406 " stroke="#3A4B00" stroke-miterlimit="3.8636" />
<polyline fill="none" id="n_id_99" points="170.203,271.422 136.058,271.422 170.203,237.277 " stroke="#3A4B00" stroke-miterlimit="3.8636" />
<polyline fill="none" id="n_id_100" points="240.25,285.624 240.25,321.046 201.477,282.271 " stroke="#3A4B00" stroke-miterlimit="3.8636" />
<polyline fill="none" id="n_id_101" points="283.811,415.664 313.168,415.664 282.853,445.979 " stroke="#3A4B00" stroke-miterlimit="3.8636" />
<polyline fill="none" id="n_id_102" points="283.811,513.155 328.966,513.155 283.332,467.52 " stroke="#3A4B00" stroke-miterlimit="3.8636" />
<polyline fill="none" id="n_id_103" points="497.459,568.84 452.784,568.84 496.982,524.643 " stroke="#3A4B00" stroke-miterlimit="3.8636" />
<polyline fill="none" id="n_id_104" points="357.368,573.15 357.368,556.874 420.872,556.874   420.872,575.384 " stroke="#3A4B00" stroke-miterlimit="3.8636" />
<polyline fill="none" id="n_id_105" points="535.437,347.053 539.266,398.431 509.906,378.167 " stroke="#3A4B00" stroke-miterlimit="3.8636" />
<polyline fill="none" id="n_id_106" points="609.311,331.576 581.069,331.576 613.142,299.505 " stroke="#3A4B00" stroke-miterlimit="3.8636" />
<polyline fill="none" id="n_id_107" points="631.49,247.648 631.49,280.198 662.126,249.563 " stroke="#3A4B00" stroke-miterlimit="3.8636" />
<polyline fill="none" id="n_id_108" points="530.17,292.324 530.17,313.865 507.513,291.367 " stroke="#3A4B00" stroke-miterlimit="3.8636" />
<polyline fill="none" id="n_id_109" points="545.967,237.595 509.906,237.595 544.53,202.971 " stroke="#3A4B00" stroke-miterlimit="3.8636" />
<path d="M246.154,327.107l-10.052,20.584c0,0,2.393,6.701,10.53,9.095" fill="none" id="n_id_110" stroke="#3A4B00" stroke-miterlimit="3.8636" />
<path d="M245.676,388.858l-10.052-20.584c0,0,2.394-6.701,10.531-9.095" fill="none" id="n_id_111" stroke="#3A4B00" stroke-miterlimit="3.8636" />
<polygon fill="#3A4B00" id="n_id_112" points="341.251,448.532 349.869,448.532 350.665,445.183 350.027,445.183 349.07,447.577 344.603,447.577   344.603,437.363 346.357,437.044 346.357,436.407 341.251,436.407 341.251,437.044 342.848,437.363 342.848,447.735   341.251,448.055 " />
<path d="M354.815,437.204c0-0.479-0.32-0.955-0.958-0.955c-0.479,0-0.798,0.477-0.798,0.955  c0,0.479,0.48,0.798,0.798,0.798C354.335,438.002,354.815,437.684,354.815,437.204z M356.409,448.532v-0.478l-1.755-0.319v-7.499  l-0.479-0.158c-0.637,0.317-1.755,0.637-2.553,0.637v0.478c0.479,0,1.118,0.161,1.595,0.32v6.223l-1.753,0.319v0.478H356.409  L356.409,448.532z" fill="#3A4B00" id="n_id_113" />
<polygon fill="#3A4B00" id="n_id_114" points="357.048,440.236 357.048,440.874 358.326,441.033 361.355,448.853 362.155,448.853 365.185,441.033   366.302,440.874 366.302,440.236 362.792,440.236 362.792,440.874 364.229,441.033 362.155,446.618 359.92,441.033 361.355,440.874   361.355,440.236 " />
<path d="M370.292,437.204c0-0.479-0.32-0.955-0.957-0.955c-0.48,0-0.798,0.477-0.798,0.955  c0,0.479,0.479,0.798,0.798,0.798C369.813,438.002,370.292,437.684,370.292,437.204z M371.887,448.532v-0.478l-1.755-0.319v-7.499  l-0.479-0.158c-0.639,0.317-1.755,0.637-2.553,0.637v0.478c0.477,0,1.116,0.161,1.594,0.32v6.223l-1.754,0.319v0.478H371.887  L371.887,448.532z" fill="#3A4B00" id="n_id_115" />
<path d="M375.716,441.991c0.639-0.479,1.437-0.799,2.234-0.799c1.755,0,1.755,1.597,1.755,3.032v3.511l-1.437,0.319  v0.478h4.468v-0.478l-1.436-0.319v-4.946c0-1.756-0.639-2.711-3.033-2.711c-0.159,0-0.477,0-0.637,0.158  c-0.159,0.159-0.957,0.638-1.915,1.276v-1.276l-0.478-0.158c-0.64,0.317-1.756,0.637-2.554,0.637v0.478  c0.479,0,1.117,0.161,1.596,0.32v6.223l-1.436,0.319v0.478h4.467v-0.478l-1.436-0.319v-5.744H375.716z" fill="#3A4B00" id="n_id_116" />
<path d="M384.333,448.532c-0.479,0.159-0.797,0.159-0.797,1.436c0,1.758,1.914,2.394,3.51,2.394  c1.755,0,4.627-0.636,4.627-2.871c0-1.755-1.596-2.234-3.031-2.234c-0.798,0-2.553,0-2.553-1.117l0.638-0.478l0.319-0.16  c1.755,0.16,3.351-0.957,3.351-2.712c0-0.479-0.16-0.958-0.479-1.436c0.479,0.159,1.276,0.318,1.436,0.159  c0.639-0.32,0.16-1.117,0.16-0.958l-1.754,0.16h-0.48c-0.638-0.16-1.276-0.319-1.914-0.319c-1.756,0-3.032,0.958-3.032,2.712  c0,1.117,0.798,2.075,1.915,2.394l-1.596,0.8c-0.319,0.955,0.479,1.754,1.276,2.072L384.333,448.532z M387.206,440.555  c1.276,0,1.594,1.437,1.753,2.394c0,0.797-0.477,1.755-1.436,1.755c-1.276,0-1.755-1.436-1.755-2.553  C385.609,441.513,386.088,440.555,387.206,440.555z M387.365,451.726c-1.117,0-2.553-0.32-2.553-1.758  c0-1.436,1.595-1.595,2.712-1.595c0.958,0,2.872,0.318,2.872,1.436C390.236,451.244,388.482,451.726,387.365,451.726z" fill="#3A4B00" id="n_id_117" />
<path d="M397.256,448.055v0.637h5.268v-0.637l-1.756-0.319v-4.309c0.639,0,1.276,0,1.915,0  c1.117,1.598,2.394,3.351,3.67,4.787c0.16,0.159,0.796,0.318,1.116,0.318l1.276,0.32l0.16-0.479  c-1.116-0.479-1.915-1.596-2.553-2.394l-2.233-3.031c1.276-0.798,2.233-2.074,2.233-3.511c0-2.074-1.598-3.03-3.351-3.03h-5.746  v0.637l1.757,0.319v10.372L397.256,448.055z M400.768,437.204c0.317,0,0.639-0.16,0.958-0.16c1.912,0,3.029,1.117,3.029,3.034  c0,2.391-0.955,2.552-3.189,2.552c-0.319,0-0.48,0-0.798,0V437.204z" fill="#3A4B00" id="n_id_118" />
<path d="M411.459,444.065c0-1.597,0.478-3.351,2.394-3.351c2.232,0,2.712,2.553,2.712,4.31  c0,1.594-0.479,3.349-2.553,3.349C412.096,448.214,411.459,445.661,411.459,444.065z M413.853,448.853  c2.871,0,4.147-1.756,4.147-4.468c0-2.554-1.436-4.307-4.147-4.307c-2.714,0-4.151,1.753-4.151,4.307  C409.862,446.938,411.299,448.853,413.853,448.853z" fill="#3A4B00" id="n_id_119" />
<path d="M421.19,444.065c0-1.597,0.479-3.351,2.394-3.351c2.234,0,2.714,2.553,2.714,4.31  c0,1.594-0.479,3.349-2.555,3.349C421.67,448.214,421.19,445.661,421.19,444.065z M423.584,448.853c2.873,0,4.149-1.756,4.149-4.468  c0-2.554-1.436-4.307-4.149-4.307c-2.712,0-4.148,1.753-4.148,4.307C419.596,446.938,421.031,448.853,423.584,448.853z" fill="#3A4B00" id="n_id_120" />
<path d="M432.041,441.991c0.639-0.479,1.436-0.799,2.234-0.799c1.754,0,1.754,1.597,1.754,3.032v3.511l-1.436,0.319  v0.478h4.469v-0.478l-1.437-0.319v-5.744c0.638-0.479,1.437-0.799,2.233-0.799c1.756,0,1.756,1.597,1.756,3.032v3.511l-1.437,0.319  v0.478h4.467v-0.478l-1.436-0.319v-4.946c0-1.756-0.639-2.711-3.031-2.711c-0.16,0-0.639,0-1.116,0.477l-1.276,0.958  c-0.48-0.958-1.437-1.435-2.554-1.435c-0.798,0-0.957,0.158-1.597,0.477l-1.436,0.958v-1.435l-0.478-0.162  c-0.64,0.32-1.757,0.639-2.554,0.639v0.479c0.479,0,1.117,0.159,1.596,0.32v6.224l-1.436,0.317v0.479h4.467v-0.479l-1.437-0.317  v-5.586H432.041z" fill="#3A4B00" id="n_id_121" />
<path d="M133.026,370.508c2.394,0,3.83-1.276,3.83-3.351c0-2.073-1.755-3.19-3.191-3.03l0,0l0,0  c1.436-0.479,2.394-1.437,2.394-3.031c0-2.394-1.915-2.715-3.829-2.715h-4.946v0.64l1.755,0.318v10.371l-1.755,0.32v0.638h5.744  V370.508z M130.633,359.021c0.32,0,0.638,0,0.958,0c1.595,0,2.553,0.637,2.553,2.553c0,1.595-0.797,2.394-2.394,2.394  c-0.479,0-0.797,0-1.117,0V359.021z M130.633,364.604c0.32,0,0.479-0.16,0.798-0.16c1.915,0,3.51,0.799,3.51,2.872  c0,1.597-0.798,2.555-2.553,2.555c-0.638,0-1.436-0.161-1.915-0.32v-4.946H130.633z" fill="#3A4B00" id="n_id_122" />
<path d="M139.728,364.925c0.16-1.117,0.798-2.394,2.074-2.394c1.436,0,1.915,1.117,1.915,2.394H139.728z   M144.674,365.403c0.479,0,0.638,0,0.638-0.64c0-1.437-1.437-2.713-3.191-2.713c-2.075,0-3.829,1.598-3.829,4.31  c0,2.871,1.754,4.308,3.829,4.308c0.957,0,1.595-0.16,1.595-0.16l2.075-2.074l-0.32-0.319c-0.638,0.64-1.436,1.437-2.553,1.437  c-2.234,0-3.191-1.914-3.191-4.147H144.674z" fill="#3A4B00" id="n_id_123" />
<path d="M152.971,362.531c-0.479-0.159-1.117-0.48-1.915-0.48c-2.234,0-3.989,1.598-3.989,4.469  c0,1.595,1.277,4.308,3.192,4.308c0.797,0,1.754-0.638,2.711-1.437v1.277l0.16,0.159c0.958-0.319,1.756-0.478,2.713-0.797v-0.479  c-1.276-0.16-1.437-0.16-1.437-0.478v-11.969l-0.479-0.159c-0.637,0.321-1.754,0.639-2.553,0.639v0.479  c0.479,0,1.117,0.159,1.596,0.318V362.531z M152.971,368.754c-0.479,0.478-1.117,0.797-1.754,0.797c-1.437,0-2.554-1.754-2.554-3.83  c0-1.436,0.638-3.189,2.235-3.189c1.116,0,2.073,0.796,2.073,1.913V368.754z" fill="#3A4B00" id="n_id_124" />
<path d="M159.035,362.051c-0.638,0.321-1.756,0.64-2.553,0.64v0.478c0.478,0,1.116,0.159,1.595,0.321v6.221  l-1.595,0.32v0.478h4.945v-0.478l-1.754-0.32v-4.307c0-0.319,0.957-2.076,1.915-2.076c0.159,0,0.638,0.162,0.797,0.321h0.159  l0.16-1.438c-0.318-0.16-0.478-0.319-0.798-0.319c-0.957,0-1.595,1.117-2.073,1.916l-0.32,0.478v-2.234H159.035z" fill="#3A4B00" id="n_id_125" />
<path d="M164.938,365.881c0-1.596,0.479-3.35,2.394-3.35c2.233,0,2.712,2.553,2.712,4.307  c0,1.596-0.479,3.352-2.553,3.352C165.577,370.189,164.938,367.478,164.938,365.881z M167.492,370.668  c2.872,0,4.148-1.755,4.148-4.467c0-2.553-1.437-4.31-4.148-4.31c-2.712,0-4.149,1.757-4.149,4.31  C163.343,368.913,164.779,370.668,167.492,370.668z" fill="#3A4B00" id="n_id_126" />
<path d="M174.672,365.881c0-1.596,0.478-3.35,2.393-3.35c2.234,0,2.713,2.553,2.713,4.307  c0,1.596-0.479,3.352-2.553,3.352C175.15,370.189,174.672,367.478,174.672,365.881z M177.065,370.668  c2.872,0,4.148-1.755,4.148-4.467c0-2.553-1.436-4.31-4.148-4.31c-2.712,0-4.148,1.757-4.148,4.31  C173.076,368.913,174.512,370.668,177.065,370.668z" fill="#3A4B00" id="n_id_127" />
<path d="M185.522,363.967c0.638-0.478,1.436-0.799,2.233-0.799c1.755,0,1.755,1.596,1.755,3.033v3.509l-1.436,0.32  v0.478h4.467v-0.478l-1.436-0.32v-5.743c0.638-0.478,1.436-0.799,2.233-0.799c1.755,0,1.755,1.596,1.755,3.033v3.509l-1.436,0.32  v0.478h4.468v-0.478l-1.436-0.32v-4.946c0-1.755-0.638-2.713-3.032-2.713c-0.159,0-0.638,0-1.117,0.48l-1.276,0.956  c-0.479-0.956-1.436-1.437-2.553-1.437c-0.798,0-0.958,0.16-1.596,0.48l-1.436,0.956v-1.437l-0.479-0.159  c-0.638,0.319-1.754,0.64-2.553,0.64v0.478c0.479,0,1.117,0.159,1.596,0.318v6.224l-1.436,0.32v0.479h4.467v-0.479l-1.437-0.32  v-5.584H185.522z" fill="#3A4B00" id="n_id_128" />
<path d="M270.248,260.093h6.223c3.989,0,7.18-1.915,7.18-6.382c0-4.308-3.191-5.744-6.861-5.744h-6.542v0.638  l1.755,0.319v10.372l-1.755,0.319V260.093L270.248,260.093z M273.598,248.605c0.799,0,1.437-0.161,2.235-0.161  c3.67,0,5.903,1.597,5.903,5.745c0,3.351-2.074,5.106-4.946,5.106c-1.116,0-2.074-0.16-3.031-0.319v-10.371H273.598z" fill="#3A4B00" id="n_id_129" />
<path d="M288.119,248.605c0-0.479-0.319-0.958-0.958-0.958c-0.479,0-0.797,0.479-0.797,0.958  c0,0.478,0.478,0.798,0.797,0.798C287.64,249.403,288.119,249.083,288.119,248.605z M289.714,260.093v-0.479l-1.756-0.319v-7.5  l-0.318-0.161c-0.639,0.32-1.755,0.64-2.553,0.64v0.478c0.478,0,1.116,0.16,1.595,0.32v6.223l-1.755,0.319v0.479H289.714  L289.714,260.093z" fill="#3A4B00" id="n_id_130" />
<path d="M293.543,253.552c0.638-0.479,1.436-0.799,2.235-0.799c1.755,0,1.755,1.597,1.755,3.032v3.511l-1.437,0.319  v0.479h4.468v-0.479l-1.437-0.319v-4.946c0-1.755-0.638-2.714-3.031-2.714c-0.159,0-0.479,0-0.639,0.161  c-0.159,0.16-0.957,0.639-1.914,1.277v-1.277l-0.479-0.161c-0.638,0.32-1.753,0.64-2.553,0.64v0.478c0.479,0,1.117,0.161,1.437,0.32  v6.223l-1.437,0.319v0.479h4.469v-0.479l-1.437-0.319V253.552L293.543,253.552z" fill="#3A4B00" id="n_id_131" />
<path d="M304.554,248.605c0-0.479-0.319-0.958-0.958-0.958c-0.479,0-0.798,0.479-0.798,0.958  c0,0.478,0.48,0.798,0.798,0.798C304.074,249.403,304.554,249.083,304.554,248.605z M306.148,260.093v-0.479l-1.755-0.319v-7.5  l-0.479-0.161c-0.637,0.32-1.754,0.64-2.553,0.64v0.478c0.479,0,1.116,0.16,1.596,0.32v6.223l-1.756,0.319v0.479H306.148  L306.148,260.093z" fill="#3A4B00" id="n_id_132" />
<path d="M309.977,253.552c0.639-0.479,1.438-0.799,2.234-0.799c1.756,0,1.756,1.597,1.756,3.032v3.511l-1.437,0.319  v0.479h4.468v-0.479l-1.437-0.319v-4.946c0-1.755-0.637-2.714-3.031-2.714c-0.161,0-0.479,0-0.639,0.161  c-0.159,0.16-0.957,0.639-1.915,1.277v-1.277l-0.477-0.161c-0.639,0.32-1.756,0.64-2.553,0.64v0.478c0.477,0,1.116,0.161,1.594,0.32  v6.223l-1.435,0.319v0.479h4.468v-0.479l-1.437-0.319v-5.744H309.977z" fill="#3A4B00" id="n_id_133" />
<path d="M318.434,260.093c-0.478,0.16-0.796,0.16-0.796,1.436c0,1.755,1.914,2.394,3.51,2.394  c1.755,0,4.627-0.638,4.627-2.872c0-1.755-1.596-2.234-3.031-2.234c-0.799,0-2.553,0-2.553-1.117l0.638-0.479l0.319-0.16  c1.755,0.16,3.351-0.957,3.351-2.712c0-0.479-0.161-0.958-0.479-1.436c0.479,0.16,1.276,0.319,1.436,0.16  c0.639-0.32,0.159-1.117,0.159-0.958l-1.753,0.16h-0.479c-0.638-0.16-1.276-0.319-1.914-0.319c-1.756,0-3.033,0.958-3.033,2.712  c0,1.117,0.798,2.075,1.916,2.393l-1.595,0.798c-0.321,0.958,0.478,1.755,1.276,2.075L318.434,260.093z M321.307,252.115  c1.277,0,1.596,1.437,1.754,2.394c0,0.798-0.477,1.755-1.435,1.755c-1.276,0-1.755-1.436-1.755-2.394  C319.71,252.914,320.35,252.115,321.307,252.115z M321.467,263.285c-1.117,0-2.553-0.319-2.553-1.755  c0-1.436,1.595-1.595,2.712-1.595c0.958,0,2.872,0.319,2.872,1.436C324.337,262.646,322.743,263.285,321.467,263.285z" fill="#3A4B00" id="n_id_134" />
<path d="M331.359,259.455v0.638h5.266v-0.638l-1.756-0.319v-4.308c0.639,0,1.276,0,1.915,0  c1.117,1.595,2.394,3.351,3.67,4.787c0.159,0.16,0.797,0.319,1.117,0.319l1.276,0.319l0.159-0.478  c-1.117-0.479-1.915-1.596-2.553-2.394l-2.234-3.032c1.276-0.798,2.234-2.074,2.234-3.511c0-2.074-1.596-3.032-3.351-3.032h-5.744  v0.638l1.755,0.32v10.371L331.359,259.455z M334.869,248.605c0.319,0,0.639-0.161,0.958-0.161c1.914,0,3.031,1.118,3.031,3.032  c0,2.394-0.957,2.553-3.191,2.553c-0.319,0-0.479,0-0.798,0V248.605z" fill="#3A4B00" id="n_id_135" />
<path d="M345.56,255.466c0-1.596,0.479-3.351,2.394-3.351c2.235,0,2.712,2.553,2.712,4.308  c0,1.596-0.477,3.352-2.553,3.352C346.198,259.775,345.56,257.062,345.56,255.466z M348.112,260.253c2.872,0,4.15-1.755,4.15-4.468  c0-2.553-1.437-4.309-4.15-4.309c-2.712,0-4.147,1.756-4.147,4.309C344.124,258.338,345.4,260.253,348.112,260.253z" fill="#3A4B00" id="n_id_136" />
<path d="M355.293,255.466c0-1.596,0.478-3.351,2.394-3.351c2.233,0,2.711,2.553,2.711,4.308  c0,1.596-0.479,3.352-2.553,3.352C355.932,259.775,355.293,257.062,355.293,255.466z M357.846,260.253  c2.873,0,4.148-1.755,4.148-4.468c0-2.553-1.437-4.309-4.148-4.309c-2.713,0-4.148,1.756-4.148,4.309  C353.697,258.338,355.133,260.253,357.846,260.253z" fill="#3A4B00" id="n_id_137" />
<path d="M366.143,253.552c0.639-0.479,1.436-0.799,2.235-0.799c1.755,0,1.755,1.597,1.755,3.032v3.511l-1.437,0.319  v0.479h4.468v-0.479l-1.436-0.319v-5.744c0.638-0.479,1.436-0.799,2.233-0.799c1.755,0,1.755,1.597,1.755,3.032v3.511l-1.436,0.319  v0.479h4.468v-0.479l-1.437-0.319v-4.946c0-1.755-0.638-2.714-3.031-2.714c-0.159,0-0.639,0-1.117,0.479l-1.276,0.958  c-0.479-0.958-1.436-1.438-2.553-1.438c-0.798,0-0.957,0.161-1.596,0.479l-1.437,0.958v-1.438l-0.479-0.159  c-0.637,0.32-1.755,0.639-2.553,0.639v0.479c0.479,0,1.118,0.159,1.437,0.319v6.222l-1.437,0.319v0.479h4.468v-0.479l-1.437-0.319  v-5.584H366.143z" fill="#3A4B00" id="n_id_138" />
<path d="M427.413,217.811v-0.638h-4.467v0.638l1.596,0.319l-3.031,4.626c-0.32,0.32-0.479,0.479-1.276,0.479v-4.946  l1.755-0.319v-0.638h-5.106v0.638l1.755,0.319v10.372l-1.755,0.319v0.638h5.106v-0.638l-1.755-0.319v-4.946h0.797l3.988,4.627  l-1.436,0.319v0.638h4.946v-0.638c-1.117,0-1.436-0.479-2.553-1.755l-3.511-4.149l3.192-4.786L427.413,217.811z" fill="#3A4B00" id="n_id_139" />
<path d="M432.359,217.97c0-0.479-0.318-0.958-0.956-0.958c-0.479,0-0.798,0.479-0.798,0.958  c0,0.479,0.478,0.798,0.798,0.798C431.882,218.768,432.359,218.449,432.359,217.97z M433.956,229.298v-0.479l-1.756-0.318v-7.5  l-0.478-0.16c-0.64,0.32-1.757,0.638-2.554,0.638v0.479c0.479,0,1.117,0.159,1.596,0.319v6.224l-1.755,0.318v0.479H433.956z" fill="#3A4B00" id="n_id_140" />
<path d="M435.073,222.278h1.275v4.946c0,1.595,0.957,2.233,2.074,2.233c0.479,0,0.958,0,1.437-0.318l1.116-1.118  l-0.318-0.479c-0.479,0.319-0.798,0.798-1.276,0.798c-0.958,0-1.436-0.638-1.436-1.755v-4.308h2.553v-0.798h-2.553v-2.393h-0.479  c-0.319,1.276-1.276,2.393-2.393,2.712V222.278z" fill="#3A4B00" id="n_id_141" />
<path d="M448.794,223.076c0-0.479,0.161-0.958-0.159-1.276c-0.479-0.638-1.755-0.958-2.553-0.958  c-2.872,0-3.989,2.075-3.989,4.628c0,2.553,1.276,4.148,3.83,4.148c0.639,0,1.436,0,2.074-0.319  c0.479-0.159,1.276-2.074,1.596-2.394l-0.479-0.319c-0.798,1.276-1.117,1.916-2.712,1.916c-1.916,0-2.714-1.277-2.873-3.032  c-0.16-1.755,0-3.83,2.394-3.83c1.276,0,1.276,0.638,1.276,1.915l0.159,0.16L448.794,223.076z" fill="#3A4B00" id="n_id_142" />
<path d="M452.784,215.576c-0.639,0.32-1.756,0.638-2.553,0.638v0.479c0.478,0,1.115,0.159,1.595,0.319v11.329  l-1.436,0.319v0.479h4.467v-0.479l-1.436-0.319v-5.744c0.639-0.479,1.436-0.797,2.234-0.797c1.754,0,1.754,1.595,1.754,3.032v3.51  l-1.436,0.319v0.479h4.468v-0.479l-1.436-0.319v-4.946c0-1.755-0.639-2.712-3.032-2.712c-0.159,0-0.479,0-0.638,0.159  c-0.159,0.16-0.958,0.638-1.915,1.276v-6.382L452.784,215.576z" fill="#3A4B00" id="n_id_143" />
<path d="M462.836,223.714c0.161-1.117,0.797-2.394,2.073-2.394c1.437,0,1.916,1.117,1.916,2.394H462.836z   M467.784,224.192c0.477,0,0.636,0,0.636-0.638c0-1.437-1.436-2.713-3.19-2.713c-2.074,0-3.829,1.596-3.829,4.308  c0,2.873,1.755,4.308,3.829,4.308c0.956,0,1.596-0.159,1.596-0.159l2.073-2.074l-0.319-0.319c-0.636,0.638-1.595,1.436-2.553,1.436  c-2.233,0-3.19-1.915-3.19-4.148H467.784z" fill="#3A4B00" id="n_id_144" />
<path d="M472.568,222.756c0.639-0.478,1.438-0.797,2.234-0.797c1.757,0,1.757,1.596,1.757,3.032v3.511l-1.438,0.318  v0.479h4.47v-0.479l-1.438-0.318v-4.947c0-1.755-0.639-2.713-3.032-2.713c-0.159,0-0.479,0-0.638,0.16  c-0.159,0.16-0.957,0.638-1.915,1.276v-1.276l-0.479-0.16c-0.638,0.32-1.753,0.638-2.553,0.638v0.479  c0.479,0,1.117,0.159,1.596,0.319v6.224l-1.437,0.318v0.479h4.47v-0.479l-1.436-0.318v-5.746H472.568z" fill="#3A4B00" id="n_id_145" />
<path d="M126.166,249.083c2.394,0,3.829-1.276,3.829-3.351c0-2.073-1.755-3.19-3.191-3.031l0,0l0,0  c1.436-0.479,2.394-1.436,2.394-3.032c0-2.393-1.915-2.712-3.83-2.712h-4.946v0.638l1.755,0.32v10.371l-1.755,0.319v0.638h5.744  V249.083z M123.772,237.595c0.319,0,0.638,0,0.958,0c1.595,0,2.553,0.638,2.553,2.553c0,1.597-0.798,2.394-2.394,2.394  c-0.479,0-0.798,0-1.117,0V237.595z M123.772,243.18c0.319,0,0.479-0.159,0.798-0.159c1.915,0,3.51,0.797,3.51,2.871  c0,1.596-0.797,2.553-2.553,2.553c-0.638,0-1.436-0.159-1.915-0.318v-4.947H123.772z" fill="#3A4B00" id="n_id_146" />
<path d="M136.058,244.616c-0.958,0.319-1.915,0.638-2.872,0.958c-0.798,0.318-1.915,0.638-1.915,2.074  c0,0.638,0.479,1.755,1.755,1.755c1.117,0,2.074-0.638,3.032-1.277v1.117l0.16,0.16c0.958-0.32,1.915-0.638,2.872-0.798v-0.479  l-1.437-0.32v-5.105c0-1.595-0.797-2.074-1.914-2.074c-0.16,0-0.479,0-0.639,0.159l-2.074,1.117  c-0.159,0.159-0.957,0.479-0.957,0.798v1.116h0.16l1.117-0.159c0.159,0,0.318,0,0.318-0.16c0-0.958,0.32-1.915,1.436-1.915  c0.798,0,1.276,0.478,1.276,1.755v1.276H136.058z M136.058,247.648c-0.479,0.319-1.436,0.797-1.915,0.797  c-0.638,0-1.276-0.478-1.276-0.957c0-1.276,1.595-1.436,3.191-2.234V247.648z" fill="#3A4B00" id="n_id_147" />
<path d="M140.047,242.223h1.276v4.945c0,1.597,0.958,2.235,2.075,2.235c0.478,0,0.957,0,1.436-0.32l1.118-1.116  l-0.32-0.479c-0.479,0.318-0.797,0.798-1.276,0.798c-0.957,0-1.436-0.638-1.436-1.756v-4.307h2.553v-0.958h-2.553v-2.394h-0.479  c-0.319,1.276-1.276,2.394-2.394,2.712V242.223z" fill="#3A4B00" id="n_id_148" />
<path d="M148.983,235.521c-0.638,0.319-1.755,0.638-2.554,0.638v0.479c0.479,0,1.117,0.16,1.437,0.318v11.329  l-1.437,0.319v0.478h4.469v-0.478l-1.437-0.319v-5.744c0.638-0.479,1.437-0.797,2.234-0.797c1.756,0,1.756,1.595,1.756,3.032v3.51  l-1.437,0.319v0.478h4.469v-0.478l-1.437-0.319v-4.946c0-1.756-0.638-2.712-3.032-2.712c-0.159,0-0.478,0-0.638,0.159  c-0.159,0.16-0.957,0.638-1.915,1.276v-6.542H148.983z" fill="#3A4B00" id="n_id_149" />
<polygon fill="#3A4B00" id="n_id_150" points="556.178,434.332 556.178,433.693 552.349,433.693 548.679,442.63 544.85,433.693 541.021,433.693   541.021,434.332 542.774,434.651 541.818,445.024 540.383,445.342 540.383,445.82 544.371,445.82 544.371,445.342 542.774,445.024   543.732,435.449 543.732,435.449 543.732,435.449 548.2,445.82 548.36,445.82 552.827,435.29 552.827,435.29 552.827,435.29   553.784,445.024 552.03,445.342 552.03,445.82 556.977,445.82 556.977,445.342 555.38,445.024 554.424,434.651 " />
<path d="M562.879,441.354c-0.956,0.318-1.914,0.638-2.872,0.956c-0.795,0.32-1.913,0.639-1.913,2.075  c0,0.64,0.478,1.754,1.754,1.754c1.117,0,2.075-0.638,3.031-1.276v1.117l0.162,0.159c0.955-0.318,1.913-0.638,2.87-0.797v-0.479  l-1.436-0.318v-5.106c0-1.595-0.798-2.074-1.915-2.074c-0.16,0-0.479,0-0.638,0.162l-2.075,1.114  c-0.159,0.162-0.957,0.479-0.957,0.798v1.117h0.159l1.117-0.159c0.159,0,0.321,0,0.321-0.159c0-0.958,0.317-1.915,1.435-1.915  c0.797,0,1.276,0.48,1.276,1.757v1.275H562.879z M562.879,444.385c-0.479,0.318-1.436,0.798-1.914,0.798  c-0.639,0-1.276-0.479-1.276-0.958c0-1.276,1.596-1.436,3.19-2.233V444.385z" fill="#3A4B00" id="n_id_151" />
<path d="M572.453,438.161c-0.799-0.636-1.596-0.798-2.553-0.798c-1.437,0-2.872,0.958-2.872,2.394  c0,3.191,4.626,1.915,4.626,4.149c0,1.118-0.956,1.436-1.914,1.436c-1.436,0-2.233-0.957-2.233-2.394h-0.638l0.318,2.394  c0.8,0.479,1.755,0.638,2.553,0.638c1.755,0,3.352-0.955,3.352-2.712c0-3.031-4.628-2.075-4.628-3.989  c0-0.957,0.8-1.436,1.596-1.436c1.276,0,1.757,0.959,1.757,2.073h0.637V438.161z" fill="#3A4B00" id="n_id_152" />
<path d="M574.527,438.96h1.276v4.946c0,1.595,0.957,2.232,2.074,2.232c0.48,0,0.957,0,1.436-0.318l1.117-1.117  l-0.319-0.479c-0.477,0.319-0.798,0.8-1.276,0.8c-0.957,0-1.436-0.64-1.436-1.757v-4.308h2.553v-0.799h-2.553v-2.394h-0.479  c-0.32,1.276-1.276,2.394-2.394,2.713V438.96z" fill="#3A4B00" id="n_id_153" />
<path d="M582.824,440.236c0.159-1.117,0.798-2.394,2.074-2.394c1.436,0,1.916,1.117,1.916,2.394H582.824z   M587.771,440.715c0.48,0,0.64,0,0.64-0.637c0-1.438-1.436-2.715-3.192-2.715c-2.072,0-3.83,1.597-3.83,4.309  c0,2.872,1.758,4.308,3.83,4.308c0.957,0,1.597-0.159,1.597-0.159l2.074-2.072l-0.32-0.321c-0.639,0.639-1.435,1.436-2.553,1.436  c-2.234,0-3.191-1.914-3.191-4.147H587.771z" fill="#3A4B00" id="n_id_154" />
<path d="M592.397,437.363c-0.639,0.32-1.753,0.639-2.553,0.639v0.479c0.479,0,1.118,0.159,1.597,0.321v6.223  l-1.597,0.317v0.479h4.946v-0.479l-1.753-0.317v-4.31c0-0.319,0.955-2.075,1.914-2.075c0.159,0,0.639,0.162,0.798,0.32h0.159  l0.158-1.435c-0.317-0.162-0.477-0.321-0.798-0.321c-0.955,0-1.596,1.117-2.072,1.915l-0.321,0.479v-2.072L592.397,437.363z" fill="#3A4B00" id="n_id_155" />
<path d="M607.078,445.82c2.394,0,3.83-1.276,3.83-3.352c0-2.073-1.756-3.19-3.193-3.031l0,0l0,0  c1.438-0.478,2.395-1.436,2.395-3.03c0-2.394-1.914-2.714-3.829-2.714h-4.946v0.639l1.754,0.319v10.373l-1.754,0.317v0.638h5.744  V445.82z M604.686,434.332c0.318,0,0.636,0,0.957,0c1.436,0,2.553,0.638,2.553,2.553c0,1.596-0.798,2.394-2.394,2.394  c-0.48,0-0.798,0-1.116,0V434.332z M604.686,439.916c0.318,0,0.477-0.159,0.795-0.159c1.917,0,3.511,0.798,3.511,2.873  c0,1.595-0.796,2.553-2.552,2.553c-0.638,0-1.436-0.158-1.914-0.32v-4.946H604.686z" fill="#3A4B00" id="n_id_156" />
<path d="M613.779,440.236c0.158-1.117,0.799-2.394,2.075-2.394c1.436,0,1.914,1.117,1.914,2.394H613.779z   M618.726,440.715c0.479,0,0.64,0,0.64-0.637c0-1.438-1.438-2.715-3.192-2.715c-2.074,0-3.829,1.597-3.829,4.309  c0,2.872,1.755,4.308,3.829,4.308c0.958,0,1.436-0.159,1.596-0.159l2.074-2.072l-0.318-0.321c-0.639,0.639-1.597,1.436-2.553,1.436  c-2.234,0-3.192-1.914-3.192-4.147H618.726z" fill="#3A4B00" id="n_id_157" />
<path d="M627.023,437.843c-0.479-0.159-1.117-0.479-1.915-0.479c-2.234,0-3.989,1.597-3.989,4.468  c0,1.596,1.276,4.308,3.189,4.308c0.8,0,1.757-0.638,2.715-1.436v1.276l0.159,0.159c0.958-0.318,1.755-0.478,2.713-0.797v-0.479  c-1.276-0.159-1.437-0.159-1.437-0.478v-11.968l-0.479-0.159c-0.638,0.321-1.754,0.639-2.553,0.639v0.479  c0.479,0,1.117,0.159,1.597,0.319V437.843L627.023,437.843z M627.023,444.065c-0.479,0.479-1.117,0.797-1.756,0.797  c-1.436,0-2.553-1.755-2.553-3.829c0-1.436,0.639-3.19,2.233-3.19c1.117,0,2.075,0.797,2.075,1.914V444.065L627.023,444.065z" fill="#3A4B00" id="n_id_158" />
<path d="M633.086,437.363c-0.638,0.32-1.755,0.639-2.554,0.639v0.479c0.479,0,1.117,0.159,1.438,0.321v6.223  l-1.597,0.317v0.479h4.946v-0.479l-1.754-0.317v-4.31c0-0.319,0.957-2.075,1.913-2.075c0.16,0,0.64,0.162,0.799,0.32h0.159  l0.159-1.435c-0.318-0.162-0.478-0.321-0.797-0.321c-0.957,0-1.597,1.117-2.074,1.915l-0.319,0.479v-2.072L633.086,437.363z" fill="#3A4B00" id="n_id_159" />
<path d="M638.989,441.354c0-1.597,0.479-3.352,2.394-3.352c2.234,0,2.712,2.553,2.712,4.308  c0,1.597-0.478,3.352-2.553,3.352C639.629,445.501,638.989,442.789,638.989,441.354z M641.542,445.979  c2.872,0,4.151-1.755,4.151-4.467c0-2.553-1.438-4.309-4.151-4.309c-2.712,0-4.147,1.756-4.147,4.309  C637.395,444.225,638.83,445.979,641.542,445.979z" fill="#3A4B00" id="n_id_160" />
<path d="M648.723,441.354c0-1.597,0.479-3.352,2.394-3.352c2.234,0,2.712,2.553,2.712,4.308  c0,1.597-0.478,3.352-2.553,3.352C649.201,445.501,648.723,442.789,648.723,441.354z M651.116,445.979  c2.872,0,4.148-1.755,4.148-4.467c0-2.553-1.437-4.309-4.148-4.309s-4.149,1.756-4.149,4.309  C647.128,444.225,648.563,445.979,651.116,445.979z" fill="#3A4B00" id="n_id_161" />
<path d="M659.573,439.278c0.638-0.477,1.436-0.798,2.232-0.798c1.756,0,1.756,1.598,1.756,3.032v3.512l-1.436,0.317  v0.479h4.467v-0.479l-1.436-0.317v-5.746c0.639-0.477,1.436-0.798,2.234-0.798c1.754,0,1.754,1.598,1.754,3.032v3.512l-1.436,0.317  v0.479h4.47v-0.479l-1.438-0.317v-4.946c0-1.757-0.638-2.715-3.031-2.715c-0.159,0-0.638,0-1.117,0.479l-1.276,0.959  c-0.477-0.959-1.436-1.438-2.553-1.438c-0.798,0-0.958,0.162-1.595,0.479l-1.437,0.959v-1.276l-0.479-0.162  c-0.638,0.32-1.754,0.639-2.553,0.639v0.479c0.479,0,1.117,0.159,1.436,0.321v6.223l-1.436,0.317v0.479h4.469v-0.479l-1.437-0.317  v-5.746H659.573z" fill="#3A4B00" id="n_id_162" />
<path d="M620.321,320.088c2.394,0,3.829-1.276,3.829-3.352c0-2.072-1.755-3.189-3.19-3.03l0,0l0,0  c1.436-0.48,2.394-1.436,2.394-3.032c0-2.394-1.915-2.713-3.829-2.713h-4.946v0.638l1.754,0.32v10.37l-1.754,0.321v0.637h5.743  V320.088z M618.086,308.599c0.321,0,0.64,0,0.959,0c1.594,0,2.553,0.639,2.553,2.555c0,1.595-0.797,2.394-2.394,2.394  c-0.479,0-0.797,0-1.118,0V308.599z M618.086,314.184c0.321,0,0.48-0.159,0.8-0.159c1.915,0,3.51,0.799,3.51,2.871  c0,1.598-0.798,2.554-2.394,2.554c-0.637,0-1.436-0.16-1.916-0.318V314.184z" fill="#3A4B00" id="n_id_163" />
<path d="M630.373,315.619c-0.959,0.321-1.914,0.64-2.871,0.958c-0.799,0.318-1.916,0.64-1.916,2.075  c0,0.637,0.479,1.754,1.756,1.754c1.117,0,2.072-0.637,3.031-1.275v1.116l0.159,0.159c0.958-0.318,1.916-0.637,2.873-0.796v-0.479  l-1.436-0.319v-5.105c0-1.596-0.798-2.075-1.915-2.075c-0.159,0-0.479,0-0.641,0.159l-2.072,1.117  c-0.159,0.159-0.957,0.48-0.957,0.799v1.117h0.159l1.117-0.159c0.159,0,0.318,0,0.318-0.162c0-0.955,0.32-1.913,1.438-1.913  c0.797,0,1.276,0.478,1.276,1.754v1.276H630.373z M630.373,318.652c-0.478,0.318-1.436,0.797-1.914,0.797  c-0.639,0-1.276-0.479-1.276-0.956c0-1.276,1.596-1.438,3.19-2.234V318.652z" fill="#3A4B00" id="n_id_164" />
<path d="M634.202,313.226h1.276v4.946c0,1.598,0.958,2.234,2.075,2.234c0.479,0,0.958,0,1.436-0.318l1.117-1.117  l-0.318-0.478c-0.479,0.318-0.799,0.796-1.276,0.796c-0.958,0-1.437-0.637-1.437-1.754v-4.31h2.554v-0.796h-2.554v-2.555h-0.479  c-0.318,1.277-1.276,2.396-2.394,2.714V313.226z" fill="#3A4B00" id="n_id_165" />
<path d="M643.299,306.525c-0.64,0.319-1.757,0.638-2.554,0.638v0.479c0.479,0,1.116,0.16,1.596,0.319v11.328  l-1.436,0.321v0.478h4.467v-0.478l-1.437-0.321v-5.742c0.64-0.48,1.437-0.799,2.234-0.799c1.755,0,1.755,1.595,1.755,3.03v3.511  l-1.437,0.321v0.478h4.469v-0.478l-1.436-0.321v-4.946c0-1.754-0.64-2.712-3.033-2.712c-0.159,0-0.478,0-0.637,0.159  c-0.158,0.159-0.958,0.64-1.916,1.276v-6.382L643.299,306.525z" fill="#3A4B00" id="n_id_166" />
<path d="M551.391,563.894v0.639h5.428v-0.639l-1.917-0.318v-10.529c0.479,0,0.958,0,1.276,0  c1.596,0,2.713,0.796,2.872,2.711c0.159,1.436-0.319,3.19-2.712,3.19c-0.319,0-0.638,0-0.798-0.159v0.159v0.479  c0.479,0.159,0.798,0.159,1.116,0.159c2.394,0,4.149-1.753,4.149-4.146s-1.915-3.033-4.149-3.033h-5.266v0.64l1.757,0.317v10.371  L551.391,563.894z" fill="#3A4B00" id="n_id_167" />
<path d="M566.869,559.905c-0.958,0.318-1.915,0.64-2.873,0.957c-0.797,0.319-1.914,0.638-1.914,2.076  c0,0.637,0.479,1.755,1.755,1.755c1.117,0,2.074-0.641,3.032-1.276v1.115l0.159,0.161c0.959-0.32,1.914-0.641,2.872-0.8v-0.477  l-1.437-0.32v-5.104c0-1.598-0.798-2.076-1.915-2.076c-0.159,0-0.478,0-0.638,0.16l-2.074,1.116c-0.159,0.16-0.958,0.479-0.958,0.8  v1.114h0.162l1.114-0.159c0.161,0,0.32,0,0.32-0.159c0-0.955,0.318-1.914,1.436-1.914c0.8,0,1.276,0.479,1.276,1.755v1.276H566.869z   M566.869,562.938c-0.479,0.317-1.438,0.796-1.915,0.796c-0.638,0-1.276-0.479-1.276-0.958c0-1.276,1.595-1.436,3.191-2.231V562.938  z" fill="#3A4B00" id="n_id_168" />
<path d="M570.698,557.512h1.276v4.946c0,1.595,0.956,2.235,2.073,2.235c0.479,0,0.958,0,1.437-0.32l1.116-1.117  l-0.318-0.479c-0.479,0.32-0.798,0.799-1.276,0.799c-0.958,0-1.436-0.637-1.436-1.754v-4.31h2.553v-0.796h-2.553v-2.394h-0.479  c-0.32,1.275-1.275,2.394-2.394,2.711V557.512z" fill="#3A4B00" id="n_id_169" />
<path d="M580.592,553.046c0-0.48-0.321-0.959-0.957-0.959c-0.48,0-0.8,0.479-0.8,0.959  c0,0.477,0.479,0.796,0.8,0.796C580.111,553.842,580.592,553.522,580.592,553.046z M582.188,564.373v-0.479l-1.757-0.318v-7.499  l-0.479-0.16c-0.638,0.319-1.755,0.641-2.553,0.641v0.477c0.479,0,1.118,0.159,1.595,0.319v6.223l-1.754,0.318v0.479H582.188  L582.188,564.373z" fill="#3A4B00" id="n_id_170" />
<path d="M584.898,559.905c0-1.596,0.479-3.349,2.395-3.349c2.234,0,2.711,2.553,2.711,4.306  c0,1.596-0.477,3.353-2.553,3.353C585.536,564.053,584.898,561.5,584.898,559.905z M587.451,564.693c2.872,0,4.148-1.755,4.148-4.47  c0-2.553-1.436-4.308-4.148-4.308c-2.711,0-4.146,1.755-4.146,4.308S584.74,564.693,587.451,564.693z" fill="#3A4B00" id="n_id_171" />
<polygon fill="#3A4B00" id="n_id_172" points="598.622,550.811 597.664,550.811 592.876,568.202 593.835,568.202 " />
<path d="M605.162,564.373c2.395,0,3.829-1.276,3.829-3.351c0-2.075-1.753-3.189-3.189-3.03l0,0l0,0  c1.437-0.48,2.394-1.438,2.394-3.033c0-2.394-1.915-2.713-3.829-2.713h-4.946v0.641l1.755,0.317v10.371l-1.755,0.318v0.639h5.742  V564.373z M602.928,552.887c0.321,0,0.641,0,0.959,0c1.594,0,2.553,0.636,2.553,2.553c0,1.594-0.797,2.391-2.395,2.391  c-0.477,0-0.796,0-1.117,0V552.887z M602.928,558.471c0.321,0,0.48-0.161,0.8-0.161c1.915,0,3.511,0.8,3.511,2.872  c0,1.595-0.799,2.553-2.553,2.553c-0.641,0-1.437-0.159-1.917-0.317v-4.946H602.928z" fill="#3A4B00" id="n_id_173" />
<path d="M615.214,559.905c-0.956,0.318-1.912,0.64-2.87,0.957c-0.8,0.319-1.915,0.638-1.915,2.076  c0,0.637,0.479,1.755,1.756,1.755c1.117,0,2.073-0.641,3.029-1.276v1.115l0.161,0.161c0.957-0.32,1.915-0.641,2.873-0.8v-0.477  l-1.438-0.32v-5.104c0-1.598-0.797-2.076-1.914-2.076c-0.159,0-0.478,0-0.639,0.16l-2.232,1.116c-0.162,0.16-0.958,0.479-0.958,0.8  v1.117h0.159l1.117-0.162c0.159,0,0.318,0,0.318-0.159c0-0.955,0.319-1.914,1.437-1.914c0.798,0,1.276,0.479,1.276,1.755v1.276  H615.214z M615.214,562.938c-0.477,0.317-1.435,0.796-1.912,0.796c-0.64,0-1.276-0.479-1.276-0.958c0-1.276,1.595-1.436,3.188-2.231  V562.938z" fill="#3A4B00" id="n_id_174" />
<path d="M621.757,550.811c-0.638,0.318-1.755,0.638-2.553,0.638v0.479c0.479,0,1.117,0.159,1.597,0.318v11.329  l-1.756,0.318v0.479h4.946v-0.479l-1.755-0.318v-12.765H621.757z" fill="#3A4B00" id="n_id_175" />
<path d="M631.809,558.15c0-0.479,0.161-0.958-0.159-1.276c-0.478-0.639-1.754-0.958-2.553-0.958  c-2.871,0-3.988,2.076-3.988,4.629c0,2.552,1.276,4.148,3.829,4.148c0.639,0,1.436,0,2.074-0.32  c0.479-0.158,1.276-2.074,1.596-2.394l-0.479-0.317c-0.798,1.276-1.117,1.913-2.715,1.913c-1.912,0-2.711-1.276-2.87-3.03  c-0.159-1.757,0-3.829,2.394-3.829c1.276,0,1.276,0.637,1.276,1.913l0.159,0.159L631.809,558.15z" fill="#3A4B00" id="n_id_176" />
<path d="M635.319,559.905c0-1.596,0.479-3.349,2.394-3.349c2.234,0,2.713,2.553,2.713,4.306  c0,1.596-0.479,3.353-2.554,3.353C635.799,564.053,635.319,561.5,635.319,559.905z M637.713,564.693c2.872,0,4.148-1.755,4.148-4.47  c0-2.553-1.436-4.308-4.148-4.308c-2.712,0-4.147,1.755-4.147,4.308C633.725,562.776,635.16,564.693,637.713,564.693z" fill="#3A4B00" id="n_id_177" />
<path d="M646.011,557.833c0.638-0.48,1.436-0.8,2.234-0.8c1.754,0,1.754,1.596,1.754,3.031v3.511l-1.436,0.318v0.479  h4.467v-0.479l-1.436-0.318v-4.946c0-1.755-0.638-2.713-3.031-2.713c-0.159,0-0.479,0-0.639,0.16  c-0.159,0.159-0.958,0.64-1.914,1.276v-1.276l-0.479-0.16c-0.638,0.319-1.755,0.641-2.553,0.641v0.477  c0.479,0,1.116,0.159,1.436,0.319v6.223l-1.436,0.318v0.479h4.468v-0.479l-1.436-0.318V557.833z" fill="#3A4B00" id="n_id_178" />
<path d="M653.51,556.076v0.478l1.117,0.32l3.19,7.179c-0.797,1.438-1.755,2.715-3.19,3.511v0.159  c0.479,0.16,1.276,0.479,1.436,0.16c2.713-3.189,3.989-7.18,5.425-11.167l1.117-0.321v-0.479h-3.511v0.479l1.436,0.321  c-0.478,1.913-1.117,3.667-1.914,5.425l-2.394-5.425l1.437-0.321v-0.479h-4.148V556.076z" fill="#3A4B00" id="n_id_179" />
</svg>