<svg xmlns="http://www.w3.org/2000/svg" enable-background="new 0 0 612 792" height="792px" id="Layer_1" version="1.0" viewBox="0 0 612 792" width="612px" x="0px" y="0px" xml:space="preserve">
<g id="_x33_60border">
	<g id="MTEXT_2_">
		<g id="n_id_0">
			<path d="M260.9,754.3h-3.4v-1.2h8.3v1.2h-3.4v10h-1.5V754.3z" id="n_id_1" />
			<path d="M268.5,753.1v4.7h5.4v-4.7h1.5v11.2h-1.5V759h-5.4v5.2H267V753L268.5,753.1L268.5,753.1z" id="n_id_2" />
			<path d="M279.3,753.1v11.2h-1.4v-11.2H279.3z" id="n_id_3" />
			<path d="M281.8,753.2c0.7-0.1,1.8-0.2,2.8-0.2c1.5,0,2.5,0.3,3.2,0.9c0.6,0.5,0.9,1.3,0.9,2.1c0,1.5-0.9,2.5-2.1,2.9l0,0     c0.9,0.3,1.4,1.1,1.6,2.3c0.4,1.6,0.6,2.6,0.9,3.1h-1.5c-0.2-0.3-0.4-1.3-0.7-2.7c-0.3-1.5-0.9-2.1-2.2-2.2h-1.4v4.8h-1.4     L281.8,753.2L281.8,753.2z M283.2,758.3h1.5c1.5,0,2.5-0.8,2.5-2.1c0-1.4-1-2.1-2.6-2.1c-0.7,0-1.2,0.1-1.4,0.1V758.3z" id="n_id_4" />
			<path d="M290.7,753.2c0.9-0.1,1.9-0.2,3.1-0.2c2.1,0,3.6,0.5,4.5,1.4c1,0.9,1.6,2.2,1.6,4s-0.6,3.3-1.6,4.3s-2.8,1.6-4.9,1.6     c-1,0-1.9,0-2.6-0.1v-11H290.7z M292.2,763.1c0.4,0.1,0.9,0.1,1.5,0.1c3.1,0,4.8-1.7,4.8-4.7c0-2.6-1.5-4.3-4.5-4.3     c-0.7,0-1.3,0.1-1.7,0.1L292.2,763.1L292.2,763.1z" id="n_id_5" />
			<path d="M305.3,753.1h6v1.2h-4.6v3.7h4.2v1.2h-4.2v5.1h-1.4V753.1z" id="n_id_6" />
			<path d="M313.4,753.1h1.4v10h4.8v1.2h-6.2L313.4,753.1L313.4,753.1z" id="n_id_7" />
			<path d="M330.1,758.5c0,3.9-2.3,5.9-5.2,5.9c-3,0-5-2.3-5-5.7c0-3.6,2.2-5.9,5.2-5.9C328.2,752.9,330.1,755.2,330.1,758.5z      M321.5,758.7c0,2.4,1.3,4.5,3.6,4.5c2.3,0,3.6-2.1,3.6-4.6c0-2.2-1.2-4.5-3.6-4.5C322.6,754.1,321.5,756.3,321.5,758.7z" id="n_id_8" />
			<path d="M341.6,758.5c0,3.9-2.3,5.9-5.2,5.9c-3,0-5-2.3-5-5.7c0-3.6,2.2-5.9,5.2-5.9C339.6,752.9,341.6,755.2,341.6,758.5z      M332.9,758.7c0,2.4,1.3,4.5,3.6,4.5c2.3,0,3.6-2.1,3.6-4.6c0-2.2-1.2-4.5-3.6-4.5C334.1,754.1,332.9,756.3,332.9,758.7z" id="n_id_9" />
			<path d="M343.4,753.2c0.7-0.1,1.8-0.2,2.8-0.2c1.5,0,2.5,0.3,3.2,0.9c0.6,0.5,0.9,1.3,0.9,2.1c0,1.5-0.9,2.5-2.1,2.9l0,0     c0.9,0.3,1.4,1.1,1.6,2.3c0.4,1.6,0.6,2.6,0.9,3.1h-1.5c-0.2-0.3-0.4-1.3-0.7-2.7c-0.3-1.5-0.9-2.1-2.2-2.2h-1.4v4.8h-1.4     L343.4,753.2L343.4,753.2z M344.9,758.3h1.5c1.5,0,2.5-0.8,2.5-2.1c0-1.4-1-2.1-2.6-2.1c-0.7,0-1.2,0.1-1.4,0.1V758.3z" id="n_id_10" />
		</g>
	</g>
</g>
<g id="_x33_60text">
	<g id="MTEXT_3_">
		<g id="n_id_11">
			<path d="M359.5,70c0.5-0.1,1.2-0.2,2-0.2c1.1,0,1.8,0.2,2.3,0.6c0.4,0.3,0.7,0.8,0.7,1.5c0,0.8-0.5,1.5-1.4,1.9l0,0     c0.8,0.2,1.7,0.9,1.7,2.1c0,0.7-0.3,1.3-0.7,1.7c-0.6,0.5-1.5,0.8-2.9,0.8c-0.8,0-1.3,0-1.7-0.1V70z M360.6,73.5h1     c1.2,0,1.8-0.6,1.8-1.4c0-1-0.8-1.4-1.9-1.4c-0.5,0-0.8,0-1,0.1v2.7H360.6z M360.6,77.6c0.2,0,0.5,0.1,0.9,0.1     c1.1,0,2.2-0.4,2.2-1.6s-1-1.6-2.2-1.6h-0.9V77.6z" id="n_id_12" />
			<path d="M367.7,75.7l-0.9,2.7h-1.1l2.9-8.5h1.3l2.9,8.5h-1.2l-0.9-2.7H367.7z M370.5,74.9l-0.8-2.4c-0.2-0.6-0.3-1.1-0.4-1.5l0,0     c-0.1,0.5-0.3,1-0.4,1.5l-0.8,2.5L370.5,74.9L370.5,74.9z" id="n_id_13" />
			<path d="M374.7,70.9h-2.6V70h6.3v0.9h-2.6v7.5h-1.1L374.7,70.9L374.7,70.9z" id="n_id_14" />
			<path d="M380.4,69.9v3.5h4.1v-3.5h1.1v8.5h-1.1v-4h-4.1v4h-1.1v-8.5H380.4z" id="n_id_15" />
		</g>
		<g id="n_id_16">
			<path d="M371.2,93.2v-0.7l0.9-0.8c2.1-2,3-3,3-4.3c0-0.8-0.4-1.6-1.6-1.6c-0.7,0-1.4,0.4-1.7,0.7l-0.4-0.8     c0.6-0.5,1.4-0.8,2.3-0.8c1.8,0,2.5,1.2,2.5,2.4c0,1.5-1.1,2.7-2.8,4.4l-0.7,0.6l0,0h3.7v0.9C376.4,93.2,371.2,93.2,371.2,93.2z" id="n_id_17" />
		</g>
	</g>
	<g id="MTEXT_4_">
		<g id="n_id_18">
			<path d="M242.7,99.1c0.5-0.1,1.2-0.2,2-0.2c1.1,0,1.8,0.2,2.3,0.6c0.4,0.3,0.7,0.8,0.7,1.5c0,0.8-0.5,1.5-1.4,1.9l0,0     c0.8,0.2,1.7,0.9,1.7,2.1c0,0.7-0.3,1.3-0.7,1.7c-0.6,0.5-1.5,0.8-2.9,0.8c-0.8,0-1.3,0-1.7-0.1L242.7,99.1L242.7,99.1z      M243.8,102.6h1c1.2,0,1.8-0.6,1.8-1.4c0-1-0.8-1.4-1.9-1.4c-0.5,0-0.8,0-1,0.1L243.8,102.6L243.8,102.6z M243.8,106.6     c0.2,0,0.5,0.1,0.9,0.1c1.1,0,2.2-0.4,2.2-1.6s-1-1.6-2.2-1.6h-0.9V106.6z" id="n_id_19" />
			<path d="M253.9,103.5h-3.3v3.1h3.7v0.9h-4.8V99h4.6v0.9h-3.5v2.7h3.3V103.5z" id="n_id_20" />
			<path d="M255.7,99.1c0.7-0.1,1.5-0.2,2.3-0.2c1.6,0,2.7,0.4,3.4,1.1c0.8,0.7,1.2,1.7,1.2,3c0,1.4-0.4,2.5-1.2,3.3     c-0.8,0.8-2.1,1.2-3.7,1.2c-0.8,0-1.4,0-2-0.1L255.7,99.1L255.7,99.1z M256.8,106.6c0.3,0.1,0.7,0.1,1.1,0.1     c2.3,0,3.6-1.3,3.6-3.6c0-2-1.1-3.3-3.4-3.3c-0.6,0-1,0.1-1.3,0.1L256.8,106.6L256.8,106.6z" id="n_id_21" />
			<path d="M264.1,99.1c0.6-0.1,1.3-0.2,2.1-0.2c1.2,0,1.9,0.2,2.5,0.7c0.4,0.4,0.7,1,0.7,1.6c0,1.1-0.7,1.9-1.6,2.2l0,0     c0.7,0.2,1,0.8,1.2,1.7c0.3,1.2,0.5,2,0.7,2.3h-1.1c-0.1-0.2-0.3-1-0.6-2c-0.3-1.2-0.7-1.6-1.7-1.6h-1v3.7h-1.1v-8.4H264.1z      M265.2,103h1.1c1.2,0,1.9-0.6,1.9-1.6c0-1.1-0.8-1.6-1.9-1.6c-0.5,0-0.9,0.1-1.1,0.1V103z" id="n_id_22" />
			<path d="M278.2,103.1c0,2.9-1.8,4.5-3.9,4.5c-2.2,0-3.8-1.7-3.8-4.3c0-2.7,1.7-4.5,3.9-4.5C276.7,98.8,278.2,100.6,278.2,103.1z      M271.6,103.3c0,1.8,1,3.4,2.7,3.4s2.7-1.6,2.7-3.5c0-1.7-0.9-3.4-2.7-3.4C272.5,99.7,271.6,101.4,271.6,103.3z" id="n_id_23" />
			<path d="M286.8,103.1c0,2.9-1.8,4.5-3.9,4.5c-2.2,0-3.8-1.7-3.8-4.3c0-2.7,1.7-4.5,3.9-4.5C285.3,98.8,286.8,100.6,286.8,103.1z      M280.2,103.3c0,1.8,1,3.4,2.7,3.4s2.7-1.6,2.7-3.5c0-1.7-0.9-3.4-2.7-3.4C281.1,99.7,280.2,101.4,280.2,103.3z" id="n_id_24" />
			<path d="M295.4,103.7c-0.1-1.2-0.1-2.6-0.1-3.7l0,0c-0.3,1-0.6,2-1.1,3.2l-1.5,4.1h-0.8l-1.4-4c-0.4-1.2-0.7-2.3-1-3.3l0,0     c0,1.1-0.1,2.5-0.2,3.7l-0.2,3.6h-1l0.6-8.5h1.4l1.4,4.1c0.4,1,0.6,2,0.9,2.9l0,0c0.2-0.9,0.5-1.8,0.9-2.9l1.5-4.1h1.4l0.5,8.5     h-1.1L295.4,103.7z" id="n_id_25" />
			<path d="M300.6,107.5v-0.7l0.9-0.8c2.1-2,3-3,3-4.3c0-0.8-0.4-1.6-1.6-1.6c-0.7,0-1.4,0.4-1.7,0.7l-0.4-0.8     c0.6-0.5,1.4-0.8,2.3-0.8c1.8,0,2.5,1.2,2.5,2.4c0,1.5-1.1,2.7-2.8,4.4l-0.7,0.6l0,0h3.7v0.9     C305.8,107.5,300.6,107.5,300.6,107.5z" id="n_id_26" />
		</g>
	</g>
	<g id="MTEXT_5_">
		<g id="n_id_27">
			<path d="M284.6,246.6h0.8v5.4h2.6v0.7h-3.4V246.6z" id="n_id_28" />
			<path d="M289.6,246.6v6.1h-0.8v-6.1H289.6z" id="n_id_29" />
			<path d="M291,252.7v-6.1h0.9l2,3.1c0.5,0.7,0.8,1.4,1.1,2l0,0c-0.1-0.8-0.1-1.6-0.1-2.5v-2.6h0.7v6.1h-0.8l-1.9-3.1     c-0.4-0.7-0.8-1.4-1.1-2l0,0c0,0.8,0.1,1.5,0.1,2.5v2.6H291z" id="n_id_30" />
			<path d="M300.1,249.8h-2.4v2.2h2.6v0.7H297v-6.1h3.3v0.7h-2.5v1.9h2.4L300.1,249.8L300.1,249.8z" id="n_id_31" />
			<path d="M301.4,252.7v-6.1h0.9l2,3.1c0.5,0.7,0.8,1.4,1.1,2l0,0c-0.1-0.8-0.1-1.6-0.1-2.5v-2.6h0.7v6.1h-0.8l-1.9-3.1     c-0.4-0.7-0.8-1.4-1.1-2l0,0c0,0.8,0.1,1.5,0.1,2.5v2.6H301.4z" id="n_id_32" />
		</g>
	</g>
	<g id="MTEXT_6_">
		<g id="n_id_33">
			<path d="M408.1,495.8c0.2,0.3,0.3,1,0.3,1.8c0,1.9-1.2,3.3-3.4,3.3c-2.1,0-3.6-1.4-3.6-3.5c0-0.8,0.2-1.4,0.3-1.6l0.7,0.2     c-0.2,0.3-0.3,0.8-0.3,1.4c0,1.6,1,2.6,2.8,2.6c1.7,0,2.7-1,2.7-2.6c0-0.5-0.1-1.1-0.3-1.4L408.1,495.8z" id="n_id_34" />
			<path d="M401.5,494.7v-0.9h6v-2.9h0.7v3.8H401.5z" id="n_id_35" />
			<path d="M404.8,484.5c2.3,0,3.6,1.4,3.6,3.1c0,1.8-1.4,3-3.4,3c-2.2,0-3.6-1.3-3.6-3.1C401.4,485.7,402.8,484.5,404.8,484.5z      M405,489.8c1.4,0,2.7-0.8,2.7-2.2c0-1.4-1.3-2.2-2.8-2.2c-1.3,0-2.8,0.7-2.8,2.2C402.1,489,403.5,489.8,405,489.8z" id="n_id_36" />
			<path d="M407.2,483.5c0.2-0.4,0.4-1,0.4-1.6c0-0.9-0.5-1.4-1.2-1.4c-0.6,0-1,0.4-1.3,1.3c-0.4,1.1-1,1.8-1.9,1.8     c-1.1,0-1.8-0.9-1.8-2.2c0-0.7,0.2-1.2,0.3-1.5l0.7,0.2c-0.1,0.2-0.3,0.7-0.3,1.3c0,0.9,0.6,1.3,1,1.3c0.6,0,0.9-0.4,1.3-1.3     c0.4-1.1,1-1.7,2-1.7s2,0.8,2,2.4c0,0.7-0.2,1.4-0.4,1.7L407.2,483.5z" id="n_id_37" />
			<path d="M405.1,474.9v2.6h2.4v-2.9h0.7v3.8h-6.8v-3.7h0.7v2.8h2.1v-2.6L405.1,474.9L405.1,474.9z" id="n_id_38" />
			<path d="M402.3,472v2.1h-0.7v-5h0.7v2.1h6v0.9h-6V472z" id="n_id_39" />
		</g>
	</g>
	<g id="MTEXT_7_">
		<g id="n_id_40">
			<path d="M258.3,307.1c-0.1-1.2-0.1-2.6-0.1-3.7l0,0c-0.3,1-0.6,2-1.1,3.2l-1.5,4.1h-0.8l-1.4-4c-0.4-1.2-0.7-2.3-1-3.3l0,0     c0,1.1-0.1,2.5-0.2,3.7l-0.2,3.6h-1l0.6-8.5h1.4l1.4,4.1c0.4,1,0.6,2,0.9,2.9l0,0c0.2-0.9,0.5-1.8,0.9-2.9l1.5-4.1h1.4l0.5,8.5     h-1.1L258.3,307.1z" id="n_id_41" />
			<path d="M262.5,308.2l-0.9,2.7h-1.1l2.9-8.5h1.3l2.9,8.5h-1.2l-0.9-2.7H262.5z M265.3,307.3l-0.8-2.4c-0.2-0.6-0.3-1.1-0.4-1.5     l0,0c-0.1,0.5-0.3,1-0.4,1.5l-0.8,2.5h2.4V307.3z" id="n_id_42" />
			<path d="M268.7,309.5c0.5,0.3,1.2,0.6,2,0.6c1.1,0,1.8-0.6,1.8-1.4s-0.5-1.2-1.6-1.7c-1.4-0.5-2.2-1.2-2.2-2.4     c0-1.3,1.1-2.3,2.7-2.3c0.9,0,1.5,0.2,1.9,0.4l-0.3,0.9c-0.3-0.2-0.8-0.4-1.6-0.4c-1.2,0-1.6,0.7-1.6,1.3c0,0.8,0.5,1.2,1.7,1.6     c1.4,0.6,2.2,1.2,2.2,2.5s-1,2.4-3,2.4c-0.8,0-1.7-0.2-2.2-0.5L268.7,309.5z" id="n_id_43" />
			<path d="M276.6,303.3H274v-0.9h6.3v0.9h-2.6v7.5h-1.1L276.6,303.3L276.6,303.3z" id="n_id_44" />
			<path d="M285.7,306.9h-3.3v3.1h3.7v0.9h-4.8v-8.5h4.6v0.9h-3.5v2.7h3.3L285.7,306.9L285.7,306.9z" id="n_id_45" />
			<path d="M287.5,302.5c0.6-0.1,1.3-0.2,2.1-0.2c1.2,0,1.9,0.2,2.5,0.7c0.4,0.4,0.7,1,0.7,1.6c0,1.1-0.7,1.9-1.6,2.2l0,0     c0.7,0.2,1,0.8,1.2,1.7c0.3,1.2,0.5,2,0.7,2.3H292c-0.1-0.2-0.3-1-0.6-2c-0.3-1.2-0.7-1.6-1.7-1.6h-1v3.7h-1.1v-8.4H287.5z      M288.5,306.4h1.1c1.2,0,1.9-0.6,1.9-1.6c0-1.1-0.8-1.6-1.9-1.6c-0.5,0-0.9,0.1-1.1,0.1V306.4z" id="n_id_46" />
		</g>
		<g id="n_id_47">
			<path d="M259.2,317.3c0.5-0.1,1.2-0.2,2-0.2c1.1,0,1.8,0.2,2.3,0.6c0.4,0.3,0.7,0.8,0.7,1.5c0,0.8-0.5,1.5-1.4,1.9l0,0     c0.8,0.2,1.7,0.9,1.7,2.1c0,0.7-0.3,1.3-0.7,1.7c-0.6,0.5-1.5,0.8-2.9,0.8c-0.8,0-1.3,0-1.7-0.1V317.3z M260.3,320.8h1     c1.2,0,1.8-0.6,1.8-1.4c0-1-0.8-1.4-1.9-1.4c-0.5,0-0.8,0-1,0.1v2.7H260.3z M260.3,324.9c0.2,0,0.5,0.1,0.9,0.1     c1.1,0,2.2-0.4,2.2-1.6s-1-1.6-2.2-1.6h-0.9V324.9z" id="n_id_48" />
			<path d="M267.4,323l-0.9,2.7h-1.1l2.9-8.5h1.3l2.9,8.5h-1.2l-0.9-2.7H267.4z M270.2,322.2l-0.8-2.4c-0.2-0.6-0.3-1.1-0.4-1.5l0,0     c-0.1,0.5-0.3,1-0.4,1.5l-0.8,2.5h2.4V322.2z" id="n_id_49" />
			<path d="M274.4,318.2h-2.6v-0.9h6.3v0.9h-2.6v7.5h-1.1L274.4,318.2L274.4,318.2z" id="n_id_50" />
			<path d="M280.1,317.2v3.5h4.1v-3.5h1.1v8.5h-1.1v-4h-4.1v4H279v-8.5H280.1z" id="n_id_51" />
		</g>
	</g>
	<g id="MTEXT_8_">
		<g id="n_id_52">
			<path d="M369.9,257.4c0.4-0.1,0.8-0.1,1.3-0.1c0.8,0,1.5,0.2,1.9,0.6s0.6,0.9,0.6,1.6s-0.2,1.4-0.7,1.8c-0.4,0.4-1.1,0.7-2,0.7     c-0.4,0-0.8,0-1.1-0.1L369.9,257.4L369.9,257.4z M370.5,261.4c0.1,0,0.4,0,0.6,0c1.3,0,1.9-0.7,1.9-1.9c0-1.1-0.6-1.8-1.9-1.8     c-0.3,0-0.5,0-0.7,0.1v3.6H370.5z" id="n_id_53" />
			<path d="M374.4,261.9v-4.6h0.6l1.5,2.3c0.3,0.5,0.6,1,0.8,1.5l0,0c-0.1-0.6-0.1-1.2-0.1-1.9v-1.9h0.6v4.6h-0.6l-1.5-2.3     c-0.3-0.5-0.6-1-0.9-1.5l0,0c0,0.6,0,1.1,0,1.9v2h-0.4V261.9z" id="n_id_54" />
		</g>
	</g>
	<g id="MTEXT_9_">
		<g id="n_id_55">
			<path d="M272.7,518.5c-0.1-1.2-0.1-2.6-0.1-3.7l0,0c-0.3,1-0.6,2-1.1,3.2l-1.5,4.1h-0.8l-1.4-4c-0.4-1.2-0.7-2.3-1-3.3l0,0     c0,1.1-0.1,2.5-0.2,3.7l-0.2,3.6h-1l0.6-8.5h1.4l1.4,4.1c0.4,1,0.6,2,0.9,2.9l0,0c0.2-0.9,0.5-1.8,0.9-2.9l1.5-4.1h1.4l0.5,8.5     h-1.1L272.7,518.5z" id="n_id_56" />
			<path d="M276.9,519.5l-0.9,2.7h-1.1l2.9-8.5h1.3l2.9,8.5h-1.2l-0.9-2.7H276.9z M279.7,518.7l-0.8-2.4c-0.2-0.6-0.3-1.1-0.4-1.5     l0,0c-0.1,0.5-0.3,1-0.4,1.5l-0.8,2.5L279.7,518.7L279.7,518.7z" id="n_id_57" />
			<path d="M283.1,520.9c0.5,0.3,1.2,0.6,2,0.6c1.1,0,1.8-0.6,1.8-1.4c0-0.8-0.5-1.2-1.6-1.7c-1.4-0.5-2.2-1.2-2.2-2.4     c0-1.3,1.1-2.3,2.7-2.3c0.9,0,1.5,0.2,1.9,0.4l-0.3,0.9c-0.3-0.2-0.8-0.4-1.6-0.4c-1.2,0-1.6,0.7-1.6,1.3c0,0.8,0.5,1.2,1.7,1.6     c1.4,0.6,2.2,1.2,2.2,2.5s-1,2.4-3,2.4c-0.8,0-1.7-0.2-2.2-0.5L283.1,520.9z" id="n_id_58" />
			<path d="M291.1,514.6h-2.6v-0.9h6.3v0.9h-2.6v7.5h-1.1L291.1,514.6L291.1,514.6z" id="n_id_59" />
			<path d="M300.1,518.2h-3.3v3.1h3.7v0.9h-4.8v-8.5h4.6v0.9h-3.5v2.7h3.3L300.1,518.2L300.1,518.2z" id="n_id_60" />
			<path d="M301.9,513.8c0.6-0.1,1.3-0.2,2.1-0.2c1.2,0,1.9,0.2,2.5,0.7c0.4,0.4,0.7,1,0.7,1.6c0,1.1-0.7,1.9-1.6,2.2l0,0     c0.7,0.2,1,0.8,1.2,1.7c0.3,1.2,0.5,2,0.7,2.3h-1.1c-0.1-0.2-0.3-1-0.6-2c-0.3-1.2-0.7-1.6-1.7-1.6h-1v3.7H302v-8.4H301.9z      M303,517.7h1.1c1.2,0,1.9-0.6,1.9-1.6c0-1.1-0.8-1.6-1.9-1.6c-0.5,0-0.9,0-1.1,0.1V517.7z" id="n_id_61" />
		</g>
		<g id="n_id_62">
			<path d="M261.1,528.7c0.5-0.1,1.2-0.2,2-0.2c1.1,0,1.8,0.2,2.3,0.6c0.4,0.3,0.7,0.8,0.7,1.5c0,0.8-0.5,1.5-1.4,1.9l0,0     c0.8,0.2,1.7,0.9,1.7,2.1c0,0.7-0.3,1.3-0.7,1.7c-0.6,0.5-1.5,0.8-2.9,0.8c-0.8,0-1.3,0-1.7-0.1V528.7z M262.2,532.2h1     c1.2,0,1.8-0.6,1.8-1.4c0-1-0.8-1.4-1.9-1.4c-0.5,0-0.8,0-1,0.1v2.7H262.2z M262.2,536.2c0.2,0,0.5,0.1,0.9,0.1     c1.1,0,2.2-0.4,2.2-1.6c0-1.2-1-1.6-2.2-1.6h-0.9V536.2z" id="n_id_63" />
			<path d="M272.3,533.1H269v3.1h3.7v0.9h-4.8v-8.5h4.6v0.9H269v2.7h3.3V533.1z" id="n_id_64" />
			<path d="M274.1,528.7c0.7-0.1,1.5-0.2,2.3-0.2c1.6,0,2.7,0.4,3.4,1.1c0.8,0.7,1.2,1.7,1.2,3c0,1.4-0.4,2.5-1.2,3.3     c-0.8,0.8-2.1,1.2-3.7,1.2c-0.8,0-1.4,0-2-0.1L274.1,528.7L274.1,528.7z M275.2,536.2c0.3,0,0.7,0.1,1.1,0.1     c2.3,0,3.6-1.3,3.6-3.6c0-2-1.1-3.3-3.4-3.3c-0.6,0-1,0.1-1.3,0.1L275.2,536.2L275.2,536.2z" id="n_id_65" />
			<path d="M282.5,528.7c0.6-0.1,1.3-0.2,2.1-0.2c1.2,0,1.9,0.2,2.5,0.7c0.4,0.4,0.7,1,0.7,1.6c0,1.1-0.7,1.9-1.6,2.2l0,0     c0.7,0.2,1,0.8,1.2,1.7c0.3,1.2,0.5,2,0.7,2.3H287c-0.1-0.2-0.3-1-0.6-2c-0.3-1.2-0.7-1.6-1.7-1.6h-1v3.7h-1.1v-8.4H282.5z      M283.6,532.6h1.1c1.2,0,1.9-0.6,1.9-1.6c0-1.1-0.8-1.6-1.9-1.6c-0.5,0-0.9,0-1.1,0.1V532.6z" id="n_id_66" />
			<path d="M296.5,532.7c0,2.9-1.8,4.5-3.9,4.5c-2.2,0-3.8-1.7-3.8-4.3c0-2.7,1.7-4.5,3.9-4.5C295,528.4,296.5,530.2,296.5,532.7z      M289.9,532.9c0,1.8,1,3.4,2.7,3.4s2.7-1.6,2.7-3.5c0-1.7-0.9-3.4-2.7-3.4C290.8,529.3,289.9,531,289.9,532.9z" id="n_id_67" />
			<path d="M305.2,532.7c0,2.9-1.8,4.5-3.9,4.5c-2.2,0-3.8-1.7-3.8-4.3c0-2.7,1.7-4.5,3.9-4.5C303.7,528.4,305.2,530.2,305.2,532.7z      M298.6,532.9c0,1.8,1,3.4,2.7,3.4s2.7-1.6,2.7-3.5c0-1.7-0.9-3.4-2.7-3.4C299.5,529.3,298.6,531,298.6,532.9z" id="n_id_68" />
			<path d="M313.7,533.3c-0.1-1.2-0.1-2.6-0.1-3.7l0,0c-0.3,1-0.6,2-1.1,3.2L311,537h-0.8l-1.4-4c-0.4-1.2-0.7-2.3-1-3.3l0,0     c0,1.1-0.1,2.5-0.2,3.7l-0.2,3.6h-1l0.6-8.5h1.4l1.4,4.1c0.4,1,0.6,2,0.9,2.9l0,0c0.2-0.9,0.5-1.8,0.9-2.9l1.5-4.1h1.4l0.5,8.5     h-1.1L313.7,533.3z" id="n_id_69" />
		</g>
	</g>
	<g id="MTEXT_10_">
		<g id="n_id_70">
			<path d="M299.7,676c0.7-0.1,1.5-0.2,2.3-0.2c1.6,0,2.7,0.4,3.4,1.1c0.8,0.7,1.2,1.7,1.2,3c0,1.4-0.4,2.5-1.2,3.3     c-0.8,0.8-2.1,1.2-3.7,1.2c-0.8,0-1.4,0-2-0.1L299.7,676L299.7,676z M300.8,683.5c0.3,0,0.7,0.1,1.1,0.1c2.3,0,3.6-1.3,3.6-3.6     c0-2-1.1-3.3-3.4-3.3c-0.6,0-1,0.1-1.3,0.1L300.8,683.5L300.8,683.5z" id="n_id_71" />
			<path d="M312.5,680.4h-3.3v3.1h3.7v0.9h-4.8v-8.5h4.6v0.9h-3.5v2.7h3.3L312.5,680.4L312.5,680.4z" id="n_id_72" />
			<path d="M320.2,684.1c-0.4,0.2-1.2,0.4-2.2,0.4c-2.4,0-4.2-1.5-4.2-4.3c0-2.7,1.8-4.5,4.4-4.5c1.1,0,1.7,0.2,2,0.4l-0.3,0.9     c-0.4-0.2-1-0.4-1.7-0.4c-2,0-3.3,1.3-3.3,3.5c0,2.1,1.2,3.4,3.3,3.4c0.7,0,1.3-0.1,1.8-0.4L320.2,684.1z" id="n_id_73" />
			<path d="M321.6,675.9h1.1v4.1l0,0c0.2-0.3,0.5-0.6,0.7-0.9l2.6-3.2h1.4l-3.1,3.6l3.3,4.9h-1.3l-2.8-4.2l-0.8,0.9v3.2h-1.1     L321.6,675.9L321.6,675.9z" id="n_id_74" />
		</g>
	</g>
	<g id="MTEXT_11_">
		<g id="n_id_75">
			<path d="M242.2,193.8c-0.3,0.2-1,0.3-1.8,0.3c-1.9,0-3.3-1.2-3.3-3.4c0-2.1,1.4-3.6,3.5-3.6c0.8,0,1.4,0.2,1.6,0.3l-0.2,0.7     c-0.3-0.2-0.8-0.3-1.4-0.3c-1.6,0-2.6,1-2.6,2.8c0,1.7,1,2.7,2.6,2.7c0.5,0,1.1-0.1,1.4-0.3L242.2,193.8z" id="n_id_76" />
			<path d="M243.3,187.3h0.9v6h2.9v0.7h-3.8L243.3,187.3L243.3,187.3z" id="n_id_77" />
			<path d="M253.4,190.6c0,2.3-1.4,3.6-3.1,3.6c-1.8,0-3-1.4-3-3.4c0-2.2,1.3-3.6,3.1-3.6C252.2,187.1,253.4,188.6,253.4,190.6z      M248.1,190.7c0,1.4,0.8,2.7,2.2,2.7s2.2-1.3,2.2-2.8c0-1.3-0.7-2.8-2.2-2.8C248.9,187.9,248.1,189.2,248.1,190.7z" id="n_id_78" />
			<path d="M254.4,193c0.4,0.2,1,0.4,1.6,0.4c0.9,0,1.4-0.5,1.4-1.2c0-0.6-0.4-1-1.3-1.3c-1.1-0.4-1.8-1-1.8-1.9     c0-1.1,0.9-1.8,2.2-1.8c0.7,0,1.2,0.2,1.5,0.3l-0.2,0.7c-0.2-0.1-0.7-0.3-1.3-0.3c-0.9,0-1.3,0.6-1.3,1c0,0.6,0.4,0.9,1.3,1.3     c1.1,0.4,1.7,1,1.7,2s-0.8,2-2.4,2c-0.7,0-1.4-0.2-1.7-0.4L254.4,193z" id="n_id_79" />
			<path d="M263,190.9h-2.6v2.4h2.9v0.7h-3.8v-6.8h3.7v0.7h-2.8v2.1h2.6L263,190.9L263,190.9z" id="n_id_80" />
			<path d="M265.9,188h-2.1v-0.7h5v0.7h-2.1v6h-0.9v-6H265.9z" id="n_id_81" />
		</g>
	</g>
	<g id="MTEXT_12_">
		<g id="n_id_82">
			<path d="M392.2,180.5l-1.7-6.8h0.9l0.8,3.4c0.2,0.8,0.4,1.7,0.5,2.3l0,0c0.1-0.7,0.3-1.5,0.6-2.4l0.9-3.4h0.9l0.8,3.4     c0.2,0.8,0.4,1.6,0.5,2.3l0,0c0.1-0.7,0.3-1.5,0.5-2.3l0.9-3.4h0.9l-1.9,6.8h-0.9l-0.9-3.5c-0.2-0.9-0.4-1.5-0.4-2.2l0,0     c-0.1,0.7-0.3,1.3-0.5,2.2l-1,3.5L392.2,180.5L392.2,180.5z" id="n_id_83" />
		</g>
	</g>
	<g id="MTEXT_13_">
		<g id="n_id_84">
			<path d="M392.3,207.6c0.5-0.1,1.2-0.1,1.9-0.1c1.3,0,2.2,0.3,2.7,0.8c0.6,0.6,1,1.3,1,2.4c0,1.1-0.3,2-1,2.6c-0.6,0.6-1.7,1-3,1     c-0.6,0-1.1,0-1.6-0.1V207.6z M393.2,213.6c0.2,0,0.5,0.1,0.9,0.1c1.9,0,2.9-1,2.9-2.9c0-1.6-0.9-2.6-2.7-2.6c-0.5,0-0.8,0-1,0.1     L393.2,213.6L393.2,213.6z" id="n_id_85" />
		</g>
	</g>
	<g id="MTEXT_14_">
		<g id="n_id_86">
			<path d="M408.1,602.8c0.2,0.3,0.3,1,0.3,1.8c0,1.9-1.2,3.3-3.4,3.3c-2.1,0-3.6-1.4-3.6-3.5c0-0.8,0.2-1.4,0.3-1.6l0.7,0.2     c-0.2,0.3-0.3,0.8-0.3,1.4c0,1.6,1,2.6,2.8,2.6c1.7,0,2.7-1,2.7-2.6c0-0.5-0.1-1.1-0.3-1.4L408.1,602.8z" id="n_id_87" />
			<path d="M401.5,601.7v-0.9h6v-2.9h0.7v3.8L401.5,601.7L401.5,601.7z" id="n_id_88" />
			<path d="M404.8,591.6c2.3,0,3.6,1.4,3.6,3.1c0,1.8-1.4,3-3.4,3c-2.2,0-3.6-1.3-3.6-3.1C401.4,592.7,402.8,591.6,404.8,591.6z      M405,596.8c1.4,0,2.7-0.8,2.7-2.2s-1.3-2.2-2.8-2.2c-1.3,0-2.8,0.7-2.8,2.2C402.1,596.1,403.5,596.8,405,596.8z" id="n_id_89" />
			<path d="M407.2,590.5c0.2-0.4,0.4-1,0.4-1.6c0-0.9-0.5-1.4-1.2-1.4c-0.6,0-1,0.4-1.3,1.3c-0.4,1.1-1,1.8-1.9,1.8     c-1.1,0-1.8-0.9-1.8-2.2c0-0.7,0.2-1.2,0.3-1.5l0.7,0.2c-0.1,0.2-0.3,0.7-0.3,1.3c0,0.9,0.6,1.3,1,1.3c0.6,0,0.9-0.4,1.3-1.3     c0.4-1.1,1-1.7,2-1.7s2,0.8,2,2.4c0,0.7-0.2,1.4-0.4,1.7L407.2,590.5z" id="n_id_90" />
			<path d="M405.1,581.9v2.6h2.4v-2.9h0.7v3.8h-6.8v-3.7h0.7v2.8h2.1v-2.6L405.1,581.9L405.1,581.9z" id="n_id_91" />
			<path d="M402.3,579.1v2.1h-0.7v-5h0.7v2.1h6v0.9L402.3,579.1L402.3,579.1z" id="n_id_92" />
		</g>
	</g>
</g>
<g id="_x33_60int">
	<g id="CIRCLE">
		
			<path d="    M379.1,259.5c0-0.6,0.5-1.1,1.1-1.1s1.1,0.5,1.1,1.1s-0.5,1.1-1.1,1.1S379.1,260.1,379.1,259.5L379.1,259.5z" fill="none" id="n_id_93" stroke="#000000" stroke-linecap="round" stroke-linejoin="round" stroke-miterlimit="10" stroke-width="0.15" />
	</g>
	<g id="LWPOLYLINE_2_">
		
			<polygon fill="none" id="n_id_94" points="    406.9,418.4 394.7,418.4 400.8,421.4   " stroke="#000000" stroke-linecap="round" stroke-linejoin="round" stroke-miterlimit="10" stroke-width="0.15" />
	</g>
	<g id="LWPOLYLINE_3_">
		
			<line fill="none" id="n_id_95" stroke="#000000" stroke-linecap="round" stroke-linejoin="round" stroke-miterlimit="10" stroke-width="0.15" x1="413.9" x2="391.1" y1="26" y2="26" />
	</g>
	<g id="LWPOLYLINE_4_">
		
			<line fill="none" id="n_id_96" stroke="#000000" stroke-linecap="round" stroke-linejoin="round" stroke-miterlimit="10" stroke-width="0.15" x1="413.9" x2="391.1" y1="22" y2="22" />
	</g>
	<g id="LWPOLYLINE_5_">
		
			<line fill="none" id="n_id_97" stroke="#000000" stroke-linecap="round" stroke-linejoin="round" stroke-miterlimit="10" stroke-width="0.15" x1="325.4" x2="247.8" y1="26" y2="26" />
	</g>
	<g id="LWPOLYLINE_6_">
		
			<line fill="none" id="n_id_98" stroke="#000000" stroke-linecap="round" stroke-linejoin="round" stroke-miterlimit="10" stroke-width="0.15" x1="325.4" x2="247.8" y1="22" y2="22" />
	</g>
	<g id="LINE_2_">
		
			<line fill="none" id="n_id_99" stroke="#000000" stroke-linecap="round" stroke-linejoin="round" stroke-miterlimit="10" stroke-width="0.15" x1="379.1" x2="422.5" y1="300" y2="300" />
	</g>
	<g id="LINE_3_">
		
			<line fill="none" id="n_id_100" stroke="#000000" stroke-linecap="round" stroke-linejoin="round" stroke-miterlimit="10" stroke-width="0.15" x1="424.8" x2="426.5" y1="300" y2="300" />
	</g>
	<g id="LINE_4_">
		
			<line fill="none" id="n_id_101" stroke="#000000" stroke-linecap="round" stroke-linejoin="round" stroke-miterlimit="10" stroke-width="0.15" x1="379.1" x2="422.5" y1="322.8" y2="322.8" />
	</g>
	<g id="LINE_5_">
		
			<line fill="none" id="n_id_102" stroke="#000000" stroke-linecap="round" stroke-linejoin="round" stroke-miterlimit="10" stroke-width="0.15" x1="424.8" x2="426.5" y1="322.8" y2="322.8" />
	</g>
	<g id="LINE_6_">
		
			<line fill="none" id="n_id_103" stroke="#000000" stroke-linecap="round" stroke-linejoin="round" stroke-miterlimit="10" stroke-width="0.15" x1="379.1" x2="422.5" y1="334.3" y2="334.3" />
	</g>
	<g id="LINE_7_">
		
			<line fill="none" id="n_id_104" stroke="#000000" stroke-linecap="round" stroke-linejoin="round" stroke-miterlimit="10" stroke-width="0.15" x1="424.8" x2="426.5" y1="334.3" y2="334.3" />
	</g>
	<g id="LINE_8_">
		
			<line fill="none" id="n_id_105" stroke="#000000" stroke-linecap="round" stroke-linejoin="round" stroke-miterlimit="10" stroke-width="0.15" x1="379.1" x2="422.5" y1="345.7" y2="345.7" />
	</g>
	<g id="LINE_9_">
		
			<line fill="none" id="n_id_106" stroke="#000000" stroke-linecap="round" stroke-linejoin="round" stroke-miterlimit="10" stroke-width="0.15" x1="424.8" x2="426.5" y1="345.7" y2="345.7" />
	</g>
	<g id="LINE_10_">
		
			<line fill="none" id="n_id_107" stroke="#000000" stroke-linecap="round" stroke-linejoin="round" stroke-miterlimit="10" stroke-width="0.15" x1="379.1" x2="422.5" y1="357.1" y2="357.1" />
	</g>
	<g id="LINE_11_">
		
			<line fill="none" id="n_id_108" stroke="#000000" stroke-linecap="round" stroke-linejoin="round" stroke-miterlimit="10" stroke-width="0.15" x1="424.8" x2="426.5" y1="357.1" y2="357.1" />
	</g>
	<g id="LINE_12_">
		
			<line fill="none" id="n_id_109" stroke="#000000" stroke-linecap="round" stroke-linejoin="round" stroke-miterlimit="10" stroke-width="0.15" x1="379.1" x2="422.5" y1="379.9" y2="379.9" />
	</g>
	<g id="LINE_13_">
		
			<line fill="none" id="n_id_110" stroke="#000000" stroke-linecap="round" stroke-linejoin="round" stroke-miterlimit="10" stroke-width="0.15" x1="424.8" x2="426.5" y1="379.9" y2="379.9" />
	</g>
	<g id="LWPOLYLINE_7_">
		
			<polyline fill="none" id="n_id_111" points="    426.5,281.7 422.5,281.7 422.5,428.5   " stroke="#000000" stroke-linecap="round" stroke-linejoin="round" stroke-miterlimit="10" stroke-width="0.15" />
	</g>
	<g id="LWPOLYLINE_8_">
		
			<polyline fill="none" id="n_id_112" points="    424.8,428.5 424.8,284 426.5,284   " stroke="#000000" stroke-linecap="round" stroke-linejoin="round" stroke-miterlimit="10" stroke-width="0.15" />
	</g>
	<g id="ARC">
		
			<path d="    M338.4,146.6c-13.7-13.7-35.8-14.3-50.3-1.4" fill="none" id="n_id_113" stroke="#000000" stroke-linecap="round" stroke-linejoin="round" stroke-miterlimit="10" stroke-width="0.15" />
	</g>
	<g id="LINE_14_">
		
			<line fill="none" id="n_id_114" stroke="#000000" stroke-linecap="round" stroke-linejoin="round" stroke-miterlimit="10" stroke-width="0.15" x1="312.6" x2="286.8" y1="172.5" y2="146.6" />
	</g>
	<g id="LINE_15_">
		
			<line fill="none" id="n_id_115" stroke="#000000" stroke-linecap="round" stroke-linejoin="round" stroke-miterlimit="10" stroke-width="0.15" x1="314" x2="288.2" y1="171" y2="145.2" />
	</g>
	<g id="LINE_16_">
		
			<line fill="none" id="n_id_116" stroke="#000000" stroke-linecap="round" stroke-linejoin="round" stroke-miterlimit="10" stroke-width="0.15" x1="288.2" x2="286.8" y1="145.2" y2="146.6" />
	</g>
	<g id="LINE_17_">
		
			<line fill="none" id="n_id_117" stroke="#000000" stroke-linecap="round" stroke-linejoin="round" stroke-miterlimit="10" stroke-width="0.15" x1="314" x2="312.6" y1="171" y2="172.5" />
	</g>
	<g id="ARC_1_">
		
			<path d="    M334.9,324c19.4-1.1,34.5-17.1,34.5-36.5" fill="none" id="n_id_118" stroke="#000000" stroke-linecap="round" stroke-linejoin="round" stroke-miterlimit="10" stroke-width="0.15" />
	</g>
	<g id="LINE_18_">
		
			<line fill="none" id="n_id_119" stroke="#000000" stroke-linecap="round" stroke-linejoin="round" stroke-miterlimit="10" stroke-width="0.15" x1="332.9" x2="332.9" y1="287.5" y2="324" />
	</g>
	<g id="LINE_19_">
		
			<line fill="none" id="n_id_120" stroke="#000000" stroke-linecap="round" stroke-linejoin="round" stroke-miterlimit="10" stroke-width="0.15" x1="334.9" x2="334.9" y1="287.5" y2="324" />
	</g>
	<g id="LINE_20_">
		
			<line fill="none" id="n_id_121" stroke="#000000" stroke-linecap="round" stroke-linejoin="round" stroke-miterlimit="10" stroke-width="0.15" x1="334.9" x2="332.9" y1="324" y2="324" />
	</g>
	<g id="LINE_21_">
		
			<line fill="none" id="n_id_122" stroke="#000000" stroke-linecap="round" stroke-linejoin="round" stroke-miterlimit="10" stroke-width="0.15" x1="334.9" x2="332.9" y1="287.5" y2="287.5" />
	</g>
	<g id="LWPOLYLINE_11_">
		
			<path d="    M218.4,328.2c0.1-0.7,0.2-1.5,0.4-2.2c0.2-0.9,0.6-1.7,1.2-2.4c0.5-0.7,1.1-1.3,1.9-1.7c0.6-0.4,1.3-0.5,2-0.5s1.4,0.2,2,0.5    c0.7,0.4,1.4,1,1.9,1.7s0.9,1.5,1.2,2.4c0.3,1,0.4,2,0.4,3.1" fill="none" id="n_id_123" stroke="#000000" stroke-linecap="round" stroke-linejoin="round" stroke-miterlimit="10" stroke-width="0.15" />
	</g>
	<g id="LWPOLYLINE_12_">
		
			<path d="    M231,329.1c0,1.4-0.2,2.7-0.7,4c-0.4,1.2-1,2.3-1.8,3.3c-0.8,0.9-1.8,1.7-2.9,2.3c-1,0.5-2.1,0.8-3.2,0.8c-1.1,0-2.2-0.3-3.2-0.8    c-1.1-0.5-2.1-1.3-2.9-2.3c-0.8-1-1.4-2.1-1.8-3.3c-0.4-1.3-0.7-2.6-0.7-4s0.2-2.7,0.7-4c0.4-1.2,1-2.3,1.8-3.3    c0.8-0.9,1.8-1.7,2.9-2.3c1-0.5,2.1-0.8,3.2-0.8c1.1,0,2.2,0.3,3.2,0.8c1.1,0.5,2.1,1.3,2.9,2.3c0.8,1,1.4,2.1,1.8,3.3    C230.7,326.4,231,327.8,231,329.1z" fill="none" id="n_id_124" stroke="#000000" stroke-linecap="round" stroke-linejoin="round" stroke-miterlimit="10" stroke-width="0.15" />
	</g>
	<g id="ARC_2_">
		
			<path d="    M216.8,328.1c-0.6-0.1-1.1,0.3-1.2,0.8s0.3,1.1,0.8,1.2c0.1,0,0.2,0,0.3,0" fill="none" id="n_id_125" stroke="#000000" stroke-linecap="round" stroke-linejoin="round" stroke-miterlimit="10" stroke-width="0.15" />
	</g>
	<g id="CIRCLE_1_">
		
			<path d="    M216.1,326.3c0-0.3,0.3-0.6,0.6-0.6s0.6,0.3,0.6,0.6c0,0.3-0.3,0.6-0.6,0.6C216.4,326.8,216.1,326.6,216.1,326.3L216.1,326.3z" fill="none" id="n_id_126" stroke="#000000" stroke-linecap="round" stroke-linejoin="round" stroke-miterlimit="10" stroke-width="0.15" />
	</g>
	<g id="CIRCLE_2_">
		
			<path d="    M216.1,332c0-0.3,0.3-0.6,0.6-0.6s0.6,0.3,0.6,0.6s-0.3,0.6-0.6,0.6C216.4,332.6,216.1,332.3,216.1,332L216.1,332z" fill="none" id="n_id_127" stroke="#000000" stroke-linecap="round" stroke-linejoin="round" stroke-miterlimit="10" stroke-width="0.15" />
	</g>
	<g id="LWPOLYLINE_13_">
		
			<path d="    M229.2,329.1c0,1-0.1,2.1-0.4,3.1c-0.2,0.9-0.6,1.7-1.2,2.4c-0.5,0.7-1.1,1.3-1.9,1.7c-0.6,0.4-1.3,0.5-2,0.5s-1.4-0.2-2-0.5    c-0.7-0.4-1.4-1-1.9-1.7s-0.9-1.5-1.2-2.4c-0.2-0.7-0.3-1.4-0.4-2.2" fill="none" id="n_id_128" stroke="#000000" stroke-linecap="round" stroke-linejoin="round" stroke-miterlimit="10" stroke-width="0.15" />
	</g>
	<g id="ARC_3_">
		
			<path d="    M222.4,329.1c0-0.3-0.2-0.5-0.5-0.6" fill="none" id="n_id_129" stroke="#000000" stroke-linecap="round" stroke-linejoin="round" stroke-miterlimit="10" stroke-width="0.15" />
	</g>
	<g id="ARC_4_">
		
			<path d="    M221.9,329.7c0.3,0,0.5-0.3,0.5-0.6" fill="none" id="n_id_130" stroke="#000000" stroke-linecap="round" stroke-linejoin="round" stroke-miterlimit="10" stroke-width="0.15" />
	</g>
	<g id="LINE_22_">
		
			<line fill="none" id="n_id_131" stroke="#000000" stroke-linecap="round" stroke-linejoin="round" stroke-miterlimit="10" stroke-width="0.15" x1="222.4" x2="222.4" y1="329.1" y2="329.2" />
	</g>
	<g id="LINE_23_">
		
			<line fill="none" id="n_id_132" stroke="#000000" stroke-linecap="round" stroke-linejoin="round" stroke-miterlimit="10" stroke-width="0.15" x1="216.7" x2="221.9" y1="330.1" y2="329.7" />
	</g>
	<g id="LINE_24_">
		
			<line fill="none" id="n_id_133" stroke="#000000" stroke-linecap="round" stroke-linejoin="round" stroke-miterlimit="10" stroke-width="0.15" x1="216.7" x2="221.9" y1="328.1" y2="328.5" />
	</g>
	<g id="ARC_5_">
		
			<path d="    M271.8,226.4c-18.1,1.1-32.2,16.1-32.3,34.3" fill="none" id="n_id_134" stroke="#000000" stroke-linecap="round" stroke-linejoin="round" stroke-miterlimit="10" stroke-width="0.15" />
	</g>
	<g id="LINE_25_">
		
			<line fill="none" id="n_id_135" stroke="#000000" stroke-linecap="round" stroke-linejoin="round" stroke-miterlimit="10" stroke-width="0.15" x1="271.8" x2="271.8" y1="260.6" y2="226.4" />
	</g>
	<g id="LINE_26_">
		
			<line fill="none" id="n_id_136" stroke="#000000" stroke-linecap="round" stroke-linejoin="round" stroke-miterlimit="10" stroke-width="0.15" x1="273.8" x2="273.8" y1="260.6" y2="226.4" />
	</g>
	<g id="LINE_27_">
		
			<line fill="none" id="n_id_137" stroke="#000000" stroke-linecap="round" stroke-linejoin="round" stroke-miterlimit="10" stroke-width="0.15" x1="271.8" x2="273.8" y1="226.4" y2="226.4" />
	</g>
	<g id="LINE_28_">
		
			<line fill="none" id="n_id_138" stroke="#000000" stroke-linecap="round" stroke-linejoin="round" stroke-miterlimit="10" stroke-width="0.15" x1="271.8" x2="273.8" y1="260.6" y2="260.6" />
	</g>
	<g id="LINE_29_">
		
			<line fill="none" id="n_id_139" stroke="#000000" stroke-linecap="round" stroke-linejoin="round" stroke-miterlimit="10" stroke-width="0.15" x1="379.1" x2="422.5" y1="311.4" y2="311.4" />
	</g>
	<g id="LINE_30_">
		
			<line fill="none" id="n_id_140" stroke="#000000" stroke-linecap="round" stroke-linejoin="round" stroke-miterlimit="10" stroke-width="0.15" x1="424.8" x2="426.5" y1="311.4" y2="311.4" />
	</g>
	<g id="LINE_31_">
		
			<line fill="none" id="n_id_141" stroke="#000000" stroke-linecap="round" stroke-linejoin="round" stroke-miterlimit="10" stroke-width="0.15" x1="379.1" x2="422.5" y1="425.6" y2="425.6" />
	</g>
	<g id="LINE_32_">
		
			<line fill="none" id="n_id_142" stroke="#000000" stroke-linecap="round" stroke-linejoin="round" stroke-miterlimit="10" stroke-width="0.15" x1="424.8" x2="426.5" y1="425.6" y2="425.6" />
	</g>
	<g id="LINE_33_">
		
			<line fill="none" id="n_id_143" stroke="#000000" stroke-linecap="round" stroke-linejoin="round" stroke-miterlimit="10" stroke-width="0.15" x1="380.2" x2="380.2" y1="283.5" y2="235.5" />
	</g>
	<g id="LINE_34_">
		
			<line fill="none" id="n_id_144" stroke="#000000" stroke-linecap="round" stroke-linejoin="round" stroke-miterlimit="10" stroke-width="0.15" x1="379.1" x2="422.5" y1="368.5" y2="368.5" />
	</g>
	<g id="LINE_35_">
		
			<line fill="none" id="n_id_145" stroke="#000000" stroke-linecap="round" stroke-linejoin="round" stroke-miterlimit="10" stroke-width="0.15" x1="424.8" x2="426.5" y1="368.5" y2="368.5" />
	</g>
	<g id="LINE_36_">
		
			<line fill="none" id="n_id_146" stroke="#000000" stroke-linecap="round" stroke-linejoin="round" stroke-miterlimit="10" stroke-width="0.15" x1="234.4" x2="234.4" y1="264.6" y2="346.8" />
	</g>
	<g id="LINE_37_">
		
			<line fill="none" id="n_id_147" stroke="#000000" stroke-linecap="round" stroke-linejoin="round" stroke-miterlimit="10" stroke-width="0.15" x1="421.1" x2="352.6" y1="100.2" y2="100.2" />
	</g>
	<g id="LINE_38_">
		
			<line fill="none" id="n_id_148" stroke="#000000" stroke-linecap="round" stroke-linejoin="round" stroke-miterlimit="10" stroke-width="0.15" x1="358.7" x2="407.3" y1="132.2" y2="132.2" />
	</g>
	<g id="LINE_39_">
		
			<line fill="none" id="n_id_149" stroke="#000000" stroke-linecap="round" stroke-linejoin="round" stroke-miterlimit="10" stroke-width="0.15" x1="407.2" x2="358.7" y1="102.5" y2="102.5" />
	</g>
	<g id="LWPOLYLINE_16_">
		
			<path d="    M406.3,102.5c0.1,0,0.3,0,0.4,0c1.5,0,2.9,0.4,4.2,1.1c1.5,0.8,2.8,1.9,3.9,3.3s1.9,3,2.4,4.7c0.6,1.9,0.9,3.9,0.9,5.8    c0,2-0.3,4-0.9,5.8c-0.5,1.7-1.4,3.3-2.4,4.7c-1,1.4-2.4,2.5-3.9,3.3c-1.3,0.7-2.7,1.1-4.2,1.1" fill="none" id="n_id_150" stroke="#000000" stroke-linecap="round" stroke-linejoin="round" stroke-miterlimit="10" stroke-width="0.15" />
	</g>
	<g id="LWPOLYLINE_17_">
		
			<path d="    M406.7,132.2c-0.2,0-0.3,0-0.5,0" fill="none" id="n_id_151" stroke="#000000" stroke-linecap="round" stroke-linejoin="round" stroke-miterlimit="10" stroke-width="0.15" />
	</g>
	<g id="LINE_40_">
		
			<line fill="none" id="n_id_152" stroke="#000000" stroke-linecap="round" stroke-linejoin="round" stroke-miterlimit="10" stroke-width="0.15" x1="356.5" x2="356.5" y1="104.8" y2="130" />
	</g>
	<g id="ARC_6_">
		
			<path d="    M358.8,102.5c-1.3,0-2.3,1-2.3,2.3" fill="none" id="n_id_153" stroke="#000000" stroke-linecap="round" stroke-linejoin="round" stroke-miterlimit="10" stroke-width="0.15" />
	</g>
	<g id="CIRCLE_3_">
		
			<path d="    M358.3,117.3c0-0.9,0.7-1.6,1.6-1.6s1.6,0.7,1.6,1.6s-0.7,1.6-1.6,1.6S358.3,118.2,358.3,117.3L358.3,117.3z" fill="none" id="n_id_154" stroke="#000000" stroke-linecap="round" stroke-linejoin="round" stroke-miterlimit="10" stroke-width="0.15" />
	</g>
	<g id="ARC_7_">
		
			<path d="    M356.5,129.9c0,1.3,1,2.3,2.3,2.3" fill="none" id="n_id_155" stroke="#000000" stroke-linecap="round" stroke-linejoin="round" stroke-miterlimit="10" stroke-width="0.15" />
	</g>
	<g id="LINE_41_">
		
			<line fill="none" id="n_id_156" stroke="#000000" stroke-linecap="round" stroke-linejoin="round" stroke-miterlimit="10" stroke-width="0.15" x1="395.9" x2="421.1" y1="63.7" y2="63.7" />
	</g>
	<g id="LINE_42_">
		
			<line fill="none" id="n_id_157" stroke="#000000" stroke-linecap="round" stroke-linejoin="round" stroke-miterlimit="10" stroke-width="0.15" x1="395.9" x2="395.9" y1="63.7" y2="26" />
	</g>
	<g id="LWPOLYLINE_18_">
		
			<path d="    M411.9,45.7c-0.1,0.7-0.2,1.5-0.4,2.2c-0.2,0.9-0.6,1.7-1.2,2.4c-0.5,0.7-1.1,1.3-1.9,1.7c-0.6,0.4-1.3,0.5-2,0.5s-1.4-0.2-2-0.5    c-0.7-0.4-1.4-1-1.9-1.7s-0.9-1.5-1.2-2.4c-0.3-1-0.4-2-0.4-3.1" fill="none" id="n_id_158" stroke="#000000" stroke-linecap="round" stroke-linejoin="round" stroke-miterlimit="10" stroke-width="0.15" />
	</g>
	<g id="LWPOLYLINE_19_">
		
			<path d="    M399.4,44.8c0-1.4,0.2-2.7,0.7-4c0.4-1.2,1-2.3,1.8-3.3c0.8-0.9,1.8-1.7,2.9-2.3c1-0.5,2.1-0.8,3.2-0.8s2.2,0.3,3.2,0.8    c1.1,0.5,2.1,1.3,2.9,2.3s1.4,2.1,1.8,3.3c0.4,1.3,0.7,2.6,0.7,4s-0.2,2.7-0.7,4c-0.4,1.2-1,2.3-1.8,3.3c-0.8,0.9-1.8,1.7-2.9,2.3    c-1,0.5-2.1,0.8-3.2,0.8s-2.2-0.3-3.2-0.8c-1.1-0.5-2.1-1.3-2.9-2.3s-1.4-2.1-1.8-3.3C399.6,47.6,399.4,46.2,399.4,44.8z" fill="none" id="n_id_159" stroke="#000000" stroke-linecap="round" stroke-linejoin="round" stroke-miterlimit="10" stroke-width="0.15" />
	</g>
	<g id="ARC_8_">
		
			<path d="    M413.5,45.8c0.6,0.1,1.1-0.3,1.2-0.8s-0.3-1.1-0.8-1.2c-0.1,0-0.2,0-0.3,0" fill="none" id="n_id_160" stroke="#000000" stroke-linecap="round" stroke-linejoin="round" stroke-miterlimit="10" stroke-width="0.15" />
	</g>
	<g id="CIRCLE_4_">
		
			<path d="    M413.1,47.7c0-0.3,0.3-0.6,0.6-0.6c0.3,0,0.6,0.3,0.6,0.6s-0.3,0.6-0.6,0.6C413.3,48.3,413.1,48,413.1,47.7L413.1,47.7z" fill="none" id="n_id_161" stroke="#000000" stroke-linecap="round" stroke-linejoin="round" stroke-miterlimit="10" stroke-width="0.15" />
	</g>
	<g id="CIRCLE_5_">
		
			<path d="    M413.1,42c0-0.3,0.3-0.6,0.6-0.6c0.3,0,0.6,0.3,0.6,0.6s-0.3,0.6-0.6,0.6C413.3,42.6,413.1,42.3,413.1,42L413.1,42z" fill="none" id="n_id_162" stroke="#000000" stroke-linecap="round" stroke-linejoin="round" stroke-miterlimit="10" stroke-width="0.15" />
	</g>
	<g id="LWPOLYLINE_20_">
		
			<path d="    M401.1,44.8c0-1,0.1-2.1,0.4-3.1c0.2-0.9,0.6-1.7,1.2-2.4c0.5-0.7,1.1-1.3,1.9-1.7c0.6-0.4,1.3-0.5,2-0.5s1.4,0.2,2,0.5    c0.7,0.4,1.4,1,1.9,1.7s0.9,1.5,1.2,2.4c0.2,0.7,0.3,1.4,0.4,2.2" fill="none" id="n_id_163" stroke="#000000" stroke-linecap="round" stroke-linejoin="round" stroke-miterlimit="10" stroke-width="0.15" />
	</g>
	<g id="ARC_9_">
		
			<path d="    M407.9,44.9c0,0.3,0.2,0.5,0.5,0.6" fill="none" id="n_id_164" stroke="#000000" stroke-linecap="round" stroke-linejoin="round" stroke-miterlimit="10" stroke-width="0.15" />
	</g>
	<g id="ARC_10_">
		
			<path d="    M408.5,44.2c-0.3,0-0.5,0.3-0.5,0.6" fill="none" id="n_id_165" stroke="#000000" stroke-linecap="round" stroke-linejoin="round" stroke-miterlimit="10" stroke-width="0.15" />
	</g>
	<g id="LINE_43_">
		
			<line fill="none" id="n_id_166" stroke="#000000" stroke-linecap="round" stroke-linejoin="round" stroke-miterlimit="10" stroke-width="0.15" x1="407.9" x2="407.9" y1="44.9" y2="44.8" />
	</g>
	<g id="LINE_44_">
		
			<line fill="none" id="n_id_167" stroke="#000000" stroke-linecap="round" stroke-linejoin="round" stroke-miterlimit="10" stroke-width="0.15" x1="413.6" x2="408.5" y1="43.8" y2="44.2" />
	</g>
	<g id="LINE_45_">
		
			<line fill="none" id="n_id_168" stroke="#000000" stroke-linecap="round" stroke-linejoin="round" stroke-miterlimit="10" stroke-width="0.15" x1="413.6" x2="408.5" y1="45.9" y2="45.4" />
	</g>
	<g id="ARC_11_">
		
			<path d="    M352.6,63.7c18.1,0,33.1-14.1,34.3-32.3" fill="none" id="n_id_169" stroke="#000000" stroke-linecap="round" stroke-linejoin="round" stroke-miterlimit="10" stroke-width="0.15" />
	</g>
	<g id="LINE_46_">
		
			<line fill="none" id="n_id_170" stroke="#000000" stroke-linecap="round" stroke-linejoin="round" stroke-miterlimit="10" stroke-width="0.15" x1="352.6" x2="386.8" y1="31.4" y2="31.4" />
	</g>
	<g id="LINE_47_">
		
			<line fill="none" id="n_id_171" stroke="#000000" stroke-linecap="round" stroke-linejoin="round" stroke-miterlimit="10" stroke-width="0.15" x1="352.6" x2="386.8" y1="29.4" y2="29.4" />
	</g>
	<g id="LINE_48_">
		
			<line fill="none" id="n_id_172" stroke="#000000" stroke-linecap="round" stroke-linejoin="round" stroke-miterlimit="10" stroke-width="0.15" x1="386.8" x2="386.8" y1="31.4" y2="29.4" />
	</g>
	<g id="LINE_49_">
		
			<line fill="none" id="n_id_173" stroke="#000000" stroke-linecap="round" stroke-linejoin="round" stroke-miterlimit="10" stroke-width="0.15" x1="352.6" x2="352.6" y1="31.4" y2="29.4" />
	</g>
	<g id="LINE_50_">
		
			<line fill="none" id="n_id_174" stroke="#000000" stroke-linecap="round" stroke-linejoin="round" stroke-miterlimit="10" stroke-width="0.15" x1="412.8" x2="412.8" y1="226.1" y2="195.3" />
	</g>
	<g id="LINE_51_">
		
			<line fill="none" id="n_id_175" stroke="#000000" stroke-linecap="round" stroke-linejoin="round" stroke-miterlimit="10" stroke-width="0.15" x1="409.8" x2="409.8" y1="195.3" y2="226.1" />
	</g>
	<g id="LINE_52_">
		
			<line fill="none" id="n_id_176" stroke="#000000" stroke-linecap="round" stroke-linejoin="round" stroke-miterlimit="10" stroke-width="0.15" x1="382" x2="382" y1="195.3" y2="226.1" />
	</g>
	<g id="LINE_53_">
		
			<line fill="none" id="n_id_177" stroke="#000000" stroke-linecap="round" stroke-linejoin="round" stroke-miterlimit="10" stroke-width="0.15" x1="404.1" x2="386.5" y1="165" y2="165" />
	</g>
	<g id="LINE_54_">
		
			<line fill="none" id="n_id_178" stroke="#000000" stroke-linecap="round" stroke-linejoin="round" stroke-miterlimit="10" stroke-width="0.15" x1="386.5" x2="404.1" y1="189" y2="189" />
	</g>
	<g id="LINE_55_">
		
			<line fill="none" id="n_id_179" stroke="#000000" stroke-linecap="round" stroke-linejoin="round" stroke-miterlimit="10" stroke-width="0.15" x1="412.8" x2="382" y1="195.3" y2="195.3" />
	</g>
	<g id="LINE_56_">
		
			<line fill="none" id="n_id_180" stroke="#000000" stroke-linecap="round" stroke-linejoin="round" stroke-miterlimit="10" stroke-width="0.15" x1="412.8" x2="382" y1="161.6" y2="161.6" />
	</g>
	<g id="LINE_57_">
		
			<line fill="none" id="n_id_181" stroke="#000000" stroke-linecap="round" stroke-linejoin="round" stroke-miterlimit="10" stroke-width="0.15" x1="382" x2="412.8" y1="192.4" y2="192.4" />
	</g>
	<g id="LINE_58_">
		
			<line fill="none" id="n_id_182" stroke="#000000" stroke-linecap="round" stroke-linejoin="round" stroke-miterlimit="10" stroke-width="0.15" x1="382" x2="382" y1="161.6" y2="192.4" />
	</g>
	<g id="LINE_59_">
		
			<line fill="none" id="n_id_183" stroke="#000000" stroke-linecap="round" stroke-linejoin="round" stroke-miterlimit="10" stroke-width="0.15" x1="386.5" x2="386.5" y1="165" y2="189" />
	</g>
	<g id="LINE_60_">
		
			<line fill="none" id="n_id_184" stroke="#000000" stroke-linecap="round" stroke-linejoin="round" stroke-miterlimit="10" stroke-width="0.15" x1="412.8" x2="412.8" y1="192.4" y2="161.6" />
	</g>
	<g id="LINE_61_">
		
			<line fill="none" id="n_id_185" stroke="#000000" stroke-linecap="round" stroke-linejoin="round" stroke-miterlimit="10" stroke-width="0.15" x1="404.1" x2="404.1" y1="165" y2="189" />
	</g>
	<g id="LINE_62_">
		
			<line fill="none" id="n_id_186" stroke="#000000" stroke-linecap="round" stroke-linejoin="round" stroke-miterlimit="10" stroke-width="0.15" x1="409.8" x2="409.8" y1="161.6" y2="192.4" />
	</g>
	<g id="LINE_63_">
		
			<line fill="none" id="n_id_187" stroke="#000000" stroke-linecap="round" stroke-linejoin="round" stroke-miterlimit="10" stroke-width="0.15" x1="382" x2="412.8" y1="226.1" y2="226.1" />
	</g>
	<g id="LINE_64_">
		
			<line fill="none" id="n_id_188" stroke="#000000" stroke-linecap="round" stroke-linejoin="round" stroke-miterlimit="10" stroke-width="0.15" x1="376.3" x2="352.1" y1="160.8" y2="185" />
	</g>
	<g id="LINE_65_">
		
			<line fill="none" id="n_id_189" stroke="#000000" stroke-linecap="round" stroke-linejoin="round" stroke-miterlimit="10" stroke-width="0.15" x1="375.1" x2="350.9" y1="159.6" y2="183.8" />
	</g>
	<g id="LINE_66_">
		
			<line fill="none" id="n_id_190" stroke="#000000" stroke-linecap="round" stroke-linejoin="round" stroke-miterlimit="10" stroke-width="0.15" x1="376.3" x2="375.1" y1="160.8" y2="159.6" />
	</g>
	<g id="LINE_67_">
		
			<line fill="none" id="n_id_191" stroke="#000000" stroke-linecap="round" stroke-linejoin="round" stroke-miterlimit="10" stroke-width="0.15" x1="376.3" x2="352.1" y1="226.9" y2="202.7" />
	</g>
	<g id="LINE_68_">
		
			<line fill="none" id="n_id_192" stroke="#000000" stroke-linecap="round" stroke-linejoin="round" stroke-miterlimit="10" stroke-width="0.15" x1="375.1" x2="350.9" y1="228.1" y2="203.9" />
	</g>
	<g id="ARC_12_">
		
			<path d="    M375.1,193.8c-8.5,0.1-16.7,3.3-22.9,9" fill="none" id="n_id_193" stroke="#000000" stroke-linecap="round" stroke-linejoin="round" stroke-miterlimit="10" stroke-width="0.15" />
	</g>
	<g id="ARC_13_">
		
			<path d="    M352.2,184.9c6.3,5.7,14.5,8.9,22.9,9" fill="none" id="n_id_194" stroke="#000000" stroke-linecap="round" stroke-linejoin="round" stroke-miterlimit="10" stroke-width="0.15" />
	</g>
	<g id="LINE_69_">
		
			<line fill="none" id="n_id_195" stroke="#000000" stroke-linecap="round" stroke-linejoin="round" stroke-miterlimit="10" stroke-width="0.15" x1="352.1" x2="350.9" y1="185" y2="183.8" />
	</g>
	<g id="LINE_70_">
		
			<line fill="none" id="n_id_196" stroke="#000000" stroke-linecap="round" stroke-linejoin="round" stroke-miterlimit="10" stroke-width="0.15" x1="352.1" x2="350.9" y1="202.7" y2="203.9" />
	</g>
	<g id="LINE_71_">
		
			<line fill="none" id="n_id_197" stroke="#000000" stroke-linecap="round" stroke-linejoin="round" stroke-miterlimit="10" stroke-width="0.15" x1="376.3" x2="375.1" y1="226.9" y2="228.1" />
	</g>
	<g id="LWPOLYLINE_23_">
		
			<path d="    M218.4,283.2c0.1,0.7,0.2,1.5,0.4,2.2c0.2,0.9,0.6,1.7,1.2,2.4c0.5,0.7,1.1,1.3,1.9,1.7c0.6,0.4,1.3,0.5,2,0.5s1.4-0.2,2-0.5    c0.7-0.4,1.4-1,1.9-1.7s0.9-1.5,1.2-2.4c0.3-1,0.4-2,0.4-3.1" fill="none" id="n_id_198" stroke="#000000" stroke-linecap="round" stroke-linejoin="round" stroke-miterlimit="10" stroke-width="0.15" />
	</g>
	<g id="LWPOLYLINE_24_">
		
			<path d="    M231,282.3c0-1.4-0.2-2.7-0.7-4c-0.4-1.2-1-2.3-1.8-3.3c-0.8-0.9-1.8-1.7-2.9-2.3c-1-0.5-2.1-0.8-3.2-0.8c-1.1,0-2.2,0.3-3.2,0.8    c-1.1,0.5-2.1,1.3-2.9,2.3c-0.8,1-1.4,2.1-1.8,3.3c-0.4,1.3-0.7,2.6-0.7,4s0.2,2.7,0.7,4c0.4,1.2,1,2.3,1.8,3.3    c0.8,0.9,1.8,1.7,2.9,2.3c1,0.5,2.1,0.8,3.2,0.8c1.1,0,2.2-0.3,3.2-0.8c1.1-0.5,2.1-1.3,2.9-2.3c0.8-1,1.4-2.1,1.8-3.3    C230.7,285,231,283.7,231,282.3z" fill="none" id="n_id_199" stroke="#000000" stroke-linecap="round" stroke-linejoin="round" stroke-miterlimit="10" stroke-width="0.15" />
	</g>
	<g id="ARC_14_">
		
			<path d="    M216.8,281.3c-0.6-0.1-1.1,0.3-1.2,0.8s0.3,1.1,0.8,1.2c0.1,0,0.2,0,0.3,0" fill="none" id="n_id_200" stroke="#000000" stroke-linecap="round" stroke-linejoin="round" stroke-miterlimit="10" stroke-width="0.15" />
	</g>
	<g id="CIRCLE_6_">
		
			<path d="    M216.1,285.2c0-0.3,0.3-0.6,0.6-0.6s0.6,0.3,0.6,0.6c0,0.3-0.3,0.6-0.6,0.6C216.4,285.7,216.1,285.5,216.1,285.2L216.1,285.2z" fill="none" id="n_id_201" stroke="#000000" stroke-linecap="round" stroke-linejoin="round" stroke-miterlimit="10" stroke-width="0.15" />
	</g>
	<g id="CIRCLE_7_">
		
			<path d="    M216.1,279.5c0-0.3,0.3-0.6,0.6-0.6s0.6,0.3,0.6,0.6c0,0.3-0.3,0.6-0.6,0.6C216.4,280,216.1,279.8,216.1,279.5L216.1,279.5z" fill="none" id="n_id_202" stroke="#000000" stroke-linecap="round" stroke-linejoin="round" stroke-miterlimit="10" stroke-width="0.15" />
	</g>
	<g id="LWPOLYLINE_25_">
		
			<path d="    M229.2,282.3c0-1-0.1-2.1-0.4-3.1c-0.2-0.9-0.6-1.7-1.2-2.4c-0.5-0.7-1.1-1.3-1.9-1.7c-0.6-0.4-1.3-0.5-2-0.5s-1.4,0.2-2,0.5    c-0.7,0.4-1.4,1-1.9,1.7s-0.9,1.5-1.2,2.4c-0.2,0.7-0.3,1.4-0.4,2.2" fill="none" id="n_id_203" stroke="#000000" stroke-linecap="round" stroke-linejoin="round" stroke-miterlimit="10" stroke-width="0.15" />
	</g>
	<g id="ARC_15_">
		
			<path d="    M221.9,282.9c0.3,0,0.5-0.3,0.5-0.6" fill="none" id="n_id_204" stroke="#000000" stroke-linecap="round" stroke-linejoin="round" stroke-miterlimit="10" stroke-width="0.15" />
	</g>
	<g id="ARC_16_">
		
			<path d="    M222.4,282.3c0-0.3-0.2-0.5-0.5-0.6" fill="none" id="n_id_205" stroke="#000000" stroke-linecap="round" stroke-linejoin="round" stroke-miterlimit="10" stroke-width="0.15" />
	</g>
	<g id="LINE_73_">
		
			<line fill="none" id="n_id_206" stroke="#000000" stroke-linecap="round" stroke-linejoin="round" stroke-miterlimit="10" stroke-width="0.15" x1="222.4" x2="222.4" y1="282.4" y2="282.3" />
	</g>
	<g id="LINE_74_">
		
			<line fill="none" id="n_id_207" stroke="#000000" stroke-linecap="round" stroke-linejoin="round" stroke-miterlimit="10" stroke-width="0.15" x1="216.7" x2="221.9" y1="281.3" y2="281.7" />
	</g>
	<g id="LINE_75_">
		
			<line fill="none" id="n_id_208" stroke="#000000" stroke-linecap="round" stroke-linejoin="round" stroke-miterlimit="10" stroke-width="0.15" x1="216.7" x2="221.9" y1="283.3" y2="282.9" />
	</g>
	<g id="LINE_76_">
		
			<line fill="none" id="n_id_209" stroke="#000000" stroke-linecap="round" stroke-linejoin="round" stroke-miterlimit="10" stroke-width="0.15" x1="379.1" x2="422.5" y1="288.6" y2="288.6" />
	</g>
	<g id="LINE_77_">
		
			<line fill="none" id="n_id_210" stroke="#000000" stroke-linecap="round" stroke-linejoin="round" stroke-miterlimit="10" stroke-width="0.15" x1="424.8" x2="426.5" y1="288.6" y2="288.6" />
	</g>
	<g id="LINE_78_">
		
			<line fill="none" id="n_id_211" stroke="#000000" stroke-linecap="round" stroke-linejoin="round" stroke-miterlimit="10" stroke-width="0.15" x1="380.2" x2="379.1" y1="283.5" y2="283.5" />
	</g>
	<g id="LINE_79_">
		
			<line fill="none" id="n_id_212" stroke="#000000" stroke-linecap="round" stroke-linejoin="round" stroke-miterlimit="10" stroke-width="0.15" x1="379.1" x2="422.5" y1="391.4" y2="391.4" />
	</g>
	<g id="LINE_80_">
		
			<line fill="none" id="n_id_213" stroke="#000000" stroke-linecap="round" stroke-linejoin="round" stroke-miterlimit="10" stroke-width="0.15" x1="424.8" x2="426.5" y1="391.4" y2="391.4" />
	</g>
	<g id="LINE_81_">
		
			<line fill="none" id="n_id_214" stroke="#000000" stroke-linecap="round" stroke-linejoin="round" stroke-miterlimit="10" stroke-width="0.15" x1="379.1" x2="422.5" y1="414.2" y2="414.2" />
	</g>
	<g id="LINE_82_">
		
			<line fill="none" id="n_id_215" stroke="#000000" stroke-linecap="round" stroke-linejoin="round" stroke-miterlimit="10" stroke-width="0.15" x1="424.8" x2="426.5" y1="414.2" y2="414.2" />
	</g>
	<g id="LINE_83_">
		
			<line fill="none" id="n_id_216" stroke="#000000" stroke-linecap="round" stroke-linejoin="round" stroke-miterlimit="10" stroke-width="0.15" x1="379.1" x2="422.5" y1="402.8" y2="402.8" />
	</g>
	<g id="LINE_84_">
		
			<line fill="none" id="n_id_217" stroke="#000000" stroke-linecap="round" stroke-linejoin="round" stroke-miterlimit="10" stroke-width="0.15" x1="424.8" x2="426.5" y1="402.8" y2="402.8" />
	</g>
	<g id="LINE_85_">
		
			<line fill="none" id="n_id_218" stroke="#000000" stroke-linecap="round" stroke-linejoin="round" stroke-miterlimit="10" stroke-width="0.15" x1="234.4" x2="209.3" y1="346.8" y2="346.8" />
	</g>
	<g id="LINE_90_">
		
			<line fill="none" id="n_id_219" stroke="#000000" stroke-linecap="round" stroke-linejoin="round" stroke-miterlimit="10" stroke-width="0.15" x1="255.2" x2="297.5" y1="180.1" y2="180.1" />
	</g>
	<g id="LINE_91_">
		
			<line fill="none" id="n_id_220" stroke="#000000" stroke-linecap="round" stroke-linejoin="round" stroke-miterlimit="10" stroke-width="0.15" x1="255.2" x2="297.5" y1="181.8" y2="181.8" />
	</g>
	<g id="LINE_92_">
		
			<line fill="none" id="n_id_221" stroke="#000000" stroke-linecap="round" stroke-linejoin="round" stroke-miterlimit="10" stroke-width="0.15" x1="257.5" x2="215.3" y1="182.4" y2="182.4" />
	</g>
	<g id="LINE_93_">
		
			<line fill="none" id="n_id_222" stroke="#000000" stroke-linecap="round" stroke-linejoin="round" stroke-miterlimit="10" stroke-width="0.15" x1="257.5" x2="215.3" y1="184.1" y2="184.1" />
	</g>
	<g id="LINE_94_">
		
			<line fill="none" id="n_id_223" stroke="#000000" stroke-linecap="round" stroke-linejoin="round" stroke-miterlimit="10" stroke-width="0.15" x1="255.2" x2="252.9" y1="184.1" y2="184.1" />
	</g>
	<g id="LINE_95_">
		
			<line fill="none" id="n_id_224" stroke="#000000" stroke-linecap="round" stroke-linejoin="round" stroke-miterlimit="10" stroke-width="0.15" x1="255.2" x2="255.2" y1="180.1" y2="181.8" />
	</g>
	<g id="LINE_96_">
		
			<line fill="none" id="n_id_225" stroke="#000000" stroke-linecap="round" stroke-linejoin="round" stroke-miterlimit="10" stroke-width="0.15" x1="257.5" x2="257.5" y1="184.1" y2="182.4" />
	</g>
	<g id="LINE_97_">
		
			<line fill="none" id="n_id_226" stroke="#000000" stroke-linecap="round" stroke-linejoin="round" stroke-miterlimit="10" stroke-width="0.15" x1="309.7" x2="290.4" y1="356" y2="335.4" />
	</g>
	<g id="ARC_17_">
		
			<path d="    M290.4,335.4c-5.2,5.6-8,12.9-8,20.5" fill="none" id="n_id_227" stroke="#000000" stroke-linecap="round" stroke-linejoin="round" stroke-miterlimit="10" stroke-width="0.15" />
	</g>
	<g id="CIRCLE_8_">
		
			<path d="    M296,381.9c0-1.3,1-2.3,2.3-2.3s2.3,1,2.3,2.3s-1,2.3-2.3,2.3C297.1,384.2,296,383.2,296,381.9L296,381.9z" fill="none" id="n_id_228" stroke="#000000" stroke-linecap="round" stroke-linejoin="round" stroke-miterlimit="10" stroke-width="0.15" />
	</g>
	<g id="LWPOLYLINE_26_">
		
			<polygon fill="none" id="n_id_229" points="    315.9,383.9 319.3,381.9 315.9,380   " stroke="#000000" stroke-linecap="round" stroke-linejoin="round" stroke-miterlimit="10" stroke-width="0.15" />
	</g>
	<g id="LINE_98_">
		
			<line fill="none" id="n_id_230" stroke="#000000" stroke-linecap="round" stroke-linejoin="round" stroke-miterlimit="10" stroke-width="0.15" x1="322" x2="319.3" y1="381.9" y2="381.9" />
	</g>
	<g id="LINE_99_">
		
			<line fill="none" id="n_id_231" stroke="#000000" stroke-linecap="round" stroke-linejoin="round" stroke-miterlimit="10" stroke-width="0.15" x1="321.7" x2="309.7" y1="356" y2="356" />
	</g>
	<g id="LINE_100_">
		
			<line fill="none" id="n_id_232" stroke="#000000" stroke-linecap="round" stroke-linejoin="round" stroke-miterlimit="10" stroke-width="0.15" x1="282.3" x2="274.9" y1="356" y2="356" />
	</g>
	<g id="LINE_101_">
		
			<line fill="none" id="n_id_233" stroke="#000000" stroke-linecap="round" stroke-linejoin="round" stroke-miterlimit="10" stroke-width="0.15" x1="321.7" x2="309.7" y1="358.2" y2="358.2" />
	</g>
	<g id="LINE_102_">
		
			<line fill="none" id="n_id_234" stroke="#000000" stroke-linecap="round" stroke-linejoin="round" stroke-miterlimit="10" stroke-width="0.15" x1="282.3" x2="274.9" y1="358.2" y2="358.2" />
	</g>
	<g id="LINE_103_">
		
			<line fill="none" id="n_id_235" stroke="#000000" stroke-linecap="round" stroke-linejoin="round" stroke-miterlimit="10" stroke-width="0.15" x1="321.7" x2="274.9" y1="360" y2="360" />
	</g>
	<g id="LINE_104_">
		
			<line fill="none" id="n_id_236" stroke="#000000" stroke-linecap="round" stroke-linejoin="round" stroke-miterlimit="10" stroke-width="0.15" x1="282.3" x2="282.3" y1="358.2" y2="356" />
	</g>
	<g id="LINE_105_">
		
			<line fill="none" id="n_id_237" stroke="#000000" stroke-linecap="round" stroke-linejoin="round" stroke-miterlimit="10" stroke-width="0.15" x1="309.7" x2="309.7" y1="358.2" y2="356" />
	</g>
	<g id="LINE_106_">
		
			<line fill="none" id="n_id_238" stroke="#000000" stroke-linecap="round" stroke-linejoin="round" stroke-miterlimit="10" stroke-width="0.15" x1="321.7" x2="299.9" y1="360" y2="380.3" />
	</g>
	<g id="LINE_107_">
		
			<line fill="none" id="n_id_239" stroke="#000000" stroke-linecap="round" stroke-linejoin="round" stroke-miterlimit="10" stroke-width="0.15" x1="275.5" x2="296.7" y1="360" y2="380.3" />
	</g>
	<g id="LINE_108_">
		
			<line fill="none" id="n_id_240" stroke="#000000" stroke-linecap="round" stroke-linejoin="round" stroke-miterlimit="10" stroke-width="0.15" x1="296.7" x2="275.5" y1="383.5" y2="403.9" />
	</g>
	<g id="LINE_109_">
		
			<line fill="none" id="n_id_241" stroke="#000000" stroke-linecap="round" stroke-linejoin="round" stroke-miterlimit="10" stroke-width="0.15" x1="299.9" x2="321.7" y1="383.5" y2="403.9" />
	</g>
	<g id="LINE_110_">
		
			<line fill="none" id="n_id_242" stroke="#000000" stroke-linecap="round" stroke-linejoin="round" stroke-miterlimit="10" stroke-width="0.15" x1="270.3" x2="274.9" y1="356" y2="356" />
	</g>
	<g id="LINE_111_">
		
			<line fill="none" id="n_id_243" stroke="#000000" stroke-linecap="round" stroke-linejoin="round" stroke-miterlimit="10" stroke-width="0.15" x1="274.9" x2="274.9" y1="403.9" y2="356" />
	</g>
	<g id="LINE_112_">
		
			<line fill="none" id="n_id_244" stroke="#000000" stroke-linecap="round" stroke-linejoin="round" stroke-miterlimit="10" stroke-width="0.15" x1="270.3" x2="270.3" y1="356" y2="403.9" />
	</g>
	<g id="LINE_113_">
		
			<line fill="none" id="n_id_245" stroke="#000000" stroke-linecap="round" stroke-linejoin="round" stroke-miterlimit="10" stroke-width="0.15" x1="270.3" x2="270.3" y1="356" y2="403.9" />
	</g>
	<g id="LINE_114_">
		
			<line fill="none" id="n_id_246" stroke="#000000" stroke-linecap="round" stroke-linejoin="round" stroke-miterlimit="10" stroke-width="0.15" x1="203" x2="203" y1="403.9" y2="356" />
	</g>
	<g id="LINE_115_">
		
			<line fill="none" id="n_id_247" stroke="#000000" stroke-linecap="round" stroke-linejoin="round" stroke-miterlimit="10" stroke-width="0.15" x1="321.7" x2="203" y1="403.9" y2="403.9" />
	</g>
	<g id="LINE_116_">
		
			<line fill="none" id="n_id_248" stroke="#000000" stroke-linecap="round" stroke-linejoin="round" stroke-miterlimit="10" stroke-width="0.15" x1="270.3" x2="203" y1="356" y2="356" />
	</g>
	<g id="CIRCLE_9_">
		
			<path d="    M211.9,379.9c0-0.9,0.7-1.6,1.6-1.6s1.6,0.7,1.6,1.6s-0.7,1.6-1.6,1.6S211.9,380.8,211.9,379.9L211.9,379.9z" fill="none" id="n_id_249" stroke="#000000" stroke-linecap="round" stroke-linejoin="round" stroke-miterlimit="10" stroke-width="0.15" />
	</g>
	<g id="LINE_117_">
		
			<line fill="none" id="n_id_250" stroke="#000000" stroke-linecap="round" stroke-linejoin="round" stroke-miterlimit="10" stroke-width="0.15" x1="310.6" x2="310.6" y1="278.1" y2="220.8" />
	</g>
	<g id="LINE_118_">
		
			<line fill="none" id="n_id_251" stroke="#000000" stroke-linecap="round" stroke-linejoin="round" stroke-miterlimit="10" stroke-width="0.15" x1="331.3" x2="309.5" y1="241.6" y2="219.8" />
	</g>
	<g id="LINE_119_">
		
			<line fill="none" id="n_id_252" stroke="#000000" stroke-linecap="round" stroke-linejoin="round" stroke-miterlimit="10" stroke-width="0.15" x1="309.5" x2="310.6" y1="219.8" y2="218.7" />
	</g>
	<g id="ARC_18_">
		
			<path d="    M310.6,249.5c7.6-0.1,15-2.9,20.7-7.9" fill="none" id="n_id_253" stroke="#000000" stroke-linecap="round" stroke-linejoin="round" stroke-miterlimit="10" stroke-width="0.15" />
	</g>
	<g id="LINE_120_">
		
			<line fill="none" id="n_id_254" stroke="#000000" stroke-linecap="round" stroke-linejoin="round" stroke-miterlimit="10" stroke-width="0.15" x1="310.6" x2="332.4" y1="218.7" y2="240.5" />
	</g>
	<g id="LINE_121_">
		
			<line fill="none" id="n_id_255" stroke="#000000" stroke-linecap="round" stroke-linejoin="round" stroke-miterlimit="10" stroke-width="0.15" x1="331.3" x2="332.4" y1="241.6" y2="240.5" />
	</g>
	<g id="LINE_122_">
		
			<line fill="none" id="n_id_256" stroke="#000000" stroke-linecap="round" stroke-linejoin="round" stroke-miterlimit="10" stroke-width="0.15" x1="331.3" x2="309.5" y1="257.4" y2="279.2" />
	</g>
	<g id="LINE_123_">
		
			<line fill="none" id="n_id_257" stroke="#000000" stroke-linecap="round" stroke-linejoin="round" stroke-miterlimit="10" stroke-width="0.15" x1="309.5" x2="310.6" y1="279.2" y2="280.3" />
	</g>
	<g id="ARC_19_">
		
			<path d="    M331.3,257.4c-5.7-5-13.1-7.8-20.7-7.9" fill="none" id="n_id_258" stroke="#000000" stroke-linecap="round" stroke-linejoin="round" stroke-miterlimit="10" stroke-width="0.15" />
	</g>
	<g id="LINE_124_">
		
			<line fill="none" id="n_id_259" stroke="#000000" stroke-linecap="round" stroke-linejoin="round" stroke-miterlimit="10" stroke-width="0.15" x1="310.6" x2="332.4" y1="280.3" y2="258.5" />
	</g>
	<g id="LINE_125_">
		
			<line fill="none" id="n_id_260" stroke="#000000" stroke-linecap="round" stroke-linejoin="round" stroke-miterlimit="10" stroke-width="0.15" x1="331.3" x2="332.4" y1="257.4" y2="258.5" />
	</g>
	<g id="ARC_20_">
		
			<path d="    M386.2,601.4c-21.9,1.1-39.1,19.2-39.1,41.1" fill="none" id="n_id_261" stroke="#000000" stroke-linecap="round" stroke-linejoin="round" stroke-miterlimit="10" stroke-width="0.15" />
	</g>
	<g id="LINE_126_">
		
			<line fill="none" id="n_id_262" stroke="#000000" stroke-linecap="round" stroke-linejoin="round" stroke-miterlimit="10" stroke-width="0.15" x1="388.2" x2="388.2" y1="642.5" y2="601.4" />
	</g>
	<g id="LINE_127_">
		
			<line fill="none" id="n_id_263" stroke="#000000" stroke-linecap="round" stroke-linejoin="round" stroke-miterlimit="10" stroke-width="0.15" x1="386.2" x2="386.2" y1="642.5" y2="601.4" />
	</g>
	<g id="LINE_128_">
		
			<line fill="none" id="n_id_264" stroke="#000000" stroke-linecap="round" stroke-linejoin="round" stroke-miterlimit="10" stroke-width="0.15" x1="386.2" x2="388.2" y1="642.5" y2="642.5" />
	</g>
	<g id="LINE_129_">
		
			<line fill="none" id="n_id_265" stroke="#000000" stroke-linecap="round" stroke-linejoin="round" stroke-miterlimit="10" stroke-width="0.15" x1="386.2" x2="388.2" y1="601.4" y2="601.4" />
	</g>
	<g id="LWPOLYLINE_35_">
		
			<polyline fill="none" id="n_id_266" points="    381.4,259.5 400.8,259.5 400.8,418.4   " stroke="#000000" stroke-linecap="round" stroke-linejoin="round" stroke-miterlimit="10" stroke-width="0.15" />
	</g>
	<g id="LWPOLYLINE_36_">
		
			<path d="    M209.6,360.5H265c1.1,0,2,0.9,2,2v34.8c0,1.1-0.9,2-2,2h-55.4c-1.1,0-2-0.9-2-2v-34.8C207.6,361.4,208.5,360.5,209.6,360.5z" fill="none" id="n_id_267" stroke="#000000" stroke-linecap="round" stroke-linejoin="round" stroke-miterlimit="10" stroke-width="0.15" />
	</g>
	<g id="LWPOLYLINE_14_">
		
			<polygon fill="none" id="n_id_268" points="    216.5,250.1 207.6,250.1 207.6,226.1 216.5,226.1 216.5,229.1 215.5,231.1 215.5,245.1 216.5,247.1   " stroke="#000000" stroke-linecap="round" stroke-linejoin="round" stroke-miterlimit="10" stroke-width="0.15" />
	</g>
	<g id="ELLIPSE">
		
			<path d="    M219.1,233.4c0.6-0.6,1.3-1.1,2.1-1.6c4.5-2.6,10.9-1.9,14.3,1.6s2.5,8.4-2.1,11c-4.5,2.6-10.9,1.9-14.3-1.6" fill="none" id="n_id_269" stroke="#000000" stroke-linecap="round" stroke-linejoin="round" stroke-miterlimit="10" stroke-width="0.15" />
	</g>
	<g id="LWPOLYLINE_15_">
		
			<polyline fill="none" id="n_id_270" points="    219.1,242.8 217.1,242.8 217.1,233.4 219.1,233.4   " stroke="#000000" stroke-linecap="round" stroke-linejoin="round" stroke-miterlimit="10" stroke-width="0.15" />
	</g>
	<g id="LWPOLYLINE_21_">
		
			<polygon fill="none" id="n_id_271" points="    411.5,70 420.5,70 420.5,93.9 411.5,93.9 411.5,90.9 412.5,88.9 412.5,74.9 411.5,73   " stroke="#000000" stroke-linecap="round" stroke-linejoin="round" stroke-miterlimit="10" stroke-width="0.15" />
	</g>
	<g id="ELLIPSE_1_">
		
			<path d="    M408.9,86.7c-0.6,0.6-1.3,1.1-2.1,1.6c-4.5,2.6-10.9,1.9-14.3-1.6s-2.5-8.4,2.1-11c4.5-2.6,10.9-1.9,14.3,1.6" fill="none" id="n_id_272" stroke="#000000" stroke-linecap="round" stroke-linejoin="round" stroke-miterlimit="10" stroke-width="0.15" />
	</g>
	<g id="LWPOLYLINE_22_">
		
			<polyline fill="none" id="n_id_273" points="    408.9,77.2 411,77.2 411,86.7 408.9,86.7   " stroke="#000000" stroke-linecap="round" stroke-linejoin="round" stroke-miterlimit="10" stroke-width="0.15" />
	</g>
	<g id="LINE_130_">
		
			<line fill="none" id="n_id_274" stroke="#000000" stroke-linecap="round" stroke-linejoin="round" stroke-miterlimit="10" stroke-width="0.15" x1="399.1" x2="399.1" y1="588.3" y2="623.7" />
	</g>
	<g id="LINE_131_">
		
			<line fill="none" id="n_id_275" stroke="#000000" stroke-linecap="round" stroke-linejoin="round" stroke-miterlimit="10" stroke-width="0.15" x1="397.4" x2="397.4" y1="588.3" y2="623.7" />
	</g>
	<g id="LINE_132_">
		
			<line fill="none" id="n_id_276" stroke="#000000" stroke-linecap="round" stroke-linejoin="round" stroke-miterlimit="10" stroke-width="0.15" x1="396.8" x2="396.8" y1="590.6" y2="555.2" />
	</g>
	<g id="LINE_133_">
		
			<line fill="none" id="n_id_277" stroke="#000000" stroke-linecap="round" stroke-linejoin="round" stroke-miterlimit="10" stroke-width="0.15" x1="395.1" x2="395.1" y1="590.6" y2="555.2" />
	</g>
	<g id="LINE_134_">
		
			<line fill="none" id="n_id_278" stroke="#000000" stroke-linecap="round" stroke-linejoin="round" stroke-miterlimit="10" stroke-width="0.15" x1="395.1" x2="395.1" y1="588.3" y2="586" />
	</g>
	<g id="LINE_135_">
		
			<line fill="none" id="n_id_279" stroke="#000000" stroke-linecap="round" stroke-linejoin="round" stroke-miterlimit="10" stroke-width="0.15" x1="399.1" x2="397.4" y1="588.3" y2="588.3" />
	</g>
	<g id="LINE_136_">
		
			<line fill="none" id="n_id_280" stroke="#000000" stroke-linecap="round" stroke-linejoin="round" stroke-miterlimit="10" stroke-width="0.15" x1="395.1" x2="396.8" y1="590.6" y2="590.6" />
	</g>
	<g id="LINE_137_">
		
			<line fill="none" id="n_id_281" stroke="#000000" stroke-linecap="round" stroke-linejoin="round" stroke-miterlimit="10" stroke-width="0.15" x1="399.1" x2="399.1" y1="483.8" y2="519.2" />
	</g>
	<g id="LINE_138_">
		
			<line fill="none" id="n_id_282" stroke="#000000" stroke-linecap="round" stroke-linejoin="round" stroke-miterlimit="10" stroke-width="0.15" x1="397.4" x2="397.4" y1="483.8" y2="519.2" />
	</g>
	<g id="LINE_139_">
		
			<line fill="none" id="n_id_283" stroke="#000000" stroke-linecap="round" stroke-linejoin="round" stroke-miterlimit="10" stroke-width="0.15" x1="396.8" x2="396.8" y1="486.1" y2="450.7" />
	</g>
	<g id="LINE_140_">
		
			<line fill="none" id="n_id_284" stroke="#000000" stroke-linecap="round" stroke-linejoin="round" stroke-miterlimit="10" stroke-width="0.15" x1="395.1" x2="395.1" y1="486.1" y2="450.7" />
	</g>
	<g id="LINE_141_">
		
			<line fill="none" id="n_id_285" stroke="#000000" stroke-linecap="round" stroke-linejoin="round" stroke-miterlimit="10" stroke-width="0.15" x1="395.1" x2="395.1" y1="483.8" y2="481.6" />
	</g>
	<g id="LINE_142_">
		
			<line fill="none" id="n_id_286" stroke="#000000" stroke-linecap="round" stroke-linejoin="round" stroke-miterlimit="10" stroke-width="0.15" x1="399.1" x2="397.4" y1="483.8" y2="483.8" />
	</g>
	<g id="LINE_143_">
		
			<line fill="none" id="n_id_287" stroke="#000000" stroke-linecap="round" stroke-linejoin="round" stroke-miterlimit="10" stroke-width="0.15" x1="395.1" x2="396.8" y1="486.1" y2="486.1" />
	</g>
	<g id="LWPOLYLINE_30_">
		
			<polygon fill="none" id="n_id_288" points="    197.6,717.3 240.9,717.3 240.9,711 201.6,711 201.6,648.8 256.9,648.8 256.9,644.8 254.7,644.8 254.7,642.5 201.6,642.5     201.6,407.9 331.7,407.9 331.7,401.6 328.3,401.6 328.3,350.3 322,350.3 322,403.9 203,403.9 203,346.8 209.3,346.8 209.3,264.6     239.5,264.6 239.5,260.6 207,260.6 207,215.5 278.3,215.5 278.3,260.6 273.8,260.6 273.8,264.6 278.3,264.6 278.3,287.5     322,287.5 322,309.1 328.3,309.1 328.3,287.5 332.9,287.5 332.9,283.5 310.6,283.5 310.6,280.3 309.5,280.3 309.5,283.5     282.3,283.5 282.3,215.5 309.5,215.5 309.5,218.7 310.6,218.7 310.6,180.1 315.4,175.3 312.6,172.5 304.9,180.1 297.5,180.1     297.5,184.1 306.6,184.1 306.6,211.5 201.6,211.5 201.6,184.1 215.3,184.1 215.3,180.1 201.6,180.1 201.6,26 247.8,26 247.8,22     197.6,22   " stroke="#000000" stroke-linecap="round" stroke-linejoin="round" stroke-miterlimit="10" stroke-width="0.15" />
	</g>
	<g id="LWPOLYLINE_31_">
		
			<polygon fill="none" id="n_id_289" points="    430.5,717.3 412.8,717.3 412.8,711 426.5,711 426.5,648.8 388.2,648.8 388.2,642.5 395.1,642.5 395.1,623.6 399.1,623.6     399.1,642.5 426.5,642.5 426.5,539.2 399.1,539.2 399.1,555.2 395.1,555.2 395.1,519.2 399.1,519.2 399.1,535.2 426.5,535.2     426.5,432.5 399.1,432.5 399.1,450.7 395.1,450.7 395.1,432.5 375.1,432.5 375.1,407.9 371.7,407.9 371.7,401.6 375.1,401.6     375.1,287.5 369.4,287.5 369.4,283.5 379.1,283.5 379.1,428.5 426.5,428.5 426.5,235.5 375.1,235.5 375.1,228.1 379.1,228.1     379.1,231.5 418.8,231.5 418.8,156.2 379.1,156.2 379.1,159.6 375.1,159.6 375.1,138.5 352.3,138.5 341.3,149.5 338.4,146.6     348.6,136.5 348.6,63.7 352.5,63.7 352.6,134.5 421.1,134.5 421.1,26 413.9,26 413.9,22 430.5,22   " stroke="#000000" stroke-linecap="round" stroke-linejoin="round" stroke-miterlimit="10" stroke-width="0.15" />
	</g>
	<g id="LWPOLYLINE_32_">
		
			<polygon fill="none" id="n_id_290" points="    325.4,22 325.4,26 348.6,26 348.6,29.4 352.6,29.4 352.6,26 391.1,26 391.1,22   " stroke="#000000" stroke-linecap="round" stroke-linejoin="round" stroke-miterlimit="10" stroke-width="0.15" />
	</g>
	<g id="LWPOLYLINE_33_">
		
			<rect fill="none" height="6.3" id="n_id_291" stroke="#000000" stroke-linecap="round" stroke-linejoin="round" stroke-miterlimit="10" stroke-width="0.15" width="62.2" x="309.5" y="711" />
	</g>
	<g id="LWPOLYLINE_34_">
		
			<polygon fill="none" id="n_id_292" points="    293.5,648.8 293.5,644.8 295.8,644.8 295.8,642.5 347.1,642.6 347.1,648.8   " stroke="#000000" stroke-linecap="round" stroke-linejoin="round" stroke-miterlimit="10" stroke-width="0.15" />
	</g>
</g>
<g id="_x33_60dash">
	<g id="LINE">
		
			<line fill="none" id="n_id_293" stroke="#000000" stroke-dasharray="4.9981,2.499" stroke-linecap="round" stroke-linejoin="round" stroke-miterlimit="10" stroke-width="0.15" x1="328.3" x2="328.3" y1="309.1" y2="350.3" />
	</g>
	<g id="LINE_1_">
		
			<line fill="none" id="n_id_294" stroke="#000000" stroke-dasharray="4.9981,2.499" stroke-linecap="round" stroke-linejoin="round" stroke-miterlimit="10" stroke-width="0.15" x1="322" x2="322" y1="350.3" y2="309.1" />
	</g>
	<g id="LINE_72_">
		
			<line fill="none" id="n_id_295" stroke="#000000" stroke-dasharray="4.9981,2.499" stroke-linecap="round" stroke-linejoin="round" stroke-miterlimit="10" stroke-width="0.15" x1="408.8" x2="408.8" y1="156.2" y2="231.5" />
	</g>
	<g id="LINE_86_">
		
			<line fill="none" id="n_id_296" stroke="#000000" stroke-dasharray="4.9981,2.499" stroke-linecap="round" stroke-linejoin="round" stroke-miterlimit="10" stroke-width="0.15" x1="306.6" x2="201.6" y1="198.4" y2="198.4" />
	</g>
	<g id="LINE_87_">
		
			<line fill="none" id="n_id_297" stroke="#000000" stroke-dasharray="4.9981,2.499" stroke-linecap="round" stroke-linejoin="round" stroke-miterlimit="10" stroke-width="0.15" x1="306.6" x2="201.6" y1="196.1" y2="196.1" />
	</g>
	<g id="LINE_88_">
		
			<line fill="none" id="n_id_298" stroke="#000000" stroke-dasharray="4.9981,2.499" stroke-linecap="round" stroke-linejoin="round" stroke-miterlimit="10" stroke-width="0.15" x1="331.7" x2="371.7" y1="401.6" y2="401.6" />
	</g>
	<g id="LINE_89_">
		
			<line fill="none" id="n_id_299" stroke="#000000" stroke-dasharray="4.9981,2.499" stroke-linecap="round" stroke-linejoin="round" stroke-miterlimit="10" stroke-width="0.15" x1="331.7" x2="371.7" y1="407.9" y2="407.9" />
	</g>
	<g id="LINE_144_">
		
			<line fill="none" id="n_id_300" stroke="#000000" stroke-dasharray="4.9981,2.499" stroke-linecap="round" stroke-linejoin="round" stroke-miterlimit="10" stroke-width="0.15" x1="412.8" x2="412.8" y1="432.5" y2="642.5" />
	</g>
	<g id="LINE_145_">
		
			<line fill="none" id="n_id_301" stroke="#000000" stroke-dasharray="4.9981,2.499" stroke-linecap="round" stroke-linejoin="round" stroke-miterlimit="10" stroke-width="0.15" x1="410.5" x2="410.5" y1="432.5" y2="535.2" />
	</g>
	<g id="LINE_146_">
		
			<line fill="none" id="n_id_302" stroke="#000000" stroke-dasharray="4.9981,2.499" stroke-linecap="round" stroke-linejoin="round" stroke-miterlimit="10" stroke-width="0.15" x1="410.5" x2="410.5" y1="539.2" y2="642.5" />
	</g>
</g>
<g id="_x33_60walls">
	<g id="LWPOLYLINE_9_">
		
			<line fill="none" id="n_id_303" stroke="#000000" stroke-linecap="round" stroke-linejoin="round" stroke-miterlimit="10" stroke-width="0.15" x1="254.7" x2="295.8" y1="644.8" y2="644.8" />
	</g>
	<g id="LWPOLYLINE_10_">
		
			<line fill="none" id="n_id_304" stroke="#000000" stroke-linecap="round" stroke-linejoin="round" stroke-miterlimit="10" stroke-width="0.15" x1="254.7" x2="295.8" y1="642.5" y2="642.5" />
	</g>
	<g id="LWPOLYLINE_27_">
		
			<polyline fill="none" id="n_id_305" points="    388.2,648.8 388.2,651.7 347.1,651.7 347.1,648.8   " stroke="#000000" stroke-linecap="round" stroke-linejoin="round" stroke-miterlimit="10" stroke-width="0.15" />
	</g>
	<g id="LINE_147_">
		
			<line fill="none" id="n_id_306" stroke="#000000" stroke-linecap="round" stroke-linejoin="round" stroke-miterlimit="10" stroke-width="0.15" x1="412.8" x2="371.7" y1="711" y2="711" />
	</g>
	<g id="LINE_148_">
		
			<line fill="none" id="n_id_307" stroke="#000000" stroke-linecap="round" stroke-linejoin="round" stroke-miterlimit="10" stroke-width="0.15" x1="309.5" x2="240.9" y1="711" y2="711" />
	</g>
	<g id="LWPOLYLINE_28_">
		
			<path d="    M411.1,711v-3.1c0-0.2-0.1-0.3-0.3-0.3h-37.1c-0.2,0-0.3,0.1-0.3,0.3v3.1" fill="none" id="n_id_308" stroke="#000000" stroke-linecap="round" stroke-linejoin="round" stroke-miterlimit="10" stroke-width="0.15" />
	</g>
	<g id="LWPOLYLINE_29_">
		
			<polyline fill="none" id="n_id_309" points="    409.4,711 409.4,709.3 375.1,709.3 375.1,711   " stroke="#000000" stroke-linecap="round" stroke-linejoin="round" stroke-miterlimit="10" stroke-width="0.15" />
	</g>
	<g id="LINE_149_">
		
			<line fill="none" id="n_id_310" stroke="#000000" stroke-linecap="round" stroke-linejoin="round" stroke-miterlimit="10" stroke-width="0.15" x1="256.9" x2="293.5" y1="648.8" y2="648.8" />
	</g>
	<g id="LINE_150_">
		
			<line fill="none" id="n_id_311" stroke="#000000" stroke-linecap="round" stroke-linejoin="round" stroke-miterlimit="10" stroke-width="0.15" x1="240.9" x2="309.5" y1="717.3" y2="717.3" />
	</g>
	<g id="LINE_151_">
		
			<line fill="none" id="n_id_312" stroke="#000000" stroke-linecap="round" stroke-linejoin="round" stroke-miterlimit="10" stroke-width="0.15" x1="371.7" x2="412.8" y1="717.3" y2="717.3" />
	</g>
</g>
<g id="_x33_60hatch">
	<g id="HATCH">
		<path d="M197.6,22v695.3H241V711h-39.4v-62.2H257v-4h-2.3v-2.3h-53.1V407.9h130.2v-6.3h-3.4v-51.4H322v53.7H203v-57.1h6.3v-82.2    h30.3v-4H207v-45.1h71.4v45.1h-4.6v4h4.6v22.8H322v21.7h6.3v-21.7h4.6v-4h-22.3v-3.1h-1.1v3.1h-27.1v-67.9h27.1v3.1h1.1v-38.5    l4.8-4.8l-2.8-2.8l-7.7,7.7h-7.5v4h9.1v27.4h-105v-27.4h13.7v-4h-13.7V26h46.2v-4H197.6z M348.6,26v3.4h4V26h38.5v-4h-65.7v4    H348.6z M413.9,22v4h7.1v108.5h-68.5l-0.1-70.8h-3.9v72.8l-10.1,10.1l2.8,2.8l11-11H375v21.1h4v-3.4h39.7v75.4H379v-3.4h-4v7.4    h51.4v193H379v-145h-9.7v4h5.7v114.2h-3.4v6.3h3.4v24.5h20v18.3h4v-18.3h27.4v102.8H399v-16h-4v36h4v-16h27.4v103.3H399v-19h-4v19    h-6.9v6.3h38.2V711h-13.7v6.3h17.7V22H413.9z M347.1,648.8v-6.3h-51.4v2.3h-2.3v4H347.1z M309.5,711v6.3h62.2V711H309.5z" id="n_id_313" />
	</g>
</g>
</svg>