<svg xmlns="http://www.w3.org/2000/svg" height="610.727px" id="ladywell_x5F_floorplan_x5F_chawleigh_x5F_first" style="enable-background:new 0 0 924.632 610.727;" version="1.0" viewBox="0 0 924.632 610.727" width="924.632px" x="0px" y="0px" xml:space="preserve">
<style id="n_id_0" type="text/css">
	.st0{fill:#231F20;}
</style>
<g id="n_id_1">
	<path class="st0" d="M466.204,263.483h-0.5v4.499c-0.01,2.152-1.279,4.118-3.214,5c-1.605,0.583-3.286,0.863-4.995,0.855   c-1.857,0.135-3.75,0.183-5.637,0.136c-1.886,0.002-3.777-0.043-5.648-0.137c-1.7,0.014-3.369-0.27-4.958-0.847   c-1.954-0.89-3.223-2.856-3.232-5.007v-4.5h-0.5v4.501c0.01,2.347,1.394,4.49,3.543,5.468c1.506,0.547,3.088,0.838,4.648,0.869   l-0.022,0.665c-0.012,0.354-0.151,0.693-0.393,0.956c-0.507,0.549-0.974,1.137-1.393,1.745c-0.363,0.202-0.654,0.517-0.806,0.913   c-1.334,3.398-2.01,6.973-2.01,10.625c0,4.205,1.858,8.162,5.098,10.857c1.601,1.312,3.623,2.036,5.693,2.036   s4.094-0.723,5.697-2.037c2.689-2.235,4.447-5.374,4.949-8.838c0.096-0.661,0.145-1.34,0.145-2.018   c0-3.655-0.676-7.23-2.008-10.624c-0.158-0.405-0.456-0.726-0.83-0.927c-0.436-0.625-0.904-1.21-1.394-1.735   c-0.241-0.265-0.38-0.605-0.392-0.96l-0.024-0.664c1.576-0.048,3.142-0.319,4.657-0.871c2.13-0.97,3.514-3.114,3.525-5.462V263.483   z M460.195,278.783c1.31,3.336,1.974,6.849,1.974,10.442c0,0.655-0.047,1.31-0.14,1.947c-0.484,3.341-2.18,6.369-4.772,8.524   c-1.513,1.24-3.424,1.922-5.379,1.922s-3.865-0.683-5.375-1.921c-3.125-2.599-4.917-6.415-4.917-10.472   c0-3.589,0.665-7.103,1.977-10.444c0.159-0.413,0.517-0.714,0.957-0.805c2.418-0.487,4.894-0.733,7.359-0.733   s4.941,0.247,7.357,0.733C459.675,278.067,460.034,278.369,460.195,278.783z M457.546,274.997c0.016,0.473,0.201,0.927,0.524,1.281   c0.332,0.356,0.649,0.748,0.957,1.153c-4.71-0.907-9.605-0.906-14.317,0.003c0.3-0.397,0.613-0.786,0.953-1.154   c0.323-0.351,0.509-0.805,0.525-1.278l0.022-0.667c1.862,0.095,3.764,0.137,5.643,0.137c0.469,0.011,0.939,0.017,1.409,0.017   c1.428,0,2.855-0.051,4.249-0.153c0.004,0,0.007,0,0.011,0L457.546,274.997z" id="n_id_2" />
	<circle class="st0" cx="491.083" cy="272.474" id="n_id_3" r="1.747" />
	<path class="st0" d="M520.981,348.686h29.135c2.931,0,5.315-2.501,5.315-5.574v-75.901c0-3.069-2.385-5.565-5.315-5.565h-29.135   c-2.925,0-5.305,2.496-5.305,5.565v75.901C515.677,346.185,518.057,348.686,520.981,348.686z M516.177,267.211   c0-2.793,2.155-5.065,4.805-5.065h29.135c2.655,0,4.815,2.272,4.815,5.065v75.901c0,2.798-2.16,5.074-4.815,5.074h-29.135   c-2.649,0-4.805-2.276-4.805-5.074V267.211z" id="n_id_4" />
	<circle class="st0" cx="506.684" cy="567.376" id="n_id_5" r="1.747" />
	<path class="st0" d="M437.937,485.037h-24.098c-2.442,0-4.43,2.497-4.43,5.565v75.9c0,3.074,1.987,5.574,4.43,5.574h24.098   c2.448,0,4.439-2.5,4.439-5.574v-75.9C442.376,487.533,440.384,485.037,437.937,485.037z M441.876,566.502   c0,2.798-1.767,5.074-3.939,5.074h-24.098c-2.167,0-3.93-2.276-3.93-5.074v-75.9c0-2.793,1.763-5.065,3.93-5.065h24.098   c2.172,0,3.939,2.272,3.939,5.065V566.502z" id="n_id_6" />
	<path class="st0" d="M241.509,501.73c0-2.132-1.296-3.859-3.428-4.48c1.701-0.675,2.78-2.187,2.78-4.049   c0-2.753-2.213-4.696-5.372-4.696h-7.315v18.139h7.747C239.188,506.643,241.509,504.673,241.509,501.73z M230.334,490.178h4.886   c2.051,0,3.482,1.323,3.482,3.212c0,1.89-1.431,3.213-3.482,3.213h-4.886V490.178z M230.334,504.97v-6.855h5.291   c2.186,0,3.698,1.403,3.698,3.428c0,2.025-1.511,3.428-3.698,3.428H230.334z" id="n_id_7" />
	<path class="st0" d="M250.691,506.968c1.458,0,3.131-0.405,4.858-1.269l-0.675-1.485c-1.403,0.756-2.78,1.107-3.968,1.107   c-2.753,0-4.697-1.917-4.886-4.697h10.149c0.027-0.27,0.027-0.513,0.027-0.782c0-3.914-2.429-6.641-5.938-6.641   c-3.752,0-6.397,2.834-6.397,6.883C243.861,504.133,246.696,506.968,250.691,506.968z M250.259,494.848   c2.213,0,3.779,1.809,3.86,4.399h-8.098C246.237,496.603,247.911,494.848,250.259,494.848z" id="n_id_8" />
	<path class="st0" d="M263.894,506.968c1.944,0,3.563-0.891,4.508-2.511l0.27,2.186h1.727v-19.003h-2.159v7.963   c-0.918-1.539-2.483-2.402-4.346-2.402c-3.455,0-5.939,2.861-5.939,6.883C257.955,504.106,260.438,506.968,263.894,506.968z    M264.407,494.956c2.267,0,3.86,1.7,3.86,4.075v2.105c0,2.402-1.593,4.076-3.86,4.076c-2.483,0-4.238-2.105-4.238-5.129   C260.168,497.088,261.923,494.956,264.407,494.956z" id="n_id_9" />
	<path class="st0" d="M275.828,499.545c0-2.645,1.539-4.454,3.779-4.454c0.513,0,1.053,0.081,1.565,0.189l0.243-1.754   c-0.567-0.136-1.161-0.216-1.647-0.216c-1.889,0-3.428,1.025-4.076,2.699l-0.27-2.483h-1.728v13.118h2.132V499.545z" id="n_id_10" />
	<path class="st0" d="M289.462,506.968c3.887,0,6.667-2.835,6.667-6.884c0-4.049-2.78-6.883-6.667-6.883   c-3.914,0-6.694,2.834-6.694,6.883C282.768,504.133,285.548,506.968,289.462,506.968z M289.462,494.929   c2.618,0,4.481,2.133,4.481,5.155c0,3.051-1.863,5.156-4.481,5.156c-2.645,0-4.481-2.105-4.481-5.156   C284.981,497.061,286.817,494.929,289.462,494.929z" id="n_id_11" />
	<path class="st0" d="M305.203,506.968c3.887,0,6.668-2.835,6.668-6.884c0-4.049-2.78-6.883-6.668-6.883   c-3.914,0-6.694,2.834-6.694,6.883C298.509,504.133,301.289,506.968,305.203,506.968z M305.203,494.929   c2.618,0,4.481,2.133,4.481,5.155c0,3.051-1.863,5.156-4.481,5.156c-2.645,0-4.481-2.105-4.481-5.156   C300.722,497.061,302.558,494.929,305.203,494.929z" id="n_id_12" />
	<path class="st0" d="M317.327,499.031c0-2.348,1.566-4.021,3.753-4.021c1.917,0,3.239,1.322,3.239,3.185v8.449h2.16v-7.612   c0-2.348,1.565-4.021,3.752-4.021c1.89,0,3.212,1.322,3.212,3.185v8.449h2.16v-8.772c0-2.727-1.971-4.67-4.778-4.67   c-2.079,0-3.779,1.08-4.805,2.861c-0.621-1.755-2.268-2.861-4.319-2.861c-1.971,0-3.59,0.944-4.508,2.618l-0.27-2.294h-1.728   v13.118h2.132V499.031z" id="n_id_13" />
	<path class="st0" d="M284.048,526.977c1.7-1.7,2.591-3.59,2.591-5.479c0-3.131-2.294-5.317-5.587-5.317   c-1.89,0-3.806,0.648-5.723,1.809l0.864,1.619c1.539-0.972,2.942-1.593,4.454-1.593c2.294,0,3.86,1.539,3.86,3.752   c0,1.458-0.756,2.942-2.214,4.4l-7.099,7.099v1.377h11.661v-1.755h-8.719L284.048,526.977z" id="n_id_14" />
	<path class="st0" d="M668.66,497.25c1.7-0.675,2.78-2.187,2.78-4.049c0-2.753-2.213-4.696-5.371-4.696h-7.315v18.139h7.747   c3.266,0,5.588-1.971,5.588-4.913C672.089,499.599,670.793,497.871,668.66,497.25z M660.913,490.178h4.887   c2.051,0,3.481,1.323,3.481,3.212c0,1.89-1.431,3.213-3.481,3.213h-4.887V490.178z M666.204,504.97h-5.291v-6.855h5.291   c2.186,0,3.697,1.403,3.697,3.428C669.901,503.566,668.391,504.97,666.204,504.97z" id="n_id_15" />
	<path class="st0" d="M680.839,493.201c-3.752,0-6.398,2.834-6.398,6.883c0,4.049,2.835,6.884,6.83,6.884   c1.457,0,3.131-0.405,4.858-1.269l-0.675-1.485c-1.403,0.756-2.78,1.107-3.968,1.107c-2.753,0-4.696-1.917-4.886-4.697h10.149   c0.026-0.27,0.026-0.513,0.026-0.782C686.776,495.928,684.348,493.201,680.839,493.201z M676.601,499.247   c0.216-2.645,1.89-4.399,4.238-4.399c2.213,0,3.778,1.809,3.859,4.399H676.601z" id="n_id_16" />
	<path class="st0" d="M698.819,495.603c-0.918-1.539-2.483-2.402-4.346-2.402c-3.455,0-5.94,2.861-5.94,6.883   c0,4.023,2.484,6.884,5.94,6.884c1.943,0,3.562-0.891,4.508-2.511l0.269,2.186h1.728v-19.003h-2.159V495.603z M698.847,501.137   c0,2.402-1.594,4.076-3.86,4.076c-2.483,0-4.238-2.105-4.238-5.129c0-2.996,1.755-5.128,4.238-5.128c2.267,0,3.86,1.7,3.86,4.075   V501.137z" id="n_id_17" />
	<path class="st0" d="M706.407,499.545c0-2.645,1.539-4.454,3.779-4.454c0.514,0,1.053,0.081,1.566,0.189l0.242-1.754   c-0.566-0.136-1.16-0.216-1.646-0.216c-1.889,0-3.428,1.025-4.076,2.699l-0.27-2.483h-1.727v13.118h2.132V499.545z" id="n_id_18" />
	<path class="st0" d="M720.042,493.201c-3.914,0-6.694,2.834-6.694,6.883c0,4.049,2.78,6.884,6.694,6.884   c3.887,0,6.668-2.835,6.668-6.884C726.71,496.035,723.929,493.201,720.042,493.201z M720.042,505.24   c-2.645,0-4.481-2.105-4.481-5.156c0-3.022,1.836-5.155,4.481-5.155c2.618,0,4.48,2.133,4.48,5.155   C724.522,503.135,722.66,505.24,720.042,505.24z" id="n_id_19" />
	<path class="st0" d="M735.782,493.201c-3.914,0-6.693,2.834-6.693,6.883c0,4.049,2.779,6.884,6.693,6.884   c3.888,0,6.668-2.835,6.668-6.884C742.45,496.035,739.67,493.201,735.782,493.201z M735.782,505.24c-2.644,0-4.48-2.105-4.48-5.156   c0-3.022,1.836-5.155,4.48-5.155c2.619,0,4.481,2.133,4.481,5.155C740.264,503.135,738.401,505.24,735.782,505.24z" id="n_id_20" />
	<path class="st0" d="M761.403,493.201c-2.079,0-3.779,1.08-4.805,2.861c-0.621-1.755-2.268-2.861-4.319-2.861   c-1.971,0-3.59,0.944-4.508,2.618l-0.271-2.294h-1.727v13.118h2.132v-7.612c0-2.348,1.565-4.021,3.753-4.021   c1.916,0,3.238,1.322,3.238,3.185v8.449h2.16v-7.612c0-2.348,1.564-4.021,3.752-4.021c1.889,0,3.211,1.322,3.211,3.185v8.449h2.16   v-8.772C766.181,495.145,764.21,493.201,761.403,493.201z" id="n_id_21" />
	<path class="st0" d="M715.95,516.505h-2.051l-8.773,12.362v1.484h8.827v4.292h1.997v-4.292h2.78v-1.674h-2.78V516.505z    M713.953,528.678h-6.722l6.722-9.474V528.678z" id="n_id_22" />
	<path class="st0" d="M241.509,325.881c0-2.132-1.296-3.859-3.428-4.48c1.701-0.675,2.78-2.186,2.78-4.049   c0-2.753-2.213-4.696-5.372-4.696h-7.315v18.139h7.747C239.188,330.794,241.509,328.823,241.509,325.881z M230.334,314.328h4.886   c2.051,0,3.482,1.323,3.482,3.212c0,1.89-1.431,3.213-3.482,3.213h-4.886V314.328z M230.334,329.12v-6.855h5.291   c2.186,0,3.698,1.403,3.698,3.428c0,2.025-1.511,3.428-3.698,3.428H230.334z" id="n_id_23" />
	<path class="st0" d="M250.691,331.118c1.458,0,3.131-0.405,4.858-1.268l-0.675-1.485c-1.403,0.756-2.78,1.107-3.968,1.107   c-2.753,0-4.697-1.917-4.886-4.697h10.149c0.027-0.27,0.027-0.513,0.027-0.782c0-3.914-2.429-6.641-5.938-6.641   c-3.752,0-6.397,2.834-6.397,6.883C243.861,328.283,246.696,331.118,250.691,331.118z M250.259,318.998   c2.213,0,3.779,1.809,3.86,4.399h-8.098C246.237,320.753,247.911,318.998,250.259,318.998z" id="n_id_24" />
	<path class="st0" d="M263.894,331.118c1.944,0,3.563-0.891,4.508-2.511l0.27,2.187h1.727v-19.003h-2.159v7.963   c-0.918-1.539-2.483-2.402-4.346-2.402c-3.455,0-5.939,2.861-5.939,6.883C257.955,328.257,260.438,331.118,263.894,331.118z    M264.407,319.106c2.267,0,3.86,1.7,3.86,4.075v2.105c0,2.402-1.593,4.076-3.86,4.076c-2.483,0-4.238-2.105-4.238-5.129   C260.168,321.238,261.923,319.106,264.407,319.106z" id="n_id_25" />
	<path class="st0" d="M275.828,323.695c0-2.646,1.539-4.454,3.779-4.454c0.513,0,1.053,0.081,1.565,0.188l0.243-1.754   c-0.567-0.136-1.161-0.216-1.647-0.216c-1.889,0-3.428,1.025-4.076,2.699l-0.27-2.483h-1.728v13.118h2.132V323.695z" id="n_id_26" />
	<path class="st0" d="M289.462,331.118c3.887,0,6.667-2.835,6.667-6.884c0-4.049-2.78-6.883-6.667-6.883   c-3.914,0-6.694,2.834-6.694,6.883C282.768,328.283,285.548,331.118,289.462,331.118z M289.462,319.079   c2.618,0,4.481,2.133,4.481,5.155c0,3.051-1.863,5.156-4.481,5.156c-2.645,0-4.481-2.105-4.481-5.156   C284.981,321.212,286.817,319.079,289.462,319.079z" id="n_id_27" />
	<path class="st0" d="M305.203,331.118c3.887,0,6.668-2.835,6.668-6.884c0-4.049-2.78-6.883-6.668-6.883   c-3.914,0-6.694,2.834-6.694,6.883C298.509,328.283,301.289,331.118,305.203,331.118z M305.203,319.079   c2.618,0,4.481,2.133,4.481,5.155c0,3.051-1.863,5.156-4.481,5.156c-2.645,0-4.481-2.105-4.481-5.156   C300.722,321.212,302.558,319.079,305.203,319.079z" id="n_id_28" />
	<path class="st0" d="M317.327,323.182c0-2.348,1.566-4.022,3.753-4.022c1.917,0,3.239,1.322,3.239,3.185v8.449h2.16v-7.612   c0-2.348,1.565-4.022,3.752-4.022c1.89,0,3.212,1.322,3.212,3.185v8.449h2.16v-8.773c0-2.727-1.971-4.67-4.778-4.67   c-2.079,0-3.779,1.08-4.805,2.861c-0.621-1.755-2.268-2.861-4.319-2.861c-1.971,0-3.59,0.944-4.508,2.618l-0.27-2.294h-1.728   v13.118h2.132V323.182z" id="n_id_29" />
	<polygon class="st0" id="n_id_30" points="277.138,345.514 281.835,342.814 281.835,358.794 283.994,358.794 283.994,340.655 282.186,340.655    276.382,344.002  " />
	<path class="st0" d="M641.669,231.562c0-2.132-1.296-3.859-3.429-4.48c1.7-0.675,2.78-2.187,2.78-4.049   c0-2.753-2.213-4.696-5.371-4.696h-7.315v18.139h7.747C639.347,236.475,641.669,234.505,641.669,231.562z M630.493,220.01h4.887   c2.051,0,3.482,1.323,3.482,3.212c0,1.89-1.431,3.213-3.482,3.213h-4.887V220.01z M630.493,234.802v-6.855h5.291   c2.187,0,3.697,1.403,3.697,3.428c0,2.024-1.511,3.428-3.697,3.428H630.493z" id="n_id_31" />
	<path class="st0" d="M650.419,223.033c-3.752,0-6.398,2.834-6.398,6.883c0,4.049,2.835,6.884,6.83,6.884   c1.457,0,3.131-0.405,4.858-1.269l-0.675-1.485c-1.403,0.756-2.78,1.107-3.968,1.107c-2.753,0-4.696-1.917-4.886-4.697h10.149   c0.026-0.27,0.026-0.513,0.026-0.782C656.356,225.76,653.928,223.033,650.419,223.033z M646.181,229.079   c0.216-2.645,1.89-4.4,4.238-4.4c2.213,0,3.778,1.809,3.859,4.4H646.181z" id="n_id_32" />
	<path class="st0" d="M664.054,236.8c1.943,0,3.562-0.891,4.508-2.511l0.27,2.186h1.728v-19.003h-2.159v7.963   c-0.918-1.539-2.483-2.402-4.346-2.402c-3.455,0-5.939,2.861-5.939,6.883C658.114,233.938,660.599,236.8,664.054,236.8z    M664.566,224.788c2.267,0,3.86,1.7,3.86,4.075v2.105c0,2.402-1.594,4.076-3.86,4.076c-2.483,0-4.238-2.105-4.238-5.129   C660.328,226.92,662.083,224.788,664.566,224.788z" id="n_id_33" />
	<path class="st0" d="M673.855,223.357v13.118h2.132v-7.099c0-2.646,1.539-4.454,3.779-4.454c0.514,0,1.053,0.081,1.566,0.188   l0.242-1.754c-0.566-0.136-1.16-0.216-1.647-0.216c-1.889,0-3.428,1.025-4.076,2.699l-0.269-2.483H673.855z" id="n_id_34" />
	<path class="st0" d="M689.622,236.8c3.887,0,6.668-2.835,6.668-6.884c0-4.049-2.781-6.883-6.668-6.883   c-3.914,0-6.694,2.834-6.694,6.883C682.928,233.965,685.708,236.8,689.622,236.8z M689.622,224.761c2.618,0,4.48,2.133,4.48,5.155   c0,3.051-1.862,5.156-4.48,5.156c-2.645,0-4.48-2.105-4.48-5.156C685.142,226.893,686.978,224.761,689.622,224.761z" id="n_id_35" />
	<path class="st0" d="M705.362,223.033c-3.914,0-6.693,2.834-6.693,6.883c0,4.049,2.779,6.884,6.693,6.884   c3.888,0,6.668-2.835,6.668-6.884C712.03,225.867,709.25,223.033,705.362,223.033z M705.362,235.072   c-2.645,0-4.481-2.105-4.481-5.156c0-3.023,1.836-5.155,4.481-5.155c2.619,0,4.481,2.133,4.481,5.155   C709.844,232.967,707.981,235.072,705.362,235.072z" id="n_id_36" />
	<path class="st0" d="M715.355,223.357v13.118h2.132v-7.612c0-2.348,1.565-4.021,3.753-4.021c1.916,0,3.238,1.322,3.238,3.185v8.449   h2.16v-7.612c0-2.348,1.564-4.021,3.752-4.021c1.889,0,3.211,1.322,3.211,3.185v8.449h2.16v-8.772c0-2.727-1.971-4.67-4.777-4.67   c-2.079,0-3.779,1.08-4.805,2.861c-0.621-1.755-2.268-2.861-4.319-2.861c-1.971,0-3.59,0.944-4.508,2.618l-0.271-2.294H715.355z" id="n_id_37" />
	<path class="st0" d="M683.317,255.136c2.025-0.594,3.32-2.24,3.32-4.318c0-2.834-2.188-4.805-5.346-4.805   c-1.754,0-3.616,0.378-5.587,1.269l0.702,1.619c1.674-0.756,3.158-1.134,4.562-1.134c2.105,0,3.536,1.323,3.536,3.239   c0,1.971-1.754,3.374-4.318,3.374h-1.107V256h1.107c2.779,0,4.696,1.457,4.696,3.59c0,2.024-1.646,3.455-3.94,3.455   c-1.512,0-3.213-0.432-4.967-1.241l-0.702,1.619c2.078,0.972,4.157,1.377,6.019,1.377c3.402,0,5.777-2.052,5.777-5.021   C687.069,257.565,685.585,255.757,683.317,255.136z" id="n_id_38" />
	<polygon class="st0" id="n_id_39" points="536.719,427.996 535.406,427.996 535.406,438.751 541.937,438.751 541.937,437.711 536.719,437.711     " />
	<path class="st0" d="M550.129,437.951c-0.448,0-0.704-0.271-0.704-0.704v-3.762c0-1.616-1.217-2.705-2.978-2.705   c-0.992,0-1.985,0.209-3.073,0.625l0.352,0.928c0.896-0.384,1.745-0.576,2.578-0.576c1.136,0,1.904,0.704,1.904,1.697v0.8   c-0.608-0.16-1.201-0.224-1.744-0.224c-2.209,0-3.555,0.944-3.555,2.577c0,1.328,1.169,2.337,2.705,2.337   c1.073,0,2.082-0.48,2.705-1.297c0.097,0.801,0.641,1.297,1.489,1.297c0.288,0,0.576-0.032,0.833-0.08l-0.097-0.961   C550.448,437.919,550.257,437.951,550.129,437.951z M548.208,435.678c0,1.377-0.944,2.337-2.289,2.337   c-1.008,0-1.761-0.641-1.761-1.488c0-1.057,0.913-1.697,2.449-1.697c0.528,0,1.056,0.065,1.601,0.192V435.678z" id="n_id_40" />
	<path class="st0" d="M555.647,430.78c-1.232,0-2.273,0.593-2.801,1.617l-0.16-1.425h-1.024v7.779h1.265v-4.386   c0-1.488,1.008-2.513,2.353-2.513c1.2,0,2.049,0.832,2.049,2.017v4.882h1.28v-5.074C558.608,431.964,557.376,430.78,555.647,430.78   z" id="n_id_41" />
	<path class="st0" d="M566.128,432.204c-0.545-0.912-1.473-1.425-2.577-1.425c-2.049,0-3.521,1.697-3.521,4.082   c0,2.385,1.473,4.082,3.521,4.082c1.152,0,2.112-0.528,2.673-1.489l0.16,1.297h1.025v-11.268h-1.281V432.204z M566.144,435.486   c0,1.425-0.943,2.417-2.289,2.417c-1.473,0-2.513-1.248-2.513-3.041c0-1.776,1.04-3.041,2.513-3.041   c1.346,0,2.289,1.008,2.289,2.417V435.486z" id="n_id_42" />
	<rect class="st0" height="7.779" id="n_id_43" width="1.265" x="569.518" y="430.972" />
	<path class="st0" d="M570.157,427.755c-0.512,0-0.863,0.352-0.863,0.848s0.352,0.849,0.863,0.849c0.496,0,0.849-0.353,0.849-0.849   S570.653,427.755,570.157,427.755z" id="n_id_44" />
	<path class="st0" d="M576.896,430.78c-1.232,0-2.273,0.593-2.801,1.617l-0.16-1.425h-1.025v7.779h1.265v-4.386   c0-1.488,1.009-2.513,2.353-2.513c1.201,0,2.049,0.832,2.049,2.017v4.882h1.281v-5.074   C579.856,431.964,578.624,430.78,576.896,430.78z" id="n_id_45" />
	<path class="st0" d="M587.472,432.269c-0.56-0.961-1.521-1.489-2.674-1.489c-2.049,0-3.521,1.697-3.521,4.082   c0,2.385,1.473,4.082,3.521,4.082c1.105,0,2.033-0.513,2.578-1.409v1.409c0,1.36-1.105,2.305-2.658,2.305   c-0.72,0-1.632-0.208-2.592-0.624l-0.385,0.96c1.105,0.464,2.161,0.688,3.073,0.688c2.226,0,3.842-1.408,3.842-3.377v-7.924h-1.024   L587.472,432.269z M587.392,435.486c0,1.425-0.944,2.417-2.289,2.417c-1.473,0-2.514-1.248-2.514-3.041   c0-1.776,1.041-3.041,2.514-3.041c1.345,0,2.289,1.008,2.289,2.417V435.486z" id="n_id_46" />
	<polygon class="st0" id="n_id_47" points="561.168,550.42 565.603,539.664 564.21,539.664 560.544,548.788 556.895,539.664 555.502,539.664    559.936,550.42  " />
	<path class="st0" d="M569.423,550.613c2.306,0,3.954-1.681,3.954-4.082c0-2.401-1.648-4.082-3.954-4.082   c-2.32,0-3.969,1.681-3.969,4.082C565.454,548.932,567.103,550.613,569.423,550.613z M569.423,543.473   c1.553,0,2.658,1.265,2.658,3.058c0,1.809-1.105,3.058-2.658,3.058c-1.568,0-2.656-1.249-2.656-3.058   C566.767,544.738,567.855,543.473,569.423,543.473z" id="n_id_48" />
	<rect class="st0" height="7.779" id="n_id_49" width="1.264" x="574.942" y="542.641" />
	<path class="st0" d="M575.583,541.121c0.496,0,0.848-0.353,0.848-0.849s-0.352-0.848-0.848-0.848c-0.513,0-0.865,0.352-0.865,0.848   S575.07,541.121,575.583,541.121z" id="n_id_50" />
	<path class="st0" d="M581.295,550.613c1.152,0,2.112-0.528,2.673-1.489l0.16,1.297h1.025v-11.269h-1.281v4.722   c-0.545-0.912-1.473-1.425-2.577-1.425c-2.049,0-3.521,1.697-3.521,4.082C577.773,548.916,579.246,550.613,581.295,550.613z    M581.599,543.49c1.346,0,2.289,1.008,2.289,2.417v1.248c0,1.425-0.943,2.417-2.289,2.417c-1.473,0-2.513-1.248-2.513-3.041   C579.086,544.754,580.126,543.49,581.599,543.49z" id="n_id_51" />
	<path class="st0" d="M585.6,328.148l-4.434,10.756h1.345l1.184-2.945h5.043l1.184,2.945h1.346l-4.435-10.756H585.6z    M584.063,334.951l2.145-5.299l2.144,5.299H584.063z" id="n_id_52" />
	<path class="st0" d="M597.28,329.043c0.992,0,2,0.353,2.897,0.993l0.561-0.896c-1.137-0.784-2.4-1.185-3.633-1.185   c-3.138,0-5.299,2.289-5.299,5.57c0,3.281,2.161,5.57,5.299,5.57c1.232,0,2.496-0.4,3.633-1.185l-0.561-0.896   c-0.897,0.641-1.904,0.992-2.897,0.992c-2.449,0-4.113-1.824-4.113-4.482C593.167,330.869,594.831,329.043,597.28,329.043z" id="n_id_53" />
	<polygon class="st0" id="n_id_54" points="457.759,310.906 462.801,310.906 462.801,309.914 457.759,309.914 457.759,306.184 463.313,306.184    463.313,305.16 456.446,305.16 456.446,315.916 463.569,315.916 463.569,314.892 457.759,314.892  " />
	<path class="st0" d="M469.264,307.944c-1.232,0-2.273,0.593-2.801,1.617l-0.16-1.425h-1.024v7.779h1.264v-4.386   c0-1.488,1.009-2.513,2.353-2.513c1.201,0,2.049,0.832,2.049,2.017v4.882h1.281v-5.074   C472.225,309.129,470.993,307.944,469.264,307.944z" id="n_id_55" />
	<rect class="st0" height="0.992" id="n_id_56" width="4.29" x="473.357" y="311.435" />
	<path class="st0" d="M481.167,315.132c-0.753,0-1.601-0.192-2.497-0.561l-0.304,0.944c1.024,0.4,2.001,0.593,2.897,0.593   c1.712,0,2.881-0.929,2.881-2.241c0-2.978-4.45-1.825-4.45-3.745c0-0.721,0.656-1.201,1.665-1.201c0.672,0,1.441,0.177,2.241,0.513   l0.288-0.944c-0.913-0.368-1.809-0.545-2.625-0.545c-1.665,0-2.833,0.913-2.833,2.178c0,2.913,4.465,1.776,4.465,3.745   C482.895,314.619,482.207,315.132,481.167,315.132z" id="n_id_57" />
	<path class="st0" d="M488.447,316.108c1.232,0,2.273-0.593,2.817-1.617l0.16,1.425h1.024v-7.779h-1.281v4.386   c0,1.489-1.008,2.514-2.353,2.514c-1.185,0-2.049-0.816-2.049-2.001v-4.898h-1.265v5.074   C485.501,314.924,486.718,316.108,488.447,316.108z" id="n_id_58" />
	<rect class="st0" height="7.779" id="n_id_59" width="1.264" x="494.478" y="308.137" />
	<path class="st0" d="M495.118,306.616c0.496,0,0.848-0.353,0.848-0.849c0-0.496-0.352-0.848-0.848-0.848   c-0.512,0-0.864,0.352-0.864,0.848C494.253,306.264,494.605,306.616,495.118,306.616z" id="n_id_60" />
	<path class="st0" d="M498.638,313.835c0,1.345,0.944,2.273,2.337,2.273c0.496,0,1.009-0.064,1.553-0.208l-0.176-0.993   c-0.4,0.097-0.768,0.16-1.104,0.16c-0.801,0-1.345-0.544-1.345-1.345v-4.577h2.449v-1.009h-2.449v-2.305h-1.265v2.305h-1.617v1.009   h1.617V313.835z" id="n_id_61" />
	<path class="st0" d="M506.991,316.108c0.863,0,1.856-0.24,2.881-0.753l-0.4-0.88c-0.832,0.448-1.648,0.656-2.354,0.656   c-1.632,0-2.785-1.137-2.896-2.785h6.019c0.016-0.16,0.016-0.305,0.016-0.464c0-2.321-1.44-3.939-3.52-3.939   c-2.226,0-3.794,1.681-3.794,4.082C502.941,314.428,504.622,316.108,506.991,316.108z M506.735,308.921   c1.312,0,2.24,1.072,2.288,2.609h-4.802C504.35,309.962,505.342,308.921,506.735,308.921z" id="n_id_62" />
	<path class="st0" d="M468.793,525.329c0-1.265-0.768-2.289-2.033-2.657c1.008-0.4,1.648-1.297,1.648-2.401   c0-1.632-1.312-2.784-3.185-2.784h-4.338v10.756h4.594C467.417,528.242,468.793,527.073,468.793,525.329z M462.167,518.478h2.897   c1.216,0,2.065,0.784,2.065,1.904c0,1.121-0.849,1.905-2.065,1.905h-2.897V518.478z M462.167,527.25v-4.065h3.137   c1.296,0,2.193,0.832,2.193,2.032s-0.896,2.033-2.193,2.033H462.167z" id="n_id_63" />
	<path class="st0" d="M473.575,523.52c-2.209,0-3.554,0.944-3.554,2.577c0,1.328,1.168,2.337,2.705,2.337   c1.073,0,2.081-0.48,2.705-1.297c0.096,0.801,0.641,1.297,1.489,1.297c0.288,0,0.576-0.032,0.832-0.08l-0.096-0.961   c-0.096,0.017-0.288,0.048-0.416,0.048c-0.448,0-0.705-0.272-0.705-0.704v-3.762c0-1.616-1.216-2.705-2.977-2.705   c-0.992,0-1.985,0.209-3.073,0.625l0.352,0.928c0.897-0.384,1.745-0.576,2.577-0.576c1.136,0,1.905,0.704,1.905,1.697v0.8   C474.711,523.583,474.119,523.52,473.575,523.52z M475.319,525.168c0,1.377-0.944,2.337-2.289,2.337   c-1.008,0-1.761-0.641-1.761-1.488c0-1.057,0.913-1.697,2.449-1.697c0.528,0,1.056,0.064,1.601,0.192V525.168z" id="n_id_64" />
	<path class="st0" d="M479.158,526.161c0,1.345,0.944,2.273,2.337,2.273c0.497,0,1.008-0.064,1.553-0.208l-0.176-0.993   c-0.4,0.097-0.768,0.16-1.104,0.16c-0.8,0-1.345-0.544-1.345-1.345v-4.577h2.449v-1.009h-2.449v-2.305h-1.265v2.305h-1.617v1.009   h1.617V526.161z" id="n_id_65" />
	<path class="st0" d="M485.669,523.856c0-1.488,1.009-2.513,2.353-2.513c1.201,0,2.049,0.832,2.049,2.017v4.882h1.281v-5.074   c0-1.713-1.232-2.897-2.961-2.897c-1.185,0-2.193,0.577-2.721,1.553v-4.85h-1.264v11.269h1.264V523.856z" id="n_id_66" />
	<path class="st0" d="M812.626,345.226h-3.48V0h-261.9v225h-67.774v-2.415h-36.77V225h-98.98v-2.415H241.62V225h-86.895v28.315   h-42.72v18h42.72v318.484h-42.72v18h42.72v0h52.308v2.927h102.101V607.8h113.168v2.927h36.77V607.8h78.192v2.611h68.935V607.8   h79.925v2.611h68.935V607.8h54.088V381.996h3.48V345.226z M799.197,379.89v-5.497h2.894v5.497H799.197z M791.146,411.076h-43.04   v-2.659h-4.243v-41.115h4.118v-6.25h-0.989v-1.701h0.989v-6.25h-1.976V311.89h2.101v-5.574h43.04v41.306h0.779v32.215h0.5v-32.215   h6.272v32.269h-7.552V411.076z M691.392,453.56l-26.789-26.789l1.075-1.076l26.815,26.814   C692.132,452.868,691.765,453.217,691.392,453.56z M665.678,424.989l-5.028-5.029l1.785-1.785l3.906,3.907l0.406,0.406l0,0   l0.716,0.716L665.678,424.989z M662.9,425.07l-2.332-2.332l1.076-1.076l2.332,2.333L662.9,425.07z M662.854,417.886l-0.242-0.242   l-0.177,0.177l-0.177-0.177l-2.139,2.139l0.177,0.177l-0.177,0.177l1.172,1.171l-1.253,1.252l0.177,0.177l-0.177,0.177l2.685,2.686   l0.177-0.177l0.177,0.177l1.253-1.252l0.994,0.994l-1.252,1.253l0.177,0.177l-0.177,0.177l26.95,26.95   c-7.481,6.731-17.164,10.722-26.907,11.018c-10.634,0.308-20.497-3.544-27.827-10.874l-0.016,0.015l-0.825-0.826l1.254-1.254   l-0.177-0.177l0.177-0.177l-2.686-2.686l-0.177,0.177l-0.177-0.177l-1.253,1.254l-1.172-1.171l-0.177,0.177l-0.177-0.177   l-2.138,2.138l0.177,0.177l-0.177,0.177l0.242,0.242l-23.302,23.301v17.262h-70.26v-16.68h-4.912v-0.579h-0.25v-0.25h-3.024v0.25   h-0.25v1.656h-1.772v0.25h-0.25v3.799h0.25v0.25h1.772v1.406h-1.772v0.25h-0.25v38.113c-10.05-0.531-19.717-4.556-26.816-11.234   c-7.73-7.28-11.988-16.999-11.988-27.367h-0.021v-1.168h1.773v-0.25h0.25v-3.799h-0.25v-0.25h-1.773v-1.656h-0.25v-0.25h-3.023   v0.25h-0.25v0.579h-0.601v-4.433h0.806v-0.25h0.25v-3.023h-0.25v-0.25h-1.656v-1.773h-0.25v-0.25h-3.799v0.25h-0.25v1.773h-1.168   v-0.021c-10.368,0-20.087-4.257-27.367-11.988c-6.679-7.098-10.704-16.767-11.234-26.816h38.113v-0.25h0.25v-1.771h1.406v1.771   h0.25v0.25h3.799v-0.25h0.25v-1.771h1.656v-0.25h0.25v-3.025h-0.25v-0.25h-0.806v-7.006h0.806v-0.25h0.25v-3.024h-0.25v-0.25   h-1.656v-1.771h-0.25v-0.25h-3.799v0.25h-0.25v1.771h-1.406v-1.771h-0.25v-0.25H437.1c0.531-10.049,4.556-19.718,11.234-26.816   c7.28-7.73,16.999-11.988,27.367-11.988v-0.021h1.168v1.773h0.25v0.25h3.799v-0.25h0.25v-1.773h1.656v-0.25h0.25v-3.023h-0.25   v-0.25h-0.806v-11.332h82.787v0.378v1.354h0.25v0.25h2.99v40.92h0.25v0.25c11.761,0,23.249-4.463,31.519-12.246   c8.194-7.718,12.779-17.965,12.987-28.925h3.031v-0.25h0.25v-0.352h7.365v-52.14h1.427v1.08h0.25v0.25h3.24v-0.25h0.25v-1.792   h1.916v-0.25h0.25v-4.071h-0.25v-0.25h-1.916v-1.542h1.916v-0.25h0.25v-40.853c10.779,0.565,21.149,4.879,28.76,12.042   c8.287,7.804,12.85,18.222,12.85,29.334h0.023v1.269h-1.918v0.25h-0.25v4.071h0.25v0.25h1.918v1.792h0.25v0.25h3.238v-0.25h0.122   v4.494h5.129v40.928h-3.704v6.533h1.008v51.725h-8.797L662.854,417.886z M634.304,456.363l-5.028-5.029l1.784-1.785l5.028,5.029   L634.304,456.363z M633.838,449.467l2.333,2.333l-1.077,1.078l-2.332-2.333L633.838,449.467z M601.125,599.875h-9.273v-2.895h9.273   V599.875z M456.671,600.191h-5.7v-2.894h5.7V600.191z M424.396,597.298h5.508v2.894h-5.508V597.298z M450.471,598.494h-20.066   v-1.196h20.066V598.494z M430.404,598.994h20.066v1.197h-20.066V598.994z M456.671,589.8v0.226h-32.21v0.5h32.21v6.272h-32.274   V589.8h-17.551v-13.317h87.403v0.006h0.5v-0.006h23.871v0.006h0.5v-0.006h10.306V589.8H456.671z M445.796,575.836v-94.2h36.823   v1.032h0.25v0.25h2.814c0.198,10.228,4.478,19.79,12.126,26.993c7.724,7.267,18.451,11.435,29.43,11.435v-0.25h0.25v-38.178h1.936   v93.065H519.12v-7.623l0,0c0.02-4.376-2.592-8.253-6.655-9.878l-0.093,0.232l0.089-0.233c-3.378-1.289-7.14-1.413-10.592-0.35l0,0   c-0.001,0-0.003,0.001-0.004,0.001l0,0l0,0c-4.484,1.296-7.616,5.458-7.616,10.124v7.728h-11.621v-4.116   c-0.011-2.347-1.395-4.491-3.543-5.468c-1.505-0.547-3.061-0.82-4.639-0.865l0.024-0.664c0.012-0.354,0.151-0.694,0.39-0.957   c0.491-0.527,0.96-1.112,1.395-1.736c0.373-0.201,0.672-0.522,0.83-0.927c1.333-3.395,2.008-6.969,2.008-10.625   c0-0.679-0.049-1.358-0.145-2.018c-0.502-3.464-2.26-6.603-4.951-8.839c-1.602-1.312-3.625-2.036-5.696-2.036   s-4.093,0.723-5.694,2.037c-3.239,2.694-5.097,6.651-5.097,10.856c0,3.652,0.676,7.227,2.01,10.623   c0.152,0.398,0.442,0.712,0.807,0.915c0.418,0.608,0.886,1.196,1.392,1.746c0.242,0.263,0.381,0.602,0.393,0.956l0.023,0.666   c-1.587,0.03-3.147,0.322-4.666,0.876c-2.131,0.971-3.515,3.114-3.525,5.462v4.115h-47.097v-94.347h38.45v94.2H445.796z    M483.119,475.307h2.523v7.111h-2.523V475.307z M487.666,480.512h-1.523v-3.299h1.523V480.512z M525.468,482.918h1.522v37.922   c-0.508-0.003-1.016-0.015-1.522-0.036V482.918z M525.468,477.213h1.522v3.299h-1.522V477.213z M527.489,475.307h2.524v1.336v1.993   h-0.588v3.782h-1.936V475.307z M512.28,558.946c3.871,1.549,6.359,5.244,6.34,9.413l0.25,0.001h-0.25v7.623h-23.871v-7.728   c0-4.446,2.985-8.412,7.259-9.645l-0.069-0.24l0.074,0.239C505.358,557.579,509.004,557.699,512.28,558.946z M462.611,564.848   c-0.016-0.473-0.202-0.927-0.525-1.278c-0.339-0.368-0.652-0.756-0.952-1.154c2.358,0.455,4.767,0.692,7.167,0.692   c2.394,0,4.796-0.236,7.149-0.69c-0.309,0.406-0.625,0.798-0.959,1.156c-0.321,0.352-0.507,0.807-0.523,1.278l-0.024,0.662   c-1.871-0.136-3.777-0.183-5.663-0.137c-1.889,0-3.794,0.042-5.645,0.137c-0.001,0-0.003,0-0.004,0L462.611,564.848z    M475.661,561.875c-4.835,0.974-9.884,0.973-14.716,0c-0.441-0.091-0.799-0.393-0.958-0.808c-1.311-3.339-1.976-6.853-1.976-10.442   c0-4.056,1.792-7.873,4.916-10.471c1.511-1.24,3.42-1.922,5.376-1.922c1.956,0,3.866,0.683,5.378,1.921   c2.594,2.156,4.289,5.184,4.773,8.525c0.093,0.637,0.14,1.292,0.14,1.946c0,3.593-0.664,7.105-1.974,10.442   C476.458,561.482,476.099,561.784,475.661,561.875z M462.648,566.014c1.857-0.094,3.755-0.129,5.64-0.136   c1.881-0.046,3.773,0.002,5.651,0.137c1.695-0.02,3.369,0.27,4.957,0.847c1.953,0.89,3.222,2.856,3.232,5.007v4.115h-27.686v-4.114   c0.009-2.152,1.278-4.118,3.214-5C459.263,566.284,460.929,565.984,462.648,566.014z M535.426,498.316h70.26v91.394h-65.633v0.09   h-4.627V498.316z M542.045,596.981h10.503v2.895h-10.503V596.981z M568.776,598.178h-15.729v-1.197h15.729V598.178z    M553.048,598.678h15.729v1.197h-15.729V598.678z M569.276,596.981h4.733v2.895h-4.733V596.981z M591.353,598.178H574.51v-1.197   h16.843V598.178z M574.51,598.678h16.843v1.197H574.51V598.678z M601.125,596.481h-59.08v-6.271h59.08V596.481z M475.463,468.18   h7.111v2.523h-7.111V468.18z M477.369,466.156h3.299v1.523h-3.299V466.156z M437.041,426.833h37.922v1.521h-37.886   C437.056,427.848,437.044,427.341,437.041,426.833z M475.463,423.809h1.012h4.764h1.336v2.525h-7.111V423.809z M437.077,411.257   h37.886v1.521h-37.922C437.044,412.271,437.056,411.763,437.077,411.257z M475.463,413.278h7.111v2.524h-1.336h-4.764h-1.012   V413.278z M477.369,411.257h3.299v1.521h-3.299V411.257z M480.668,428.354h-3.299v-1.521h3.299V428.354z M475.463,368.908h7.111   v2.523h-7.111V368.908z M480.668,373.455h-3.299v-1.523h3.299V373.455z M472.278,357.369v-7.111h2.523v7.111H472.278z    M470.255,352.164h1.523v3.3h-1.523V352.164z M475.052,350.007v-0.25h-2.814c-0.198-10.228-4.478-19.79-12.126-26.993   c-7.723-7.267-18.45-11.434-29.43-11.434v0.25h-0.25v38.177h-2.774v0.25h-0.25v1.069h-2.741v-87.71h53.983v8.23   c0,4.665,3.131,8.828,7.616,10.123l0,0l0,0c0.001,0.001,0.003,0.001,0.004,0.002l0,0c1.553,0.478,3.167,0.715,4.781,0.715   c1.976,0,3.951-0.356,5.811-1.065l-0.089-0.233l0.093,0.232c4.062-1.626,6.675-5.502,6.655-9.878l0,0v-8.125h9.395v87.71h-37.614   v-1.069H475.052z M432.453,349.757h-1.521v-37.921c0.508,0.003,1.015,0.015,1.521,0.036V349.757z M432.453,355.463h-1.521v-3.3   h1.521V355.463z M430.432,357.369h-2.524v-1.335v-4.764v-1.013h2.524V357.369z M385.655,351.076h-2.741v-37.55h2.741V351.076z    M382.796,313.026v-25.06h3.359V243h32.511v108.076h-32.511v-38.05H382.796z M385.655,243v44.466h-2.741V243H385.655z    M496.681,280.905c-3.276,1.247-6.923,1.367-10.269,0.337l-0.074,0.239l0.069-0.24c-4.274-1.233-7.259-5.199-7.259-9.644v-8.23   h23.871v8.125h0.25l-0.25,0.001C503.04,275.661,500.551,279.355,496.681,280.905z M791.146,31.856h-225.9v-8.01h225.9V31.856z    M791.146,32.356v8.01h-225.9v-8.01H791.146z M791.146,40.866v8.01h-225.9v-8.01H791.146z M791.146,49.375v8.01h-225.9v-8.01   H791.146z M791.146,57.886v8.01h-225.9v-8.01H791.146z M791.146,66.396v8.01h-225.9v-8.01H791.146z M791.146,74.906v8.01h-225.9   v-8.01H791.146z M791.146,83.415v8.01h-225.9v-8.01H791.146z M791.146,91.926v8.01h-225.9v-8.01H791.146z M791.146,100.436v8.01   h-225.9v-8.01H791.146z M791.146,108.946v8.01h-225.9v-8.01H791.146z M791.146,117.455v8.01h-225.9v-8.01H791.146z    M791.146,125.966v8.63H607.915v0.043h-2.152v0.25h-0.25v1.107h-1.19v0.25h-0.25v2.705h0.25v0.25h1.19v0.759h-0.016   c0,7.36-3.022,14.26-8.511,19.429c-5.021,4.726-11.857,7.579-18.968,7.972v-27.054h-0.25v-0.25h-1.189v-0.856h1.189v-0.25h0.25   v-2.705h-0.25v-0.25h-1.189v-1.107h-0.25v-0.25h-2.152v-0.043h-8.932v-8.63H791.146z M604.573,136.496h0.94v2.205h-0.94V136.496z    M606.013,135.139h1.652v4.918h-1.652V135.139z M574.427,139.408v-3.391v-0.878h1.652v4.918h-1.652V139.408z M577.519,138.701   h-0.939v-2.205h0.939V138.701z M576.579,140.557h0.939v26.827c-0.312,0.012-0.626,0.02-0.939,0.022V140.557z M565.245,140.596   h8.932v-0.039h1.902v27.105h0.25v0.25c7.836,0,15.49-2.974,21-8.159c5.44-5.124,8.493-11.921,8.652-19.196h1.934v0.039h183.231   v159.72H676.154v-1.075h-0.25v-0.25h-3.031c-0.208-10.961-4.793-21.208-12.988-28.925c-8.27-7.782-19.758-12.246-31.519-12.246   v0.25h-0.25v40.921h-2.99v0.25h-0.25v1.075h-59.63v-61.74h-0.001V140.596z M747.605,411.076h-64.772v-2.159h9.104v0.518h0.5v-0.518   h55.167V411.076z M693.876,311.89v41.964h-10.033v-1.036h-2.188V311.89H693.876z M741.73,357.729h-57.888v-3.375h57.888V357.729z    M720.296,353.854V311.89h12.85v41.964H720.296z M719.796,353.854h-12.4V311.89h12.4V353.854z M706.896,353.854h-12.52V311.89   h12.52V353.854z M683.343,353.318v0.536v4.375v0.622h-0.509h-4.375h-0.508v-5.533H683.343z M682.334,359.351v49.066v2.659h-3.375   v-51.725H682.334z M691.938,367.302v41.115h-9.104v-43.602c0-0.127,0.054-0.235,0.169-0.34c0.904-0.821,4.598-0.704,6.215-0.57   v3.397H691.938z M695.468,367.302v-0.898h9.608v42.013h-12.637v-41.115H695.468z M741.73,365.904h-46.188v-3.375h46.188V365.904z    M718.329,408.417v-41.456h-0.5v41.456h-12.254v-42.013h25.034v42.013H718.329z M694.968,366.802h-5.25v-5.25h5.25V366.802z    M731.109,408.417v-42.013h10.621v0.898h1.632v41.115H731.109z M742.23,366.802v-0.398v-4.375v-0.477h5.25v5.25H742.23z    M746.491,360.932h-3.375v-1.492h3.375V360.932z M742.616,361.052h-0.886v0.977h-46.263v-0.977h-6.25v2.351   c-1.142-0.092-5.039-0.332-6.384,0.583v-4.636h1.009v-1.122h57.888v1.122h0.886V361.052z M742.23,358.851v-0.622v-4.375v-0.253   h5.25v5.25H742.23z M741.73,353.101v0.753h-8.085V311.89h11.859v41.211H741.73z M676.526,311.39v-5.074h71.079v5.074H676.526z    M675.654,307.146h-2.738v-7.655h2.738V307.146z M670.748,301.533h1.668v3.571h-1.668V301.533z M630.282,298.991h-1.666v-40.665   c0.557,0.003,1.111,0.016,1.666,0.04V298.991z M630.282,305.104h-1.666v-3.571h1.666V305.104z M628.116,307.146h-2.74v-1.448   v-5.103v-1.103h2.74V307.146z M615.834,350.653v-0.25h-3.238v0.25h-0.25v1.792h-1.918v0.25h-0.25v4.071h0.25v0.25h1.918v1.268   h-0.023c0,11.113-4.563,21.531-12.85,29.335c-7.611,7.162-17.981,11.477-28.761,12.042v-40.852h-0.25v-0.25h-1.916v-1.543h1.916   v-0.25h0.25v-4.071h-0.25v-0.25h-1.916v-1.792h-0.25v-0.25h-3.05v-44.087h52.203v46.14h-1.365v-1.803H615.834z M615.584,358.558   h-2.738v-7.655h2.738V358.558z M610.678,352.944h1.668v3.571h-1.668V352.944z M565.306,357.454v-5.103v-1.448h2.74v7.655h-2.74   V357.454z M570.212,356.516h-1.666v-3.571h1.666V356.516z M568.546,359.058h1.666v40.625c-0.555,0.023-1.109,0.036-1.666,0.039   V359.058z M559.246,351.076h-45.83v-91.07h45.83V351.076z M802.091,373.893h-1.197v-20.066h1.197V373.893z M800.394,373.893h-1.196   v-20.066h1.196V373.893z M802.091,353.327h-2.894v-5.705h2.894V353.327z M791.146,18v5.346h-225.9V18H791.146z M559.246,243v16.506   h-46.33v3.36h-88.25V243h19.63v0.286h33.016V243H559.246z M445.376,233.12h5.426v2.893h-5.426V233.12z M477.126,236.014h-5.258   v-2.893h5.258V236.014z M451.302,234.817h20.066v1.196h-20.066V234.817z M471.368,234.317h-20.066v-1.197h20.066V234.317z    M445.376,236.514h31.75v6.273h-31.75V236.514z M443.201,223.085h35.77V225h-1.845v7.62h-31.75V225h-2.175V223.085z    M341.876,242.786h-97.75v-6.271h97.75V242.786z M244.126,233.12h4.703v2.895h-4.703V233.12z M341.876,236.015h-5.362v-2.895h5.362   V236.015z M309.995,234.817h26.018v1.197h-26.018V234.817z M336.014,234.317h-26.018v-1.197h26.018V234.317z M309.495,236.015   h-3.312v-2.895h3.312V236.015z M279.661,234.817h26.022v1.197h-26.022V234.817z M305.683,234.317h-26.022v-1.197h26.022V234.317z    M279.161,236.015h-3.312v-2.895h3.312V236.015z M249.329,234.817h26.019v1.197h-26.019V234.817z M275.349,234.317h-26.019v-1.197   h26.019V234.317z M242.12,223.085h101.101V225h-1.345v7.62h-97.75V225h-2.006V223.085z M237.425,243v0.286h108.393V243h36.596   v37.086h-3.359v39.38h3.359v31.61h-1.608v6h46.602v0.542h0.25v0.25h3.024v-0.25h0.25v-1.655h1.771v-0.25h0.25v-3.8h-0.25v-0.25   h-1.771v-1.406h1.771v-0.25h0.25v-38.112c10.05,0.531,19.718,4.555,26.816,11.233c7.73,7.28,11.988,16.999,11.988,27.367h0.022   v1.168h-1.773v0.25h-0.25v3.8h0.25v0.25h1.773v1.655h0.25v0.25h3.023v-0.25h0.25v-0.542h0.717v11.332h-0.806v0.25h-0.25v2.814   c-10.229,0.197-19.79,4.478-26.993,12.126c-7.267,7.724-11.435,18.451-11.435,29.43h0.25v0.25h38.178v2.774h0.25v0.25h0.806v0.473   H172.726V243H237.425z M382.296,280.586v38.38h-2.741v-38.38H382.296z M172.726,422.775h303.293v0.533h-0.806v0.25h-0.25v2.775   h-38.178v0.25h-0.25c0,10.979,4.168,21.706,11.435,29.43c7.203,7.648,16.764,11.929,26.993,12.126v2.814h0.25v0.25h0.806v4.433   h-75.173V589.8h-93.978v0.226h-95.897V589.8h-38.245V422.775z M306.868,600.191h-4.943v-2.895h4.943V600.191z M210.971,597.297   h3.27v2.895h-3.27V597.297z M240.759,598.494H214.74v-1.197h26.019V598.494z M214.74,598.994h26.019v1.197H214.74V598.994z    M241.259,597.297h3.312v2.895h-3.312V597.297z M271.093,598.494h-26.021v-1.197h26.021V598.494z M245.071,598.994h26.021v1.197   h-26.021V598.994z M271.593,597.297h3.312v2.895h-3.312V597.297z M301.425,598.494h-26.02v-1.197h26.02V598.494z M275.405,598.994   h26.02v1.197h-26.02V598.994z M306.868,596.797h-95.897v-6.271h95.897V596.797z M308.634,610.227H207.533V607.8h3.438v-7.108   h95.897v7.108h1.766V610.227z M458.571,610.227h-35.77V607.8h1.595v-7.108h32.274v7.108h1.9V610.227z M605.698,609.911h-67.935   V607.8h4.281v-7.424h59.08v7.424h4.573V609.911z M754.558,609.911h-67.935V607.8h3.375v-7.424h61.311v7.424h3.249V609.911z    M689.998,590.209h61.311v6.271h-61.311V590.209z M751.309,599.875h-10.597v-2.895h10.597V599.875z M717.636,596.981v1.197h-15.729   v-1.197H717.636z M701.907,598.678h15.729v1.197h-15.729V598.678z M718.136,596.981h4.733v2.895h-4.733V596.981z M740.212,598.178   h-16.843v-1.197h16.843V598.178z M723.369,598.678h16.843v1.197h-16.843V598.678z M689.998,596.981h11.409v2.895h-11.409V596.981z    M755.278,589.8v-0.09h-66.366v0.09h-77.227V477.539l21.543-21.543l0.898,0.898l0.177-0.177l0.177,0.177l1.989-1.99   c7.084,6.816,16.396,10.53,26.432,10.53c0.408,0,0.819-0.006,1.229-0.018c10.601-0.323,21.133-4.961,28.896-12.724l-0.177-0.177   l0.177-0.177l-26.996-26.996l1.962-1.962l-0.177-0.177l0.177-0.177l-0.898-0.898l5.054-5.053h118.997V589.8H755.278z    M812.126,381.496h-2.98v-1.605h-6.555v-32.269h6.555v-1.895h2.98V381.496z" id="n_id_67" />
	<path class="st0" d="M675.155,203.466h-1.5v0.5h1.75c0.138,0,0.25-0.112,0.25-0.25v-1.75h-0.5V203.466z" id="n_id_68" />
	<rect class="st0" height="0.5" id="n_id_69" width="3.532" x="655.462" y="203.466" />
	<rect class="st0" height="0.5" id="n_id_70" width="3.532" x="637.268" y="203.466" />
	<rect class="st0" height="0.5" id="n_id_71" width="3.532" x="643.332" y="203.466" />
	<rect class="st0" height="0.5" id="n_id_72" width="3.533" x="649.396" y="203.466" />
	<rect class="st0" height="0.5" id="n_id_73" width="3.532" x="661.526" y="203.466" />
	<rect class="st0" height="0.5" id="n_id_74" width="3.532" x="667.591" y="203.466" />
	<path class="st0" d="M632.735,203.716c0,0.138,0.112,0.25,0.25,0.25h1.75v-0.5h-1.5v-1.5h-0.5V203.716z" id="n_id_75" />
	<rect class="st0" height="3.585" id="n_id_76" width="0.5" x="632.735" y="195.797" />
	<rect class="st0" height="3.584" id="n_id_77" width="0.5" x="632.735" y="164.95" />
	<rect class="st0" height="3.585" id="n_id_78" width="0.5" x="632.735" y="171.119" />
	<rect class="st0" height="3.585" id="n_id_79" width="0.5" x="632.735" y="152.611" />
	<rect class="st0" height="3.585" id="n_id_80" width="0.5" x="632.735" y="158.78" />
	<rect class="st0" height="3.585" id="n_id_81" width="0.5" x="632.735" y="189.627" />
	<rect class="st0" height="3.584" id="n_id_82" width="0.5" x="632.735" y="183.458" />
	<rect class="st0" height="3.585" id="n_id_83" width="0.5" x="632.735" y="177.288" />
	<polygon class="st0" id="n_id_84" points="632.735,150.026 633.235,150.026 633.235,149.629 633.913,151.4 634.381,151.222 633.349,148.526    634.735,148.526 634.735,148.026 633.157,148.026 633.13,147.953 632.662,148.132 632.735,148.323  " />
	<rect class="st0" height="0.5" id="n_id_85" width="3.532" x="637.268" y="148.026" />
	<rect class="st0" height="0.5" id="n_id_86" width="3.532" x="643.332" y="148.026" />
	<rect class="st0" height="0.5" id="n_id_87" width="3.532" x="661.526" y="148.026" />
	<rect class="st0" height="0.5" id="n_id_88" width="3.533" x="655.461" y="148.026" />
	<rect class="st0" height="0.5" id="n_id_89" width="3.532" x="649.396" y="148.026" />
	<rect class="st0" height="0.5" id="n_id_90" width="3.532" x="667.591" y="148.026" />
	<path class="st0" d="M675.155,150.026h0.5v-1.75c0-0.138-0.112-0.25-0.25-0.25h-1.75v0.5h1.5V150.026z" id="n_id_91" />
	<rect class="st0" height="3.585" id="n_id_92" width="0.5" x="675.155" y="195.797" />
	<rect class="st0" height="3.584" id="n_id_93" width="0.5" x="675.155" y="183.458" />
	<rect class="st0" height="3.585" id="n_id_94" width="0.5" x="675.155" y="177.288" />
	<rect class="st0" height="3.585" id="n_id_95" width="0.5" x="675.155" y="189.627" />
	<rect class="st0" height="3.585" id="n_id_96" width="0.5" x="675.155" y="152.611" />
	<rect class="st0" height="3.585" id="n_id_97" width="0.5" x="675.155" y="171.119" />
	<rect class="st0" height="3.584" id="n_id_98" width="0.5" x="675.155" y="164.95" />
	<rect class="st0" height="3.585" id="n_id_99" width="0.5" x="675.155" y="158.78" />
	
		<rect class="st0" height="0.501" id="n_id_100" transform="matrix(-0.3574 0.934 -0.934 -0.3574 1072.788 -357.1104)" width="3.5" x="657.498" y="190.258" />
	
		<rect class="st0" height="0.501" id="n_id_101" transform="matrix(-0.3575 -0.9339 0.9339 -0.3575 699.2794 881.3278)" width="3.5" x="651.067" y="199.861" />
	
		<rect class="st0" height="3.499" id="n_id_102" transform="matrix(0.9341 0.357 -0.357 0.9341 115.1827 -220.543)" width="0.501" x="654.71" y="199.966" />
	
		<rect class="st0" height="3.5" id="n_id_103" transform="matrix(0.9342 0.3569 -0.3569 0.9342 98.3766 -230.6484)" width="0.501" x="674.005" y="149.531" />
	
		<rect class="st0" height="3.5" id="n_id_104" transform="matrix(-0.9342 0.3569 -0.3569 -0.9342 1327.9166 144.017)" width="0.501" x="650.422" y="192.758" />
	
		<rect class="st0" height="3.499" id="n_id_105" transform="matrix(0.9342 0.3569 -0.3569 0.9342 100.2352 -229.5144)" width="0.501" x="671.861" y="155.135" />
	
		<rect class="st0" height="0.501" id="n_id_106" transform="matrix(0.3574 -0.9339 0.9339 0.3574 258.9027 734.9086)" width="3.5" x="661.786" y="179.05" />
	
		<rect class="st0" height="3.499" id="n_id_107" transform="matrix(0.9341 0.3569 -0.3569 0.9341 109.5574 -223.8836)" width="0.501" x="661.142" y="183.155" />
	
		<rect class="st0" height="0.501" id="n_id_108" transform="matrix(-0.3574 0.9339 -0.9339 -0.3574 1065.8307 -385.9279)" width="3.5" x="663.93" y="173.446" />
	
		<rect class="st0" height="3.5" id="n_id_109" transform="matrix(0.9342 -0.3569 0.3569 0.9342 -17.278 239.3289)" width="0.501" x="639.703" y="164.738" />
	
		<rect class="st0" height="0.501" id="n_id_110" transform="matrix(0.3574 -0.934 0.934 0.3574 278.7747 730.1392)" width="3.5" x="668.218" y="162.238" />
	
		<rect class="st0" height="0.501" id="n_id_111" transform="matrix(0.3574 -0.9339 0.9339 0.3574 239.0693 739.7042)" width="3.5" x="655.355" y="195.861" />
	
		<rect class="st0" height="0.501" id="n_id_112" transform="matrix(0.3571 0.934 -0.934 0.3571 593.3521 -484.3195)" width="3.5" x="646.779" y="188.654" />
	
		<rect class="st0" height="0.501" id="n_id_113" transform="matrix(0.3575 0.9339 -0.9339 0.3575 553.4638 -493.8919)" width="3.5" x="633.915" y="155.03" />
	
		<rect class="st0" height="0.501" id="n_id_114" transform="matrix(0.3574 0.934 -0.934 0.3574 573.338 -489.1005)" width="3.5" x="640.347" y="171.842" />
	
		<rect class="st0" height="0.501" id="n_id_115" transform="matrix(0.3572 0.934 -0.934 0.3572 560.2495 -492.3142)" width="3.499" x="636.059" y="160.634" />
	
		<rect class="st0" height="3.5" id="n_id_116" transform="matrix(0.9342 0.3569 -0.3569 0.9342 103.9524 -227.2465)" width="0.501" x="667.574" y="166.342" />
	
		<rect class="st0" height="0.501" id="n_id_117" transform="matrix(-0.3574 -0.9339 0.9339 -0.3574 706.2249 852.5023)" width="3.5" x="644.635" y="183.05" />
	
		<rect class="st0" height="3.5" id="n_id_118" transform="matrix(-0.9342 0.3569 -0.3569 -0.9342 1309.4777 113.7954)" width="0.501" x="643.991" y="175.946" />
	<path class="st0" d="M721.266,203.466h-1.5v0.5h1.75c0.138,0,0.25-0.112,0.25-0.25v-1.75h-0.5V203.466z" id="n_id_119" />
	<rect class="st0" height="0.5" id="n_id_120" width="3.532" x="689.442" y="203.466" />
	<rect class="st0" height="0.5" id="n_id_121" width="3.532" x="713.701" y="203.466" />
	<rect class="st0" height="0.5" id="n_id_122" width="3.533" x="695.507" y="203.466" />
	<rect class="st0" height="0.5" id="n_id_123" width="3.532" x="701.572" y="203.466" />
	<rect class="st0" height="0.5" id="n_id_124" width="3.532" x="707.637" y="203.466" />
	<rect class="st0" height="0.5" id="n_id_125" width="3.532" x="683.378" y="203.466" />
	<path class="st0" d="M678.846,203.716c0,0.138,0.112,0.25,0.25,0.25h1.75v-0.5h-1.5v-1.5h-0.5V203.716z" id="n_id_126" />
	<rect class="st0" height="3.585" id="n_id_127" width="0.5" x="678.846" y="152.611" />
	<rect class="st0" height="3.585" id="n_id_128" width="0.5" x="678.846" y="177.288" />
	<rect class="st0" height="3.585" id="n_id_129" width="0.5" x="678.846" y="171.119" />
	<rect class="st0" height="3.584" id="n_id_130" width="0.5" x="678.846" y="164.95" />
	<rect class="st0" height="3.584" id="n_id_131" width="0.5" x="678.846" y="183.458" />
	<rect class="st0" height="3.585" id="n_id_132" width="0.5" x="678.846" y="189.627" />
	<rect class="st0" height="3.585" id="n_id_133" width="0.5" x="678.846" y="195.797" />
	<rect class="st0" height="3.585" id="n_id_134" width="0.5" x="678.846" y="158.78" />
	<polygon class="st0" id="n_id_135" points="678.846,150.026 679.346,150.026 679.346,149.629 680.023,151.4 680.491,151.222 679.46,148.526    680.846,148.526 680.846,148.026 679.269,148.026 679.24,147.953 678.772,148.132 678.846,148.323  " />
	<rect class="st0" height="0.5" id="n_id_136" width="3.532" x="707.637" y="148.026" />
	<rect class="st0" height="0.5" id="n_id_137" width="3.532" x="713.701" y="148.026" />
	<rect class="st0" height="0.5" id="n_id_138" width="3.533" x="701.571" y="148.026" />
	<rect class="st0" height="0.5" id="n_id_139" width="3.532" x="695.507" y="148.026" />
	<rect class="st0" height="0.5" id="n_id_140" width="3.532" x="683.378" y="148.026" />
	<rect class="st0" height="0.5" id="n_id_141" width="3.532" x="689.442" y="148.026" />
	<path class="st0" d="M721.266,150.026h0.5v-1.75c0-0.138-0.112-0.25-0.25-0.25h-1.75v0.5h1.5V150.026z" id="n_id_142" />
	<rect class="st0" height="3.584" id="n_id_143" width="0.5" x="721.266" y="183.458" />
	<rect class="st0" height="3.585" id="n_id_144" width="0.5" x="721.266" y="189.627" />
	<rect class="st0" height="3.585" id="n_id_145" width="0.5" x="721.266" y="152.611" />
	<rect class="st0" height="3.584" id="n_id_146" width="0.5" x="721.266" y="164.95" />
	<rect class="st0" height="3.585" id="n_id_147" width="0.5" x="721.266" y="158.78" />
	<rect class="st0" height="3.585" id="n_id_148" width="0.5" x="721.266" y="171.119" />
	<rect class="st0" height="3.585" id="n_id_149" width="0.5" x="721.266" y="177.288" />
	<rect class="st0" height="3.585" id="n_id_150" width="0.5" x="721.266" y="195.797" />
	
		<rect class="st0" height="3.5" id="n_id_151" transform="matrix(0.9341 -0.3569 0.3569 0.9341 -14.2358 255.8333)" width="0.501" x="685.813" y="164.738" />
	
		<rect class="st0" height="0.501" id="n_id_152" transform="matrix(0.3572 0.934 -0.934 0.3572 589.8889 -535.3824)" width="3.499" x="682.17" y="160.634" />
	
		<rect class="st0" height="0.501" id="n_id_153" transform="matrix(0.3574 0.9339 -0.9339 0.3574 583.1102 -536.9584)" width="3.5" x="680.026" y="155.03" />
	
		<rect class="st0" height="0.501" id="n_id_154" transform="matrix(0.3574 -0.9339 0.9339 0.3574 308.3898 773.1935)" width="3.5" x="714.328" y="162.238" />
	
		<rect class="st0" height="0.501" id="n_id_155" transform="matrix(0.3574 -0.9339 0.9339 0.3574 268.6976 782.7681)" width="3.5" x="701.465" y="195.861" />
	
		<rect class="st0" height="0.501" id="n_id_156" transform="matrix(0.3574 0.934 -0.934 0.3574 602.9685 -532.1653)" width="3.5" x="686.457" y="171.842" />
	
		<rect class="st0" height="0.501" id="n_id_157" transform="matrix(0.3574 -0.9339 0.9339 0.3574 288.5311 777.9725)" width="3.5" x="707.897" y="179.05" />
	
		<rect class="st0" height="3.5" id="n_id_158" transform="matrix(0.9342 0.3569 -0.3569 0.9342 106.9883 -243.701)" width="0.501" x="713.684" y="166.342" />
	
		<rect class="st0" height="0.501" id="n_id_159" transform="matrix(-0.3574 0.934 -0.934 -0.3574 1135.3624 -400.1868)" width="3.5" x="703.608" y="190.258" />
	
		<rect class="st0" height="3.499" id="n_id_160" transform="matrix(0.9342 0.3569 -0.3569 0.9342 112.5641 -240.2988)" width="0.501" x="707.252" y="183.155" />
	
		<rect class="st0" height="0.501" id="n_id_161" transform="matrix(-0.3574 0.9339 -0.9339 -0.3574 1128.4379 -428.9811)" width="3.5" x="710.04" y="173.446" />
	
		<rect class="st0" height="3.499" id="n_id_162" transform="matrix(0.9342 0.3569 -0.3569 0.9342 103.271 -245.9689)" width="0.501" x="717.972" y="155.135" />
	
		<rect class="st0" height="3.5" id="n_id_163" transform="matrix(0.9342 0.3569 -0.3569 0.9342 101.4124 -247.103)" width="0.501" x="720.116" y="149.531" />
	
		<rect class="st0" height="0.501" id="n_id_164" transform="matrix(0.3571 0.934 -0.934 0.3571 622.994 -527.3887)" width="3.5" x="692.889" y="188.654" />
	
		<rect class="st0" height="3.499" id="n_id_165" transform="matrix(0.9341 0.357 -0.357 0.9341 118.2217 -237.0055)" width="0.501" x="700.82" y="199.966" />
	
		<rect class="st0" height="3.5" id="n_id_166" transform="matrix(-0.9342 0.3569 -0.3569 -0.9342 1398.6624 97.341)" width="0.501" x="690.101" y="175.946" />
	
		<rect class="st0" height="0.501" id="n_id_167" transform="matrix(-0.3574 -0.9339 0.9339 -0.3574 768.8351 895.5648)" width="3.5" x="690.745" y="183.05" />
	
		<rect class="st0" height="3.5" id="n_id_168" transform="matrix(-0.9341 0.3569 -0.3569 -0.9341 1417.0968 127.5111)" width="0.501" x="696.533" y="192.758" />
	
		<rect class="st0" height="0.501" id="n_id_169" transform="matrix(-0.3575 -0.9339 0.9339 -0.3575 761.8722 924.3916)" width="3.5" x="697.177" y="199.861" />
</g>
</svg>