<svg xmlns="http://www.w3.org/2000/svg" xmlns:ns1="http://www.w3.org/1999/xlink" enable-background="new 0 120.445 595.275 489" height="489px" id="Layer_1" version="1.1" viewBox="0 120.445 595.275 489" width="595.275px" x="0px" y="0px" xml:space="preserve">
<symbol id="Deleted_Symbol_2" viewBox="-43.258 -3.386 86.516 6.771">
	<g id="n_id_0">
		<g id="n_id_1">
			<polygon fill="#FFFFFF" id="n_id_2" points="42.763,-3.31 -40.916,-3.31 -40.916,3.386 42.763,3.386    " />
			<polygon id="n_id_3" points="43.258,3.374 43.258,-3.386 41.045,-3.386 41.045,-1.173 40.208,-1.173 40.208,1.04 40.926,1.04 40.916,3.386         " />
			<polygon id="n_id_4" points="-43.258,3.374 -43.258,-3.386 -41.045,-3.386 -41.045,-1.173 -40.208,-1.173 -40.208,1.04 -40.925,1.04      -40.916,3.386    " />
			<polygon id="n_id_5" points="1.231,-2.833 -41.288,-2.833 -41.288,0.001 1.231,0.001    " />
			<polygon id="n_id_6" points="41.665,0.001 -1.08,0.001 -1.08,2.837 41.665,2.837    " />
		</g>
	</g>
</symbol>
<symbol id="Door_1_-_Outside_2" viewBox="-12.625 -13.188 25.25 26.377">
	<g id="n_id_7">
		<polygon id="n_id_8" points="10.881,-8.109 8.756,-8.109 8.756,13.15 10.881,13.15   " />
		<path d="M-10.418-8.376c0,0-0.283,7.854,5.497,14.261    c5.779,6.408,12.422,6.66,15.492,6.88" fill="none" id="n_id_9" stroke="#000000" stroke-width="0.8504" />
		<polygon fill="#FFFFFF" id="n_id_10" points="11.071,-13.096 -11.101,-13.096 -11.101,-8.109 11.071,-8.109   " />
		<polygon id="n_id_11" points="-12.625,-8.116 -12.625,-13.187 -10.963,-13.187 -10.963,-11.526 -10.336,-11.526 -10.336,-9.867 -10.875,-9.867     -10.867,-8.109   " />
		<polygon id="n_id_12" points="12.625,-13.179 12.625,-8.109 10.965,-8.109 10.965,-9.771 10.336,-9.771 10.336,-11.43 10.875,-11.43     10.868,-13.188   " />
	</g>
</symbol>
<symbol id="Door_2_-_Inside_2" viewBox="-12.625 -13.188 25.25 26.378">
	<g id="n_id_13">
		<g id="n_id_14">
			<polygon id="n_id_15" points="-10.879,-8.109 -8.755,-8.109 -8.755,13.15 -10.879,13.15    " />
			<path d="M10.42-8.375c0,0,0.283,7.854-5.496,14.261     c-5.779,6.407-12.425,6.659-15.493,6.88" fill="none" id="n_id_16" stroke="#000000" stroke-width="0.8504" />
			<polygon fill="#DFCCE4" id="n_id_17" points="-11.069,-13.096 11.103,-13.096 11.103,-8.109 -11.069,-8.109    " />
			<polygon id="n_id_18" points="12.625,-8.115 12.625,-13.186 10.965,-13.186 10.965,-11.525 10.338,-11.525 10.338,-9.867 10.875,-9.867      10.868,-8.109    " />
			<polygon id="n_id_19" points="-12.625,-13.178 -12.625,-8.109 -10.963,-8.109 -10.963,-9.77 -10.335,-9.77 -10.335,-11.43 -10.875,-11.43      -10.867,-13.188    " />
		</g>
	</g>
</symbol>
<symbol id="Sliding_Patio_Doors_2" viewBox="-28.345 -3.385 56.69 6.77">
	
		<use height="6.771" id="n_id_20" overflow="visible" transform="matrix(0.6553 0 0 0.9997 0 0)" width="86.516" x="-43.258" y="-3.386" ns1:href="#Deleted_Symbol_2" />
</symbol>
<polygon fill="#FFFFFF" id="n_id_21" points="151.281,356.806 151.281,404.445 104.471,404.445 104.471,457.716 81.971,457.716   81.971,520.777 104.471,520.777 156.309,520.777 465.331,520.777 465.331,356.806 " stroke="#000000" />
<polygon fill="#A6E1E2" id="n_id_22" points="278.017,450.445 310.702,450.445 310.702,439.123   310.702,427.123 310.702,403.758 82.807,403.758 82.807,488.689 221.518,488.689 232.891,488.689 278.017,488.689 " stroke="#000000" stroke-width="3" />
<path d="M8.636,139.094" fill="#CCE1F0" id="n_id_23" stroke="#000000" stroke-width="3" />
<rect fill="#FFFFFF" height="32.855" id="n_id_24" stroke="#000000" width="68.631" x="243.115" y="200.613" />
<rect fill="#DFCCE4" height="65.999" id="n_id_25" stroke="#000000" stroke-width="3" width="88.466" x="377.281" y="233.471" />
<rect fill="#DFCCE4" height="124.403" id="n_id_26" stroke="#000000" stroke-width="3" width="133.115" x="243.948" y="256.596" />
<rect fill="#DFCCE4" height="135.832" id="n_id_27" stroke="#000000" stroke-width="3" width="136.851" x="173.914" y="268.613" />
<rect fill="#DFCCE4" height="94.189" id="n_id_28" stroke="#000000" stroke-width="3" width="88.465" x="119.281" y="338.613" />
<rect fill="#DFCCE4" height="53.857" id="n_id_29" stroke="#020202" stroke-width="3" width="39.465" x="168.281" y="284.613" />
<rect fill="#DFCCE4" height="48.855" id="n_id_30" stroke="#000000" stroke-width="3" width="88.465" x="119.281" y="235.613" />
<rect fill="#DFCCE4" height="26.893" id="n_id_31" stroke="#000000" stroke-width="3" width="133.632" x="243.948" y="233.471" />
<rect fill="#DFCCE4" height="99.857" id="n_id_32" width="36.549" x="169.781" y="252.613" />
<rect fill="#DFCCE4" height="110.581" id="n_id_33" width="115" x="212.137" y="269.197" />
<line fill="none" id="n_id_34" stroke="#020202" stroke-width="3" x1="168.027" x2="168.027" y1="284.453" y2="234.999" />
<line fill="none" id="n_id_35" stroke="#020202" stroke-width="3" x1="409.027" x2="409.027" y1="309.453" y2="233.453" />
<line fill="none" id="n_id_36" stroke="#020202" stroke-width="3" x1="465.153" x2="451.152" y1="246.787" y2="246.787" />
<line fill="none" id="n_id_37" stroke="#020202" stroke-width="3" x1="426.276" x2="408.277" y1="246.12" y2="246.12" />
<rect fill="#DFCCE4" height="22.48" id="n_id_38" width="29.465" x="151.281" y="250.988" />
<rect fill="#DFCCE4" height="26.855" id="n_id_39" width="29.465" x="394.281" y="261.613" />
<line fill="none" id="n_id_40" stroke="#020202" stroke-width="3" x1="244.027" x2="244.027" y1="302.453" y2="263.778" />
<line fill="none" id="n_id_41" stroke="#020202" stroke-width="3" x1="289.028" x2="244.278" y1="301.453" y2="301.453" />
<text fill="#020202" font-family="'Verdana'" font-size="12" id="n_id_42" transform="matrix(1 0 0 1 417.1121 266.6538)">Ensuite</text>
<text fill="#FFFFFF" font-family="'Verdana'" font-size="12" id="n_id_43" transform="matrix(1 0 0 1 414.1121 208.5288)">Ensuite</text>
<text font-family="'Verdana'" font-size="12" id="n_id_44" transform="matrix(1 0 0 1 137.6047 380.9995)">Bedroom</text>
<text fill="#020202" font-family="'Verdana'" font-size="12" id="n_id_45" transform="matrix(1 0 0 1 317.5183 336.5122)">Dining</text>
<text fill="#020202" font-family="'Verdana'" font-size="12" id="n_id_46" transform="matrix(1 0 0 1 322.9265 350.9126)">Area</text>
<text font-family="'Verdana'" font-size="12" id="n_id_47" transform="matrix(1 0 0 1 125.1121 266.5288)">Ensuite</text>
<text font-family="'Verdana'" font-size="12" id="n_id_48" transform="matrix(1 0 0 1 294.6003 251.5288)">Utility</text>
<text font-family="'Verdana'" font-size="12" id="n_id_49" transform="matrix(1 0 0 1 237.3513 380.4702)">Lounge</text>
<line fill="none" id="n_id_50" stroke="#000000" stroke-width="3" x1="440.027" x2="440.027" y1="299.454" y2="274.454" />
<rect fill="#DFCCE4" height="134.19" id="n_id_51" stroke="#000000" stroke-width="3" width="88.466" x="377.281" y="298.612" />
<text font-family="'Verdana'" font-size="12" id="n_id_52" transform="matrix(1 0 0 1 397.282 381.7075)">Bedroom</text>
<rect fill="#DFCCE4" height="26.856" id="n_id_53" width="28.95" x="378.801" y="285.184" />
<text font-family="'Verdana'" font-size="12" id="n_id_54" transform="matrix(1 0 0 1 159.7458 462.6362)">Pool</text>
<text font-family="'Verdana'" font-size="12" id="n_id_55" transform="matrix(1 0 0 1 127.615 474.8862)">12.0m x 3.0m</text>
<line fill="none" id="n_id_56" stroke="#000000" x1="303.804" x2="303.804" y1="405.299" y2="450.248" />
<line fill="none" id="n_id_57" stroke="#000000" x1="297.554" x2="297.554" y1="405.562" y2="450.509" />
<line fill="none" id="n_id_58" stroke="#000000" x1="291.804" x2="291.804" y1="405.43" y2="450.378" />
<g id="n_id_59" onclick="parent.viewFloorplanImage('01alondrasuites_ext_12')">
	<circle cx="237.627" cy="445.26" fill="#343433" id="n_id_60" r="3.276" />
	<path d="M245.211,438.265h-3.021l-1.67-2.531h-5.815l-1.918,2.531h-6.524c-0.696,0-1.265,0.564-1.265,1.26v11.369   c0,0.695,0.563,1.266,1.265,1.266h18.954c0.697,0,1.266-0.568,1.266-1.266v-11.367C246.476,438.83,245.911,438.265,245.211,438.265   z M237.627,450.398c-2.862,0-5.188-2.32-5.188-5.188c0-2.865,2.323-5.189,5.188-5.189c2.865,0,5.188,2.324,5.188,5.189   S240.493,450.398,237.627,450.398z" fill="#343433" id="n_id_61" />
</g>
<g id="n_id_62" onclick="parent.viewFloorplanImage('01alondrasuites_gal08_12')">
	<circle cx="369.949" cy="487.414" fill="#343433" id="n_id_63" r="3.275" />
	<path d="M377.533,480.417h-3.022l-1.67-2.531h-5.815l-1.918,2.531h-6.525c-0.696,0-1.264,0.564-1.264,1.26v11.369   c0,0.695,0.563,1.266,1.264,1.266h18.955c0.697,0,1.265-0.566,1.265-1.266v-11.367   C378.798,480.982,378.233,480.417,377.533,480.417z M369.949,492.552c-2.862,0-5.188-2.322-5.188-5.188   c0-2.867,2.324-5.189,5.188-5.189c2.865,0,5.188,2.322,5.188,5.189C375.135,490.228,372.815,492.552,369.949,492.552z" fill="#343433" id="n_id_64" />
</g>
<text font-family="'Verdana'" font-size="12" id="n_id_65" transform="matrix(1 0 0 1 347.9402 471.5327)">Terrace</text>
<use enable-background="new    " height="6.77" id="n_id_66" overflow="visible" transform="matrix(-1 0 0 -1 256.6824 404.7583)" width="56.69" x="-28.345" y="-3.385" ns1:href="#Sliding_Patio_Doors_2" />
<use enable-background="new    " height="6.77" id="n_id_67" overflow="visible" transform="matrix(-1 0 0 -1 166.0134 432.8022)" width="56.69" x="-28.345" y="-3.385" ns1:href="#Sliding_Patio_Doors_2" />
<use height="26.377" id="n_id_68" overflow="visible" transform="matrix(-1 0 0 1 261.1726 243.4082)" width="25.25" x="-12.625" y="-13.188" ns1:href="#Door_1_-_Outside_2" />
<use enable-background="new    " height="26.377" id="n_id_69" overflow="visible" transform="matrix(-1 0 0 1 224.9148 277.9678)" width="25.25" x="-12.625" y="-13.188" ns1:href="#Door_1_-_Outside_2" />
<use height="26.378" id="n_id_70" overflow="visible" transform="matrix(-4.489264e-011 1 -1 -4.489264e-011 197.5476 311.6641)" width="25.25" x="-12.625" y="-13.188" ns1:href="#Door_2_-_Inside_2" />
<use enable-background="new    " height="26.378" id="n_id_71" overflow="visible" transform="matrix(8.978528e-011 -1 1 8.978528e-011 387.9451 316.166)" width="25.25" x="-12.625" y="-13.188" ns1:href="#Door_2_-_Inside_2" />
<use enable-background="new    " height="26.378" id="n_id_72" overflow="visible" transform="matrix(-1 0 0 -1 359.365 249.9858)" width="25.25" x="-12.625" y="-13.188" ns1:href="#Door_2_-_Inside_2" />
<rect fill="#DFCCE4" height="19" id="n_id_73" width="71.549" x="245.59" y="263.778" />
<text fill="#050505" font-family="'Verdana'" font-size="12" id="n_id_74" transform="matrix(1 0 0 1 291.1716 286.3687)">Kitchen</text>
<line fill="none" id="n_id_75" stroke="#000000" x1="285.387" x2="285.387" y1="405.43" y2="450.378" />
<line fill="none" id="n_id_76" stroke="#000000" x1="279.137" x2="279.137" y1="404.882" y2="449.832" />
<g id="n_id_77" onclick="parent.viewFloorplanImage('01alondrasuites_int_12')">
	<circle cx="282.321" cy="343.039" fill="#343433" id="n_id_78" r="3.275" />
	<path d="M289.905,336.043h-3.023l-1.67-2.531h-5.814l-1.918,2.531h-6.525c-0.697,0-1.264,0.564-1.264,1.26v11.369   c0,0.695,0.563,1.266,1.264,1.266h18.955c0.697,0,1.264-0.566,1.264-1.266v-11.367   C291.169,336.607,290.605,336.043,289.905,336.043z M282.321,348.178c-2.863,0-5.189-2.322-5.189-5.188   c0-2.867,2.324-5.189,5.189-5.189s5.188,2.322,5.188,5.189C287.507,345.854,285.187,348.178,282.321,348.178z" fill="#343433" id="n_id_79" />
</g>
<use enable-background="new    " height="6.77" id="n_id_80" overflow="visible" transform="matrix(-1 0 0 -1 424.2761 432.8022)" width="56.69" x="-28.345" y="-3.385" ns1:href="#Sliding_Patio_Doors_2" />
<g id="n_id_81" onclick="parent.viewFloorplanImage('01alondrasuites_gal05_12')">
	<circle cx="273.58" cy="282.093" fill="#343433" id="n_id_82" r="3.275" />
	<path d="M281.164,275.097h-3.022l-1.67-2.531h-5.815l-1.918,2.531h-6.525c-0.696,0-1.264,0.564-1.264,1.26v11.369   c0,0.695,0.563,1.266,1.264,1.266h18.955c0.697,0,1.265-0.566,1.265-1.266v-11.367   C282.427,275.661,281.864,275.097,281.164,275.097z M273.58,287.231c-2.863,0-5.188-2.322-5.188-5.188   c0-2.867,2.323-5.189,5.188-5.189s5.188,2.322,5.188,5.189C278.765,284.907,276.446,287.231,273.58,287.231z" fill="#343433" id="n_id_83" />
</g>
<g id="n_id_84" onclick="parent.viewFloorplanImage('01alondrasuites_gal03_12')">
	<circle cx="164.41" cy="395.174" fill="#343433" id="n_id_85" r="3.275" />
	<path d="M171.994,388.178h-3.022l-1.671-2.531h-5.814l-1.918,2.531h-6.525c-0.696,0-1.264,0.564-1.264,1.26v11.369   c0,0.695,0.563,1.266,1.264,1.266h18.955c0.697,0,1.265-0.566,1.265-1.266V389.44C173.258,388.742,172.694,388.178,171.994,388.178   z M164.41,400.313c-2.863,0-5.188-2.322-5.188-5.188c0-2.867,2.323-5.189,5.188-5.189s5.188,2.322,5.188,5.189   C169.595,397.988,167.276,400.313,164.41,400.313z" fill="#343433" id="n_id_86" />
</g>
<g id="n_id_87" onclick="parent.viewFloorplanImage('01alondrasuites_gal04_12')">
	<circle cx="425.636" cy="395.86" fill="#343433" id="n_id_88" r="3.275" />
	<path d="M433.22,388.864h-3.023l-1.67-2.531h-5.814l-1.918,2.531h-6.525c-0.697,0-1.264,0.564-1.264,1.26v11.369   c0,0.695,0.563,1.266,1.264,1.266h18.955c0.697,0,1.264-0.566,1.264-1.266v-11.367C434.484,389.428,433.922,388.864,433.22,388.864   z M425.636,400.999c-2.863,0-5.189-2.322-5.189-5.188c0-2.867,2.324-5.189,5.189-5.189c2.864,0,5.188,2.322,5.188,5.189   C430.822,398.674,428.504,400.999,425.636,400.999z" fill="#343433" id="n_id_89" />
</g>
</svg>