<svg xmlns="http://www.w3.org/2000/svg" xmlns:ns1="adobe:ns:meta/" xmlns:rdf="http://www.w3.org/1999/02/22-rdf-syntax-ns#" height="421.6px" id="Layer_22" style="enable-background:new 0 0 287.3 421.6;" version="1.1" viewBox="0 0 287.3 421.6" width="287.3px" x="0px" y="0px" xml:space="preserve">
<metadata id="n_id_0">
<ns1:xmpmeta id="n_id_1" ns1:xmptk="Adobe XMP Core 5.6-c111 79.158366, 2015/09/25-01:12:00        ">
   <rdf:RDF id="n_id_2">
      <rdf:Description id="n_id_3" rdf:about="" />
   </rdf:RDF>
</ns1:xmpmeta>
                                                                                                    
                                                                                                    
                                                                                                    
                                                                                                    
                                                                                                    
                                                                                                    
                                                                                                    
                                                                                                    
                                                                                                    
                                                                                                    
                                                                                                    
                                                                                                    
                                                                                                    
                                                                                                    
                                                                                                    
                                                                                                    
                                                                                                    
                                                                                                    
                                                                                                    
                                                                                                    
                           
</metadata>
<style id="n_id_4" type="text/css">
	.Graphic_x0020_Style{fill:none;stroke:#000000;stroke-linecap:square;stroke-miterlimit:10;}
	.Graphic_x0020_Style_x0020_2{fill:none;stroke:#000000;stroke-linecap:square;stroke-miterlimit:10;}
	.Graphic_x0020_Style_x0020_3{fill:none;stroke:#000000;stroke-linecap:square;stroke-miterlimit:10;}
	.Graphic_x0020_Style_x0020_4{fill:none;stroke:#000000;stroke-linecap:square;stroke-miterlimit:10;}
	.st0{fill:none;stroke:#000000;stroke-miterlimit:10;}
	.st1{fill:none;stroke:#000000;stroke-width:0.4;stroke-linecap:round;stroke-linejoin:round;stroke-miterlimit:10;}
	.st2{fill:none;stroke:#000000;stroke-width:1.1536;stroke-linecap:square;stroke-miterlimit:10;}
	.st3{fill:none;stroke:#010101;stroke-width:0.394;stroke-linecap:round;stroke-linejoin:round;stroke-miterlimit:10;}
	.st4{fill:#1A2857;}
</style>
<g id="n_id_5">
	<g id="n_id_6">
		<line class="st0" id="n_id_7" x1="140.2" x2="140.2" y1="390.9" y2="366.7" />
		<line class="st0" id="n_id_8" x1="119.1" x2="138" y1="412.4" y2="393.6" />
		<line class="st0" id="n_id_9" x1="76" x2="40.9" y1="414" y2="414" />
		<line class="st0" id="n_id_10" x1="37.1" x2="10.2" y1="414" y2="414" />
		<line class="st0" id="n_id_11" x1="115.1" x2="79.8" y1="414" y2="414" />
	</g>
	<g id="n_id_12">
		<line class="Graphic_x0020_Style" id="n_id_13" x1="140.2" x2="140.2" y1="390.9" y2="366.7" />
		<line class="Graphic_x0020_Style" id="n_id_14" x1="119.1" x2="138" y1="412.4" y2="393.6" />
		<line class="Graphic_x0020_Style" id="n_id_15" x1="76" x2="40.9" y1="414" y2="414" />
		<line class="Graphic_x0020_Style" id="n_id_16" x1="37.1" x2="10.2" y1="414" y2="414" />
		<line class="Graphic_x0020_Style" id="n_id_17" x1="115.1" x2="79.8" y1="414" y2="414" />
	</g>
</g>
<rect class="Graphic_x0020_Style" height="49.7" id="n_id_18" width="2.7" x="0.5" y="366.1" />
<polyline class="Graphic_x0020_Style" id="n_id_19" points="278.5,224.5 250.3,224.5 250.3,229.1 278.5,229.1 278.5,224.5 " />
<polyline class="Graphic_x0020_Style" id="n_id_20" points="218.2,224.5 216.3,224.5 216.3,197.1 169.2,197.1 169.2,195.2 164.6,195.2   164.6,197.1 156.8,197.1 156.8,303.6 161.4,303.6 161.4,229.1 163.8,229.1 163.8,224.5 161.4,224.5 161.4,201.8 211.7,201.8   211.7,224.5 209.2,224.5 209.2,229.1 218.2,229.1 218.2,224.5 " />
<path class="Graphic_x0020_Style" d="M250.3,224.4c0-17.1-13.4-31.3-30.5-32.2" id="n_id_21" />
<rect class="Graphic_x0020_Style" height="32.1" id="n_id_22" width="1.7" x="218.2" y="192.3" />
<g id="n_id_23">
	<g id="n_id_24">
		<path class="st0" d="M161.5,303.6c18.1,0,33,14.2,33.9,32.2" id="n_id_25" />
		<rect class="st0" height="1.8" id="n_id_26" width="33.9" x="161.4" y="335.7" />
	</g>
	<g id="n_id_27">
		<path class="Graphic_x0020_Style" d="M161.5,303.6c18.1,0,33,14.2,33.9,32.2" id="n_id_28" />
		<rect class="Graphic_x0020_Style" height="1.8" id="n_id_29" width="33.9" x="161.4" y="335.7" />
	</g>
</g>
<g id="n_id_30">
	<g id="n_id_31">
		<path class="st0" d="M91.6,362.5c0,18.1,14.2,33,32.2,33.9" id="n_id_32" />
		<rect class="st0" height="33.9" id="n_id_33" width="1.8" x="123.7" y="362.5" />
	</g>
	<g id="n_id_34">
		<path class="Graphic_x0020_Style" d="M91.6,362.5c0,18.1,14.2,33,32.2,33.9" id="n_id_35" />
		<rect class="Graphic_x0020_Style" height="33.9" id="n_id_36" width="1.8" x="123.7" y="362.5" />
	</g>
</g>
<polyline class="Graphic_x0020_Style" id="n_id_37" points="207.4,227.8 207.4,226.4 209.2,226.4 209.2,227.8 207.4,227.8 " />
<polyline class="Graphic_x0020_Style" id="n_id_38" points="163.8,227.7 163.8,226.5 165.8,226.5 165.8,227.7 163.8,227.7 " />
<polyline class="Graphic_x0020_Style" id="n_id_39" points="11.9,51 38.4,51 38.4,34.1 116.9,34.1 116.9,10.4 " />
<polyline class="Graphic_x0020_Style" id="n_id_40" points="12.1,79.6 38.4,79.6 38.4,146.3 11.9,146.3 " />
<polyline class="Graphic_x0020_Style" id="n_id_41" points="38.4,146.3 105.6,146.3 105.6,105.2 38.4,105.2 38.4,146.3 " />
<line class="Graphic_x0020_Style" id="n_id_42" x1="212.2" x2="257.6" y1="142.4" y2="142.4" />
<line class="Graphic_x0020_Style" id="n_id_43" x1="105.6" x2="38.4" y1="135.9" y2="135.9" />
<polyline class="Graphic_x0020_Style" id="n_id_44" points="11.9,135.9 11.9,129.1 105.6,129.1 105.6,135.9 " />
<polyline class="Graphic_x0020_Style" id="n_id_45" points="257.6,142.4 278.4,142.4 278.4,138.3 " />
<line class="Graphic_x0020_Style" id="n_id_46" x1="276" x2="257.8" y1="156.1" y2="156.1" />
<line class="Graphic_x0020_Style" id="n_id_47" x1="278.4" x2="278.5" y1="142.4" y2="142.4" />
<polyline class="Graphic_x0020_Style" id="n_id_48" points="257.8,142.4 257.8,184.7 278.5,184.7 " />
<line class="Graphic_x0020_Style" id="n_id_49" x1="257.6" x2="257.6" y1="110.8" y2="142.4" />
<polyline class="Graphic_x0020_Style" id="n_id_50" points="278.4,138.3 261.6,138.3 261.6,110.8 " />
<polyline class="Graphic_x0020_Style" id="n_id_51" points="11.9,351 59.3,351 59.3,357.3 62.2,357.3 " />
<line class="Graphic_x0020_Style" id="n_id_52" x1="261.6" x2="261.7" y1="110.8" y2="110.8" />
<line class="Graphic_x0020_Style" id="n_id_53" x1="261.6" x2="261.7" y1="110.8" y2="110.8" />
<line class="Graphic_x0020_Style" id="n_id_54" x1="261.7" x2="261.7" y1="110.8" y2="110.8" />
<line class="Graphic_x0020_Style" id="n_id_55" x1="261.7" x2="261.7" y1="110.8" y2="110.8" />
<line class="Graphic_x0020_Style" id="n_id_56" x1="261.7" x2="261.7" y1="110.8" y2="110.8" />
<path class="Graphic_x0020_Style" d="M143.1,16.6c0,18.2,14.3,33.2,32.5,34.1" id="n_id_57" />
<rect class="Graphic_x0020_Style" height="34.1" id="n_id_58" width="2.1" x="175.2" y="16.6" />
<polyline class="Graphic_x0020_Style" id="n_id_59" points="127.8,360.9 125.5,360.9 125.5,362.5 127.8,362.5 " />
<polyline class="Graphic_x0020_Style" id="n_id_60" points="89.2,362.5 91.6,362.5 91.6,360.9 89.2,360.9 " />
<polyline class="Graphic_x0020_Style" id="n_id_61" points="62.2,357.3 89.2,357.3 89.2,363 11.9,363 11.9,357.3 59.3,357.3 " />
<polygon class="Graphic_x0020_Style" id="n_id_62" points="0.5,418.2 119.5,418.2 144.4,393.3 144.4,363 147.3,363 147.3,394.6 120.7,421.1   0.5,421.1 " />
<g id="n_id_63">
	<g id="n_id_64">
		<path class="st1" d="M40.4,374.1v29c0,1.2-1,2.1-2.1,2.1H27.4c-1.2,0-2.1-1-2.1-2.1v-29c0-1.2,1-2.1,2.1-2.1h10.9    C39.5,371.9,40.4,372.9,40.4,374.1z" id="n_id_65" />
		
			<rect class="st1" height="0.8" id="n_id_66" transform="matrix(4.488705e-11 -1 1 4.488705e-11 -340.2297 421.8333)" width="12.5" x="34.5" y="380.6" />
	</g>
	<g id="n_id_67">
		<path class="Graphic_x0020_Style" d="M40.4,374.1v29c0,1.2-1,2.1-2.1,2.1H27.4c-1.2,0-2.1-1-2.1-2.1v-29c0-1.2,1-2.1,2.1-2.1h10.9    C39.5,371.9,40.4,372.9,40.4,374.1z" id="n_id_68" />
		
			<rect class="Graphic_x0020_Style" height="0.8" id="n_id_69" transform="matrix(4.488705e-11 -1 1 4.488705e-11 -340.2297 421.8333)" width="12.5" x="34.5" y="380.6" />
	</g>
</g>
<line class="Graphic_x0020_Style" id="n_id_70" x1="165.8" x2="207.4" y1="227.1" y2="227.1" />
<rect class="Graphic_x0020_Style" height="24.9" id="n_id_71" width="26.5" x="13.9" y="52.8" />
<polygon class="Graphic_x0020_Style" id="n_id_72" points="143.3,11.4 143.3,16.6 121.6,16.6 121.6,43.8 116.9,43.8 116.9,10.4 84.3,10.4   11.9,10.4 11.9,363 0.5,363 0.5,5.2 121.6,5.2 121.6,0.5 126.7,0.5 126.7,11.4 " />
<polyline class="Graphic_x0020_Style" id="n_id_73" points="181.2,71.5 187,71.5 187,16.6 190.5,16.6 190.5,11.4 177.3,11.4 177.3,16.6   181.2,16.6 181.2,71.5 169.2,71.5 169.2,74.1 164.6,74.1 164.6,66.9 181.2,66.9 " />
<polygon class="Graphic_x0020_Style" id="n_id_74" points="204.7,71.5 204.7,107.5 210.5,107.5 210.5,65.8 204.7,65.8 187.1,65.8 187.1,71.5 " />
<polyline class="Graphic_x0020_Style" id="n_id_75" points="212.2,110.8 278.5,110.8 278.5,339 249.1,339 245.1,339 245.1,357.3 155.6,357.3   153.5,357.3 127.6,357.3 127.6,363 249.1,363 249.1,356.8 249.1,343.1 278.5,343.1 284.3,343.1 284.3,105 278.5,105 212.2,105   212.2,157.1 164.6,157.1 164.6,148.4 169.2,148.4 169.2,150.2 205.3,150.2 205.3,114.3 169.2,114.3 169.2,116.2 164.6,116.2   164.6,106.2 169.2,106.2 169.2,107.5 212.2,107.5 " />
<polygon class="Graphic_x0020_Style_x0020_4" id="n_id_76" points="164.6,156.9 164.6,163.1 169.2,163.1 169.2,157.1 164.6,157.1 " />
<g id="n_id_77">
	<g id="n_id_78">
		<path class="st0" d="M164.6,74c-17.3,0-31.5,13.6-32.2,30.9" id="n_id_79" />
		<rect class="st0" height="1.8" id="n_id_80" width="32.1" x="132.5" y="104.4" />
	</g>
	<g id="n_id_81">
		<path class="Graphic_x0020_Style" d="M164.6,74c-17.3,0-31.5,13.6-32.2,30.9" id="n_id_82" />
		<rect class="Graphic_x0020_Style" height="1.8" id="n_id_83" width="32.1" x="132.5" y="104.4" />
	</g>
</g>
<g id="n_id_84">
	<g id="n_id_85">
		<path class="st0" d="M164.6,148.6c-17.3,0-31.5-13.6-32.2-30.9" id="n_id_86" />
		<rect class="st0" height="1.8" id="n_id_87" width="32.1" x="132.5" y="116.4" />
	</g>
	<g id="n_id_88">
		<path class="Graphic_x0020_Style" d="M164.6,148.6c-17.3,0-31.5-13.6-32.2-30.9" id="n_id_89" />
		<rect class="Graphic_x0020_Style" height="1.8" id="n_id_90" width="32.1" x="132.5" y="116.4" />
	</g>
</g>
<g id="n_id_91">
	<g id="n_id_92">
		<path class="st0" d="M169.7,163.1c17.3,0,31.5,13.6,32.2,30.9" id="n_id_93" />
		<rect class="st0" height="1.8" id="n_id_94" width="32.1" x="169.6" y="193.5" />
	</g>
	<g id="n_id_95">
		<path class="Graphic_x0020_Style" d="M169.7,163.1c17.3,0,31.5,13.6,32.2,30.9" id="n_id_96" />
		<rect class="Graphic_x0020_Style" height="1.8" id="n_id_97" width="32.1" x="169.6" y="193.5" />
	</g>
</g>
<g id="sync">
	<g id="n_id_98">
		<g id="n_id_99">
			<g id="n_id_100">
				<circle class="st2" cx="73.1" cy="114.4" id="n_id_101" r="1.2" />
				
					<rect class="st2" height="20.1" id="n_id_102" transform="matrix(-1 -1.224647e-16 1.224647e-16 -1 146.0899 230.7028)" width="29.3" x="58.4" y="105.3" />
				<path class="st2" d="M63.2,107.2H83c1.3,0,2.4,1.1,2.4,2.4v9.5c0,1.3-1.1,2.4-2.4,2.4H63.2c-1.3,0-2.4-1.1-2.4-2.4v-9.5      C60.8,108.3,61.8,107.2,63.2,107.2z" id="n_id_103" />
				<line class="st2" id="n_id_104" x1="76.6" x2="69.6" y1="123.5" y2="123.5" />
				<line class="st2" id="n_id_105" x1="73.1" x2="73.1" y1="118.2" y2="123.5" />
			</g>
			<g id="n_id_106">
				<circle class="Graphic_x0020_Style" cx="73.1" cy="114.4" id="n_id_107" r="1.2" />
				
					<rect class="Graphic_x0020_Style" height="20.1" id="n_id_108" transform="matrix(-1 -1.224647e-16 1.224647e-16 -1 146.0899 230.7028)" width="29.3" x="58.4" y="105.3" />
				<path class="Graphic_x0020_Style" d="M63.2,107.2H83c1.3,0,2.4,1.1,2.4,2.4v9.5c0,1.3-1.1,2.4-2.4,2.4H63.2      c-1.3,0-2.4-1.1-2.4-2.4v-9.5C60.8,108.3,61.8,107.2,63.2,107.2z" id="n_id_109" />
				<line class="Graphic_x0020_Style" id="n_id_110" x1="76.6" x2="69.6" y1="123.5" y2="123.5" />
				<line class="Graphic_x0020_Style" id="n_id_111" x1="73.1" x2="73.1" y1="118.2" y2="123.5" />
			</g>
		</g>
	</g>
	<g id="n_id_112">
		<g id="n_id_113">
			<g id="n_id_114">
				<circle class="Graphic_x0020_Style" cx="73.1" cy="114.4" id="n_id_115" r="1.2" />
				
					<rect class="Graphic_x0020_Style" height="20.1" id="n_id_116" transform="matrix(-1 -1.224647e-16 1.224647e-16 -1 146.0899 230.7028)" width="29.3" x="58.4" y="105.3" />
				<path class="Graphic_x0020_Style" d="M63.2,107.2H83c1.3,0,2.4,1.1,2.4,2.4v9.5c0,1.3-1.1,2.4-2.4,2.4H63.2      c-1.3,0-2.4-1.1-2.4-2.4v-9.5C60.8,108.3,61.8,107.2,63.2,107.2z" id="n_id_117" />
				<line class="Graphic_x0020_Style" id="n_id_118" x1="76.6" x2="69.6" y1="123.5" y2="123.5" />
				<line class="Graphic_x0020_Style" id="n_id_119" x1="73.1" x2="73.1" y1="118.2" y2="123.5" />
			</g>
			<g id="n_id_120">
				<circle class="Graphic_x0020_Style" cx="73.1" cy="114.4" id="n_id_121" r="1.2" />
				
					<rect class="Graphic_x0020_Style" height="20.1" id="n_id_122" transform="matrix(-1 -1.224647e-16 1.224647e-16 -1 146.0899 230.7028)" width="29.3" x="58.4" y="105.3" />
				<path class="Graphic_x0020_Style" d="M63.2,107.2H83c1.3,0,2.4,1.1,2.4,2.4v9.5c0,1.3-1.1,2.4-2.4,2.4H63.2      c-1.3,0-2.4-1.1-2.4-2.4v-9.5C60.8,108.3,61.8,107.2,63.2,107.2z" id="n_id_123" />
				<line class="Graphic_x0020_Style" id="n_id_124" x1="76.6" x2="69.6" y1="123.5" y2="123.5" />
				<line class="Graphic_x0020_Style" id="n_id_125" x1="73.1" x2="73.1" y1="118.2" y2="123.5" />
			</g>
			<g id="n_id_126">
				<circle class="Graphic_x0020_Style" cx="73.1" cy="114.4" id="n_id_127" r="1.2" />
				
					<rect class="Graphic_x0020_Style" height="20.1" id="n_id_128" transform="matrix(-1 -1.224647e-16 1.224647e-16 -1 146.0899 230.7028)" width="29.3" x="58.4" y="105.3" />
				<path class="Graphic_x0020_Style" d="M63.2,107.2H83c1.3,0,2.4,1.1,2.4,2.4v9.5c0,1.3-1.1,2.4-2.4,2.4H63.2      c-1.3,0-2.4-1.1-2.4-2.4v-9.5C60.8,108.3,61.8,107.2,63.2,107.2z" id="n_id_129" />
				<line class="Graphic_x0020_Style" id="n_id_130" x1="76.6" x2="69.6" y1="123.5" y2="123.5" />
				<line class="Graphic_x0020_Style" id="n_id_131" x1="73.1" x2="73.1" y1="118.2" y2="123.5" />
			</g>
		</g>
	</g>
</g>
<g id="bachin">
	<g id="n_id_132">
		<g id="n_id_133">
			<ellipse class="Graphic_x0020_Style" cx="265.7" cy="170.4" id="n_id_134" rx="5.8" ry="7.1" />
			<line class="Graphic_x0020_Style" id="n_id_135" x1="273.5" x2="273.5" y1="173.2" y2="167.7" />
			<line class="Graphic_x0020_Style" id="n_id_136" x1="269.9" x2="273.5" y1="170.4" y2="170.4" />
		</g>
		<g id="n_id_137">
			<ellipse class="Graphic_x0020_Style" cx="265.7" cy="170.4" id="n_id_138" rx="5.8" ry="7.1" />
			<line class="Graphic_x0020_Style" id="n_id_139" x1="273.5" x2="273.5" y1="173.2" y2="167.7" />
			<line class="Graphic_x0020_Style" id="n_id_140" x1="269.9" x2="273.5" y1="170.4" y2="170.4" />
		</g>
	</g>
</g>
<line class="Graphic_x0020_Style" id="n_id_141" x1="276" x2="276" y1="142.8" y2="184.7" />
<g id="commot">
</g>
<g id="n_id_142">
	<g id="n_id_143">
		<path class="st3" d="M251.7,202.6c-1.1,1-1.7,2.5-1.7,4s0.6,3,1.7,3.9" id="n_id_144" />
		<path class="st3" d="M251.7,210.6c1.5,1.3,3.2,2.2,5.1,2.7l0.1,0c1.9,0.5,3.9,0.5,5.8,0" id="n_id_145" />
		<path class="st3" d="M262.6,213.3c0.9-0.2,1.7-0.6,2.4-1.1" id="n_id_146" />
		<path class="st3" d="M267.9,211.2c-0.8,0.2-2.2,0.6-2.9,0.9" id="n_id_147" />
		<path class="st3" d="M268.1,211.2c0,0.1,0,0.2,0.1,0.3" id="n_id_148" />
		<path class="st3" d="M268.1,211.5c0.3,1.9,1.9,3.3,3.8,3.3h0l2.7,0h0c0.8,0,1.4-0.7,1.4-1.4l0,0.1v-13.7v0c0-0.8-0.6-1.4-1.4-1.4    h0l-2.7-0.1h0.1c-1.9,0-3.6,1.7-3.9,3.6" id="n_id_149" />
		<path class="st3" d="M265,201.1c0.8,0.3,2.2,0.6,3,0.8" id="n_id_150" />
		<path class="st3" d="M265,201.1c-0.7-0.5-1.4-1-2.3-1.2" id="n_id_151" />
		<path class="st3" d="M262.6,199.9c-1.9-0.5-3.9-0.6-5.8,0l-0.1,0c-1.9,0.5-3.6,1.4-5.1,2.7" id="n_id_152" />
		<path class="st3" d="M266.3,202.5c-0.4-0.5-0.8-0.9-1.3-1.3" id="n_id_153" />
		<path class="st3" d="M265,212.1c0.5-0.4,0.9-0.9,1.3-1.4" id="n_id_154" />
		<path class="st3" d="M266.3,210.7c1.9-2.4,1.9-5.8,0-8.3" id="n_id_155" />
		<path class="st3" d="M268.1,202c-0.5,3-0.5,6.2,0,9.2" id="n_id_156" />
	</g>
	<g id="n_id_157">
		<path class="Graphic_x0020_Style" d="M251.7,202.6c-1.1,1-1.7,2.5-1.7,4s0.6,3,1.7,3.9" id="n_id_158" />
		<path class="Graphic_x0020_Style" d="M251.7,210.6c1.5,1.3,3.2,2.2,5.1,2.7l0.1,0c1.9,0.5,3.9,0.5,5.8,0" id="n_id_159" />
		<path class="Graphic_x0020_Style" d="M262.6,213.3c0.9-0.2,1.7-0.6,2.4-1.1" id="n_id_160" />
		<path class="Graphic_x0020_Style" d="M267.9,211.2c-0.8,0.2-2.2,0.6-2.9,0.9" id="n_id_161" />
		<path class="Graphic_x0020_Style" d="M268.1,211.2c0,0.1,0,0.2,0.1,0.3" id="n_id_162" />
		<path class="Graphic_x0020_Style" d="M268.1,211.5c0.3,1.9,1.9,3.3,3.8,3.3h0l2.7,0h0c0.8,0,1.4-0.7,1.4-1.4l0,0.1v-13.7v0    c0-0.8-0.6-1.4-1.4-1.4h0l-2.7-0.1h0.1c-1.9,0-3.6,1.7-3.9,3.6" id="n_id_163" />
		<path class="Graphic_x0020_Style" d="M265,201.1c0.8,0.3,2.2,0.6,3,0.8" id="n_id_164" />
		<path class="Graphic_x0020_Style" d="M265,201.1c-0.7-0.5-1.4-1-2.3-1.2" id="n_id_165" />
		<path class="Graphic_x0020_Style" d="M262.6,199.9c-1.9-0.5-3.9-0.6-5.8,0l-0.1,0c-1.9,0.5-3.6,1.4-5.1,2.7" id="n_id_166" />
		<path class="Graphic_x0020_Style" d="M266.3,202.5c-0.4-0.5-0.8-0.9-1.3-1.3" id="n_id_167" />
		<path class="Graphic_x0020_Style" d="M265,212.1c0.5-0.4,0.9-0.9,1.3-1.4" id="n_id_168" />
		<path class="Graphic_x0020_Style" d="M266.3,210.7c1.9-2.4,1.9-5.8,0-8.3" id="n_id_169" />
		<path class="Graphic_x0020_Style" d="M268.1,202c-0.5,3-0.5,6.2,0,9.2" id="n_id_170" />
	</g>
</g>
<line class="st0" id="n_id_171" x1="212.2" x2="257.6" y1="110.8" y2="142.4" />
<line class="st0" id="n_id_172" x1="257.6" x2="212.2" y1="110.8" y2="142.4" />
<polyline class="Graphic_x0020_Style" id="n_id_173" points="202.9,357.3 200.8,357.3 200.8,363 202.9,363 202.9,357.3 " />
<polyline class="Graphic_x0020_Style" id="n_id_174" points="142.4,357.3 140.3,357.3 140.3,363 142.4,363 142.4,357.3 " />
<polyline class="Graphic_x0020_Style" id="n_id_175" points="14,357.3 11.9,357.3 11.9,363 14,363 14,357.3 " />
<polyline class="Graphic_x0020_Style" id="n_id_176" points="131.1,357.3 127.8,357.3 127.8,363 131.1,363 131.1,357.3 " />
<rect class="Graphic_x0020_Style" height="5.7" id="n_id_177" width="2.1" x="87.1" y="357.3" />
<polyline class="Graphic_x0020_Style" id="n_id_178" points="62.1,357.3 60,357.3 60,363 62.1,363 62.1,357.3 " />
<polygon class="Graphic_x0020_Style_x0020_3" id="n_id_179" points="157,345.9 161.4,345.9 161.4,337.5 156.8,337.5 156.8,343 152.4,343   152.4,345.9 152.4,357.3 157,357.3 " />
<polyline class="Graphic_x0020_Style_x0020_3" id="n_id_180" points="155.6,357.3 153.5,357.3 153.5,363 155.6,363 155.6,357.3 " />
<rect class="Graphic_x0020_Style_x0020_2" height="23.2" id="n_id_181" width="37.7" x="249.1" y="343.1" />
<g id="n_id_182">
	<path class="st4" d="M196,268.3h3.3c1.2,0,2.1,0.6,2.1,1.8c0,0.8-0.4,1.3-1.2,1.4v0c1,0.1,1.5,0.9,1.5,1.8c0,1.8-1.3,2.1-2.7,2.1   h-3V268.3z M197.3,271.2h1.6c0.6,0,1.1-0.2,1.1-0.9c0-0.5-0.4-0.9-1.1-0.9h-1.6V271.2z M197.3,274.3h1.7c0.8,0,1.3-0.2,1.3-1   c0-0.8-0.5-1.1-1.3-1.1h-1.7V274.3z" id="n_id_183" />
	<path class="st4" d="M203.9,268.3h5v1.2h-3.7v1.6h3.4v1.2h-3.4v1.8h4v1.2h-5.3V268.3z" id="n_id_184" />
	<path class="st4" d="M211.2,268.3h2.5c2.5,0,3.5,1.5,3.5,3.6c0,2.3-1.1,3.6-3.2,3.6h-2.7V268.3z M212.5,274.2h1.2   c1.3,0,2-0.5,2-2.3c0-1.4-0.6-2.3-2.1-2.3h-1.2V274.2z" id="n_id_185" />
	<path class="st4" d="M219.4,268.3h3c1.5,0,2.4,0.9,2.4,2.1c0,1.6-1.1,2-1.4,2.1l1.6,2.9h-1.5l-1.4-2.6h-1.3v2.6h-1.3V268.3z    M220.7,271.6h1.5c0.7,0,1.2-0.4,1.2-1.1c0-0.6-0.4-1.1-1.4-1.1h-1.3V271.6z" id="n_id_186" />
	<path class="st4" d="M233.3,271.9c0,2-1.3,3.7-3.4,3.7s-3.4-1.7-3.4-3.7c0-2,1.3-3.7,3.4-3.7S233.3,269.9,233.3,271.9z    M227.9,271.9c0,1.2,0.6,2.5,2,2.5s2-1.3,2-2.5s-0.6-2.5-2-2.5S227.9,270.6,227.9,271.9z" id="n_id_187" />
	<path class="st4" d="M242,271.9c0,2-1.3,3.7-3.4,3.7s-3.4-1.7-3.4-3.7c0-2,1.3-3.7,3.4-3.7S242,269.9,242,271.9z M236.6,271.9   c0,1.2,0.6,2.5,2,2.5s2-1.3,2-2.5s-0.6-2.5-2-2.5S236.6,270.6,236.6,271.9z" id="n_id_188" />
	<path class="st4" d="M244.2,268.3h2l1.3,5.5h0l1.3-5.5h2v7.1h-1.3v-5.9h0l-1.4,5.9h-1.3l-1.4-5.9h0v5.9h-1.3V268.3z" id="n_id_189" />
</g>
<g id="n_id_190">
	<path class="st4" d="M195,284.8c0-0.5-0.1-0.6-0.5-0.6h-1v-0.7h0.2c1.1,0,1.4-0.5,1.5-1.1h0.9v6.1H195V284.8z" id="n_id_191" />
	<path class="st4" d="M203.1,285.4c0,1.9-0.7,3.2-2.2,3.2c-1.5,0-2.2-1.2-2.2-3.2c0-1.9,0.7-3.2,2.2-3.2   C202.4,282.2,203.1,283.4,203.1,285.4z M199.9,285.4c0,1.5,0.3,2.2,1,2.2c0.7,0,1-0.6,1-2.2s-0.3-2.2-1-2.2   C200.2,283.2,199.9,283.9,199.9,285.4z" id="n_id_192" />
	<path class="st4" d="M205,282h1.2v1.5c0,0.7-0.5,0.9-1.1,1V284c0.3,0,0.5-0.1,0.5-0.4v-0.3H205V282z" id="n_id_193" />
	<path class="st4" d="M210.1,287h-2.7v-0.8l2.7-3.9h1.1v3.8h0.8v1h-0.8v1.4h-1.1V287z M210.1,283.6L210.1,283.6l-1.6,2.5h1.6V283.6z   " id="n_id_194" />
	<path class="st4" d="M213.5,282h1.2v1.5c0,0.7-0.5,0.9-1.1,1V284c0.3,0,0.5-0.1,0.5-0.4v-0.3h-0.5V282z M215,282h1.2v1.5   c0,0.7-0.5,0.9-1.1,1V284c0.3,0,0.5-0.1,0.5-0.4v-0.3H215V282z" id="n_id_195" />
	<path class="st4" d="M223.1,285l-1.8-2.9h1.4l1.2,1.9l1.2-1.9h1.4l-1.8,2.9l2.1,3.5h-1.4l-1.5-2.4l-1.5,2.4H221L223.1,285z" id="n_id_196" />
	<path class="st4" d="M233.4,284.8c0-0.5-0.1-0.6-0.5-0.6h-1v-0.7h0.2c1.1,0,1.4-0.5,1.5-1.1h0.9v6.1h-1.1V284.8z" id="n_id_197" />
	<path class="st4" d="M238.5,284.8c0-0.5-0.1-0.6-0.5-0.6h-1v-0.7h0.2c1.1,0,1.4-0.5,1.5-1.1h0.9v6.1h-1.1V284.8z" id="n_id_198" />
	<path class="st4" d="M242.4,282h1.2v1.5c0,0.7-0.5,0.9-1.1,1V284c0.3,0,0.5-0.1,0.5-0.4v-0.3h-0.5V282z" id="n_id_199" />
	<path class="st4" d="M247.5,287h-2.7v-0.8l2.7-3.9h1.1v3.8h0.8v1h-0.8v1.4h-1.1V287z M247.5,283.6L247.5,283.6l-1.6,2.5h1.6V283.6z   " id="n_id_200" />
	<path class="st4" d="M250.9,282h1.2v1.5c0,0.7-0.5,0.9-1.1,1V284c0.3,0,0.5-0.1,0.5-0.4v-0.3h-0.5V282z M252.5,282h1.2v1.5   c0,0.7-0.5,0.9-1.1,1V284c0.3,0,0.5-0.1,0.5-0.4v-0.3h-0.5V282z" id="n_id_201" />
</g>
<g id="n_id_202">
	<path class="st4" d="M46.2,232.2h1.3v5.9h2.9v1.2h-4.2V232.2z" id="n_id_203" />
	<path class="st4" d="M52.3,232.2h1.3v7.1h-1.3V232.2z" id="n_id_204" />
	<path class="st4" d="M55.4,232.2h1.4l1.6,5.7h0l1.6-5.7h1.4l-2.1,7.1h-1.8L55.4,232.2z" id="n_id_205" />
	<path class="st4" d="M63.2,232.2h1.3v7.1h-1.3V232.2z" id="n_id_206" />
	<path class="st4" d="M67.1,232.2h1.2l3,5.1h0v-5.1h1.2v7.1h-1.2l-3-5.1h0v5.1h-1.2V232.2z" id="n_id_207" />
	<path class="st4" d="M79.9,234.6c-0.1-0.6-0.6-1.4-1.8-1.4c-1.4,0-2,1.3-2,2.5s0.6,2.5,2,2.5c0.9,0,1.8-0.7,1.8-1.6h-1.8v-1.2h3   v3.9H80v-0.6c-0.5,0.5-1.2,0.8-1.9,0.8c-2.3,0-3.4-1.7-3.4-3.7c0-2,1.3-3.7,3.4-3.7c1.4,0,2.5,0.7,3,2.1L79.9,234.6z" id="n_id_208" />
	<path class="st4" d="M87.2,232.2h3c1.5,0,2.4,0.9,2.4,2.1c0,1.6-1.1,2-1.4,2.1l1.6,2.9h-1.5l-1.4-2.6h-1.3v2.6h-1.3V232.2z    M88.5,235.5H90c0.7,0,1.2-0.4,1.2-1.1c0-0.6-0.4-1.1-1.4-1.1h-1.3V235.5z" id="n_id_209" />
	<path class="st4" d="M101.1,235.7c0,2-1.3,3.7-3.4,3.7s-3.4-1.7-3.4-3.7c0-2,1.3-3.7,3.4-3.7S101.1,233.7,101.1,235.7z M95.7,235.7   c0,1.2,0.6,2.5,2,2.5c1.4,0,2-1.3,2-2.5s-0.6-2.5-2-2.5C96.3,233.2,95.7,234.5,95.7,235.7z" id="n_id_210" />
	<path class="st4" d="M109.8,235.7c0,2-1.3,3.7-3.4,3.7s-3.4-1.7-3.4-3.7c0-2,1.3-3.7,3.4-3.7S109.8,233.7,109.8,235.7z    M104.4,235.7c0,1.2,0.6,2.5,2,2.5c1.4,0,2-1.3,2-2.5s-0.6-2.5-2-2.5C104.9,233.2,104.4,234.5,104.4,235.7z" id="n_id_211" />
	<path class="st4" d="M111.9,232.2h2l1.3,5.5h0l1.3-5.5h2v7.1h-1.3v-5.9h0l-1.4,5.9h-1.3l-1.4-5.9h0v5.9h-1.3V232.2z" id="n_id_212" />
</g>
<g id="n_id_213">
	<path class="st4" d="M52.9,248.6c0-0.5-0.1-0.6-0.5-0.6h-1v-0.7h0.2c1.1,0,1.4-0.5,1.5-1.1H54v6.1h-1.1V248.6z" id="n_id_214" />
	<path class="st4" d="M56.5,248.4c0-1.4,0.6-2.4,2.1-2.4c1.2,0,1.9,0.7,1.9,1.9c0,1.6-1.5,2.5-2.6,3.4h2.6v1h-4.1v-1   c0.9-0.5,2.8-2,2.8-3.3c0-0.5-0.2-0.9-0.8-0.9c-0.7,0-0.9,0.5-0.9,1.4L56.5,248.4z" id="n_id_215" />
	<path class="st4" d="M62.7,245.9h1.2v1.5c0,0.7-0.5,0.9-1.1,1v-0.5c0.3,0,0.5-0.1,0.5-0.4v-0.3h-0.5V245.9z" id="n_id_216" />
	<path class="st4" d="M66,248.4c0-1.4,0.6-2.4,2.1-2.4c1.2,0,1.9,0.7,1.9,1.9c0,1.6-1.5,2.5-2.6,3.4h2.6v1H66v-1   c0.9-0.5,2.8-2,2.8-3.3c0-0.5-0.2-0.9-0.8-0.9c-0.7,0-0.9,0.5-0.9,1.4L66,248.4z" id="n_id_217" />
	<path class="st4" d="M72,245.9h1.2v1.5c0,0.7-0.5,0.9-1.1,1v-0.5c0.3,0,0.5-0.1,0.5-0.4v-0.3H72V245.9z M73.5,245.9h1.2v1.5   c0,0.7-0.5,0.9-1.1,1v-0.5c0.3,0,0.5-0.1,0.5-0.4v-0.3h-0.5V245.9z" id="n_id_218" />
	<path class="st4" d="M81.6,248.8l-1.8-2.9h1.4l1.2,1.9l1.2-1.9h1.4l-1.8,2.9l2.1,3.5h-1.4l-1.5-2.4l-1.5,2.4h-1.4L81.6,248.8z" id="n_id_219" />
	<path class="st4" d="M91.8,248.6c0-0.5-0.1-0.6-0.5-0.6h-1v-0.7h0.2c1.1,0,1.4-0.5,1.5-1.1h0.9v6.1h-1.1V248.6z" id="n_id_220" />
	<path class="st4" d="M99.8,247.9c0,0.5-0.3,1-0.8,1.2c0.6,0.3,0.9,0.8,0.9,1.4c0,1.4-1.2,1.9-2.3,1.9c-1.1,0-2.3-0.5-2.3-1.9   c0-0.6,0.4-1.1,0.9-1.4c-0.5-0.3-0.8-0.8-0.8-1.2c0-1.4,1-1.8,2.1-1.8C98.7,246,99.8,246.5,99.8,247.9z M97.7,251.4   c0.6,0,1-0.3,1-0.9s-0.4-0.9-1-0.9c-0.6,0-1,0.3-1,0.9S97.1,251.4,97.7,251.4z M97.7,248.7c0.5,0,0.9-0.2,0.9-0.8s-0.3-0.8-0.9-0.8   c-0.5,0-0.9,0.2-0.9,0.8S97.1,248.7,97.7,248.7z" id="n_id_221" />
	<path class="st4" d="M101.8,245.9h1.2v1.5c0,0.7-0.5,0.9-1.1,1v-0.5c0.3,0,0.5-0.1,0.5-0.4v-0.3h-0.5V245.9z" id="n_id_222" />
	<path class="st4" d="M106.7,248.6h0.4c0.5,0,0.8-0.2,0.8-0.7c0-0.5-0.3-0.8-0.8-0.8c-0.6,0-0.8,0.5-0.9,1.1l-1.2-0.3   c0.2-1.2,1-1.8,2.2-1.8c1,0,1.9,0.5,1.9,1.6c0,0.7-0.3,1.1-1,1.3v0c0.8,0.2,1.2,0.7,1.2,1.5c0,1.3-1,1.9-2.2,1.9   c-1.2,0-2.1-0.6-2.1-2.1h1.2c0,0.7,0.3,1.1,1,1.1c0.6,0,0.9-0.4,0.9-0.9c0-0.7-0.4-0.9-0.9-0.9h-0.4V248.6z" id="n_id_223" />
	<path class="st4" d="M111.1,245.9h1.2v1.5c0,0.7-0.5,0.9-1.1,1v-0.5c0.3,0,0.5-0.1,0.5-0.4v-0.3h-0.5V245.9z M112.6,245.9h1.2v1.5   c0,0.7-0.5,0.9-1.1,1v-0.5c0.3,0,0.5-0.1,0.5-0.4v-0.3h-0.5V245.9z" id="n_id_224" />
</g>
<g id="n_id_225">
	<path class="st4" d="M59.1,62.8h1.3V66l2.8-3.2h1.6l-2.3,2.7l2.5,4.4h-1.5l-1.9-3.3l-1.1,1.3v2h-1.3V62.8z" id="n_id_226" />
	<path class="st4" d="M66.7,62.8h1.3v7.1h-1.3V62.8z" id="n_id_227" />
	<path class="st4" d="M71.9,64h-1.9v-1.2h5.2V64h-1.9v5.9h-1.3V64z" id="n_id_228" />
	<path class="st4" d="M81.5,65.2c-0.1-0.8-0.8-1.3-1.6-1.3c-1.4,0-2,1.3-2,2.5c0,1.2,0.6,2.5,2,2.5c0.9,0,1.5-0.6,1.7-1.4l1.2,0.6   c-0.6,1.4-1.5,2.1-2.9,2.1c-2.3,0-3.4-1.7-3.4-3.7c0-2,1.3-3.7,3.4-3.7c1.4,0,2.5,0.7,2.9,2.2L81.5,65.2z" id="n_id_229" />
	<path class="st4" d="M84.8,62.8h1.3v2.7h3.1v-2.7h1.3v7.1h-1.3v-3.2h-3.1v3.2h-1.3V62.8z" id="n_id_230" />
	<path class="st4" d="M93.1,62.8h5V64h-3.7v1.6h3.4v1.2h-3.4v1.8h4v1.2h-5.3V62.8z" id="n_id_231" />
	<path class="st4" d="M100.4,62.8h1.2l3,5.1h0v-5.1h1.2v7.1h-1.2l-3-5.1h0v5.1h-1.2V62.8z" id="n_id_232" />
</g>
<g id="n_id_233">
	<path class="st4" d="M169.1,129.4h1.3l1,5.6h0l1.1-5.6h1.3l1,5.5h0l0.9-5.5h1.3l-1.5,7.1h-1.6l-1-5.1h0l-1,5.1h-1.6L169.1,129.4z" id="n_id_234" />
	<path class="st4" d="M181.4,129.2h1.1l-3.4,7.5H178L181.4,129.2z" id="n_id_235" />
	<path class="st4" d="M183.9,129.4h2.5c2.5,0,3.5,1.5,3.5,3.6c0,2.3-1.1,3.6-3.2,3.6h-2.7V129.4z M185.2,135.3h1.2   c1.3,0,2-0.5,2-2.3c0-1.4-0.6-2.3-2.1-2.3h-1.2V135.3z" id="n_id_236" />
</g>
<g id="n_id_237">
	<path class="st4" d="M48.2,391.5h3.3c1.2,0,2.1,0.6,2.1,1.8c0,0.8-0.4,1.3-1.2,1.4v0c1,0.1,1.5,0.9,1.5,1.8c0,1.8-1.3,2.1-2.7,2.1   h-3V391.5z M49.5,394.4h1.6c0.6,0,1.1-0.2,1.1-0.9c0-0.5-0.4-0.9-1.1-0.9h-1.6V394.4z M49.5,397.5h1.7c0.8,0,1.3-0.2,1.3-1   c0-0.8-0.5-1.1-1.3-1.1h-1.7V397.5z" id="n_id_238" />
	<path class="st4" d="M57.2,391.5h1.6l2.4,7.1h-1.4l-0.4-1.4h-2.7l-0.4,1.4h-1.4L57.2,391.5z M58,392.8L58,392.8l-1,3.3h2L58,392.8z   " id="n_id_239" />
	<path class="st4" d="M62.4,391.5h1.3v5.9h2.9v1.2h-4.2V391.5z" id="n_id_240" />
	<path class="st4" d="M72.6,393.9c-0.1-0.8-0.8-1.3-1.6-1.3c-1.4,0-2,1.3-2,2.5c0,1.2,0.6,2.5,2,2.5c0.9,0,1.5-0.6,1.7-1.4l1.2,0.6   c-0.6,1.4-1.5,2.1-2.9,2.1c-2.3,0-3.4-1.7-3.4-3.7c0-2,1.3-3.7,3.4-3.7c1.4,0,2.5,0.7,2.9,2.2L72.6,393.9z" id="n_id_241" />
	<path class="st4" d="M81.8,395.1c0,2-1.3,3.7-3.4,3.7s-3.4-1.7-3.4-3.7c0-2,1.3-3.7,3.4-3.7S81.8,393.1,81.8,395.1z M76.4,395.1   c0,1.2,0.6,2.5,2,2.5c1.4,0,2-1.3,2-2.5c0-1.2-0.6-2.5-2-2.5C77,392.6,76.4,393.8,76.4,395.1z" id="n_id_242" />
	<path class="st4" d="M83.5,391.5h1.2l3,5.1h0v-5.1H89v7.1h-1.2l-3-5.1h0v5.1h-1.2V391.5z" id="n_id_243" />
	<path class="st4" d="M92.7,395.9l-2.4-4.3h1.5l1.5,2.9l1.5-2.9h1.5l-2.4,4.3v2.8h-1.3V395.9z" id="n_id_244" />
</g>
<g id="n_id_245">
	<path class="st4" d="M214.1,168.3h3.3c1.2,0,2.1,0.6,2.1,1.8c0,0.8-0.4,1.3-1.2,1.4v0c1,0.1,1.5,0.9,1.5,1.8c0,1.8-1.3,2.1-2.7,2.1   h-3V168.3z M215.5,171.1h1.6c0.6,0,1.1-0.2,1.1-0.9c0-0.5-0.3-0.9-1.1-0.9h-1.6V171.1z M215.5,174.2h1.7c0.8,0,1.3-0.2,1.3-1   c0-0.8-0.5-1.1-1.3-1.1h-1.7V174.2z" id="n_id_246" />
	<path class="st4" d="M223.1,168.3h1.6l2.4,7.1h-1.4l-0.4-1.4h-2.7l-0.4,1.4h-1.4L223.1,168.3z M223.9,169.6L223.9,169.6l-1,3.3h2   L223.9,169.6z" id="n_id_247" />
	<path class="st4" d="M229.1,169.5h-1.9v-1.2h5.2v1.2h-1.9v5.9h-1.3V169.5z" id="n_id_248" />
	<path class="st4" d="M233.7,168.3h1.3v2.7h3.1v-2.7h1.3v7.1h-1.3v-3.2H235v3.2h-1.3V168.3z" id="n_id_249" />
</g>
<g id="n_id_250">
	<path class="st4" d="M172.3,212.3c-0.1-0.8-0.8-1.3-1.6-1.3c-1.4,0-2,1.3-2,2.5s0.6,2.5,2,2.5c0.9,0,1.5-0.6,1.7-1.4l1.2,0.6   c-0.6,1.4-1.5,2.1-2.9,2.1c-2.3,0-3.4-1.7-3.4-3.7c0-2,1.3-3.7,3.4-3.7c1.4,0,2.5,0.7,2.9,2.2L172.3,212.3z" id="n_id_251" />
	<path class="st4" d="M175.1,209.9h1.3v5.9h2.9v1.2h-4.2V209.9z" id="n_id_252" />
	<path class="st4" d="M187,213.5c0,2-1.3,3.7-3.4,3.7s-3.4-1.7-3.4-3.7c0-2,1.3-3.7,3.4-3.7S187,211.5,187,213.5z M181.6,213.5   c0,1.2,0.6,2.5,2,2.5c1.4,0,2-1.3,2-2.5s-0.6-2.5-2-2.5C182.2,211,181.6,212.2,181.6,213.5z" id="n_id_253" />
	<path class="st4" d="M189.1,214.9c0.5,0.7,1.3,1.1,2.1,1.1c0.6,0,1.5-0.2,1.5-0.9c0-0.6-0.5-0.7-1.5-0.9l-0.8-0.2   c-1.1-0.3-2.1-0.7-2.1-2c0-1.5,1.4-2.2,2.8-2.2c1.2,0,2.2,0.4,3,1.4L193,212c-0.3-0.6-1-1-1.9-1c-0.8,0-1.3,0.3-1.3,0.8   c0,0.6,0.7,0.7,1.5,0.9l0.9,0.2c1.1,0.2,2.1,0.7,2.1,2c0,1.7-1.6,2.3-3.1,2.3c-1.2,0-2.4-0.5-3.1-1.5L189.1,214.9z" id="n_id_254" />
	<path class="st4" d="M195.8,209.9h5v1.2h-3.7v1.6h3.4v1.2h-3.4v1.8h4v1.2h-5.3V209.9z" id="n_id_255" />
	<path class="st4" d="M204,211.2H202v-1.2h5.2v1.2h-1.9v5.9H204V211.2z" id="n_id_256" />
</g>
<g id="n_id_257">
	<path class="st4" d="M165.4,85.3h2l1.3,5.5h0l1.3-5.5h2v7.1h-1.3v-5.9h0l-1.4,5.9h-1.3l-1.4-5.9h0v5.9h-1.3V85.3z" id="n_id_258" />
	<path class="st4" d="M174,85.3h5v1.2h-3.7v1.6h3.4v1.2h-3.4v1.8h4v1.2H174V85.3z" id="n_id_259" />
	<path class="st4" d="M185.4,87.7c-0.1-0.8-0.8-1.3-1.6-1.3c-1.4,0-2,1.3-2,2.5s0.6,2.5,2,2.5c0.9,0,1.5-0.6,1.7-1.4l1.2,0.6   c-0.6,1.4-1.5,2.1-2.9,2.1c-2.3,0-3.4-1.7-3.4-3.7c0-2,1.3-3.7,3.4-3.7c1.4,0,2.5,0.7,2.9,2.2L185.4,87.7z" id="n_id_260" />
	<path class="st4" d="M188.2,85.3h1.3V88h3.1v-2.7h1.3v7.1h-1.3v-3.2h-3.1v3.2h-1.3V85.3z" id="n_id_261" />
</g>
<g id="n_id_262">
</g>
<g id="n_id_263">
</g>
<g id="n_id_264">
</g>
<g id="n_id_265">
</g>
<g id="n_id_266">
</g>
<g id="n_id_267">
</g>
<g id="n_id_268">
</g>
<g id="n_id_269">
</g>
<g id="n_id_270">
</g>
</svg>